<?xml  version="1.0" encoding="UTF-8"?>
<!DOCTYPE svg PUBLIC "-//W3C//DTD SVG 1.0//EN" "http://www.w3.org/TR/2001/REC-SVG-20010904/DTD/svg10.dtd" >
<svg xmlns="http://www.w3.org/2000/svg" >
<metadata>
<version>1.0</version>
<id><![CDATA[Geom Slab 703 W01 Extra Bold It]]></id>
<vendor>Monotype Imaging Inc.</vendor>
<credits>
<name>Fonts.com WebFonts</name>
<URL>http://webfonts.fonts.com</URL>
<role>Home of the Web fonts</role>
</credits>
<license>
<URL>http://webfonts.fonts.com/Legal</URL>
</license>
<copyright><![CDATA[Copyright 1990-2003 Bitstream Inc. All rights reserved.]]></copyright>
<trademark></trademark>
<licensee>
<name></name>
</licensee>
</metadata>
<defs >
<font horiz-adv-x="1233" id="d66ee320-b77f-4535-ae98-4469981d6abf">
<font-face font-family="Geom Slab 703 W01 Extra Bold It" panose-1="2 6 8 4 2 2 5 9 4 4" ascent="1972" descent="-498" units-per-em="2048" alphabetic="0">
</font-face>
<missing-glyph horiz-adv-x="0" />

<glyph unicode="&#xA;" />
<glyph unicode="&#xD;" horiz-adv-x="0" />
<glyph unicode=" " horiz-adv-x="567" />
<glyph unicode="!" horiz-adv-x="674" d="M250 -29Q163 -29 104 30T45 176Q45 264 103 322T250 381Q338 381 397 322T457 176Q457 89 398 30T250 -29ZM119 492Q160 696 193 925T262 1475H682Q607 1179 554 931T469 492H119Z"  />
<glyph unicode="&quot;" horiz-adv-x="713" d="M416 1438H639V877H416V1438ZM76 1438H295V877H76V1438Z"  />
<glyph unicode="#" horiz-adv-x="1575" d="M707 842L625 610H870L952 842H707ZM684 1466H934L795 1073H1030L1171 1466H1421L1282 1073H1552L1466 842H1198L1118 612H1395L1311 381H1036L895 -12H645L784 381H549L408 -12H158L297 381H23L109 612H379L461 842H178L264 1073H543L684 1466Z"  />
<glyph unicode="$" horiz-adv-x="1133" d="M512 944L555 1192Q475 1192 427 1160T379 1077Q379 1037 412 1004T512 944ZM537 266Q545 265 552 265T575 264Q646 264 688 299T731 393Q731 440 698 474T582 543L537 266ZM-27 27L37 473H244Q267 409 306 366T408 295L457 598Q257 688 172 787T86 1026Q86 1202 217 1319T553 1436H590L608 1544H741L721 1427Q761 1420 798 1407T870 1376L881 1425H1124L1055 1026H838Q817 1093 781 1132T684 1194L637 893Q857 794 953 690T1049 446Q1049 251 909 126T549 0Q526 0 515 0T494 2L465 -170H334L367 29Q333 40 300 58T233 102L213 27H-27Z"  />
<glyph unicode="%" horiz-adv-x="1849" d="M422 934Q472 934 508 970T545 1057Q545 1109 510 1144T422 1180Q371 1180 336 1145T301 1057Q301 1006 336 970T422 934ZM803 1057Q803 897 693 788T422 678Q263 678 152 788T41 1057Q41 1214 152 1325T422 1436Q581 1436 692 1326T803 1057ZM1290 1464H1470L559 -29H379L1290 1464ZM1427 256Q1477 256 1512 291T1548 379Q1548 432 1514 467T1427 502Q1376 502 1341 467T1305 379Q1305 329 1341 293T1427 256ZM1806 379Q1806 219 1696 110T1425 0Q1267 0 1157 110T1047 379Q1047 538 1157 649T1425 760Q1584 760 1695 649T1806 379Z"  />
<glyph unicode="&amp;" horiz-adv-x="1653" d="M553 655Q473 606 429 548T385 434Q385 371 434 328T559 285Q615 285 677 306T793 365L553 655ZM625 1030Q695 1059 730 1099T766 1190Q766 1236 737 1264T662 1292Q608 1292 578 1263T547 1182Q547 1154 566 1116T625 1030ZM1458 0H1081L989 109Q877 37 768 4T535 -29Q287 -29 144 97T0 440Q0 579 84 689T348 895Q295 974 273 1032T250 1149Q250 1302 363 1402T649 1503Q818 1503 921 1412T1024 1174Q1024 1079 976 998T829 848L1051 575Q1087 608 1113 646T1159 731H1051L1096 989H1632L1581 702H1499Q1460 600 1400 509T1251 332L1298 291H1509L1458 0Z"  />
<glyph unicode="&apos;" horiz-adv-x="371" d="M76 1438H295V877H76V1438Z"  />
<glyph unicode="(" horiz-adv-x="793" d="M233 -356Q161 -185 126 -15T90 334Q90 677 220 979T594 1503L825 1274Q650 1088 555 837T459 311Q459 172 478 37T539 -240L233 -356Z"  />
<glyph unicode=")" horiz-adv-x="793" d="M567 1503Q641 1329 677 1158T713 811Q713 468 583 166T209 -358L-25 -129Q150 57 246 308T342 834Q342 973 323 1110T262 1386L567 1503Z"  />
<glyph unicode="*" horiz-adv-x="1139" d="M518 1475H741L702 1174L977 1319L1053 1112L739 1028L975 821L807 680L623 930L442 676L274 823L508 1028L195 1112L272 1319L551 1174L518 1475Z"  />
<glyph unicode="+" horiz-adv-x="1706" d="M735 1221H973V727H1452V496H973V0H735V496H254V727H735V1221Z"  />
<glyph unicode="&#x2c;" horiz-adv-x="563" d="M-53 -129L98 375H428L272 -129H-53Z"  />
<glyph unicode="-" horiz-adv-x="678" d="M-10 311L51 662H598L537 311H-10Z"  />
<glyph unicode="." horiz-adv-x="563" d="M12 180Q12 265 69 324T207 383Q301 383 359 327T418 180Q418 95 360 39T217 -18Q130 -18 71 38T12 180Z"  />
<glyph unicode="/" horiz-adv-x="711" d="M690 1503L186 -190H20L522 1503H690Z"  />
<glyph unicode="0" horiz-adv-x="1133" d="M653 502L731 933Q736 959 738 983T741 1032Q741 1075 709 1102T625 1130Q562 1130 531 1094T477 934L401 501Q396 476 394 452T391 403Q391 363 421 335T498 307Q565 307 597 341T653 502ZM1012 537Q985 384 968 317T928 205Q872 90 764 31T500 -29Q279 -29 158 71T37 354Q37 387 42 432T57 537L121 901Q147 1053 165 1120T205 1233Q260 1347 369 1406T633 1466Q854 1466 975 1366T1096 1083Q1096 1051 1091 1005T1075 901L1012 537Z"  />
<glyph unicode="1" horiz-adv-x="1133" d="M111 0L158 266H315L475 1171H303L350 1436H874L668 266H842L795 0H111Z"  />
<glyph unicode="2" horiz-adv-x="1133" d="M0 0L35 291L582 883Q650 957 673 994T696 1063Q696 1103 666 1128T588 1153Q525 1153 494 1110T463 979H125Q135 1208 263 1336T610 1464Q813 1464 944 1354T1075 1073Q1075 970 1021 872T840 649L473 291H729L743 375H1036L969 0H0Z"  />
<glyph unicode="3" horiz-adv-x="1133" d="M25 461H362Q366 376 398 337T498 297Q568 297 611 345T655 471Q655 533 605 573T475 614H455L494 885Q502 884 512 884T543 883Q640 883 698 927T756 1044Q756 1097 717 1134T623 1171Q566 1171 531 1137T481 1034H154Q189 1237 326 1350T674 1464Q877 1464 999 1365T1122 1100Q1122 969 1038 878T795 748Q914 690 970 611T1026 420Q1026 227 878 102T496 -23Q279 -23 149 89T18 383Q18 401 20 421T25 461Z"  />
<glyph unicode="4" horiz-adv-x="1133" d="M600 598L696 1098L332 616V598H600ZM293 0L334 242H530L551 356H-20L25 614L633 1436H1094L944 598H1090L1047 356H903L881 242H1026L983 0H293Z"  />
<glyph unicode="5" horiz-adv-x="1133" d="M82 483H424Q420 457 418 435T416 399Q416 343 441 312T512 281Q574 281 613 354T653 541Q653 626 608 657T428 688H137L289 1436H1075L1020 1128H539L512 971Q556 977 594 980T670 983Q840 983 931 902T1022 670Q1022 535 988 383T909 158Q852 62 758 19T510 -25Q290 -25 182 71T74 365Q74 399 81 472Q82 480 82 483Z"  />
<glyph unicode="6" horiz-adv-x="1133" d="M752 1030Q752 1039 754 1054T756 1073Q756 1131 729 1157T641 1184Q568 1184 531 1122T465 881Q528 902 583 913T688 924Q846 924 932 835T1018 582Q1018 275 897 123T530 -29Q294 -29 167 80T39 393Q39 424 43 466T59 579L102 842Q139 1057 170 1152T250 1307Q314 1388 410 1426T647 1464Q872 1464 988 1371T1104 1096Q1104 1075 1104 1060T1102 1031L752 1030ZM381 393Q381 327 411 292T498 256Q548 256 580 283T635 373Q652 423 664 486T676 592Q676 657 647 688T555 719Q474 719 428 632T381 393Z"  />
<glyph unicode="7" horiz-adv-x="1133" d="M186 0L748 1145H465L434 940H109L182 1436H1161L1106 1081L571 0H186Z"  />
<glyph unicode="8" horiz-adv-x="1133" d="M463 1030Q463 962 508 918T625 874Q695 874 740 921T786 1040Q786 1116 746 1160T635 1204Q558 1204 511 1156T463 1030ZM352 467Q352 384 403 335T539 285Q625 285 677 344T729 504Q729 574 678 622T551 670Q464 670 408 613T352 467ZM281 811Q202 878 164 949T125 1098Q125 1260 264 1362T629 1464Q855 1464 990 1357T1126 1069Q1126 964 1068 882T895 743Q983 671 1021 597T1059 422Q1059 217 915 95T526 -27Q274 -27 131 94T-12 426Q-12 554 59 648T281 811Z"  />
<glyph unicode="9" horiz-adv-x="1133" d="M752 1044Q752 1111 723 1146T637 1182Q586 1182 553 1154T498 1065Q481 1017 470 954T459 846Q459 779 487 748T578 717Q659 717 705 804T752 1044ZM381 408Q380 398 379 384T377 365Q377 307 405 281T494 254Q567 254 604 315T670 557Q606 535 551 525T446 514Q289 514 203 603T117 856Q117 1163 238 1314T604 1466Q841 1466 967 1358T1094 1047Q1094 1011 1089 964T1075 858L1030 598Q992 372 962 280T885 131Q820 50 724 12T487 -27Q263 -27 146 68T29 344Q29 355 31 385Q32 399 33 408H381Z"  />
<glyph unicode=":" horiz-adv-x="678" d="M104 770Q104 855 162 914T299 973Q393 973 451 917T510 770Q510 685 453 628T309 571Q222 571 163 628T104 770ZM12 180Q12 265 69 324T207 383Q301 383 359 327T418 180Q418 95 360 39T217 -18Q130 -18 71 38T12 180Z"  />
<glyph unicode=";" horiz-adv-x="678" d="M131 770Q131 855 188 914T326 973Q419 973 478 917T537 770Q537 685 479 628T336 571Q249 571 190 628T131 770ZM-51 -129L102 375H430L274 -129H-51Z"  />
<glyph unicode="&lt;" horiz-adv-x="1706" d="M1442 1214V961L588 610L1442 262V8L264 494V727L1442 1214Z"  />
<glyph unicode="=" horiz-adv-x="1706" d="M254 502H1452V272H254V502ZM254 950H1452V719H254V950Z"  />
<glyph unicode="&gt;" horiz-adv-x="1706" d="M264 1214L1442 727V494L264 8V262L1118 610L264 961V1214Z"  />
<glyph unicode="?" horiz-adv-x="1124" d="M352 496L416 840H430Q573 840 647 895T721 1057Q721 1125 685 1162T584 1200Q524 1200 490 1164T452 1059H76Q96 1271 233 1387T602 1503Q824 1503 963 1378T1102 1053Q1102 889 1008 775T741 614L715 496H352ZM496 -29Q408 -29 349 30T289 176Q289 263 348 322T496 381Q584 381 643 322T702 176Q702 89 643 30T496 -29Z"  />
<glyph unicode="@" horiz-adv-x="2048" d="M1161 262Q1105 180 1035 142T866 104Q703 104 619 191T535 449Q535 690 676 853T1026 1016Q1103 1016 1160 986T1255 893L1307 985H1513L1360 375Q1360 373 1359 369Q1356 351 1356 342Q1356 312 1372 298T1419 283Q1556 283 1659 426T1763 762Q1763 1001 1584 1152T1116 1303Q968 1303 842 1267T612 1157Q457 1047 373 883T289 526Q289 224 492 45T1036 -135Q1200 -135 1352 -88T1632 51L1729 -84Q1573 -201 1400 -259T1036 -317Q844 -317 682 -268T393 -123Q236 -1 159 158T82 520Q82 689 135 840T291 1118Q439 1301 650 1396T1118 1491Q1288 1491 1438 1445T1698 1313Q1834 1206 1901 1070T1968 764Q1968 597 1903 457T1712 217Q1643 161 1558 132T1382 102Q1276 102 1221 142T1161 262ZM1198 696Q1189 772 1148 812T1038 852Q935 852 857 731T778 444Q778 361 813 316T911 270Q995 270 1059 329T1147 487L1198 696Z"  />
<glyph unicode="A" horiz-adv-x="1579" d="M688 750H930L881 1210L688 750ZM-92 0L-41 289H106L520 1186H371L420 1475H1432L1384 1186H1233L1358 289H1468L1413 0H754L801 289H977L954 498H586L496 289H635L582 0H-92Z"  />
<glyph unicode="B" horiz-adv-x="1366" d="M506 289H623Q751 289 812 335T874 477Q874 558 822 601T672 645H569L506 289ZM610 883H702Q826 883 884 925T942 1057Q942 1123 898 1154T762 1186H664L610 883ZM-80 0L-29 289H119L276 1186H129L180 1475H834Q1091 1475 1227 1379T1364 1100Q1364 950 1269 859T983 731Q1135 678 1207 599T1280 406Q1280 214 1147 107T774 0H-80Z"  />
<glyph unicode="C" horiz-adv-x="1518" d="M1163 1364L1186 1475H1559L1460 922H1087Q1059 1023 991 1076T823 1130Q667 1130 566 1006T465 682Q465 530 535 451T741 371Q841 371 915 417T1044 557L1434 387Q1333 182 1158 77T741 -29Q434 -29 241 172T47 690Q47 840 93 978T227 1227Q336 1367 470 1435T770 1503Q880 1503 976 1469T1163 1364Z"  />
<glyph unicode="D" horiz-adv-x="1632" d="M809 1186H664L506 289H633Q914 289 1050 422T1186 831Q1186 1010 1093 1098T809 1186ZM840 1475Q1025 1475 1141 1450T1343 1368Q1462 1288 1524 1153T1587 840Q1587 654 1529 492T1362 213Q1255 98 1105 49T674 0H-80L-29 289H119L276 1186H129L180 1475H840Z"  />
<glyph unicode="E" horiz-adv-x="1346" d="M-92 0L-41 289H109L258 1186H117L168 1475H1397L1321 926H1047L1024 1186H659L610 905H881L827 612H559L502 289H909L1022 584H1296L1167 0H-92Z"  />
<glyph unicode="F" horiz-adv-x="1294" d="M-66 0L-14 289H135L285 1186H143L195 1475H1364L1298 926H1022L997 1186H686L637 905H887L836 612H584L528 289H682L631 0H-66Z"  />
<glyph unicode="G" horiz-adv-x="1735" d="M1210 1366L1235 1475H1622L1532 956H1174Q1131 1054 1058 1101T874 1149Q687 1149 576 1023T465 682Q465 523 548 438T786 352Q891 352 970 393T1130 530H948L997 815H1724L1675 530H1567L1473 0H1176L1202 154Q1115 62 999 17T733 -29Q427 -29 236 169T45 686Q45 1040 259 1269T811 1499Q924 1499 1018 1468T1210 1366Z"  />
<glyph unicode="H" horiz-adv-x="1608" d="M643 289L592 0H-80L-29 289H119L276 1186H129L180 1475H852L801 1186H662L614 913H1057L1104 1186H965L1018 1475H1690L1638 1186H1489L1331 289H1479L1427 0H758L809 289H946L1004 623H563L504 289H643Z"  />
<glyph unicode="I" horiz-adv-x="772" d="M643 289L592 0H-80L-29 289H119L276 1186H129L180 1475H852L801 1186H662L504 289H643Z"  />
<glyph unicode="J" horiz-adv-x="793" d="M-121 -369L-59 -29Q-43 -32 -32 -33T-12 -35Q41 -35 69 8T119 178L295 1186H154L205 1475H868L817 1186H682L494 109Q442 -185 350 -287T76 -389Q27 -389 -22 -384T-121 -369Z"  />
<glyph unicode="K" horiz-adv-x="1532" d="M618 289L567 0H-80L-29 289H119L276 1186H129L180 1475H825L776 1186H662L592 788L1028 1186H903L954 1475H1610L1559 1186H1456L963 725L1274 289H1401L1350 0H727L778 289H877L580 725L504 289H618Z"  />
<glyph unicode="L" horiz-adv-x="1241" d="M840 289L956 584H1225L1098 0H-80L-29 289H119L276 1186H129L180 1475H852L801 1186H662L504 289H840Z"  />
<glyph unicode="M" horiz-adv-x="1925" d="M625 289L573 0H-80L-29 289H119L276 1186H129L180 1475H823L926 752L1298 1475H1987L1935 1186H1788L1630 289H1778L1726 0H1081L1133 289H1245L1421 1159L979 299H750L635 1116L504 289H625Z"  />
<glyph unicode="N" horiz-adv-x="1583" d="M-80 0L-29 289H119L276 1186H129L180 1475H690L1012 614L1102 1186H973L1024 1475H1671L1622 1186H1475L1266 0H944L594 938L492 289H621L569 0H-80Z"  />
<glyph unicode="O" horiz-adv-x="1661" d="M451 682Q451 516 546 418T801 319Q977 319 1094 456T1212 795Q1212 962 1119 1058T864 1155Q688 1155 570 1020T451 682ZM795 -33Q460 -33 255 161T49 666Q49 1031 283 1269T874 1507Q1205 1507 1408 1313T1612 809Q1612 446 1378 207T795 -33Z"  />
<glyph unicode="P" horiz-adv-x="1356" d="M602 838H719Q823 838 889 891T956 1024Q956 1095 900 1140T754 1186H664L602 838ZM504 289H643L592 0H-80L-29 289H119L276 1186H129L180 1475H809Q1073 1475 1212 1367T1352 1055Q1352 811 1189 681T721 551H551L504 289Z"  />
<glyph unicode="Q" horiz-adv-x="1661" d="M1049 410Q1128 475 1170 576T1212 801Q1212 965 1119 1060T864 1155Q688 1155 570 1020T451 682Q451 524 535 429T772 322L715 514L991 602L1049 410ZM1212 86H1489V-209H956L905 -27H899Q823 -31 788 -31Q457 -31 253 162T49 666Q49 1031 283 1269T874 1507Q1205 1507 1408 1313T1612 809Q1612 570 1508 381T1212 86Z"  />
<glyph unicode="R" horiz-adv-x="1460" d="M610 879H743Q875 879 943 922T1012 1049Q1012 1120 960 1153T795 1186H664L610 879ZM506 289H643L592 0H-80L-29 289H119L276 1186H129L180 1475H924Q1176 1475 1304 1389T1432 1130Q1432 985 1345 892T1087 762Q1183 725 1217 686T1251 575Q1251 563 1248 540T1239 481L1206 289H1337L1286 0H762L832 396Q833 402 835 414Q848 492 848 524Q848 577 809 599T655 621H563L506 289Z"  />
<glyph unicode="S" horiz-adv-x="1366" d="M-45 0L45 514H401Q426 406 505 340T692 274Q765 274 811 311T858 401Q858 508 566 618Q487 648 442 666Q248 743 162 845T76 1096Q76 1277 220 1391T600 1505Q734 1505 836 1470T1018 1362L1036 1475H1384L1303 1012H950Q922 1120 843 1180T651 1241Q582 1241 541 1211T500 1133Q500 1047 691 979Q746 960 776 948Q1053 842 1164 730T1276 459Q1276 251 1122 110T733 -31Q615 -31 516 3T317 111L297 0H-45Z"  />
<glyph unicode="T" horiz-adv-x="1290" d="M895 289L844 0H172L223 289H371L530 1186H393L293 942H49L137 1475H1372L1298 942H1051L1036 1186H913L756 289H895Z"  />
<glyph unicode="U" horiz-adv-x="1583" d="M268 1186H121L172 1475H842L791 1186H655L565 678Q557 628 552 585T547 518Q547 429 598 380T739 330Q838 330 905 407T997 631L1096 1186H956L1008 1475H1679L1628 1186H1481L1368 569Q1307 238 1153 105T678 -29Q436 -29 290 88T143 395Q143 438 148 488T166 602L268 1186Z"  />
<glyph unicode="V" horiz-adv-x="1450" d="M199 1186H72L125 1475H766L711 1186H575L657 512L977 1186H831L883 1475H1579L1530 1186H1370L739 0H393L199 1186Z"  />
<glyph unicode="W" horiz-adv-x="1982" d="M342 0L190 1186H70L123 1475H727L676 1186H547L600 567L905 1186H784L836 1475H1356L1305 1186H1176L1290 557L1532 1186H1423L1475 1475H2083L2036 1186H1903L1380 0H1077L973 715L655 0H342Z"  />
<glyph unicode="X" horiz-adv-x="1575" d="M-45 0L6 289H102L563 782L297 1186H166L215 1475H848L797 1186H688L817 971L1024 1186H918L969 1475H1624L1575 1186H1468L1024 735L1313 289H1415L1364 0H756L811 289H907L772 547L557 289H668L616 0H-45Z"  />
<glyph unicode="Y" horiz-adv-x="1536" d="M559 551L238 1186H90L141 1475H813L762 1186H623L770 879L1016 1186H881L930 1475H1626L1575 1186H1417L940 545L897 289H1030L979 0H328L379 289H514L559 551Z"  />
<glyph unicode="Z" horiz-adv-x="1356" d="M-29 0L2 176L809 1186H477L397 979H127L219 1475H1362L1333 1303L543 289H891L1014 588H1264L1151 0H-29Z"  />
<glyph unicode="[" horiz-adv-x="793" d="M-31 -209L266 1475H870L831 1249H594L375 16H614L575 -209H-31Z"  />
<glyph unicode="\" horiz-adv-x="815" d="M535 -190H369L285 1503H451L535 -190Z"  />
<glyph unicode="]" horiz-adv-x="793" d="M821 1475L524 -209H-80L-39 16H199L416 1249H178L217 1475H821Z"  />
<glyph unicode="^" horiz-adv-x="2048" d="M879 1462H1167L1632 899H1368L1024 1241L678 899H414L879 1462Z"  />
<glyph unicode="_" horiz-adv-x="1024" d="M0 -244H1024V-483H0V-244Z"  />
<glyph unicode="`" horiz-adv-x="1024" d="M283 1477H553L717 1106H578L283 1477Z"  />
<glyph unicode="a" horiz-adv-x="1237" d="M659 0L676 90Q594 27 526 0T379 -27Q209 -27 105 94T0 414Q0 674 144 834T520 995Q613 995 683 963T809 860L827 973H1233L1184 678H1094L1022 295H1126L1079 0H659ZM563 692Q473 692 420 633T367 471Q367 385 410 338T532 291Q615 291 668 355T721 518Q721 599 679 645T563 692Z"  />
<glyph unicode="b" horiz-adv-x="1305" d="M487 469Q487 390 533 342T655 293Q738 293 794 354T850 506Q850 580 803 628T680 676Q595 676 541 619T487 469ZM268 1182H150L201 1475H680L582 922Q635 958 693 976T815 995Q991 995 1105 869T1219 543Q1219 299 1081 137T739 -25Q636 -25 560 13T432 129L410 0H-63L-12 291H106L268 1182Z"  />
<glyph unicode="c" horiz-adv-x="1100" d="M698 571Q677 626 636 654T535 682Q458 682 409 626T360 483Q360 406 407 357T528 307Q582 307 629 333T709 410L985 199Q891 92 764 36T492 -20Q269 -20 132 118T-6 479Q-6 701 134 849T489 997Q575 997 646 972T778 895L795 973H1075L1001 571H698Z"  />
<glyph unicode="d" horiz-adv-x="1237" d="M563 692Q472 692 417 632T362 471Q362 387 407 340T532 293Q615 293 668 356T721 518Q721 599 679 645T563 692ZM659 0L676 90Q594 27 526 0T379 -27Q208 -27 102 94T-4 414Q-4 671 141 833T516 995Q598 995 659 972T762 901L811 1184H692L743 1475H1219L1022 291H1126L1079 0H659Z"  />
<glyph unicode="e" horiz-adv-x="1128" d="M379 569H705Q705 574 706 580T707 590Q707 655 666 694T557 733Q486 733 442 693T379 569ZM721 328L971 168Q882 73 765 24T510 -25Q273 -25 136 104T-2 459Q-2 693 156 844T565 995Q789 995 915 866T1042 506Q1042 492 1042 477T1038 428H369Q369 347 416 300T545 252Q592 252 634 270T721 328Z"  />
<glyph unicode="f" horiz-adv-x="711" d="M-66 0L-12 291H106L176 680H55L106 973H227Q275 1297 354 1387T627 1477Q658 1477 701 1472T807 1454L760 1182Q739 1182 717 1183Q712 1184 711 1184Q645 1184 620 1149T575 973H705L655 680H532L465 291H586L539 0H-66Z"  />
<glyph unicode="g" horiz-adv-x="1237" d="M-37 -303L51 -49Q140 -104 229 -131T412 -158Q527 -158 588 -90T680 145Q607 77 537 47T385 16Q215 16 107 132T-2 432Q-2 678 145 836T520 995Q613 995 683 963T809 860L827 973H1233L1184 678H1094L979 47Q933 -214 813 -321T457 -428Q329 -428 207 -397T-37 -303ZM563 692Q472 692 417 632T362 471Q362 387 407 339T532 291Q615 291 668 355T721 518Q721 599 679 645T563 692Z"  />
<glyph unicode="h" horiz-adv-x="1276" d="M578 291L524 0H-63L-12 291H106L266 1182H147L199 1475H680L563 836Q641 907 728 944T907 981Q1018 981 1076 930T1135 780Q1135 756 1117 649Q1112 623 1110 611L1053 291H1171L1120 0H635L743 610Q744 614 744 619T745 635Q745 671 727 688T666 705Q607 705 569 667T518 555L473 291H578Z"  />
<glyph unicode="i" horiz-adv-x="696" d="M596 291L541 0H-66L-12 291H104L174 680H55L106 973H590L471 291H596ZM209 1106L266 1421H664L610 1106H209Z"  />
<glyph unicode="j" horiz-adv-x="674" d="M430 55Q380 -233 287 -328T-8 -424Q-47 -424 -82 -421T-153 -410L-90 -76Q-72 -79 -61 -80T-41 -82Q7 -82 31 -52T70 66L174 680H37L88 973H590L430 55ZM209 1106L266 1421H664L610 1106H209Z"  />
<glyph unicode="k" d="M-53 0L0 291H94L252 1184H127L176 1475H666L498 526L762 733H664L705 973H1210L1161 684H1055L834 506L1016 291H1108L1059 0H535L567 229H672L502 436H485L410 0H-53Z"  />
<glyph unicode="l" horiz-adv-x="696" d="M596 291L541 0H-66L-12 291H104L262 1182H143L195 1475H680L471 291H596Z"  />
<glyph unicode="m" horiz-adv-x="1774" d="M-66 0L-12 291H106L176 680H53L109 973H563L539 838Q625 917 700 954T852 991Q928 991 979 962T1065 868Q1145 930 1227 960T1395 991Q1501 991 1564 936T1628 788Q1628 762 1626 737T1618 680L1548 291H1671L1618 0H1133L1225 530Q1225 534 1227 544Q1237 599 1237 621Q1237 660 1219 679T1163 698Q1116 698 1088 665T1047 559L999 291H1079L1026 0H604L694 499Q701 534 705 564T709 612Q709 656 692 675T635 694Q587 694 561 661T516 530L471 291H543L492 0H-66Z"  />
<glyph unicode="n" horiz-adv-x="1276" d="M578 291L524 0H-63L-12 291H106L174 680H57L109 973H563L537 811Q625 896 717 938T907 981Q1018 981 1076 930T1135 780Q1135 756 1117 649Q1112 623 1110 611L1053 291H1171L1120 0H635L743 610Q744 614 744 619T745 635Q745 671 727 688T666 705Q607 705 569 667T518 555L473 291H578Z"  />
<glyph unicode="o" horiz-adv-x="1161" d="M522 309Q598 309 653 367T709 506Q709 575 665 620T551 666Q475 666 421 608T367 467Q367 396 409 353T522 309ZM506 -23Q279 -23 137 106T-6 438Q-6 677 158 836T567 995Q794 995 935 867T1077 535Q1077 292 915 135T506 -23Z"  />
<glyph unicode="p" horiz-adv-x="1305" d="M481 459Q481 380 528 331T651 281Q734 281 789 342T844 494Q844 569 797 617T676 666Q590 666 536 608T481 459ZM553 973L535 883Q592 940 661 968T813 997Q989 997 1103 869T1217 537Q1217 302 1073 139T725 -25Q631 -25 556 14T430 129L383 -135H512L461 -426H-141L-90 -135H29L172 680H53L104 973H553Z"  />
<glyph unicode="q" horiz-adv-x="1237" d="M563 692Q472 692 417 632T362 471Q362 387 407 339T532 291Q615 291 668 355T721 518Q721 599 679 645T563 692ZM944 -135H1049L999 -426H420L471 -135H578L608 43Q567 10 508 -8T379 -27Q208 -27 102 94T-4 414Q-4 671 140 833T512 995Q605 995 676 963T809 860L827 973H1233L1184 678H1092L944 -135Z"  />
<glyph unicode="r" horiz-adv-x="1010" d="M578 291L524 0H-63L-12 291H106L174 680H57L109 973H573L551 842H569Q603 919 657 958T782 997Q865 997 917 944T969 807Q969 706 912 642T764 578Q683 578 631 622T565 748H547L473 291H578Z"  />
<glyph unicode="s" horiz-adv-x="1014" d="M-33 0L20 326L252 325Q261 252 299 214T406 176Q447 176 473 197T500 250Q500 307 341 387Q305 405 285 416Q177 473 129 537T80 684Q80 816 185 905T449 995Q520 995 589 975T729 913L743 973H963L913 676H686Q663 733 629 760T547 788Q509 788 486 772T463 729Q463 683 596 615Q639 593 663 580Q783 514 837 444T891 283Q891 147 785 61T508 -25Q428 -25 352 -4T209 59L199 0H-33Z"  />
<glyph unicode="t" horiz-adv-x="721" d="M547 680L500 441Q498 433 496 421Q485 362 485 348Q485 316 507 300T571 283Q584 283 591 283T604 284L551 0H336Q193 0 141 32T88 145Q88 185 94 239T113 356L174 680H51L102 973H225L283 1280H643L588 973H709L657 680H547Z"  />
<glyph unicode="u" horiz-adv-x="1237" d="M608 680L662 973H1130L1012 293H1130L1079 0H623L651 160Q563 75 470 33T279 -10Q168 -10 110 41T51 190Q51 219 73 345L76 363L133 680H14L66 973H551L442 362Q441 358 441 353T440 336Q440 299 459 283T520 266Q579 266 617 304T668 416L713 680H608Z"  />
<glyph unicode="v" horiz-adv-x="1143" d="M246 0L80 680H-31L20 973H528L477 680H403L492 322L680 680H588L639 973H1161L1108 680H1030L627 0H246Z"  />
<glyph unicode="w" horiz-adv-x="1655" d="M217 0L66 680H-23L29 973H518L469 680H377L436 395L727 973H928L999 397L1171 680H1079L1126 973H1669L1616 680H1530L1083 0H805L741 483L489 0H217Z"  />
<glyph unicode="x" horiz-adv-x="1128" d="M-68 0L-18 291H88L338 516L182 680H88L141 973H502L473 817L559 721L651 813L678 973H1096L1042 680H952L756 504L944 291H1022L971 0H575L612 207L526 303L438 211L397 0H-68Z"  />
<glyph unicode="y" horiz-adv-x="1237" d="M8 -426L61 -135H207L281 -14L109 680H-10L39 973H584L539 698H453L530 336L750 698H645L694 973H1239L1184 680H1104L563 -135H709L655 -426H8Z"  />
<glyph unicode="z" horiz-adv-x="1124" d="M12 0L59 303L604 723H358L322 616H90L158 973H1055L997 664L449 254H715L756 362H981L909 0H12Z"  />
<glyph unicode="{" horiz-adv-x="1024" d="M893 1477V1235Q886 1235 872 1236T852 1237Q754 1237 720 1202T686 1055V815Q686 675 640 615T475 530Q595 506 640 448T686 248V6Q686 -104 719 -139T850 -174Q857 -174 871 -173T893 -172V-414Q878 -414 851 -415T811 -416Q703 -416 632 -404T512 -367Q453 -335 430 -279T406 -86V170Q406 303 357 357T188 412Q184 412 171 411T152 410V651Q158 651 170 650T188 649Q306 649 356 704T406 893V1147Q406 1283 430 1340T512 1430Q560 1455 632 1467T813 1479Q825 1479 851 1478T893 1477Z"  />
<glyph unicode="|" horiz-adv-x="1024" d="M393 1565H633V-483H393V1565Z"  />
<glyph unicode="}" horiz-adv-x="1024" d="M133 1477Q148 1477 174 1478T213 1479Q321 1479 393 1467T514 1430Q572 1398 596 1341T621 1147V893Q621 759 670 704T838 649Q844 649 856 650T874 651V410Q868 410 856 411T838 412Q719 412 670 357T621 170V-86Q621 -223 597 -280T514 -369Q469 -393 401 -404T223 -416Q209 -416 179 -415T133 -414V-172Q142 -172 156 -173T176 -174Q273 -174 306 -140T340 6V248Q340 388 386 447T551 530Q431 555 386 614T340 815V1055Q340 1166 307 1201T180 1237Q173 1237 158 1236T133 1235V1477Z"  />
<glyph unicode="~" horiz-adv-x="1706" d="M1530 819V565Q1429 496 1336 462T1153 428Q1108 428 1064 435T981 457Q968 461 943 470Q688 559 561 559Q477 559 386 522T178 401V655Q290 728 385 763T565 799Q628 799 691 787T861 741Q877 736 912 724Q1071 668 1159 668Q1243 668 1332 704T1530 819Z"  />
<glyph unicode="&#xA0;" horiz-adv-x="1133" />
<glyph unicode="&#xA1;" horiz-adv-x="674" d="M555 983Q512 770 477 534T410 0H-8Q67 295 120 543T205 983H555ZM422 1503Q509 1503 569 1444T629 1298Q629 1211 570 1153T422 1094Q334 1094 275 1152T215 1298Q215 1385 274 1444T422 1503Z"  />
<glyph unicode="&#xA2;" horiz-adv-x="1133" d="M258 -252L338 39Q186 86 108 200T29 485Q29 712 167 859T520 1006Q535 1006 557 1004T604 1000L672 1241H811L733 961L813 907L829 985H1108L1036 584H754Q726 637 700 663T639 698L525 315Q539 312 551 311T573 309Q617 309 660 333T752 410L1010 211Q916 109 804 55T571 0Q555 0 502 5Q481 7 469 8L395 -252H258ZM442 342L553 719H545Q451 719 397 661T342 504Q342 450 367 410T442 342Z"  />
<glyph unicode="&#xA3;" horiz-adv-x="1133" d="M-51 -14L2 326Q94 343 137 415T195 651H45L72 834H211Q234 1147 362 1306T721 1466Q906 1466 1018 1361T1130 1081Q1130 1060 1130 1049T1128 1028H803V1049Q803 1116 784 1148T723 1180Q655 1180 621 1106T569 834H825L801 651H547Q531 533 510 458T461 342Q499 320 531 310T594 299Q647 299 678 329T715 416H1059Q1038 215 938 96T694 -23Q615 -23 529 9T346 106Q280 40 210 9T57 -23Q47 -23 15 -19T-39 -14H-51Z"  />
<glyph unicode="&#xA4;" horiz-adv-x="1133" d="M1159 1436L1090 1026H777Q771 1074 738 1102T655 1130Q594 1130 556 1082T494 928H879L815 784H461Q457 759 453 725T445 655H766L705 512H437Q435 503 435 493T434 465Q434 383 459 345T541 307Q588 307 622 334T678 418H1034Q984 201 845 86T494 -29Q278 -29 181 89T84 469V512H-43L-2 655L94 656Q98 691 102 725T111 784H-6L37 928H139Q206 1195 337 1330T659 1466Q735 1466 796 1436T877 1356L887 1436H1159Z"  />
<glyph unicode="&#xA5;" horiz-adv-x="1133" d="M403 477H-12L16 639H371L289 807H45L74 969H209L109 1171H8L55 1436H604L557 1171H442L586 786L811 1171H692L739 1436H1309L1262 1171H1147L1014 969H1188L1161 807H905L795 639H1130L1102 477H719L688 266H825L778 0H190L238 266H369L403 477Z"  />
<glyph unicode="&#xA6;" horiz-adv-x="1024" d="M393 408H633V-350H393V408ZM393 1432H633V674H393V1432Z"  />
<glyph unicode="&#xA7;" horiz-adv-x="1128" d="M539 440Q586 378 618 353T682 328Q717 328 741 352T766 412Q766 445 750 483T702 563L537 788Q493 848 460 874T395 901Q357 901 332 876T307 811Q307 784 328 739T385 645L539 440ZM-12 -268L47 76H295L281 -35H418Q446 -35 464 -18T483 27Q483 47 464 87T416 166L137 532Q78 610 48 683T18 823Q18 944 95 1014T305 1085H311Q289 1131 279 1169T268 1241Q268 1365 352 1420T637 1475H1055L995 1149H748L756 1243H676Q627 1243 606 1230T584 1186Q584 1166 597 1140T639 1077L936 694Q994 618 1026 540T1059 397Q1059 281 980 207T771 127Q787 95 795 63T803 -4Q803 -148 708 -208T352 -268H-12Z"  />
<glyph unicode="&#xA8;" horiz-adv-x="1024" d="M621 1157L678 1427H928L870 1157H621ZM258 1157L315 1427H565L508 1157H258Z"  />
<glyph unicode="&#xA9;" horiz-adv-x="1706" d="M1221 891H1008Q1001 958 961 995T852 1032Q769 1032 723 955T676 739Q676 599 723 527T862 455Q929 455 968 495T1014 610H1229Q1223 467 1122 380T858 293Q668 293 557 410T446 731Q446 938 557 1060T856 1182Q1013 1182 1113 1102T1221 891ZM854 1350Q728 1350 619 1305T424 1171Q336 1082 289 970T242 737Q242 618 289 507T424 307Q511 220 622 174T854 127Q975 127 1088 174T1290 309Q1376 393 1420 502T1464 737Q1464 862 1419 972T1288 1169Q1200 1258 1090 1304T854 1350ZM852 1485Q1006 1485 1141 1429T1384 1266Q1490 1160 1544 1026T1599 737Q1599 584 1545 450T1386 213Q1277 105 1139 48T852 -10Q704 -10 569 47T326 211Q219 318 163 452T106 737Q106 885 163 1022T328 1268Q433 1374 566 1429T852 1485Z"  />
<glyph unicode="&#xAA;" horiz-adv-x="928" d="M496 795L508 858Q447 814 396 795T285 776Q157 776 79 860T0 1083Q0 1266 108 1378T391 1491Q461 1491 513 1468T606 1397L621 1477H926L889 1270H821L766 1001H846L809 795H496ZM422 1280Q354 1280 314 1238T274 1124Q274 1065 307 1031T399 997Q461 997 501 1042T541 1157Q541 1214 509 1247T422 1280Z"  />
<glyph unicode="&#xAB;" horiz-adv-x="1116" d="M1001 815L741 467L928 158H711L504 481L758 815H1001ZM563 815L303 467L489 158H272L66 481L319 815H563Z"  />
<glyph unicode="&#xAC;" horiz-adv-x="1706" d="M254 866H1452V365H1223V639H254V866Z"  />
<glyph unicode="&#xAD;" horiz-adv-x="678" d="M-10 311L51 662H598L537 311H-10Z"  />
<glyph unicode="&#xAE;" horiz-adv-x="1706" d="M762 1022V803H842Q916 803 952 829T989 909Q989 968 951 995T829 1022H762ZM537 1163H866Q1040 1163 1130 1103T1221 926Q1221 845 1175 787T1047 705L1229 344H981L827 670H762V344H537V1163ZM854 1350Q730 1350 622 1306T428 1178Q338 1088 291 975T244 737Q244 616 288 508T418 313Q505 223 617 175T852 127Q973 127 1084 172T1284 303Q1372 388 1418 499T1464 737Q1464 861 1420 970T1292 1165Q1203 1256 1092 1303T854 1350ZM852 1485Q1008 1485 1146 1428T1391 1260Q1492 1156 1545 1022T1599 737Q1599 582 1543 446T1378 207Q1269 102 1133 46T852 -10Q701 -10 565 48T322 217Q217 325 162 458T106 737Q106 888 165 1027T334 1274Q439 1378 571 1431T852 1485Z"  />
<glyph unicode="&#xAF;" horiz-adv-x="1024" d="M268 1206L303 1376H918L883 1206H268Z"  />
<glyph unicode="&#xB0;" horiz-adv-x="674" d="M338 1321Q269 1321 221 1273T172 1157Q172 1087 220 1039T338 991Q406 991 454 1040T502 1157Q502 1225 454 1273T338 1321ZM338 1466Q467 1466 558 1375T649 1155Q649 1027 558 936T336 844Q207 844 117 934T27 1155Q27 1286 117 1376T338 1466Z"  />
<glyph unicode="&#xB1;" horiz-adv-x="1706" d="M254 213H1452V-18H254V213ZM735 1241H973V922H1452V690H973V371H735V690H254V922H735V1241Z"  />
<glyph unicode="&#xB2;" horiz-adv-x="748" d="M0 575L23 750L383 1106Q427 1148 443 1171T459 1212Q459 1238 440 1253T387 1268Q346 1268 326 1242T305 1163H82Q88 1300 173 1377T403 1454Q537 1454 624 1388T711 1219Q711 1158 675 1099T555 965L311 750H481L492 801H684L639 575H0Z"  />
<glyph unicode="&#xB3;" horiz-adv-x="748" d="M17 852H239Q241 802 262 778T328 754Q375 754 403 782T432 858Q432 895 399 919T313 944H301L326 1106H358Q422 1106 461 1132T500 1202Q500 1233 474 1255T412 1278Q374 1278 351 1258T317 1196H102Q125 1318 215 1386T444 1454Q580 1454 660 1394T741 1235Q741 1157 686 1103T524 1024Q603 990 640 942T678 827Q678 711 580 636T328 561Q185 561 99 628T12 805Q12 812 13 822T17 852Z"  />
<glyph unicode="&#xB4;" horiz-adv-x="1024" d="M365 1106L598 1477H909L518 1106H365Z"  />
<glyph unicode="&#xB5;" horiz-adv-x="1315" d="M193 1090H551L471 561Q465 520 462 484T459 418Q459 333 494 291T602 248Q690 248 740 316T815 537L903 1090H1260L1085 0H764L782 125Q742 50 693 17T573 -16Q514 -16 467 15T389 104L307 -428H-45L193 1090Z"  />
<glyph unicode="&#xB6;" horiz-adv-x="1024" d="M997 1479V1356H891V0H715V1356H565V0H391V784Q227 790 128 885T29 1130Q29 1288 135 1383T418 1479H997Z"  />
<glyph unicode="&#xB7;" horiz-adv-x="563" d="M84 750Q84 835 141 893T279 952Q372 952 430 896T489 750Q489 664 433 608T291 551Q204 551 144 608T84 750Z"  />
<glyph unicode="&#xB8;" horiz-adv-x="1024" d="M125 -438L178 -305Q244 -332 303 -345T412 -358Q457 -358 483 -338T510 -283Q510 -245 472 -230T336 -215H309L385 0H500L467 -92Q584 -94 642 -137T700 -266Q700 -377 627 -437T420 -498Q366 -498 293 -483T125 -438Z"  />
<glyph unicode="&#xB9;" horiz-adv-x="748" d="M74 575L104 735H209L313 1278H201L231 1438H578L440 735H555L524 575H74Z"  />
<glyph unicode="&#xBA;" horiz-adv-x="870" d="M391 1012Q448 1012 490 1053T532 1149Q532 1197 499 1229T414 1262Q357 1262 316 1221T274 1122Q274 1072 306 1042T391 1012ZM379 778Q209 778 103 868T-4 1102Q-4 1268 119 1379T426 1491Q596 1491 702 1401T809 1169Q809 1000 687 889T379 778Z"  />
<glyph unicode="&#xBB;" horiz-adv-x="1116" d="M35 158L295 506L109 815H326L535 492L279 158H35ZM473 158L733 506L547 815H766L973 492L717 158H473Z"  />
<glyph unicode="&#xBC;" horiz-adv-x="1769" d="M1436 336L1495 614L1266 346V336H1436ZM1241 0L1268 135H1391L1403 199H1044L1073 344L1456 805H1745L1651 336H1743L1716 199H1626L1612 135H1704L1675 0H1241ZM356 0L1237 1436H1413L532 0H356ZM68 633L98 782H197L299 1288H190L219 1438H549L420 782H528L500 633H68Z"  />
<glyph unicode="&#xBD;" horiz-adv-x="1769" d="M1057 0L1079 164L1423 494Q1465 534 1480 555T1495 596Q1495 618 1477 631T1427 645Q1387 645 1368 621T1348 549H1135Q1141 676 1222 747T1442 819Q1569 819 1652 757T1735 600Q1735 542 1700 486T1585 365L1356 164H1516L1526 209H1710L1667 0H1057ZM356 0L1237 1436H1413L532 0H356ZM68 633L98 782H197L299 1288H190L219 1438H549L420 782H528L500 633H68Z"  />
<glyph unicode="&#xBE;" horiz-adv-x="1769" d="M1434 336L1493 614L1264 346V336H1434ZM1239 0L1266 135H1389L1401 199H1042L1071 344L1454 805H1743L1649 336H1741L1714 199H1624L1610 135H1702L1673 0H1239ZM354 0L1235 1436H1411L530 0H354ZM17 891H229Q231 844 251 822T313 799Q358 799 386 826T414 897Q414 931 382 954T299 977H287L311 1128Q317 1127 323 1127T342 1126Q404 1126 439 1151T475 1219Q475 1248 451 1268T393 1288Q357 1288 335 1269T303 1212H96Q119 1325 205 1388T424 1452Q553 1452 630 1397T707 1249Q707 1175 654 1125T500 1051Q575 1020 611 976T647 868Q647 760 553 691T311 621Q175 621 94 683T12 848Q12 865 13 874T17 891Z"  />
<glyph unicode="&#xBF;" horiz-adv-x="1124" d="M778 979L715 635H700Q557 635 483 579T408 416Q408 348 444 311T547 274Q606 274 640 311T678 415L1053 416Q1033 204 896 88T526 -29Q304 -29 167 96T29 422Q29 586 123 700T389 860L416 979H778ZM635 1503Q722 1503 782 1444T842 1298Q842 1211 783 1153T635 1094Q547 1094 488 1152T428 1298Q428 1385 487 1444T635 1503Z"  />
<glyph unicode="&#xC0;" horiz-adv-x="1579" d="M688 750H930L881 1210L688 750ZM-92 0L-41 289H106L520 1186H371L420 1475H1432L1384 1186H1233L1358 289H1468L1413 0H754L801 289H977L954 498H586L496 289H635L582 0H-92ZM648 1956H918L1082 1585H943L648 1956Z"  />
<glyph unicode="&#xC1;" horiz-adv-x="1579" d="M688 750H930L881 1210L688 750ZM-92 0L-41 289H106L520 1186H371L420 1475H1432L1384 1186H1233L1358 289H1468L1413 0H754L801 289H977L954 498H586L496 289H635L582 0H-92ZM730 1585L963 1956H1274L883 1585H730Z"  />
<glyph unicode="&#xC2;" horiz-adv-x="1579" d="M688 750H930L881 1210L688 750ZM-92 0L-41 289H106L520 1186H371L420 1475H1432L1384 1186H1233L1358 289H1468L1413 0H754L801 289H977L954 498H586L496 289H635L582 0H-92ZM1229 1585H1088L963 1784L742 1585H588L850 1956H1104L1229 1585Z"  />
<glyph unicode="&#xC3;" horiz-adv-x="1579" d="M688 750H930L881 1210L688 750ZM-92 0L-41 289H106L520 1186H371L420 1475H1432L1384 1186H1233L1358 289H1468L1413 0H754L801 289H977L954 498H586L496 289H635L582 0H-92ZM1293 1925Q1258 1791 1201 1729T1057 1667Q1034 1667 1014 1670T971 1681L907 1702Q884 1709 869 1711T842 1714Q806 1714 779 1689T742 1618H623Q654 1749 713 1814T859 1880Q877 1880 899 1876T951 1863L1014 1843Q1033 1837 1047 1834T1070 1831Q1109 1831 1132 1852T1172 1925H1293Z"  />
<glyph unicode="&#xC4;" horiz-adv-x="1579" d="M688 750H930L881 1210L688 750ZM-92 0L-41 289H106L520 1186H371L420 1475H1432L1384 1186H1233L1358 289H1468L1413 0H754L801 289H977L954 498H586L496 289H635L582 0H-92ZM986 1636L1043 1906H1293L1235 1636H986ZM623 1636L680 1906H930L873 1636H623Z"  />
<glyph unicode="&#xC5;" horiz-adv-x="1579" d="M840 1753Q840 1719 862 1696T918 1673Q950 1673 973 1697T997 1753Q997 1784 973 1807T918 1831Q885 1831 863 1808T840 1753ZM696 1751Q696 1843 760 1907T918 1972Q1008 1972 1072 1908T1137 1751Q1137 1660 1073 1596T918 1532Q825 1532 761 1595T696 1751ZM688 750H930L881 1210L688 750ZM-92 0L-41 289H106L520 1186H371L420 1475H1432L1384 1186H1233L1358 289H1468L1413 0H754L801 289H977L954 498H586L496 289H635L582 0H-92Z"  />
<glyph unicode="&#xC6;" horiz-adv-x="2001" d="M850 737L930 1186H872L614 737H850ZM-190 0L-139 289H-12L500 1186H338L389 1475H2034L1958 926H1681L1659 1186H1296L1247 905H1516L1464 612H1194L1139 289H1544L1657 584H1931L1802 0H627L678 289H772L811 514H489L365 289H449L397 0H-190Z"  />
<glyph unicode="&#xC7;" horiz-adv-x="1518" d="M1163 1364L1186 1475H1559L1460 922H1087Q1059 1023 991 1076T823 1130Q667 1130 566 1006T465 682Q465 530 535 451T741 371Q841 371 915 417T1044 557L1434 387Q1333 182 1158 77T741 -29Q434 -29 241 172T47 690Q47 840 93 978T227 1227Q336 1367 470 1435T770 1503Q880 1503 976 1469T1163 1364ZM340 -438L393 -305Q459 -332 518 -345T627 -358Q672 -358 698 -338T725 -283Q725 -245 687 -230T551 -215H524L600 0H715L682 -92Q799 -94 857 -137T915 -266Q915 -377 842 -437T635 -498Q581 -498 508 -483T340 -438Z"  />
<glyph unicode="&#xC8;" horiz-adv-x="1346" d="M-92 0L-41 289H109L258 1186H117L168 1475H1397L1321 926H1047L1024 1186H659L610 905H881L827 612H559L502 289H909L1022 584H1296L1167 0H-92ZM553 1956H823L987 1585H848L553 1956Z"  />
<glyph unicode="&#xC9;" horiz-adv-x="1346" d="M-92 0L-41 289H109L258 1186H117L168 1475H1397L1321 926H1047L1024 1186H659L610 905H881L827 612H559L502 289H909L1022 584H1296L1167 0H-92ZM635 1585L868 1956H1179L788 1585H635Z"  />
<glyph unicode="&#xCA;" horiz-adv-x="1346" d="M-92 0L-41 289H109L258 1186H117L168 1475H1397L1321 926H1047L1024 1186H659L610 905H881L827 612H559L502 289H909L1022 584H1296L1167 0H-92ZM1134 1585H993L868 1784L647 1585H493L755 1956H1009L1134 1585Z"  />
<glyph unicode="&#xCB;" horiz-adv-x="1346" d="M-92 0L-41 289H109L258 1186H117L168 1475H1397L1321 926H1047L1024 1186H659L610 905H881L827 612H559L502 289H909L1022 584H1296L1167 0H-92ZM891 1636L948 1906H1198L1140 1636H891ZM528 1636L585 1906H835L778 1636H528Z"  />
<glyph unicode="&#xCC;" horiz-adv-x="772" d="M643 289L592 0H-80L-29 289H119L276 1186H129L180 1475H852L801 1186H662L504 289H643ZM268 1956H538L702 1585H563L268 1956Z"  />
<glyph unicode="&#xCD;" horiz-adv-x="772" d="M643 289L592 0H-80L-29 289H119L276 1186H129L180 1475H852L801 1186H662L504 289H643ZM350 1585L583 1956H894L503 1585H350Z"  />
<glyph unicode="&#xCE;" horiz-adv-x="772" d="M643 289L592 0H-80L-29 289H119L276 1186H129L180 1475H852L801 1186H662L504 289H643ZM849 1585H708L583 1784L362 1585H208L470 1956H724L849 1585Z"  />
<glyph unicode="&#xCF;" horiz-adv-x="772" d="M643 289L592 0H-80L-29 289H119L276 1186H129L180 1475H852L801 1186H662L504 289H643ZM606 1636L663 1906H913L855 1636H606ZM243 1636L300 1906H550L493 1636H243Z"  />
<glyph unicode="&#xD0;" horiz-adv-x="1642" d="M819 1186H672L621 899H899L852 633H573L514 289H641Q922 289 1059 422T1196 831Q1196 1010 1103 1098T819 1186ZM850 1475Q1035 1475 1152 1450T1354 1368Q1472 1289 1533 1154T1595 840Q1595 654 1537 492T1370 213Q1262 98 1113 49T684 0H-70L-18 289H129L188 633H-12L35 899H236L287 1186H139L190 1475H850Z"  />
<glyph unicode="&#xD1;" horiz-adv-x="1583" d="M-80 0L-29 289H119L276 1186H129L180 1475H690L1012 614L1102 1186H973L1024 1475H1671L1622 1186H1475L1266 0H944L594 938L492 289H621L569 0H-80ZM1282 1925Q1247 1791 1190 1729T1046 1667Q1023 1667 1003 1670T960 1681L896 1702Q873 1709 858 1711T831 1714Q795 1714 768 1689T731 1618H612Q643 1749 702 1814T848 1880Q866 1880 888 1876T940 1863L1003 1843Q1022 1837 1036 1834T1059 1831Q1098 1831 1121 1852T1161 1925H1282Z"  />
<glyph unicode="&#xD2;" horiz-adv-x="1661" d="M451 682Q451 516 546 418T801 319Q977 319 1094 456T1212 795Q1212 962 1119 1058T864 1155Q688 1155 570 1020T451 682ZM795 -33Q460 -33 255 161T49 666Q49 1031 283 1269T874 1507Q1205 1507 1408 1313T1612 809Q1612 446 1378 207T795 -33ZM711 1956H981L1145 1585H1006L711 1956Z"  />
<glyph unicode="&#xD3;" horiz-adv-x="1661" d="M451 682Q451 516 546 418T801 319Q977 319 1094 456T1212 795Q1212 962 1119 1058T864 1155Q688 1155 570 1020T451 682ZM795 -33Q460 -33 255 161T49 666Q49 1031 283 1269T874 1507Q1205 1507 1408 1313T1612 809Q1612 446 1378 207T795 -33ZM793 1585L1026 1956H1337L946 1585H793Z"  />
<glyph unicode="&#xD4;" horiz-adv-x="1661" d="M451 682Q451 516 546 418T801 319Q977 319 1094 456T1212 795Q1212 962 1119 1058T864 1155Q688 1155 570 1020T451 682ZM795 -33Q460 -33 255 161T49 666Q49 1031 283 1269T874 1507Q1205 1507 1408 1313T1612 809Q1612 446 1378 207T795 -33ZM1292 1585H1151L1026 1784L805 1585H651L913 1956H1167L1292 1585Z"  />
<glyph unicode="&#xD5;" horiz-adv-x="1661" d="M451 682Q451 516 546 418T801 319Q977 319 1094 456T1212 795Q1212 962 1119 1058T864 1155Q688 1155 570 1020T451 682ZM795 -33Q460 -33 255 161T49 666Q49 1031 283 1269T874 1507Q1205 1507 1408 1313T1612 809Q1612 446 1378 207T795 -33ZM1356 1925Q1321 1791 1264 1729T1120 1667Q1097 1667 1077 1670T1034 1681L970 1702Q947 1709 932 1711T905 1714Q869 1714 842 1689T805 1618H686Q717 1749 776 1814T922 1880Q940 1880 962 1876T1014 1863L1077 1843Q1096 1837 1110 1834T1133 1831Q1172 1831 1195 1852T1235 1925H1356Z"  />
<glyph unicode="&#xD6;" horiz-adv-x="1661" d="M451 682Q451 516 546 418T801 319Q977 319 1094 456T1212 795Q1212 962 1119 1058T864 1155Q688 1155 570 1020T451 682ZM795 -33Q460 -33 255 161T49 666Q49 1031 283 1269T874 1507Q1205 1507 1408 1313T1612 809Q1612 446 1378 207T795 -33ZM1049 1636L1106 1906H1356L1298 1636H1049ZM686 1636L743 1906H993L936 1636H686Z"  />
<glyph unicode="&#xD7;" horiz-adv-x="1706" d="M430 1214L870 774L1311 1214L1473 1053L1032 610L1473 170L1311 8L870 449L430 8L268 170L709 610L268 1053L430 1214Z"  />
<glyph unicode="&#xD8;" horiz-adv-x="1661" d="M684 342Q717 329 747 323T809 317Q977 317 1094 456T1212 797Q1212 855 1199 911T1159 1022L684 342ZM983 1139Q960 1151 933 1157T866 1163Q696 1163 568 1019T440 680Q440 612 457 562T510 467L983 1139ZM465 27L279 -238H18L283 139Q166 223 106 354T45 653Q45 1025 278 1264T874 1503Q970 1503 1048 1489T1196 1446L1307 1602H1567L1384 1341Q1498 1228 1556 1094T1614 809Q1614 445 1380 208T784 -29Q684 -29 607 -16T465 27Z"  />
<glyph unicode="&#xD9;" horiz-adv-x="1583" d="M268 1186H121L172 1475H842L791 1186H655L565 678Q557 628 552 585T547 518Q547 429 598 380T739 330Q838 330 905 407T997 631L1096 1186H956L1008 1475H1679L1628 1186H1481L1368 569Q1307 238 1153 105T678 -29Q436 -29 290 88T143 395Q143 438 148 488T166 602L268 1186ZM672 1956H942L1106 1585H967L672 1956Z"  />
<glyph unicode="&#xDA;" horiz-adv-x="1583" d="M268 1186H121L172 1475H842L791 1186H655L565 678Q557 628 552 585T547 518Q547 429 598 380T739 330Q838 330 905 407T997 631L1096 1186H956L1008 1475H1679L1628 1186H1481L1368 569Q1307 238 1153 105T678 -29Q436 -29 290 88T143 395Q143 438 148 488T166 602L268 1186ZM754 1585L987 1956H1298L907 1585H754Z"  />
<glyph unicode="&#xDB;" horiz-adv-x="1583" d="M268 1186H121L172 1475H842L791 1186H655L565 678Q557 628 552 585T547 518Q547 429 598 380T739 330Q838 330 905 407T997 631L1096 1186H956L1008 1475H1679L1628 1186H1481L1368 569Q1307 238 1153 105T678 -29Q436 -29 290 88T143 395Q143 438 148 488T166 602L268 1186ZM1253 1585H1112L987 1784L766 1585H612L874 1956H1128L1253 1585Z"  />
<glyph unicode="&#xDC;" horiz-adv-x="1583" d="M268 1186H121L172 1475H842L791 1186H655L565 678Q557 628 552 585T547 518Q547 429 598 380T739 330Q838 330 905 407T997 631L1096 1186H956L1008 1475H1679L1628 1186H1481L1368 569Q1307 238 1153 105T678 -29Q436 -29 290 88T143 395Q143 438 148 488T166 602L268 1186ZM1010 1636L1067 1906H1317L1259 1636H1010ZM647 1636L704 1906H954L897 1636H647Z"  />
<glyph unicode="&#xDD;" horiz-adv-x="1536" d="M559 551L238 1186H90L141 1475H813L762 1186H623L770 879L1016 1186H881L930 1475H1626L1575 1186H1417L940 545L897 289H1030L979 0H328L379 289H514L559 551ZM732 1585L965 1956H1276L885 1585H732Z"  />
<glyph unicode="&#xDE;" horiz-adv-x="1280" d="M864 1475L815 1208H659L647 1133H748Q1012 1133 1140 1044T1268 770Q1268 551 1122 448T664 344H508L494 266H641L592 0H-80L-29 289H119L276 1186H129L180 1475H864ZM604 893L551 584H670Q760 584 813 628T866 748Q866 814 821 853T696 893H604Z"  />
<glyph unicode="&#xDF;" horiz-adv-x="1219" d="M-78 0L-25 291H68L199 1020Q243 1267 364 1380T702 1493Q906 1493 1032 1389T1159 1120Q1159 1011 1098 924T920 782Q1027 725 1077 642T1128 442Q1128 238 1014 106T721 -27Q679 -27 637 -18T549 10L596 301Q603 300 616 298Q646 293 655 293Q713 293 746 342T780 475Q780 551 739 588T613 627L670 922H684Q752 922 787 961T823 1075Q823 1128 791 1160T707 1192Q640 1192 602 1133T539 922L381 0H-78Z"  />
<glyph unicode="&#xE0;" horiz-adv-x="1237" d="M659 0L676 90Q594 27 526 0T379 -27Q209 -27 105 94T0 414Q0 674 144 834T520 995Q613 995 683 963T809 860L827 973H1233L1184 678H1094L1022 295H1126L1079 0H659ZM563 692Q473 692 420 633T367 471Q367 385 410 338T532 291Q615 291 668 355T721 518Q721 599 679 645T563 692ZM408 1477H678L842 1106H703L408 1477Z"  />
<glyph unicode="&#xE1;" horiz-adv-x="1237" d="M659 0L676 90Q594 27 526 0T379 -27Q209 -27 105 94T0 414Q0 674 144 834T520 995Q613 995 683 963T809 860L827 973H1233L1184 678H1094L1022 295H1126L1079 0H659ZM563 692Q473 692 420 633T367 471Q367 385 410 338T532 291Q615 291 668 355T721 518Q721 599 679 645T563 692ZM490 1106L723 1477H1034L643 1106H490Z"  />
<glyph unicode="&#xE2;" horiz-adv-x="1237" d="M659 0L676 90Q594 27 526 0T379 -27Q209 -27 105 94T0 414Q0 674 144 834T520 995Q613 995 683 963T809 860L827 973H1233L1184 678H1094L1022 295H1126L1079 0H659ZM563 692Q473 692 420 633T367 471Q367 385 410 338T532 291Q615 291 668 355T721 518Q721 599 679 645T563 692ZM989 1106H848L723 1305L502 1106H348L610 1477H864L989 1106Z"  />
<glyph unicode="&#xE3;" horiz-adv-x="1237" d="M659 0L676 90Q594 27 526 0T379 -27Q209 -27 105 94T0 414Q0 674 144 834T520 995Q613 995 683 963T809 860L827 973H1233L1184 678H1094L1022 295H1126L1079 0H659ZM563 692Q473 692 420 633T367 471Q367 385 410 338T532 291Q615 291 668 355T721 518Q721 599 679 645T563 692ZM1053 1446Q1018 1312 961 1250T817 1188Q794 1188 774 1191T731 1202L667 1223Q644 1230 629 1232T602 1235Q566 1235 539 1210T502 1139H383Q414 1270 473 1335T619 1401Q637 1401 659 1397T711 1384L774 1364Q793 1358 807 1355T830 1352Q869 1352 892 1373T932 1446H1053Z"  />
<glyph unicode="&#xE4;" horiz-adv-x="1237" d="M659 0L676 90Q594 27 526 0T379 -27Q209 -27 105 94T0 414Q0 674 144 834T520 995Q613 995 683 963T809 860L827 973H1233L1184 678H1094L1022 295H1126L1079 0H659ZM563 692Q473 692 420 633T367 471Q367 385 410 338T532 291Q615 291 668 355T721 518Q721 599 679 645T563 692ZM746 1157L803 1427H1053L995 1157H746ZM383 1157L440 1427H690L633 1157H383Z"  />
<glyph unicode="&#xE5;" horiz-adv-x="1237" d="M582 1323Q582 1272 617 1237T705 1202Q756 1202 790 1237T825 1323Q825 1375 790 1411T705 1448Q652 1448 617 1413T582 1323ZM432 1325Q432 1437 511 1516T705 1595Q817 1595 896 1516T975 1325Q975 1211 897 1132T705 1053Q590 1053 511 1131T432 1325ZM659 0L676 90Q594 27 526 0T379 -27Q209 -27 105 94T0 414Q0 674 144 834T520 995Q613 995 683 963T809 860L827 973H1233L1184 678H1094L1022 295H1126L1079 0H659ZM563 692Q473 692 420 633T367 471Q367 385 410 338T532 291Q615 291 668 355T721 518Q721 599 679 645T563 692Z"  />
<glyph unicode="&#xE6;" horiz-adv-x="1796" d="M1014 571L1348 572Q1349 578 1349 584T1350 604Q1350 670 1310 710T1204 750Q1134 750 1082 701T1014 571ZM496 444Q424 444 382 412T340 324Q340 269 386 232T500 195Q572 195 618 230T664 324Q664 376 617 410T496 444ZM750 104Q659 38 566 5T381 -29Q222 -29 116 66T10 301Q10 451 119 544T408 637Q471 637 537 619T713 549Q713 551 714 556Q721 598 721 612Q721 691 669 732T516 774Q460 774 406 762T293 723L180 936Q261 966 356 980T559 995Q664 995 738 976T887 913Q983 957 1060 976T1217 995Q1429 995 1563 868T1698 537Q1698 505 1697 480T1694 428H1001Q1001 428 1000 421T999 408Q999 334 1044 287T1157 240Q1205 240 1251 260T1352 328L1602 166Q1514 68 1396 20T1124 -29Q1019 -29 922 5T750 104Z"  />
<glyph unicode="&#xE7;" horiz-adv-x="1100" d="M698 571Q677 626 636 654T535 682Q458 682 409 626T360 483Q360 406 407 357T528 307Q582 307 629 333T709 410L985 199Q891 92 764 36T492 -20Q269 -20 132 118T-6 479Q-6 701 134 849T489 997Q575 997 646 972T778 895L795 973H1075L1001 571H698ZM164 -438L217 -305Q283 -332 342 -345T451 -358Q496 -358 522 -338T549 -283Q549 -245 511 -230T375 -215H348L424 0H539L506 -92Q623 -94 681 -137T739 -266Q739 -377 666 -437T459 -498Q405 -498 332 -483T164 -438Z"  />
<glyph unicode="&#xE8;" horiz-adv-x="1128" d="M379 569H705Q705 574 706 580T707 590Q707 655 666 694T557 733Q486 733 442 693T379 569ZM721 328L971 168Q882 73 765 24T510 -25Q273 -25 136 104T-2 459Q-2 693 156 844T565 995Q789 995 915 866T1042 506Q1042 492 1042 477T1038 428H369Q369 347 416 300T545 252Q592 252 634 270T721 328ZM336 1477H606L770 1106H631L336 1477Z"  />
<glyph unicode="&#xE9;" horiz-adv-x="1128" d="M379 569H705Q705 574 706 580T707 590Q707 655 666 694T557 733Q486 733 442 693T379 569ZM721 328L971 168Q882 73 765 24T510 -25Q273 -25 136 104T-2 459Q-2 693 156 844T565 995Q789 995 915 866T1042 506Q1042 492 1042 477T1038 428H369Q369 347 416 300T545 252Q592 252 634 270T721 328ZM418 1106L651 1477H962L571 1106H418Z"  />
<glyph unicode="&#xEA;" horiz-adv-x="1128" d="M379 569H705Q705 574 706 580T707 590Q707 655 666 694T557 733Q486 733 442 693T379 569ZM721 328L971 168Q882 73 765 24T510 -25Q273 -25 136 104T-2 459Q-2 693 156 844T565 995Q789 995 915 866T1042 506Q1042 492 1042 477T1038 428H369Q369 347 416 300T545 252Q592 252 634 270T721 328ZM917 1106H776L651 1305L430 1106H276L538 1477H792L917 1106Z"  />
<glyph unicode="&#xEB;" horiz-adv-x="1128" d="M379 569H705Q705 574 706 580T707 590Q707 655 666 694T557 733Q486 733 442 693T379 569ZM721 328L971 168Q882 73 765 24T510 -25Q273 -25 136 104T-2 459Q-2 693 156 844T565 995Q789 995 915 866T1042 506Q1042 492 1042 477T1038 428H369Q369 347 416 300T545 252Q592 252 634 270T721 328ZM674 1157L731 1427H981L923 1157H674ZM311 1157L368 1427H618L561 1157H311Z"  />
<glyph unicode="&#xEC;" horiz-adv-x="696" d="M596 291L541 0H-66L-12 291H104L174 680H55L106 973H590L471 291H596ZM120 1477H390L554 1106H415L120 1477Z"  />
<glyph unicode="&#xED;" horiz-adv-x="696" d="M596 291L541 0H-66L-12 291H104L174 680H55L106 973H590L471 291H596ZM202 1106L435 1477H746L355 1106H202Z"  />
<glyph unicode="&#xEE;" horiz-adv-x="696" d="M596 291L541 0H-66L-12 291H104L174 680H55L106 973H590L471 291H596ZM701 1106H560L435 1305L214 1106H60L322 1477H576L701 1106Z"  />
<glyph unicode="&#xEF;" horiz-adv-x="696" d="M596 291L541 0H-66L-12 291H104L174 680H55L106 973H590L471 291H596ZM458 1157L515 1427H765L707 1157H458ZM95 1157L152 1427H402L345 1157H95Z"  />
<glyph unicode="&#xF0;" horiz-adv-x="1161" d="M604 952L506 1112L213 1051L186 1208L418 1257L289 1475H610L707 1317L954 1368L985 1210L793 1171L915 971Q1000 834 1037 724T1075 506Q1075 277 913 125T506 -27Q279 -27 137 99T-6 422Q-6 645 155 801T537 958Q551 958 568 957T604 952ZM367 449Q367 383 408 339T512 295Q595 295 652 351T709 485Q709 553 665 597T551 641Q475 641 421 585T367 449Z"  />
<glyph unicode="&#xF1;" horiz-adv-x="1276" d="M578 291L524 0H-63L-12 291H106L174 680H57L109 973H563L537 811Q625 896 717 938T907 981Q1018 981 1076 930T1135 780Q1135 756 1117 649Q1112 623 1110 611L1053 291H1171L1120 0H635L743 610Q744 614 744 619T745 635Q745 671 727 688T666 705Q607 705 569 667T518 555L473 291H578ZM1055 1446Q1020 1312 963 1250T819 1188Q796 1188 776 1191T733 1202L669 1223Q646 1230 631 1232T604 1235Q568 1235 541 1210T504 1139H385Q416 1270 475 1335T621 1401Q639 1401 661 1397T713 1384L776 1364Q795 1358 809 1355T832 1352Q871 1352 894 1373T934 1446H1055Z"  />
<glyph unicode="&#xF2;" horiz-adv-x="1161" d="M522 309Q598 309 653 367T709 506Q709 575 665 620T551 666Q475 666 421 608T367 467Q367 396 409 353T522 309ZM506 -23Q279 -23 137 106T-6 438Q-6 677 158 836T567 995Q794 995 935 867T1077 535Q1077 292 915 135T506 -23ZM338 1477H608L772 1106H633L338 1477Z"  />
<glyph unicode="&#xF3;" horiz-adv-x="1161" d="M522 309Q598 309 653 367T709 506Q709 575 665 620T551 666Q475 666 421 608T367 467Q367 396 409 353T522 309ZM506 -23Q279 -23 137 106T-6 438Q-6 677 158 836T567 995Q794 995 935 867T1077 535Q1077 292 915 135T506 -23ZM420 1106L653 1477H964L573 1106H420Z"  />
<glyph unicode="&#xF4;" horiz-adv-x="1161" d="M522 309Q598 309 653 367T709 506Q709 575 665 620T551 666Q475 666 421 608T367 467Q367 396 409 353T522 309ZM506 -23Q279 -23 137 106T-6 438Q-6 677 158 836T567 995Q794 995 935 867T1077 535Q1077 292 915 135T506 -23ZM919 1106H778L653 1305L432 1106H278L540 1477H794L919 1106Z"  />
<glyph unicode="&#xF5;" horiz-adv-x="1161" d="M522 309Q598 309 653 367T709 506Q709 575 665 620T551 666Q475 666 421 608T367 467Q367 396 409 353T522 309ZM506 -23Q279 -23 137 106T-6 438Q-6 677 158 836T567 995Q794 995 935 867T1077 535Q1077 292 915 135T506 -23ZM983 1446Q948 1312 891 1250T747 1188Q724 1188 704 1191T661 1202L597 1223Q574 1230 559 1232T532 1235Q496 1235 469 1210T432 1139H313Q344 1270 403 1335T549 1401Q567 1401 589 1397T641 1384L704 1364Q723 1358 737 1355T760 1352Q799 1352 822 1373T862 1446H983Z"  />
<glyph unicode="&#xF6;" horiz-adv-x="1161" d="M522 309Q598 309 653 367T709 506Q709 575 665 620T551 666Q475 666 421 608T367 467Q367 396 409 353T522 309ZM506 -23Q279 -23 137 106T-6 438Q-6 677 158 836T567 995Q794 995 935 867T1077 535Q1077 292 915 135T506 -23ZM676 1157L733 1427H983L925 1157H676ZM313 1157L370 1427H620L563 1157H313Z"  />
<glyph unicode="&#xF7;" horiz-adv-x="1706" d="M854 371Q922 371 970 323T1018 205Q1018 137 971 89T854 41Q785 41 737 89T688 205Q688 273 737 322T854 371ZM254 727H1452V496H254V727ZM854 1182Q921 1182 969 1133T1018 1016Q1018 948 970 900T852 852Q783 852 736 900T688 1016Q688 1084 737 1133T854 1182Z"  />
<glyph unicode="&#xF8;" horiz-adv-x="1161" d="M129 -147H-70L133 111Q65 181 30 264T-6 438Q-6 676 158 835T567 995Q626 995 684 985T803 952L944 1124H1143L938 866Q1007 799 1042 715T1077 535Q1077 293 915 135T506 -23Q449 -23 389 -12T264 23L129 -147ZM522 309Q598 309 653 367T709 506Q709 575 665 620T551 666Q475 666 421 608T367 467Q367 396 409 353T522 309Z"  />
<glyph unicode="&#xF9;" horiz-adv-x="1237" d="M608 680L662 973H1130L1012 293H1130L1079 0H623L651 160Q563 75 470 33T279 -10Q168 -10 110 41T51 190Q51 219 73 345L76 363L133 680H14L66 973H551L442 362Q441 358 441 353T440 336Q440 299 459 283T520 266Q579 266 617 304T668 416L713 680H608ZM357 1477H627L791 1106H652L357 1477Z"  />
<glyph unicode="&#xFA;" horiz-adv-x="1237" d="M608 680L662 973H1130L1012 293H1130L1079 0H623L651 160Q563 75 470 33T279 -10Q168 -10 110 41T51 190Q51 219 73 345L76 363L133 680H14L66 973H551L442 362Q441 358 441 353T440 336Q440 299 459 283T520 266Q579 266 617 304T668 416L713 680H608ZM439 1106L672 1477H983L592 1106H439Z"  />
<glyph unicode="&#xFB;" horiz-adv-x="1237" d="M608 680L662 973H1130L1012 293H1130L1079 0H623L651 160Q563 75 470 33T279 -10Q168 -10 110 41T51 190Q51 219 73 345L76 363L133 680H14L66 973H551L442 362Q441 358 441 353T440 336Q440 299 459 283T520 266Q579 266 617 304T668 416L713 680H608ZM938 1106H797L672 1305L451 1106H297L559 1477H813L938 1106Z"  />
<glyph unicode="&#xFC;" horiz-adv-x="1237" d="M608 680L662 973H1130L1012 293H1130L1079 0H623L651 160Q563 75 470 33T279 -10Q168 -10 110 41T51 190Q51 219 73 345L76 363L133 680H14L66 973H551L442 362Q441 358 441 353T440 336Q440 299 459 283T520 266Q579 266 617 304T668 416L713 680H608ZM695 1157L752 1427H1002L944 1157H695ZM332 1157L389 1427H639L582 1157H332Z"  />
<glyph unicode="&#xFD;" horiz-adv-x="1237" d="M8 -426L61 -135H207L281 -14L109 680H-10L39 973H584L539 698H453L530 336L750 698H645L694 973H1239L1184 680H1104L563 -135H709L655 -426H8ZM471 1106L704 1477H1015L624 1106H471Z"  />
<glyph unicode="&#xFE;" horiz-adv-x="1305" d="M481 459Q481 379 528 330T651 281Q734 281 789 342T844 494Q844 569 797 617T676 666Q592 666 537 607T481 459ZM262 1182H143L195 1475H666L561 905Q611 950 675 973T813 997Q989 997 1103 869T1217 537Q1217 302 1073 139T725 -25Q629 -25 555 14T430 129L383 -135H512L461 -426H-141L-90 -135H29L262 1182Z"  />
<glyph unicode="&#xFF;" horiz-adv-x="1237" d="M8 -426L61 -135H207L281 -14L109 680H-10L39 973H584L539 698H453L530 336L750 698H645L694 973H1239L1184 680H1104L563 -135H709L655 -426H8ZM727 1157L784 1427H1034L976 1157H727ZM364 1157L421 1427H671L614 1157H364Z"  />
<glyph unicode="&#x131;" horiz-adv-x="696" d="M596 291L541 0H-66L-12 291H104L174 680H55L106 973H590L471 291H596Z"  />
<glyph unicode="&#x152;" horiz-adv-x="2095" d="M2128 1475L2052 926H1776L1753 1186H1391L1341 905H1610L1559 612H1288L1233 289H1638L1751 584H2025L1898 0H813Q640 0 540 20T358 86Q205 172 125 322T45 674Q45 871 110 1030T299 1296Q409 1391 558 1433T946 1475H2128ZM899 469L987 960Q991 979 993 995T995 1016Q995 1070 952 1095T813 1120Q650 1120 542 1003T434 711Q434 555 523 454T745 352Q834 352 860 372T899 469Z"  />
<glyph unicode="&#x153;" horiz-adv-x="1817" d="M1069 569H1395Q1395 574 1396 580T1397 590Q1397 655 1356 694T1247 733Q1176 733 1132 693T1069 569ZM522 309Q598 309 653 367T709 506Q709 575 665 620T551 666Q475 666 421 608T367 467Q367 396 409 353T522 309ZM893 885Q965 943 1049 969T1251 995Q1478 995 1605 867T1733 508Q1733 494 1732 478T1728 428H1059Q1059 347 1106 300T1235 252Q1283 252 1325 270T1411 328L1661 168Q1571 72 1452 22T1196 -29Q1095 -29 1005 1T840 90Q781 33 694 2T502 -29Q279 -29 137 104T-6 438Q-6 677 157 836T565 995Q666 995 744 969T893 885Z"  />
<glyph unicode="&#x160;" horiz-adv-x="1366" d="M-45 0L45 514H401Q426 406 505 340T692 274Q765 274 811 311T858 401Q858 508 566 618Q487 648 442 666Q248 743 162 845T76 1096Q76 1277 220 1391T600 1505Q734 1505 836 1470T1018 1362L1036 1475H1384L1303 1012H950Q922 1120 843 1180T651 1241Q582 1241 541 1211T500 1133Q500 1047 691 979Q746 960 776 948Q1053 842 1164 730T1276 459Q1276 251 1122 110T733 -31Q615 -31 516 3T317 111L297 0H-45ZM582 1956H723L848 1757L1069 1956H1223L961 1585H707L582 1956Z"  />
<glyph unicode="&#x161;" horiz-adv-x="1014" d="M-33 0L20 326L252 325Q261 252 299 214T406 176Q447 176 473 197T500 250Q500 307 341 387Q305 405 285 416Q177 473 129 537T80 684Q80 816 185 905T449 995Q520 995 589 975T729 913L743 973H963L913 676H686Q663 733 629 760T547 788Q509 788 486 772T463 729Q463 683 596 615Q639 593 663 580Q783 514 837 444T891 283Q891 147 785 61T508 -25Q428 -25 352 -4T209 59L199 0H-33ZM298 1477H439L564 1278L785 1477H939L677 1106H423L298 1477Z"  />
<glyph unicode="&#x178;" horiz-adv-x="1536" d="M559 551L238 1186H90L141 1475H813L762 1186H623L770 879L1016 1186H881L930 1475H1626L1575 1186H1417L940 545L897 289H1030L979 0H328L379 289H514L559 551ZM988 1636L1045 1906H1295L1237 1636H988ZM625 1636L682 1906H932L875 1636H625Z"  />
<glyph unicode="&#x17D;" horiz-adv-x="1356" d="M-29 0L2 176L809 1186H477L397 979H127L219 1475H1362L1333 1303L543 289H891L1014 588H1264L1151 0H-29ZM577 1956H718L843 1757L1064 1956H1218L956 1585H702L577 1956Z"  />
<glyph unicode="&#x17E;" horiz-adv-x="1124" d="M12 0L59 303L604 723H358L322 616H90L158 973H1055L997 664L449 254H715L756 362H981L909 0H12ZM352 1477H493L618 1278L839 1477H993L731 1106H477L352 1477Z"  />
<glyph unicode="&#x192;" horiz-adv-x="1133" d="M-41 -375L0 -78Q46 -94 80 -101T139 -109Q261 -109 296 160L297 164L354 584H129V864H393Q436 1198 550 1331T899 1464Q942 1464 997 1457T1118 1434L1085 1135Q1035 1155 1001 1163T938 1171Q856 1171 819 1108T766 864H1018V584H731L682 211Q634 -141 527 -276T205 -412Q145 -412 84 -403T-41 -375Z"  />
<glyph unicode="&#x2C6;" horiz-adv-x="1024" d="M864 1106H723L598 1305L377 1106H223L485 1477H739L864 1106Z"  />
<glyph unicode="&#x2C7;" horiz-adv-x="1024" d="M301 1477H442L567 1278L788 1477H942L680 1106H426L301 1477Z"  />
<glyph unicode="&#x2DC;" horiz-adv-x="1024" d="M928 1446Q893 1312 836 1250T692 1188Q669 1188 649 1191T606 1202L542 1223Q519 1230 504 1232T477 1235Q441 1235 414 1210T377 1139H258Q289 1270 348 1335T494 1401Q512 1401 534 1397T586 1384L649 1364Q668 1358 682 1355T705 1352Q744 1352 767 1373T807 1446H928Z"  />
<glyph unicode="&#x2013;" horiz-adv-x="1024" d="M-43 389L0 631H1067L1024 389H-43Z"  />
<glyph unicode="&#x2014;" horiz-adv-x="2048" d="M-25 631H2023L1982 389H-66L-25 631Z"  />
<glyph unicode="&#x2018;" horiz-adv-x="563" d="M115 971L266 1475H596L440 971H115Z"  />
<glyph unicode="&#x2019;" horiz-adv-x="563" d="M115 971L266 1475H596L440 971H115Z"  />
<glyph unicode="&#x201A;" horiz-adv-x="563" d="M-53 -129L98 375H428L272 -129H-53Z"  />
<glyph unicode="&#x201C;" horiz-adv-x="1124" d="M674 971L825 1475H1155L999 971H674ZM115 971L266 1475H596L440 971H115Z"  />
<glyph unicode="&#x201D;" horiz-adv-x="1124" d="M674 971L825 1475H1155L999 971H674ZM115 971L266 1475H596L440 971H115Z"  />
<glyph unicode="&#x201E;" horiz-adv-x="1124" d="M506 -129L657 375H987L831 -129H506ZM-53 -129L98 375H428L272 -129H-53Z"  />
<glyph unicode="&#x2020;" horiz-adv-x="1128" d="M256 -279L440 758H260L244 674H16L86 1065H313L299 981H479L528 1262H428L465 1475H922L885 1260H778L729 981H909L924 1065H1151L1081 674H854L870 758H690L506 -279H256Z"  />
<glyph unicode="&#x2021;" horiz-adv-x="1128" d="M621 344H801L815 428H1042L975 35H748L762 119H582L549 -63H649L612 -279H154L193 -63H299L332 119H152L135 35H-92L-23 428H205L190 344H371L465 852H285L268 768H41L111 1161H338L324 1077H504L537 1262H434L473 1475H930L893 1260H786L754 1077H934L948 1161H1176L1108 768H879L895 852H715L621 344Z"  />
<glyph unicode="&#x2022;" horiz-adv-x="1208" d="M307 762Q307 885 394 971T604 1057Q726 1057 812 971T899 762Q899 640 812 553T602 465Q479 465 393 552T307 762Z"  />
<glyph unicode="&#x2026;" horiz-adv-x="2048" d="M71 180Q71 265 128 324T266 383Q360 383 418 327T477 180Q477 95 419 39T276 -18Q189 -18 130 38T71 180ZM753 180Q753 265 810 324T948 383Q1042 383 1100 327T1159 180Q1159 95 1101 39T958 -18Q871 -18 812 38T753 180ZM1437 180Q1437 265 1494 324T1632 383Q1726 383 1784 327T1843 180Q1843 95 1785 39T1642 -18Q1555 -18 1496 38T1437 180Z"  />
<glyph unicode="&#x2030;" horiz-adv-x="2750" d="M2329 256Q2379 256 2415 292T2451 379Q2451 431 2416 466T2329 502Q2278 502 2243 467T2208 379Q2208 328 2243 292T2329 256ZM2707 379Q2707 219 2597 110T2329 0Q2169 0 2059 110T1948 379Q1948 537 2059 648T2329 760Q2487 760 2597 650T2707 379ZM1427 256Q1477 256 1512 291T1548 379Q1548 432 1514 467T1427 502Q1376 502 1341 467T1305 379Q1305 329 1341 293T1427 256ZM1806 379Q1806 219 1696 110T1425 0Q1267 0 1157 110T1047 379Q1047 538 1157 649T1425 760Q1584 760 1695 649T1806 379ZM1290 1464H1470L559 -29H379L1290 1464ZM422 934Q472 934 508 970T545 1057Q545 1109 510 1144T422 1180Q371 1180 336 1145T301 1057Q301 1006 336 970T422 934ZM803 1057Q803 897 693 788T422 678Q263 678 152 788T41 1057Q41 1214 152 1325T422 1436Q581 1436 692 1326T803 1057Z"  />
<glyph unicode="&#x2039;" horiz-adv-x="678" d="M573 815L313 467L500 158H281L74 481L330 815H573Z"  />
<glyph unicode="&#x203A;" horiz-adv-x="678" d="M35 158L295 506L109 815H326L535 492L279 158H35Z"  />
<glyph unicode="&#x20AC;" horiz-adv-x="657" d="M31 452H97Q108 515 132 566T193 653T274 709T374 729Q425 729 466 714T538 671T588 606T614 523H520Q508 581 472 614T373 647Q298 647 255 595T197 452H400V395H191Q190 385 190 375T190 355Q190 344 190 334T191 314H400V257H198Q214 163 261 115T381 67Q450 67 488 112T534 226H624Q622 176 605 132T556 56T480 4T382 -15Q328 -15 281 3T197 56T134 141T97 257H31V314H90Q89 324 89 334T89 355Q89 365 89 375T90 395H31V452Z"  />
<glyph unicode="&#x2122;" horiz-adv-x="1706" d="M797 1464H1020L1133 1161L1247 1464H1468V913H1313V1303L1167 913H1102L952 1303V913H797V1464ZM188 1464H690V1337H526V913H352V1337H188V1464Z"  />

<hkern u1="-" u2="C" k="-38" />
<hkern u1="-" u2="G" k="-75" />
<hkern u1="-" u2="J" k="-114" />
<hkern u1="-" u2="O" k="-75" />
<hkern u1="-" u2="T" k="188" />
<hkern u1="-" u2="V" k="112" />
<hkern u1="-" u2="W" k="45" />
<hkern u1="-" u2="Y" k="159" />
<hkern u1="-" u2="o" k="-38" />
<hkern u1="-" u2="&#xc6;" k="-57" />
<hkern u1="-" u2="&#xd8;" k="-75" />
<hkern u1="-" u2="&#xf8;" k="-38" />
<hkern u1="-" u2="&#x152;" k="-75" />
<hkern u1="-" u2="&#x153;" k="-38" />
<hkern u1="A" u2="&#x2c;" k="-38" />
<hkern u1="A" u2="." k="-38" />
<hkern u1="A" u2="A" k="-38" />
<hkern u1="A" u2="C" k="36" />
<hkern u1="A" u2="G" k="36" />
<hkern u1="A" u2="Q" k="36" />
<hkern u1="A" u2="S" k="-38" />
<hkern u1="A" u2="T" k="112" />
<hkern u1="A" u2="U" k="45" />
<hkern u1="A" u2="V" k="83" />
<hkern u1="A" u2="W" k="92" />
<hkern u1="A" u2="X" k="36" />
<hkern u1="A" u2="Y" k="92" />
<hkern u1="A" u2="c" k="-38" />
<hkern u1="A" u2="d" k="-38" />
<hkern u1="A" u2="e" k="-38" />
<hkern u1="A" u2="f" k="-38" />
<hkern u1="A" u2="o" k="-38" />
<hkern u1="A" u2="q" k="-38" />
<hkern u1="A" u2="&#xc5;" k="-38" />
<hkern u1="A" u2="&#xf8;" k="-38" />
<hkern u1="A" u2="&#xbb;" k="-75" />
<hkern u1="A" u2="&#x153;" k="-38" />
<hkern u1="A" u2="&#x201c;" k="188" />
<hkern u1="A" u2="&#x201d;" k="167" />
<hkern u1="A" u2="&#x2018;" k="188" />
<hkern u1="A" u2="&#x2019;" k="167" />
<hkern u1="A" u2="&#x203a;" k="-75" />
<hkern u1="A" u2="&#x201a;" k="-114" />
<hkern u1="A" u2="&#x201e;" k="-114" />
<hkern u1="B" u2="-" k="-57" />
<hkern u1="B" u2="V" k="36" />
<hkern u1="B" u2="Y" k="73" />
<hkern u1="B" u2="&#x201d;" k="-38" />
<hkern u1="B" u2="&#x2019;" k="-38" />
<hkern u1="B" u2="&#x201a;" k="-38" />
<hkern u1="B" u2="&#x201e;" k="-38" />
<hkern u1="C" u2="-" k="-47" />
<hkern u1="C" u2="Y" k="73" />
<hkern u1="C" u2="&#x201c;" k="-75" />
<hkern u1="C" u2="&#x201d;" k="-114" />
<hkern u1="C" u2="&#x2018;" k="-75" />
<hkern u1="C" u2="&#x2019;" k="-114" />
<hkern u1="D" u2="-" k="-65" />
<hkern u1="D" u2="A" k="36" />
<hkern u1="D" u2="Y" k="36" />
<hkern u1="D" u2="&#xc5;" k="36" />
<hkern u1="D" u2="&#x201c;" k="-75" />
<hkern u1="D" u2="&#x2018;" k="-75" />
<hkern u1="D" u2="&#x201a;" k="36" />
<hkern u1="D" u2="&#x201e;" k="36" />
<hkern u1="F" u2="&#x2c;" k="329" />
<hkern u1="F" u2="-" k="139" />
<hkern u1="F" u2="." k="329" />
<hkern u1="F" u2=":" k="83" />
<hkern u1="F" u2=";" k="83" />
<hkern u1="F" u2="A" k="149" />
<hkern u1="F" u2="a" k="206" />
<hkern u1="F" u2="e" k="167" />
<hkern u1="F" u2="i" k="36" />
<hkern u1="F" u2="o" k="167" />
<hkern u1="F" u2="r" k="112" />
<hkern u1="F" u2="u" k="131" />
<hkern u1="F" u2="y" k="112" />
<hkern u1="F" u2="&#xc5;" k="149" />
<hkern u1="F" u2="&#xe6;" k="206" />
<hkern u1="F" u2="&#xf8;" k="167" />
<hkern u1="F" u2="&#xab;" k="149" />
<hkern u1="F" u2="&#xbb;" k="112" />
<hkern u1="F" u2="&#x153;" k="167" />
<hkern u1="F" u2="&#x201c;" k="-75" />
<hkern u1="F" u2="&#x201d;" k="-75" />
<hkern u1="F" u2="&#x2018;" k="-75" />
<hkern u1="F" u2="&#x2019;" k="-75" />
<hkern u1="F" u2="&#x2039;" k="149" />
<hkern u1="F" u2="&#x203a;" k="112" />
<hkern u1="F" u2="&#x201a;" k="339" />
<hkern u1="F" u2="&#x201e;" k="339" />
<hkern u1="G" u2="-" k="-104" />
<hkern u1="G" u2="T" k="36" />
<hkern u1="G" u2="W" k="36" />
<hkern u1="G" u2="Y" k="36" />
<hkern u1="G" u2="&#x201d;" k="-57" />
<hkern u1="G" u2="&#x2019;" k="-57" />
<hkern u1="G" u2="&#x201a;" k="-114" />
<hkern u1="G" u2="&#x201e;" k="-114" />
<hkern u1="H" u2="&#x201d;" k="-75" />
<hkern u1="H" u2="&#x2019;" k="-75" />
<hkern u1="H" u2="&#x201a;" k="-114" />
<hkern u1="H" u2="&#x201e;" k="-114" />
<hkern u1="J" u2="A" k="45" />
<hkern u1="J" u2="&#xc5;" k="45" />
<hkern u1="J" u2="&#xab;" k="73" />
<hkern u1="J" u2="&#x201d;" k="-75" />
<hkern u1="J" u2="&#x2019;" k="-75" />
<hkern u1="J" u2="&#x2039;" k="73" />
<hkern u1="J" u2="&#x201a;" k="36" />
<hkern u1="J" u2="&#x201e;" k="36" />
<hkern u1="K" u2="A" k="-38" />
<hkern u1="K" u2="C" k="36" />
<hkern u1="K" u2="O" k="36" />
<hkern u1="K" u2="T" k="36" />
<hkern u1="K" u2="U" k="36" />
<hkern u1="K" u2="a" k="-38" />
<hkern u1="K" u2="e" k="-38" />
<hkern u1="K" u2="o" k="-38" />
<hkern u1="K" u2="y" k="112" />
<hkern u1="K" u2="&#xc5;" k="-38" />
<hkern u1="K" u2="&#xd8;" k="36" />
<hkern u1="K" u2="&#xe6;" k="-38" />
<hkern u1="K" u2="&#xf8;" k="-38" />
<hkern u1="K" u2="&#xab;" k="55" />
<hkern u1="K" u2="&#xbb;" k="-38" />
<hkern u1="K" u2="&#x152;" k="36" />
<hkern u1="K" u2="&#x153;" k="-38" />
<hkern u1="K" u2="&#x201c;" k="-38" />
<hkern u1="K" u2="&#x201d;" k="-38" />
<hkern u1="K" u2="&#x2018;" k="-38" />
<hkern u1="K" u2="&#x2019;" k="-38" />
<hkern u1="K" u2="&#x2039;" k="55" />
<hkern u1="K" u2="&#x203a;" k="-38" />
<hkern u1="K" u2="&#x201a;" k="-75" />
<hkern u1="K" u2="&#x201e;" k="-75" />
<hkern u1="L" u2="-" k="-38" />
<hkern u1="L" u2="O" k="36" />
<hkern u1="L" u2="T" k="225" />
<hkern u1="L" u2="U" k="73" />
<hkern u1="L" u2="V" k="188" />
<hkern u1="L" u2="W" k="149" />
<hkern u1="L" u2="Y" k="149" />
<hkern u1="L" u2="u" k="36" />
<hkern u1="L" u2="y" k="73" />
<hkern u1="L" u2="&#xd8;" k="36" />
<hkern u1="L" u2="&#x152;" k="36" />
<hkern u1="L" u2="&#x201c;" k="264" />
<hkern u1="L" u2="&#x201d;" k="235" />
<hkern u1="L" u2="&#x2018;" k="264" />
<hkern u1="L" u2="&#x2019;" k="235" />
<hkern u1="L" u2="&#x201a;" k="-75" />
<hkern u1="L" u2="&#x201e;" k="-75" />
<hkern u1="O" u2="&#x2c;" k="83" />
<hkern u1="O" u2="-" k="-57" />
<hkern u1="O" u2="." k="83" />
<hkern u1="O" u2=":" k="-38" />
<hkern u1="O" u2=";" k="-38" />
<hkern u1="O" u2="X" k="36" />
<hkern u1="O" u2="Y" k="36" />
<hkern u1="O" u2="&#x201c;" k="-75" />
<hkern u1="O" u2="&#x2018;" k="-75" />
<hkern u1="O" u2="&#x201a;" k="73" />
<hkern u1="O" u2="&#x201e;" k="73" />
<hkern u1="P" u2="&#x2c;" k="376" />
<hkern u1="P" u2="-" k="120" />
<hkern u1="P" u2="." k="376" />
<hkern u1="P" u2=":" k="55" />
<hkern u1="P" u2=";" k="55" />
<hkern u1="P" u2="A" k="112" />
<hkern u1="P" u2="W" k="45" />
<hkern u1="P" u2="Y" k="36" />
<hkern u1="P" u2="a" k="55" />
<hkern u1="P" u2="e" k="55" />
<hkern u1="P" u2="i" k="36" />
<hkern u1="P" u2="n" k="36" />
<hkern u1="P" u2="o" k="55" />
<hkern u1="P" u2="r" k="36" />
<hkern u1="P" u2="s" k="36" />
<hkern u1="P" u2="u" k="36" />
<hkern u1="P" u2="&#xc5;" k="112" />
<hkern u1="P" u2="&#xe6;" k="55" />
<hkern u1="P" u2="&#xf8;" k="55" />
<hkern u1="P" u2="&#xab;" k="112" />
<hkern u1="P" u2="&#xbb;" k="36" />
<hkern u1="P" u2="&#x153;" k="55" />
<hkern u1="P" u2="&#x201c;" k="-38" />
<hkern u1="P" u2="&#x201d;" k="-47" />
<hkern u1="P" u2="&#x2018;" k="-38" />
<hkern u1="P" u2="&#x2019;" k="-47" />
<hkern u1="P" u2="&#x2039;" k="112" />
<hkern u1="P" u2="&#x203a;" k="36" />
<hkern u1="P" u2="&#x201a;" k="415" />
<hkern u1="P" u2="&#x201e;" k="415" />
<hkern u1="Q" u2="&#x201c;" k="-38" />
<hkern u1="Q" u2="&#x2018;" k="-38" />
<hkern u1="Q" u2="&#x201a;" k="-227" />
<hkern u1="Q" u2="&#x201e;" k="-227" />
<hkern u1="R" u2="C" k="36" />
<hkern u1="R" u2="T" k="36" />
<hkern u1="R" u2="Y" k="36" />
<hkern u1="R" u2="y" k="36" />
<hkern u1="R" u2="&#xbb;" k="-38" />
<hkern u1="R" u2="&#x201d;" k="-38" />
<hkern u1="R" u2="&#x2019;" k="-38" />
<hkern u1="R" u2="&#x203a;" k="-38" />
<hkern u1="R" u2="&#x201a;" k="-75" />
<hkern u1="R" u2="&#x201e;" k="-75" />
<hkern u1="T" u2="&#x2c;" k="225" />
<hkern u1="T" u2="-" k="188" />
<hkern u1="T" u2="." k="225" />
<hkern u1="T" u2=":" k="92" />
<hkern u1="T" u2=";" k="92" />
<hkern u1="T" u2="A" k="112" />
<hkern u1="T" u2="a" k="159" />
<hkern u1="T" u2="c" k="159" />
<hkern u1="T" u2="e" k="159" />
<hkern u1="T" u2="i" k="55" />
<hkern u1="T" u2="o" k="159" />
<hkern u1="T" u2="r" k="102" />
<hkern u1="T" u2="s" k="120" />
<hkern u1="T" u2="u" k="159" />
<hkern u1="T" u2="w" k="159" />
<hkern u1="T" u2="y" k="159" />
<hkern u1="T" u2="&#xc5;" k="112" />
<hkern u1="T" u2="&#xe6;" k="159" />
<hkern u1="T" u2="&#xf8;" k="159" />
<hkern u1="T" u2="&#xab;" k="188" />
<hkern u1="T" u2="&#xbb;" k="112" />
<hkern u1="T" u2="&#x153;" k="159" />
<hkern u1="T" u2="&#x201c;" k="-38" />
<hkern u1="T" u2="&#x201d;" k="-38" />
<hkern u1="T" u2="&#x2018;" k="-38" />
<hkern u1="T" u2="&#x2019;" k="-38" />
<hkern u1="T" u2="&#x2039;" k="188" />
<hkern u1="T" u2="&#x203a;" k="112" />
<hkern u1="T" u2="&#x201a;" k="149" />
<hkern u1="T" u2="&#x201e;" k="149" />
<hkern u1="U" u2="A" k="55" />
<hkern u1="U" u2="J" k="55" />
<hkern u1="U" u2="&#xc5;" k="55" />
<hkern u1="V" u2="&#x2c;" k="225" />
<hkern u1="V" u2="-" k="112" />
<hkern u1="V" u2="." k="225" />
<hkern u1="V" u2=":" k="102" />
<hkern u1="V" u2=";" k="102" />
<hkern u1="V" u2="A" k="112" />
<hkern u1="V" u2="a" k="112" />
<hkern u1="V" u2="e" k="112" />
<hkern u1="V" u2="i" k="36" />
<hkern u1="V" u2="o" k="112" />
<hkern u1="V" u2="u" k="83" />
<hkern u1="V" u2="y" k="45" />
<hkern u1="V" u2="&#xc5;" k="112" />
<hkern u1="V" u2="&#xe6;" k="112" />
<hkern u1="V" u2="&#xf8;" k="112" />
<hkern u1="V" u2="&#xab;" k="73" />
<hkern u1="V" u2="&#xbb;" k="83" />
<hkern u1="V" u2="&#x153;" k="112" />
<hkern u1="V" u2="&#x201c;" k="-75" />
<hkern u1="V" u2="&#x201d;" k="-94" />
<hkern u1="V" u2="&#x2018;" k="-75" />
<hkern u1="V" u2="&#x2019;" k="-94" />
<hkern u1="V" u2="&#x2039;" k="73" />
<hkern u1="V" u2="&#x203a;" k="83" />
<hkern u1="V" u2="&#x201a;" k="188" />
<hkern u1="V" u2="&#x201e;" k="188" />
<hkern u1="W" u2="&#x2c;" k="178" />
<hkern u1="W" u2="-" k="83" />
<hkern u1="W" u2="." k="178" />
<hkern u1="W" u2=":" k="83" />
<hkern u1="W" u2=";" k="83" />
<hkern u1="W" u2="A" k="92" />
<hkern u1="W" u2="a" k="120" />
<hkern u1="W" u2="e" k="120" />
<hkern u1="W" u2="i" k="36" />
<hkern u1="W" u2="o" k="120" />
<hkern u1="W" u2="r" k="45" />
<hkern u1="W" u2="u" k="63" />
<hkern u1="W" u2="y" k="73" />
<hkern u1="W" u2="&#xc5;" k="92" />
<hkern u1="W" u2="&#xe6;" k="120" />
<hkern u1="W" u2="&#xf8;" k="120" />
<hkern u1="W" u2="&#xab;" k="73" />
<hkern u1="W" u2="&#xbb;" k="55" />
<hkern u1="W" u2="&#x153;" k="120" />
<hkern u1="W" u2="&#x201c;" k="-38" />
<hkern u1="W" u2="&#x201d;" k="-75" />
<hkern u1="W" u2="&#x2018;" k="-38" />
<hkern u1="W" u2="&#x2019;" k="-75" />
<hkern u1="W" u2="&#x2039;" k="73" />
<hkern u1="W" u2="&#x203a;" k="55" />
<hkern u1="W" u2="&#x201a;" k="188" />
<hkern u1="W" u2="&#x201e;" k="188" />
<hkern u1="X" u2="A" k="-38" />
<hkern u1="X" u2="C" k="36" />
<hkern u1="X" u2="O" k="36" />
<hkern u1="X" u2="e" k="36" />
<hkern u1="X" u2="&#xc5;" k="-38" />
<hkern u1="X" u2="&#xd8;" k="36" />
<hkern u1="X" u2="&#xab;" k="36" />
<hkern u1="X" u2="&#xbb;" k="-38" />
<hkern u1="X" u2="&#x152;" k="36" />
<hkern u1="X" u2="&#x201d;" k="-75" />
<hkern u1="X" u2="&#x2019;" k="-75" />
<hkern u1="X" u2="&#x2039;" k="36" />
<hkern u1="X" u2="&#x203a;" k="-38" />
<hkern u1="X" u2="&#x201a;" k="-114" />
<hkern u1="X" u2="&#x201e;" k="-114" />
<hkern u1="Y" u2="&#x2c;" k="235" />
<hkern u1="Y" u2="-" k="149" />
<hkern u1="Y" u2="." k="235" />
<hkern u1="Y" u2=":" k="139" />
<hkern u1="Y" u2=";" k="139" />
<hkern u1="Y" u2="A" k="92" />
<hkern u1="Y" u2="C" k="73" />
<hkern u1="Y" u2="O" k="36" />
<hkern u1="Y" u2="a" k="159" />
<hkern u1="Y" u2="e" k="159" />
<hkern u1="Y" u2="i" k="36" />
<hkern u1="Y" u2="o" k="159" />
<hkern u1="Y" u2="u" k="73" />
<hkern u1="Y" u2="&#xc5;" k="92" />
<hkern u1="Y" u2="&#xd8;" k="36" />
<hkern u1="Y" u2="&#xe6;" k="159" />
<hkern u1="Y" u2="&#xf8;" k="159" />
<hkern u1="Y" u2="&#xab;" k="225" />
<hkern u1="Y" u2="&#xbb;" k="149" />
<hkern u1="Y" u2="&#x152;" k="36" />
<hkern u1="Y" u2="&#x153;" k="159" />
<hkern u1="Y" u2="&#x201c;" k="-75" />
<hkern u1="Y" u2="&#x201d;" k="-75" />
<hkern u1="Y" u2="&#x2018;" k="-75" />
<hkern u1="Y" u2="&#x2019;" k="-75" />
<hkern u1="Y" u2="&#x2039;" k="225" />
<hkern u1="Y" u2="&#x203a;" k="149" />
<hkern u1="Y" u2="&#x201a;" k="149" />
<hkern u1="Y" u2="&#x201e;" k="149" />
<hkern u1="Z" u2="&#x201c;" k="36" />
<hkern u1="Z" u2="&#x201d;" k="-38" />
<hkern u1="Z" u2="&#x2018;" k="36" />
<hkern u1="Z" u2="&#x2019;" k="-38" />
<hkern u1="Z" u2="&#x201a;" k="-38" />
<hkern u1="Z" u2="&#x201e;" k="-38" />
<hkern u1="e" u2="x" k="-38" />
<hkern u1="f" u2="&#x201c;" k="-104" />
<hkern u1="f" u2="&#x201d;" k="-114" />
<hkern u1="f" u2="&#x2018;" k="-104" />
<hkern u1="f" u2="&#x2019;" k="-114" />
<hkern u1="f" u2="&#x201a;" k="-75" />
<hkern u1="f" u2="&#x201e;" k="-75" />
<hkern u1="k" u2="a" k="36" />
<hkern u1="k" u2="&#xe6;" k="36" />
<hkern u1="n" u2="&#xbb;" k="-38" />
<hkern u1="n" u2="&#x201c;" k="36" />
<hkern u1="n" u2="&#x201d;" k="36" />
<hkern u1="n" u2="&#x2018;" k="36" />
<hkern u1="n" u2="&#x2019;" k="36" />
<hkern u1="n" u2="&#x203a;" k="-38" />
<hkern u1="n" u2="&#x201a;" k="-114" />
<hkern u1="n" u2="&#x201e;" k="-114" />
<hkern u1="o" u2="-" k="-38" />
<hkern u1="o" u2="x" k="-38" />
<hkern u1="o" u2="&#x201d;" k="-38" />
<hkern u1="o" u2="&#x2019;" k="-38" />
<hkern u1="o" u2="&#x201a;" k="-38" />
<hkern u1="o" u2="&#x201e;" k="-38" />
<hkern u1="r" u2="&#x2c;" k="131" />
<hkern u1="r" u2="." k="131" />
<hkern u1="r" u2="u" k="-38" />
<hkern u1="r" u2="v" k="-75" />
<hkern u1="r" u2="w" k="-57" />
<hkern u1="r" u2="y" k="-57" />
<hkern u1="r" u2="&#xab;" k="36" />
<hkern u1="r" u2="&#xbb;" k="-38" />
<hkern u1="r" u2="&#x201c;" k="-114" />
<hkern u1="r" u2="&#x201d;" k="-86" />
<hkern u1="r" u2="&#x2018;" k="-114" />
<hkern u1="r" u2="&#x2019;" k="-86" />
<hkern u1="r" u2="&#x2039;" k="36" />
<hkern u1="r" u2="&#x203a;" k="-38" />
<hkern u1="r" u2="&#x201a;" k="45" />
<hkern u1="r" u2="&#x201e;" k="45" />
<hkern u1="v" u2="&#x2c;" k="159" />
<hkern u1="v" u2="." k="159" />
<hkern u1="v" u2="&#x201c;" k="-114" />
<hkern u1="v" u2="&#x201d;" k="-38" />
<hkern u1="v" u2="&#x2018;" k="-114" />
<hkern u1="v" u2="&#x2019;" k="-38" />
<hkern u1="v" u2="&#x201a;" k="149" />
<hkern u1="v" u2="&#x201e;" k="149" />
<hkern u1="w" u2="&#x2c;" k="149" />
<hkern u1="w" u2="-" k="-38" />
<hkern u1="w" u2="." k="149" />
<hkern u1="w" u2="&#xbb;" k="-75" />
<hkern u1="w" u2="&#x201c;" k="-94" />
<hkern u1="w" u2="&#x201d;" k="-38" />
<hkern u1="w" u2="&#x2018;" k="-94" />
<hkern u1="w" u2="&#x2019;" k="-38" />
<hkern u1="w" u2="&#x203a;" k="-75" />
<hkern u1="w" u2="&#x201a;" k="120" />
<hkern u1="w" u2="&#x201e;" k="120" />
<hkern u1="x" u2="c" k="-38" />
<hkern u1="x" u2="e" k="-38" />
<hkern u1="x" u2="o" k="-38" />
<hkern u1="x" u2="&#xf8;" k="-38" />
<hkern u1="x" u2="&#x153;" k="-38" />
<hkern u1="y" u2="&#x2c;" k="139" />
<hkern u1="y" u2="." k="139" />
<hkern u1="y" u2=":" k="-38" />
<hkern u1="y" u2=";" k="-38" />
<hkern u1="y" u2="&#xbb;" k="-75" />
<hkern u1="y" u2="&#x201c;" k="-114" />
<hkern u1="y" u2="&#x201d;" k="-38" />
<hkern u1="y" u2="&#x2018;" k="-114" />
<hkern u1="y" u2="&#x2019;" k="-38" />
<hkern u1="y" u2="&#x203a;" k="-75" />
<hkern u1="y" u2="&#x201a;" k="73" />
<hkern u1="y" u2="&#x201e;" k="73" />
<hkern u1="&#xc5;" u2="&#x2c;" k="-38" />
<hkern u1="&#xc5;" u2="." k="-38" />
<hkern u1="&#xc5;" u2="A" k="-38" />
<hkern u1="&#xc5;" u2="C" k="36" />
<hkern u1="&#xc5;" u2="G" k="36" />
<hkern u1="&#xc5;" u2="Q" k="36" />
<hkern u1="&#xc5;" u2="S" k="-38" />
<hkern u1="&#xc5;" u2="T" k="112" />
<hkern u1="&#xc5;" u2="U" k="45" />
<hkern u1="&#xc5;" u2="V" k="83" />
<hkern u1="&#xc5;" u2="W" k="92" />
<hkern u1="&#xc5;" u2="X" k="36" />
<hkern u1="&#xc5;" u2="Y" k="92" />
<hkern u1="&#xc5;" u2="c" k="-38" />
<hkern u1="&#xc5;" u2="d" k="-38" />
<hkern u1="&#xc5;" u2="e" k="-38" />
<hkern u1="&#xc5;" u2="f" k="-38" />
<hkern u1="&#xc5;" u2="o" k="-38" />
<hkern u1="&#xc5;" u2="q" k="-38" />
<hkern u1="&#xc5;" u2="&#xc5;" k="-38" />
<hkern u1="&#xc5;" u2="&#xf8;" k="-38" />
<hkern u1="&#xc5;" u2="&#xbb;" k="-75" />
<hkern u1="&#xc5;" u2="&#x153;" k="-38" />
<hkern u1="&#xc5;" u2="&#x201c;" k="188" />
<hkern u1="&#xc5;" u2="&#x201d;" k="167" />
<hkern u1="&#xc5;" u2="&#x2018;" k="188" />
<hkern u1="&#xc5;" u2="&#x2019;" k="167" />
<hkern u1="&#xc5;" u2="&#x203a;" k="-75" />
<hkern u1="&#xc5;" u2="&#x201a;" k="-114" />
<hkern u1="&#xc5;" u2="&#x201e;" k="-114" />
<hkern u1="&#xdf;" u2="-" k="-38" />
<hkern u1="&#xdf;" u2="&#x201c;" k="36" />
<hkern u1="&#xdf;" u2="&#x201d;" k="55" />
<hkern u1="&#xdf;" u2="&#x2018;" k="36" />
<hkern u1="&#xdf;" u2="&#x2019;" k="55" />
<hkern u1="&#xc6;" u2="-" k="-38" />
<hkern u1="&#xc6;" u2="&#x201c;" k="-38" />
<hkern u1="&#xc6;" u2="&#x2018;" k="-38" />
<hkern u1="&#xd8;" u2="&#x2c;" k="83" />
<hkern u1="&#xd8;" u2="-" k="-57" />
<hkern u1="&#xd8;" u2="." k="83" />
<hkern u1="&#xd8;" u2=":" k="-38" />
<hkern u1="&#xd8;" u2=";" k="-38" />
<hkern u1="&#xd8;" u2="X" k="36" />
<hkern u1="&#xd8;" u2="Y" k="36" />
<hkern u1="&#xd8;" u2="&#x201c;" k="-75" />
<hkern u1="&#xd8;" u2="&#x2018;" k="-75" />
<hkern u1="&#xd8;" u2="&#x201a;" k="73" />
<hkern u1="&#xd8;" u2="&#x201e;" k="73" />
<hkern u1="&#xe6;" u2="x" k="-38" />
<hkern u1="&#xf8;" u2="-" k="-38" />
<hkern u1="&#xf8;" u2="x" k="-38" />
<hkern u1="&#xf8;" u2="&#x201d;" k="-38" />
<hkern u1="&#xf8;" u2="&#x2019;" k="-38" />
<hkern u1="&#xf8;" u2="&#x201a;" k="-38" />
<hkern u1="&#xf8;" u2="&#x201e;" k="-38" />
<hkern u1="&#xab;" u2="A" k="-75" />
<hkern u1="&#xab;" u2="J" k="-38" />
<hkern u1="&#xab;" u2="T" k="112" />
<hkern u1="&#xab;" u2="V" k="36" />
<hkern u1="&#xab;" u2="X" k="-75" />
<hkern u1="&#xab;" u2="Y" k="149" />
<hkern u1="&#xab;" u2="w" k="-75" />
<hkern u1="&#xab;" u2="y" k="-94" />
<hkern u1="&#xab;" u2="&#xc5;" k="-75" />
<hkern u1="&#xab;" u2="&#xc6;" k="-38" />
<hkern u1="&#xbb;" u2="J" k="-75" />
<hkern u1="&#xbb;" u2="T" k="188" />
<hkern u1="&#xbb;" u2="V" k="73" />
<hkern u1="&#xbb;" u2="W" k="55" />
<hkern u1="&#xbb;" u2="Y" k="225" />
<hkern u1="&#x153;" u2="x" k="-38" />
<hkern u1="&#x201c;" u2="A" k="131" />
<hkern u1="&#x201c;" u2="J" k="188" />
<hkern u1="&#x201c;" u2="T" k="-38" />
<hkern u1="&#x201c;" u2="V" k="-57" />
<hkern u1="&#x201c;" u2="W" k="-47" />
<hkern u1="&#x201c;" u2="Y" k="-65" />
<hkern u1="&#x201c;" u2="f" k="-75" />
<hkern u1="&#x201c;" u2="v" k="-38" />
<hkern u1="&#x201c;" u2="w" k="-38" />
<hkern u1="&#x201c;" u2="y" k="-38" />
<hkern u1="&#x201c;" u2="&#xc5;" k="131" />
<hkern u1="&#x201c;" u2="&#xdf;" k="73" />
<hkern u1="&#x201c;" u2="&#xc6;" k="243" />
<hkern u1="&#x2018;" u2="A" k="131" />
<hkern u1="&#x2018;" u2="J" k="188" />
<hkern u1="&#x2018;" u2="T" k="-38" />
<hkern u1="&#x2018;" u2="V" k="-57" />
<hkern u1="&#x2018;" u2="W" k="-47" />
<hkern u1="&#x2018;" u2="Y" k="-65" />
<hkern u1="&#x2018;" u2="f" k="-75" />
<hkern u1="&#x2018;" u2="v" k="-38" />
<hkern u1="&#x2018;" u2="w" k="-38" />
<hkern u1="&#x2018;" u2="y" k="-38" />
<hkern u1="&#x2018;" u2="&#xc5;" k="131" />
<hkern u1="&#x2018;" u2="&#xdf;" k="73" />
<hkern u1="&#x2018;" u2="&#xc6;" k="243" />
<hkern u1="&#x2039;" u2="A" k="-75" />
<hkern u1="&#x2039;" u2="J" k="-38" />
<hkern u1="&#x2039;" u2="T" k="112" />
<hkern u1="&#x2039;" u2="V" k="36" />
<hkern u1="&#x2039;" u2="X" k="-75" />
<hkern u1="&#x2039;" u2="Y" k="149" />
<hkern u1="&#x2039;" u2="w" k="-75" />
<hkern u1="&#x2039;" u2="y" k="-94" />
<hkern u1="&#x2039;" u2="&#xc5;" k="-75" />
<hkern u1="&#x2039;" u2="&#xc6;" k="-38" />
<hkern u1="&#x203a;" u2="J" k="-75" />
<hkern u1="&#x203a;" u2="T" k="188" />
<hkern u1="&#x203a;" u2="V" k="73" />
<hkern u1="&#x203a;" u2="W" k="55" />
<hkern u1="&#x203a;" u2="Y" k="225" />
<hkern u1="&#x201a;" u2="A" k="-38" />
<hkern u1="&#x201a;" u2="G" k="73" />
<hkern u1="&#x201a;" u2="J" k="-38" />
<hkern u1="&#x201a;" u2="T" k="206" />
<hkern u1="&#x201a;" u2="V" k="225" />
<hkern u1="&#x201a;" u2="W" k="178" />
<hkern u1="&#x201a;" u2="Y" k="225" />
<hkern u1="&#x201a;" u2="f" k="-38" />
<hkern u1="&#x201a;" u2="v" k="149" />
<hkern u1="&#x201a;" u2="w" k="120" />
<hkern u1="&#x201a;" u2="y" k="36" />
<hkern u1="&#x201a;" u2="&#xc5;" k="-38" />
<hkern u1="&#x201a;" u2="&#xc6;" k="-75" />
<hkern u1="&#x201e;" u2="A" k="-38" />
<hkern u1="&#x201e;" u2="G" k="73" />
<hkern u1="&#x201e;" u2="J" k="-38" />
<hkern u1="&#x201e;" u2="T" k="206" />
<hkern u1="&#x201e;" u2="V" k="225" />
<hkern u1="&#x201e;" u2="W" k="178" />
<hkern u1="&#x201e;" u2="Y" k="225" />
<hkern u1="&#x201e;" u2="f" k="-38" />
<hkern u1="&#x201e;" u2="v" k="149" />
<hkern u1="&#x201e;" u2="w" k="120" />
<hkern u1="&#x201e;" u2="y" k="36" />
<hkern u1="&#x201e;" u2="&#xc5;" k="-38" />
<hkern u1="&#x201e;" u2="&#xc6;" k="-75" />
<hkern u1="&#xd0;" u2="-" k="-65" />
<hkern u1="&#xd0;" u2="A" k="36" />
<hkern u1="&#xd0;" u2="Y" k="36" />
<hkern u1="&#xd0;" u2="&#xc5;" k="36" />
<hkern u1="&#xd0;" u2="&#x201c;" k="-75" />
<hkern u1="&#xd0;" u2="&#x2018;" k="-75" />
<hkern u1="&#xd0;" u2="&#x201a;" k="36" />
<hkern u1="&#xd0;" u2="&#x201e;" k="36" />

</font>
</defs>
<text x="40" y="40" font-family="Geom Slab 703 W01 Extra Bold It" font-size="30" fill="#933" >ABCDEFGHIJKLMNOPQRSTUVWXYZ abcdefghijklmnopqrstuvwxyz AÁÀÂÄÅÃÆ CÇ DÐ EÉÈÊË I Í Ì Î Ï NÑ</text>
<text x="40" y="80" font-family="Geom Slab 703 W01 Extra Bold It" font-size="30" fill="#933" >OÓÒÔÖÕØŒ SŠ UÚÙÛÜ YÝŸ ZŽ Þ aáàâäåãæ cç dð eéèêë i ı í ì î ï nñ oóòôöõøœ sšß uúùûü yýÿ zž</text>
<text x="40" y="120" font-family="Geom Slab 703 W01 Extra Bold It" font-size="30" fill="#933" >þ 1234567890 ½ ¼ ¾ % ‰ $¢£¥ƒ€¤ † ‡ § ¶ # ^~µ +×± &lt; = &gt; ÷¬ !¡?¿ &quot; &amp; &apos; * ° . , : ; () [ \ ] {} / |</text>
<text x="40" y="160" font-family="Geom Slab 703 W01 Extra Bold It" font-size="30" fill="#933" >¦ _ ‚ „ … ‹› «» ‘ ’ “ ” • ­ - – — @ © ® ™ ªº ¹²³ ´ ` ˆ ˜ ¨ ¯ · ¸</text>
</svg>
