<?xml  version="1.0" encoding="UTF-8"?>
<!DOCTYPE svg PUBLIC "-//W3C//DTD SVG 1.0//EN" "http://www.w3.org/TR/2001/REC-SVG-20010904/DTD/svg10.dtd" >
<svg xmlns="http://www.w3.org/2000/svg" >
<metadata>
<version>1.0</version>
<id><![CDATA[VAG Rounded LT W01 Light]]></id>
<vendor>Monotype Imaging Inc.</vendor>
<credits>
<name>Fonts.com WebFonts</name>
<URL>http://webfonts.fonts.com</URL>
<role>Home of the Web fonts</role>
</credits>
<license>
<URL>http://webfonts.fonts.com/Legal</URL>
</license>
<copyright><![CDATA[Copyright © 2014 Monotype GmbH. All rights reserved.]]></copyright>
<trademark><![CDATA[VAG Rounded is a trademark of Monotype GmbH and may be registered in certain jurisdictions.]]></trademark>
<licensee>
<name></name>
</licensee>
</metadata>
<defs >
<font horiz-adv-x="477" id="8f970467-2b07-48c7-90c6-08e5545ad175">
<font-face font-family="VAG Rounded LT W01 Light" panose-1="2 15 5 2 2 2 4 2 2 4" ascent="935" descent="-293" units-per-em="1000" alphabetic="0">
</font-face>
<missing-glyph horiz-adv-x="485" d="M245 577Q297 577 330 543T363 453Q363 419 349 394T302 339Q286 324 277 315T264 295T258 273T257 240V222H211V237Q211 286 221 311T254 356Q280 380 297 400T314 449Q314 481 293 505T242 529Q209 529 189 505T165 439L117 447Q124 512 157 544T245 577ZM210 174H263V111H210V174ZM438 47V632H47V47H438ZM485 680V0H0V680H485Z"  />

<glyph unicode="&#xA;" />
<glyph unicode="&#xD;" horiz-adv-x="250" />
<glyph unicode=" " horiz-adv-x="250" />
<glyph unicode="!" horiz-adv-x="296" d="M148 96Q168 96 183 81T199 45Q199 25 185 10T148 -6Q127 -6 112 9T97 45Q97 67 112 81T148 96ZM148 718Q169 718 180 705T192 673V236Q192 217 181 204T148 191Q127 191 116 204T104 236V673Q104 692 115 705T148 718Z"  />
<glyph unicode="&quot;" horiz-adv-x="334" d="M238 718Q259 718 269 706T279 674V537Q279 517 268 507T238 496Q216 496 207 508T197 537V674Q197 718 238 718ZM96 718Q117 718 127 706T137 674V537Q137 496 96 496Q75 496 65 508T55 537V674Q55 718 96 718Z"  />
<glyph unicode="#" horiz-adv-x="536" d="M54 216Q38 216 26 224T14 249Q14 266 26 274T56 282H125L146 430H83Q69 430 57 438T44 463Q44 480 56 488T83 496H155L180 676Q183 701 192 709T219 718Q237 718 245 708T253 684Q253 673 251 658T248 639L228 496H347L373 683Q375 699 383 708T411 718Q429 718 437 708T445 684Q445 673 443 658T439 637L420 496H482Q497 496 509 488T522 463Q522 445 510 438T483 430H411L390 282H451Q467 282 479 274T492 249Q492 232 480 224T451 216H381L355 31Q352 11 345 3T317 -6Q300 -6 292 4T283 28Q283 39 285 54T289 77L308 216H189L164 35Q161 12 153 3T125 -6Q107 -6 99 4T91 28Q91 38 93 52T97 74L116 216H54ZM198 282H317L338 430H219L198 282Z"  />
<glyph unicode="$" horiz-adv-x="481" d="M260 75Q309 85 337 122T366 215Q366 255 342 283T260 332V75ZM122 541Q122 507 144 483T218 439V642Q172 636 147 608T122 541ZM239 786Q260 786 260 761V718Q329 712 371 688T413 635Q413 619 403 608T375 596Q359 596 342 607Q323 620 304 629T260 642V423Q318 404 356 384T418 338T450 284T460 219Q460 176 446 138T406 71T342 23T260 -2V-49Q260 -74 239 -74Q218 -74 218 -49V-6Q179 -6 144 2T81 22T38 51T21 83Q21 101 31 113T56 125Q71 125 89 114Q121 94 150 82T218 70V347Q130 376 97 400Q64 423 46 455T28 535Q28 568 42 600T82 657T143 698T218 718V761Q218 786 239 786Z"  />
<glyph unicode="%" horiz-adv-x="741" d="M461 163Q461 112 483 80T547 48Q589 48 611 80T633 163Q633 214 611 246T546 278Q507 278 484 247T461 163ZM547 332Q581 332 609 320T657 285T688 231T699 163Q699 128 689 98T660 44T612 8T547 -6Q511 -6 483 7T436 43T406 96T395 163Q395 200 406 231T437 284T485 319T547 332ZM108 549Q108 498 130 466T194 434Q236 434 258 466T280 549Q280 600 258 632T193 664Q154 664 131 633T108 549ZM194 718Q228 718 256 706T304 671T335 617T346 549Q346 514 336 484T307 430T259 394T194 380Q158 380 130 393T83 429T53 482T42 549Q42 586 53 617T84 670T132 705T194 718ZM510 726Q528 726 536 717T545 699Q545 688 531 654L264 13Q253 -14 228 -14Q211 -14 203 -6T195 13Q195 21 200 35T209 58L471 687Q482 712 490 719T510 726Z"  />
<glyph unicode="&amp;" horiz-adv-x="667" d="M124 211Q124 150 160 113T263 76Q311 76 347 97T426 167L244 377Q180 340 152 303T124 211ZM204 576Q204 558 218 536T270 472Q315 498 339 524T364 577Q364 609 341 628T282 648Q247 648 226 628T204 576ZM290 718Q321 718 349 709T399 682T433 642T446 591Q446 539 417 497T318 417L477 229Q487 242 498 258T520 293Q544 333 556 347T583 361Q597 361 608 354T619 331Q619 305 595 265T526 171L610 71Q620 60 625 52T631 30Q631 14 621 4T595 -6Q585 -6 577 -3T561 10L475 109Q429 51 374 23T255 -6Q210 -6 170 8T101 50T54 115T36 202Q36 239 43 269T69 327T118 381T195 434Q157 473 137 507T116 574Q116 644 162 681T290 718Z"  />
<glyph unicode="&apos;" horiz-adv-x="204" d="M102 718Q123 718 133 706T143 674V537Q143 518 133 507T102 496Q80 496 71 508T61 537V674Q61 718 102 718Z"  />
<glyph unicode="(" horiz-adv-x="241" d="M166 736Q184 736 193 727T202 705Q202 700 198 685T186 647Q170 599 159 519T147 318Q147 192 160 107T191 -27Q202 -57 202 -70Q202 -82 194 -91T167 -100Q150 -100 139 -85T113 -27Q102 4 94 44T79 130T69 223T65 318Q65 378 70 443T89 569Q108 655 124 695T166 736Z"  />
<glyph unicode=")" horiz-adv-x="241" d="M75 736Q101 736 117 696T152 569Q165 509 170 444T176 318Q176 271 173 223T163 130T147 45T128 -27Q114 -70 103 -85T74 -100Q56 -100 48 -91T39 -70Q39 -57 50 -27Q67 21 80 106T94 318Q94 438 83 518T55 647Q47 670 43 685T39 705Q39 718 48 727T75 736Z"  />
<glyph unicode="*" horiz-adv-x="390" d="M195 718Q212 718 221 708T231 683Q231 674 230 662T226 635T222 607T220 579Q227 583 239 593T266 615T293 635T317 644Q331 644 341 634T352 610Q352 599 348 592T324 576L240 541L325 506Q344 498 348 491T352 472Q352 458 342 448T317 438Q307 438 294 446T267 465T241 487T220 503Q220 493 221 478T225 448T229 420T231 399Q231 385 222 375T195 364Q178 364 169 374T159 399Q159 405 160 418T164 447T168 477T170 503Q162 498 150 488T124 466T97 447T73 438Q58 438 48 448T38 472Q38 482 42 490T66 506L150 541L66 576Q47 584 43 591T38 610Q38 624 48 634T73 644Q83 644 96 636T123 616T149 595T170 579Q170 589 169 604T165 634T161 662T159 683Q159 697 168 707T195 718Z"  />
<glyph unicode="+" horiz-adv-x="600" d="M300 506Q322 506 331 493T341 465V294H512Q528 294 540 284T553 253Q553 231 541 222T512 212H341V41Q341 25 332 13T300 0Q278 0 269 12T259 41V212H88Q72 212 60 222T47 253Q47 274 59 284T88 294H259V465Q259 480 268 493T300 506Z"  />
<glyph unicode="&#x2c;" horiz-adv-x="250" d="M136 96Q152 96 164 85T176 58Q176 42 166 23L110 -87Q96 -114 85 -120T62 -126Q45 -126 34 -115T22 -88Q22 -78 25 -70T40 -37L90 61Q107 96 136 96Z"  />
<glyph unicode="-" horiz-adv-x="352" d="M280 306Q294 306 305 295T317 268Q317 252 306 241T280 230H72Q58 230 47 241T35 268Q35 284 46 295T72 306H280Z"  />
<glyph unicode="." horiz-adv-x="250" d="M125 96Q145 96 160 82T176 45Q176 24 161 9T125 -6Q104 -6 89 9T74 45Q74 67 89 81T125 96Z"  />
<glyph unicode="/" horiz-adv-x="407" d="M348 718Q365 718 376 708T387 682Q387 675 384 664T366 621L103 31Q90 3 79 -1T59 -6Q42 -6 31 4T20 31Q20 44 32 70L307 688Q312 698 321 708T348 718Z"  />
<glyph unicode="0" horiz-adv-x="536" d="M127 356Q127 216 166 143T268 70Q331 70 370 143T409 356Q409 495 372 568T268 642Q205 642 166 570T127 356ZM268 718Q317 718 360 693T434 622T484 509T503 361Q503 272 485 204T435 89T361 18T272 -6Q221 -6 177 18T101 89T51 203T33 356Q33 439 51 506T100 620T175 692T268 718Z"  />
<glyph unicode="1" horiz-adv-x="352" d="M252 39Q252 20 241 7T208 -6Q187 -6 176 7T164 39V636H70Q57 636 46 647T34 674Q34 691 45 701T70 712H228Q252 712 252 687V39Z"  />
<glyph unicode="2" horiz-adv-x="536" d="M278 718Q319 718 354 705T415 667T455 610T470 539Q470 491 458 459T424 398L182 76H454Q467 76 478 65T490 38Q490 22 479 11T454 0H104Q84 0 72 10T59 36Q59 49 71 66T109 117L325 406Q349 438 362 469T376 531Q376 580 344 611T263 642Q233 642 209 630T168 597T142 547T133 482Q133 460 122 451T94 441Q73 441 62 454T51 496Q51 542 67 582T112 653T184 700T278 718Z"  />
<glyph unicode="3" horiz-adv-x="536" d="M253 718Q295 718 329 704T388 664T425 606T438 534Q438 486 416 447T354 383Q412 366 444 320T476 210Q476 160 459 121T412 53T340 9T249 -6Q196 -6 157 11T92 54T54 107T41 158Q41 182 51 194T79 207Q96 207 107 197T127 161Q141 117 171 94T247 70Q277 70 301 80T344 109T372 151T382 203Q382 270 351 302T262 335Q230 335 217 345T204 373Q204 401 243 409Q304 422 327 450T350 526Q350 578 322 610T249 642Q201 642 177 614T148 537Q146 520 138 509T107 497Q87 497 77 509T66 539Q66 576 79 609T118 666T177 704T253 718Z"  />
<glyph unicode="4" horiz-adv-x="536" d="M122 259H334V624H332L122 259ZM355 718Q385 718 403 701T422 648V259H467Q482 259 493 248T505 221Q505 206 494 195T467 183H422V39Q422 20 411 7T378 -6Q357 -6 346 7T334 39V183H47Q12 183 12 214Q12 222 16 233T40 274L285 677Q299 701 315 709T355 718Z"  />
<glyph unicode="5" horiz-adv-x="536" d="M429 712Q446 712 457 701T469 674Q469 658 458 647T430 636H228L199 443Q222 455 245 459T292 463Q334 463 368 445T425 397T462 328T475 247Q475 189 459 142T413 62T341 12T244 -6Q200 -6 164 6T101 37T59 75T44 110Q44 127 52 138T76 150Q90 150 120 126Q147 104 175 90T245 76Q275 76 300 87T343 119T371 168T381 230Q381 302 349 341T257 381Q235 381 217 377T183 368T157 358T137 354Q122 354 115 362T107 381Q107 388 110 412L151 688Q153 703 161 707T182 712H429Z"  />
<glyph unicode="6" horiz-adv-x="536" d="M140 230Q140 160 172 118T265 76Q325 76 357 118T390 230Q390 305 359 344T265 384Q206 384 173 342T140 230ZM341 718Q354 718 365 706T377 677Q377 672 376 668T371 659T359 646T338 626Q318 608 300 590T264 549T228 498T189 432H191Q217 445 243 452T304 460Q344 460 377 443T434 394T471 319T484 226Q484 178 468 136T423 63T354 13T266 -6Q219 -6 180 12T113 63T68 141T52 239Q52 351 104 456T244 646Q272 673 288 687T314 708T329 716T341 718Z"  />
<glyph unicode="7" horiz-adv-x="500" d="M429 712Q446 712 459 706T472 684Q472 671 464 652L192 33Q186 19 179 11T165 -1T151 -5T138 -6Q124 -6 114 3T103 28Q103 31 103 35T107 48T116 71T133 110L367 636H69Q50 636 39 647T28 674Q28 690 39 701T69 712H429Z"  />
<glyph unicode="8" horiz-adv-x="536" d="M144 215Q144 182 153 155T180 110T219 81T268 70Q294 70 316 80T356 109T382 155T392 215Q392 276 359 316T267 357Q240 357 218 346T179 316T153 271T144 215ZM168 538Q168 490 195 462T268 433Q313 433 340 461T368 538Q368 584 341 613T268 642Q221 642 195 613T168 538ZM268 718Q305 718 338 707T396 674T435 623T450 555Q450 501 429 465T357 397Q417 383 451 334T486 219Q486 172 471 132T427 60T358 12T268 -6Q218 -6 178 12T110 60T66 132T50 219Q50 252 59 281T84 333T125 373T179 397Q128 429 107 465T86 555Q86 592 100 622T139 674T197 706T268 718Z"  />
<glyph unicode="9" horiz-adv-x="536" d="M146 482Q146 407 177 368T271 328Q331 328 363 370T396 482Q396 552 363 594T270 636Q213 636 180 595T146 482ZM270 718Q316 718 355 700T422 650T467 572T484 473Q484 361 432 256T285 59Q260 35 245 22T221 3T206 -5T195 -6Q181 -6 170 5T159 34Q159 38 160 42T166 53T180 69T208 95Q246 129 278 172T348 281Q322 267 295 260T232 252Q191 252 158 270T102 319T65 393T52 486Q52 535 68 577T114 650T183 700T270 718Z"  />
<glyph unicode=":" horiz-adv-x="250" d="M125 96Q145 96 160 82T176 45Q176 24 161 9T125 -6Q104 -6 89 9T74 45Q74 67 89 81T125 96ZM125 432Q145 432 160 418T176 381Q176 360 161 345T125 330Q104 330 89 345T74 381Q74 403 89 417T125 432Z"  />
<glyph unicode=";" horiz-adv-x="250" d="M136 96Q152 96 164 85T176 58Q176 42 166 23L110 -87Q96 -114 85 -120T62 -126Q45 -126 34 -115T22 -88Q22 -78 25 -70T40 -37L90 61Q107 96 136 96ZM125 432Q145 432 160 418T176 381Q176 360 161 345T125 330Q104 330 89 345T74 381Q74 403 89 417T125 432Z"  />
<glyph unicode="&lt;" horiz-adv-x="600" d="M521 512Q534 512 544 502T554 475Q554 462 547 454T524 438L150 253L471 94Q486 86 501 80T528 66T547 51T554 31Q554 15 544 5T521 -6Q511 -6 499 -1T478 9L82 207Q46 224 46 253Q46 269 54 279T80 298L472 494Q479 498 495 505T521 512Z"  />
<glyph unicode="=" horiz-adv-x="600" d="M510 190Q526 190 539 180T553 149Q553 127 540 118T510 108H90Q74 108 61 118T47 149Q47 170 60 180T90 190H510ZM510 398Q526 398 539 388T553 357Q553 335 540 326T510 316H90Q74 316 61 326T47 357Q47 378 60 388T90 398H510Z"  />
<glyph unicode="&gt;" horiz-adv-x="600" d="M79 512Q89 512 105 505T128 494L520 298Q537 290 545 280T554 253Q554 224 518 207L122 9Q114 5 102 0T79 -6Q66 -6 56 4T46 31Q46 42 53 50T72 66T99 79T129 94L450 253L76 438Q61 446 54 454T46 475Q46 491 56 501T79 512Z"  />
<glyph unicode="?" horiz-adv-x="444" d="M213 96Q234 96 249 81T265 45Q265 25 251 10T213 -6Q192 -6 178 9T163 45Q163 67 178 81T213 96ZM214 718Q259 718 298 704T365 665T410 607T426 534Q426 459 383 407T258 338V236Q258 217 247 204T214 191Q193 191 182 204T170 236V363Q170 375 172 383T181 397T201 408T236 417Q285 426 308 454T332 526Q332 574 301 605T216 636Q168 636 140 614T98 549Q88 521 62 521Q43 521 31 533T18 564Q18 595 34 623T78 672T140 705T214 718Z"  />
<glyph unicode="@" horiz-adv-x="919" d="M296 236Q296 191 322 161T390 131Q425 131 456 153T512 209T550 281T564 353Q564 402 540 431T470 460Q435 460 404 442T348 393T310 322T296 236ZM470 718Q563 718 639 691T769 616T853 505T883 369Q883 307 863 250T807 150T719 82T607 56Q568 56 546 76T519 131Q493 96 456 76T377 56Q338 56 308 69T255 105T222 161T210 235Q210 297 231 351T288 446T371 510T472 534Q524 534 556 515T606 459L615 483Q624 508 635 515T660 523Q674 523 685 514T697 487Q697 483 696 476T692 464L616 210Q608 181 608 165Q608 131 639 131Q669 131 699 150T752 200T791 274T806 361Q806 426 781 479T711 571T605 631T470 652Q394 652 329 624T216 547T141 433T113 293Q113 216 141 152T217 42T327 -31T458 -57Q548 -57 607 -37T708 12Q724 23 738 23Q751 23 760 14T769 -8Q769 -29 740 -50T665 -89T567 -117T465 -128Q372 -128 293 -97T157 -10T67 126T35 301Q35 385 69 461T162 594T300 684T470 718Z"  />
<glyph unicode="A" horiz-adv-x="612" d="M305 616L168 231H444L307 616H305ZM471 155H141L96 29Q90 13 80 4T52 -6Q35 -6 23 4T10 31Q10 39 15 54T22 76L244 667Q252 688 266 703T306 718Q331 718 345 703T369 665L590 76Q593 67 597 53T602 31Q602 14 590 4T560 -6Q542 -6 532 3T516 29L471 155Z"  />
<glyph unicode="B" horiz-adv-x="537" d="M273 76Q304 76 331 85T377 112T408 154T419 208Q419 237 409 261T379 302T334 329T277 339H146V76H273ZM249 411Q298 411 331 441T364 526Q364 580 333 608T252 636H146V411H249ZM353 384Q389 379 418 363T466 324T496 271T507 208Q507 162 490 124T443 59T370 16T278 0H103Q81 0 70 13T58 46V666Q58 685 69 698T103 712H258Q302 712 337 699T398 662T438 608T452 542Q452 485 425 442T353 386V384Z"  />
<glyph unicode="C" horiz-adv-x="593" d="M348 718Q392 718 430 708T495 681T538 647T554 613Q554 597 545 585T518 572Q500 572 482 589Q444 621 414 631T348 642Q292 642 251 619T181 556T139 465T125 356Q125 297 140 245T183 154T250 93T339 70Q371 70 395 75T438 89Q459 98 473 106T497 120T516 130T534 134Q550 134 559 123T569 93Q569 77 552 60T504 28T430 4T335 -6Q267 -6 212 22T116 99T53 213T31 353Q31 433 53 500T117 615T217 691T348 718Z"  />
<glyph unicode="D" horiz-adv-x="630" d="M278 76Q333 76 375 96T446 154T490 243T505 360Q505 424 489 475T443 562T371 617T275 636H151V76H278ZM288 712Q358 712 415 686T514 614T577 504T599 365Q599 279 578 212T517 97T421 25T295 0H108Q86 0 75 14T63 46V666Q63 684 74 698T108 712H288Z"  />
<glyph unicode="E" horiz-adv-x="444" d="M103 0Q81 0 70 13T58 46V666Q58 685 69 698T103 712H360Q377 712 389 702T401 671Q401 650 389 640T360 630H146V397H341Q357 397 369 387T382 356Q382 335 370 325T341 315H146V82H356Q376 82 388 72T401 41Q401 20 389 10T360 0H103Z"  />
<glyph unicode="F" horiz-adv-x="407" d="M357 712Q373 712 385 702T398 671Q398 650 386 640T357 630H146V397H333Q349 397 361 387T374 356Q374 335 362 325T333 315H146V39Q146 20 135 7T102 -6Q81 -6 70 7T58 39V666Q58 685 69 698T103 712H357Z"  />
<glyph unicode="G" horiz-adv-x="667" d="M356 718Q408 718 453 706T530 677T581 640T600 605Q600 588 589 575T558 562Q540 562 505 588Q470 614 435 628T350 642Q296 642 254 620T184 558T140 467T125 356Q125 294 140 242T184 152T256 92T354 70Q399 70 436 86T501 132T543 203T559 293V326H433Q417 326 405 336T392 367Q392 388 404 398T433 408H587Q618 408 632 393T647 335Q647 166 571 80T343 -6Q271 -6 213 22T115 99T53 214T31 356Q31 436 53 502T118 617T221 691T356 718Z"  />
<glyph unicode="H" horiz-adv-x="667" d="M102 718Q123 718 134 705T146 667V395H521V667Q521 691 532 704T565 718Q586 718 597 705T609 667V44Q609 21 598 8T565 -6Q544 -6 533 7T521 44V319H146V44Q146 21 135 8T102 -6Q81 -6 70 7T58 44V667Q58 691 69 704T102 718Z"  />
<glyph unicode="I" horiz-adv-x="204" d="M102 718Q123 718 134 705T146 673V39Q146 20 135 7T102 -6Q81 -6 70 7T58 39V673Q58 692 69 705T102 718Z"  />
<glyph unicode="J" horiz-adv-x="370" d="M268 718Q289 718 300 705T312 673V177Q312 89 270 42T140 -6Q118 -6 93 -1T45 15T8 41T-7 74Q-7 91 2 101T28 111Q46 111 65 97Q83 82 101 76T146 70Q188 70 206 96T224 168V673Q224 692 235 705T268 718Z"  />
<glyph unicode="K" horiz-adv-x="574" d="M102 718Q123 718 134 705T146 673V411L405 648Q429 670 443 683T467 704T484 715T499 718Q516 718 526 708T537 680Q537 666 533 658T523 643L227 377L542 73Q547 68 555 59T564 33Q564 18 552 6T521 -6Q497 -6 478 13L146 339V39Q146 20 135 7T102 -6Q81 -6 70 7T58 39V673Q58 692 69 705T102 718Z"  />
<glyph unicode="L" horiz-adv-x="389" d="M102 718Q123 718 134 705T146 673V82H336Q352 82 364 72T377 41Q377 20 365 10T336 0H103Q81 0 70 13T58 46V673Q58 692 69 705T102 718Z"  />
<glyph unicode="M" horiz-adv-x="834" d="M201 718Q228 718 242 706T264 671L416 151H418L569 667Q577 694 592 706T633 718Q662 718 680 701T705 641L798 89Q799 83 802 66T805 39Q805 19 795 7T764 -6Q741 -6 730 4T717 30L634 604H632L463 34Q455 8 443 1T417 -6Q383 -6 373 27L202 604H200L118 38Q113 9 101 2T70 -6Q49 -6 39 6T29 39Q29 49 31 67T36 93L129 640Q137 684 154 701T201 718Z"  />
<glyph unicode="N" horiz-adv-x="668" d="M98 718Q118 718 129 709T154 681L520 155H522V673Q522 692 533 705T566 718Q587 718 598 705T610 673V43Q610 21 601 8T570 -6Q552 -6 540 3T518 26L148 557H146V39Q146 20 135 7T102 -6Q81 -6 70 7T58 39V669Q58 691 67 704T98 718Z"  />
<glyph unicode="O" horiz-adv-x="686" d="M125 356Q125 297 138 245T179 154T247 93T343 70Q398 70 439 92T507 154T547 245T561 356Q561 407 550 458T512 550T444 616T340 642Q289 642 249 621T182 561T140 471T125 356ZM343 718Q414 718 471 690T570 612T633 497T655 356Q655 284 635 219T574 103T475 24T340 -6Q269 -6 212 23T114 101T53 215T31 351Q31 429 53 496T115 612T213 690T343 718Z"  />
<glyph unicode="P" horiz-adv-x="519" d="M279 342Q309 342 335 353T380 383T411 429T422 488Q422 554 383 595T275 636H146V342H279ZM283 712Q330 712 371 696T443 651T492 581T510 492Q510 445 494 404T447 332T376 284T284 266H146V39Q146 20 135 7T102 -6Q81 -6 70 7T58 39V666Q58 685 69 698T103 712H283Z"  />
<glyph unicode="Q" horiz-adv-x="685" d="M125 356Q125 297 138 245T179 154T247 93T343 70Q388 70 423 85T484 127L430 181Q417 193 413 201T408 218Q408 235 419 246T447 258Q461 258 469 251T492 230L529 193Q561 265 561 356Q561 407 550 458T512 550T444 616T340 642Q289 642 249 621T182 561T140 471T125 356ZM343 718Q414 718 471 690T570 612T633 497T655 356Q655 293 639 236T593 130L659 66Q677 48 680 40T684 23Q684 9 674 -2T646 -14Q633 -14 625 -9T612 2L542 70Q504 35 454 15T340 -6Q269 -6 212 23T114 101T53 215T31 351Q31 429 53 496T115 612T213 690T343 718Z"  />
<glyph unicode="R" horiz-adv-x="519" d="M269 383Q332 383 365 412T398 514Q398 540 388 562T361 600T319 626T265 636H146V383H269ZM486 517Q486 469 471 429T421 360Q409 350 395 342T361 329T316 320T254 317L479 70Q492 56 495 47T498 28Q498 14 487 4T458 -6Q435 -6 421 10T385 50L146 312V39Q146 20 135 7T102 -6Q81 -6 70 7T58 39V666Q58 685 69 698T103 712H260Q304 712 345 700T417 664T467 603T486 517Z"  />
<glyph unicode="S" horiz-adv-x="481" d="M238 718Q271 718 302 712T358 694T398 667T413 635Q413 619 403 608T375 596Q360 596 341 608Q328 616 317 622T293 633T267 640T235 642Q184 642 153 613T122 541Q122 501 151 475T241 429Q288 413 328 397T397 357T443 300T460 219Q460 172 444 132T396 60T320 12T219 -6Q183 -6 148 0T84 18T39 46T21 81Q21 98 30 111T58 125Q69 125 83 117T116 98T161 79T220 70Q253 70 279 81T325 111T355 157T366 215Q366 260 337 285T268 326Q245 335 220 343T175 359Q98 387 63 428T28 535Q28 568 43 600T85 659T151 701T238 718Z"  />
<glyph unicode="T" horiz-adv-x="444" d="M399 712Q416 712 429 702T442 671Q442 650 429 640T399 630H266V39Q266 20 255 7T222 -6Q201 -6 190 7T178 39V630H45Q28 630 15 640T2 671Q2 692 15 702T45 712H399Z"  />
<glyph unicode="U" horiz-adv-x="668" d="M102 718Q123 718 134 705T146 673V245Q146 206 159 174T196 119T255 83T334 70Q377 70 412 83T471 119T509 174T522 245V673Q522 692 533 705T566 718Q587 718 598 705T610 673V277Q610 141 541 68T334 -6Q198 -6 128 67T58 277V673Q58 692 69 705T102 718Z"  />
<glyph unicode="V" horiz-adv-x="556" d="M43 718Q52 718 59 717T72 709T84 692T97 661L277 142H279L463 672Q470 692 481 705T513 718Q531 718 541 707T552 682Q552 671 550 661T545 646L327 36Q319 13 308 4T278 -6Q257 -6 247 5T224 50L13 639Q7 655 6 664T4 682Q4 696 14 707T43 718Z"  />
<glyph unicode="W" horiz-adv-x="834" d="M65 718Q105 718 113 677L206 108H208L372 683Q375 694 383 706T417 718Q452 718 462 683L626 108H628L713 628Q715 644 722 680Q730 718 769 718Q788 718 798 707T809 678Q809 668 808 658T804 634L698 64Q690 19 675 7T633 -6Q602 -6 588 8T565 48L418 574H416L269 48Q261 22 247 8T201 -6Q149 -6 139 49L29 638Q25 661 25 678Q25 695 35 706T65 718Z"  />
<glyph unicode="X" horiz-adv-x="594" d="M85 718Q96 718 107 713T135 683L297 446L433 645Q442 658 450 671T468 695T487 711T509 718Q524 718 536 708T548 681Q548 664 534 645L348 382L562 80Q571 68 575 60T582 47T584 39T585 31Q585 16 573 5T544 -6Q529 -6 519 2T498 27L297 313L96 26Q85 10 76 2T49 -6Q33 -6 21 5T9 31Q9 40 13 49T33 81L246 382L63 641Q51 658 49 666T46 681Q46 698 57 708T85 718Z"  />
<glyph unicode="Y" horiz-adv-x="500" d="M41 718Q57 718 68 710T88 686L250 421L409 681Q422 702 432 710T459 718Q476 718 487 709T499 682Q499 676 497 669T485 645L294 334V39Q294 20 283 7T250 -6Q229 -6 218 7T206 39V334L11 652Q1 668 1 682Q1 699 12 708T41 718Z"  />
<glyph unicode="Z" horiz-adv-x="556" d="M476 712Q494 712 506 703T519 680Q519 668 516 658T498 626L130 76H491Q507 76 519 67T532 38Q532 18 520 9T491 0H73Q24 0 24 40Q24 51 27 60T41 87L407 636H82Q66 636 54 645T41 674Q41 693 53 702T82 712H476Z"  />
<glyph unicode="[" horiz-adv-x="241" d="M158 642V-6H192Q208 -6 219 -17T230 -44Q230 -60 219 -71T193 -82H121Q99 -82 88 -69T76 -36V670Q76 691 87 704T121 718H193Q207 718 218 707T230 680Q230 665 219 654T192 642H158Z"  />
<glyph unicode="\" horiz-adv-x="407" d="M59 718Q76 718 85 709T100 689L373 75Q387 42 387 30Q387 14 376 4T348 -6Q331 -6 322 3T307 24L41 621Q35 634 28 652T20 681Q20 698 31 708T59 718Z"  />
<glyph unicode="]" horiz-adv-x="241" d="M165 -36Q165 -54 154 -68T120 -82H47Q34 -82 23 -71T11 -44Q11 -28 22 -17T48 -6H83V642H48Q33 642 22 653T11 680Q11 696 22 707T47 718H120Q142 718 153 704T165 672V-36Z"  />
<glyph unicode="^" horiz-adv-x="600" d="M300 718Q319 718 330 707T352 677L521 376Q535 352 539 342T544 322Q544 308 533 299T507 289Q492 289 483 298T457 339L300 630L144 341Q131 318 121 304T93 289Q77 289 67 298T56 322Q56 333 61 344T75 369L248 676Q259 696 270 707T300 718Z"  />
<glyph unicode="_" horiz-adv-x="500" d="M501 -75Q512 -75 520 -81T529 -100Q529 -113 521 -119T501 -125H-1Q-12 -125 -20 -119T-29 -100Q-29 -87 -21 -81T-1 -75H501Z"  />
<glyph unicode="`" horiz-adv-x="204" d="M29 742Q39 742 47 740T63 733L178 686Q203 675 208 666T213 649Q213 634 203 621T175 607Q162 607 151 612L26 663Q2 673 -3 683T-9 700Q-9 714 1 728T29 742Z"  />
<glyph unicode="a" horiz-adv-x="556" d="M123 266Q123 224 132 188T160 126T206 85T269 70Q304 70 331 85T377 126T405 188T415 266Q415 309 405 345T377 407T331 447T268 462Q235 462 208 448T162 408T133 346T123 266ZM269 538Q315 538 349 520T414 467H416V496Q416 515 428 526T457 538Q474 538 486 527T498 497V35Q498 18 487 6T457 -6Q439 -6 428 5T416 38V74H414Q385 32 349 13T269 -6Q214 -6 171 16T97 76T51 161T35 261Q35 322 52 373T100 460T174 517T269 538Z"  />
<glyph unicode="b" horiz-adv-x="556" d="M141 266Q141 224 150 188T179 126T225 85T287 70Q322 70 349 85T395 126T423 188T433 266Q433 309 423 345T395 407T349 447T286 462Q253 462 226 448T180 408T151 346T141 266ZM106 772Q127 772 138 759T150 727V466H152Q177 500 214 519T294 538Q346 538 388 516T459 457T505 372T521 270Q521 216 506 166T463 78T392 17T297 -6Q188 -6 152 67H150V39Q150 19 138 7T106 -6Q85 -6 74 7T62 39V727Q62 746 73 759T106 772Z"  />
<glyph unicode="c" horiz-adv-x="444" d="M275 538Q341 538 379 519T418 471Q418 457 408 446T381 434Q370 434 360 438T338 448T311 457T275 462Q240 462 212 447T164 406T134 344T123 266Q123 226 133 191T162 128T210 86T275 70Q300 70 317 75T357 93Q368 100 381 100Q396 100 405 91T415 63Q415 35 377 15T275 -6Q219 -6 175 14T99 71T52 157T35 266Q35 324 51 374T99 460T174 517T275 538Z"  />
<glyph unicode="d" horiz-adv-x="556" d="M123 266Q123 224 132 188T160 126T206 85T269 70Q304 70 331 85T377 126T405 188T415 266Q415 309 405 345T376 407T330 447T268 462Q235 462 208 448T162 408T133 346T123 266ZM450 772Q471 772 482 759T494 727V39Q494 20 483 7T450 -6Q430 -6 418 6T406 40V67H404Q365 -6 262 -6Q209 -6 167 16T96 76T51 161T35 261Q35 319 51 369T96 457T167 516T259 538Q304 538 341 520T404 466H406V727Q406 746 417 759T450 772Z"  />
<glyph unicode="e" horiz-adv-x="520" d="M406 298Q403 374 365 418T261 462Q196 462 158 422T114 298H406ZM265 538Q319 538 361 516T433 457T478 376T494 283Q494 254 484 243T446 232H114Q115 157 158 114T271 70Q313 70 347 82T410 119Q438 142 451 142Q463 142 473 132T483 104Q483 86 464 67Q453 56 434 44T389 20T333 2T270 -6Q213 -6 168 13T91 69T43 155T26 266Q26 321 43 370T91 457T166 516T265 538Z"  />
<glyph unicode="f" horiz-adv-x="259" d="M174 532H229Q273 532 273 494Q273 456 226 456H174V39Q174 20 163 7T130 -6Q109 -6 98 7T86 39V456H50Q6 456 6 494Q6 532 50 532H86V655Q86 711 118 741T210 772H224Q254 772 267 760T280 734Q280 716 269 706T230 696H212Q194 696 184 689T174 663V532Z"  />
<glyph unicode="g" horiz-adv-x="556" d="M123 266Q123 225 132 189T160 127T206 85T269 70Q304 70 331 85T377 126T405 188T415 266Q415 308 406 343T377 405T331 447T268 462Q235 462 208 448T162 408T133 346T123 266ZM269 538Q305 538 342 520T404 471H406V498Q406 515 419 526T453 538Q470 538 482 527T494 497V34Q494 -20 478 -66T430 -145T355 -197T254 -216Q220 -216 184 -207T118 -184T69 -153T50 -119Q50 -102 60 -90T87 -78Q102 -78 121 -89Q152 -109 185 -124T261 -140Q333 -140 369 -95T406 23V70H404Q383 35 349 15T269 -6Q213 -6 170 16T96 76T51 161T35 262Q35 317 50 367T96 455T169 515T269 538Z"  />
<glyph unicode="h" horiz-adv-x="538" d="M102 772Q123 772 134 760T146 727V470L148 468Q178 506 216 522T294 538Q334 538 368 525T427 486T466 423T480 340V39Q480 20 469 7T436 -6Q415 -6 404 7T392 39V334Q392 391 358 426T269 462Q242 462 220 453T181 427T155 386T146 334V39Q146 20 135 7T102 -6Q81 -6 70 7T58 39V727Q58 746 69 759T102 772Z"  />
<glyph unicode="i" horiz-adv-x="204" d="M102 538Q123 538 134 525T146 493V39Q146 20 135 7T102 -6Q81 -6 70 7T58 39V493Q58 512 69 525T102 538ZM102 718Q125 718 140 703T156 664Q156 642 141 626T102 610Q79 610 64 625T48 664Q48 687 64 702T102 718Z"  />
<glyph unicode="j" horiz-adv-x="204" d="M102 538Q123 538 134 525T146 493V-171Q146 -190 135 -203T102 -216Q81 -216 70 -203T58 -171V493Q58 512 69 525T102 538ZM102 718Q125 718 140 703T156 664Q156 642 141 626T102 610Q79 610 64 625T48 664Q48 687 64 702T102 718Z"  />
<glyph unicode="k" horiz-adv-x="463" d="M102 772Q123 772 134 759T146 727V350L336 510Q354 525 366 531T388 538Q405 538 415 527T425 499Q425 490 421 481T402 460L203 303L430 79Q448 62 452 52T456 29Q456 15 445 5T418 -6Q402 -6 392 0T367 22L146 253V39Q146 20 135 7T102 -6Q81 -6 70 7T58 39V727Q58 746 69 759T102 772Z"  />
<glyph unicode="l" horiz-adv-x="204" d="M102 772Q123 772 134 759T146 727V39Q146 20 135 7T102 -6Q81 -6 70 7T58 39V727Q58 746 69 759T102 772Z"  />
<glyph unicode="m" horiz-adv-x="834" d="M102 538Q120 538 133 528T146 486V475L148 473Q174 508 205 523T282 538Q375 538 428 448Q461 496 500 517T590 538Q630 538 664 524T723 485T762 422T776 340V39Q776 20 765 7T732 -6Q711 -6 700 7T688 39V342Q688 396 659 429T574 462Q520 462 491 429T461 342V39Q461 20 450 7T417 -6Q396 -6 385 7T373 39V342Q373 396 344 429T259 462Q205 462 176 429T146 342V39Q146 20 135 7T102 -6Q81 -6 70 7T58 39V493Q58 512 69 525T102 538Z"  />
<glyph unicode="n" horiz-adv-x="538" d="M102 538Q118 538 132 528T146 484V470L148 468Q178 506 216 522T295 538Q334 538 368 524T426 485T465 423T480 340V39Q480 20 469 7T436 -6Q415 -6 404 7T392 39V334Q392 391 358 426T269 462Q242 462 220 453T181 427T155 386T146 334V39Q146 20 135 7T102 -6Q81 -6 70 7T58 39V493Q58 512 69 525T102 538Z"  />
<glyph unicode="o" horiz-adv-x="538" d="M123 266Q123 224 132 188T160 126T206 85T269 70Q304 70 331 84T377 125T405 188T415 266Q415 309 405 345T376 407T330 447T268 462Q235 462 208 448T162 408T133 346T123 266ZM269 538Q323 538 366 517T440 458T486 372T503 268Q503 213 488 163T442 76T369 16T270 -6Q211 -6 167 18T94 80T50 165T35 259Q35 320 52 371T99 460T173 517T269 538Z"  />
<glyph unicode="p" horiz-adv-x="556" d="M141 266Q141 224 150 188T178 126T224 85T287 70Q323 70 350 85T396 127T423 189T433 266Q433 308 423 344T395 406T349 447T286 462Q253 462 226 448T180 408T151 346T141 266ZM106 538Q126 538 138 526T150 493V465H152Q190 538 294 538Q348 538 390 516T461 456T505 370T521 270Q521 213 505 163T460 75T388 16T294 -6Q251 -6 214 12T152 66H150V-171Q150 -190 139 -203T106 -216Q85 -216 74 -203T62 -171V493Q62 512 73 525T106 538Z"  />
<glyph unicode="q" horiz-adv-x="556" d="M123 266Q123 224 132 188T160 126T206 85T269 70Q304 70 331 85T377 126T405 188T415 266Q415 309 405 345T376 407T330 447T268 462Q235 462 208 448T162 408T133 346T123 266ZM262 538Q366 538 404 465H406V491Q406 514 418 526T450 538Q471 538 482 525T494 493V-171Q494 -190 483 -203T450 -216Q429 -216 418 -203T406 -171V66H404Q379 32 343 13T262 -6Q209 -6 167 16T95 75T51 162T35 266Q35 317 50 366T93 453T164 514T262 538Z"  />
<glyph unicode="r" horiz-adv-x="315" d="M102 538Q123 538 134 526T146 491V446H148Q168 485 201 511T268 538Q292 538 304 525T317 493Q317 456 261 445Q207 435 177 396T146 292V39Q146 20 135 7T102 -6Q81 -6 70 7T58 39V493Q58 512 69 525T102 538Z"  />
<glyph unicode="s" horiz-adv-x="444" d="M227 538Q256 538 287 531T345 511T387 481T404 444Q404 430 394 419T364 408Q354 408 347 412T332 421Q320 429 310 436T288 449T262 458T227 462Q185 462 160 444T134 395Q134 372 158 354T235 315Q272 301 300 290T348 265Q391 239 404 212T418 158Q418 120 404 90T364 39T303 6T224 -6Q184 -6 148 3T84 26T40 59T24 95Q24 113 35 124T60 135Q79 135 108 112Q138 89 166 80T227 70Q272 70 301 91T330 142Q330 169 305 190T222 234Q181 250 149 266T94 299T59 338T46 388Q46 423 61 451T101 498T159 528T227 538Z"  />
<glyph unicode="t" horiz-adv-x="260" d="M130 694Q151 694 162 681T174 649V532H210Q254 532 254 494Q254 456 210 456H174V39Q174 20 163 7T130 -6Q109 -6 98 7T86 39V456H50Q6 456 6 494Q6 532 50 532H86V649Q86 668 97 681T130 694Z"  />
<glyph unicode="u" horiz-adv-x="538" d="M102 538Q123 538 134 525T146 493V205Q146 142 176 106T269 70Q333 70 362 106T392 205V493Q392 512 403 525T436 538Q457 538 468 525T480 493V202Q480 105 424 50T269 -6Q170 -6 114 49T58 202V493Q58 512 69 525T102 538Z"  />
<glyph unicode="v" horiz-adv-x="426" d="M45 538Q62 538 73 531T91 504L212 136H214L335 504Q340 519 350 528T380 538Q396 538 408 528T421 497Q421 491 420 484T411 458L256 24Q250 8 241 1T213 -6Q196 -6 186 1T167 31L15 459Q5 486 5 497Q5 517 17 527T45 538Z"  />
<glyph unicode="w" horiz-adv-x="742" d="M44 538Q64 538 75 526T93 493L206 130H208L317 473Q326 502 335 520T371 538Q391 538 401 527T416 501L534 130H536L649 494Q663 538 698 538Q718 538 729 526T740 499Q740 493 738 482T724 439L587 40Q578 14 566 4T536 -6Q501 -6 488 35L372 399H370L254 35Q249 18 238 6T206 -6Q185 -6 174 6T154 42L17 442Q6 472 4 482T2 499Q2 514 13 526T44 538Z"  />
<glyph unicode="x" horiz-adv-x="464" d="M65 538Q79 538 88 532T103 518L232 346L361 518Q367 526 376 532T398 538Q415 538 425 527T436 498Q436 483 422 464L283 282L437 80Q451 60 454 51T458 34Q458 18 447 6T418 -6Q410 -6 399 -2T373 22L232 218L90 21Q81 8 72 1T46 -6Q29 -6 18 6T6 34Q6 39 9 50T32 87L181 282L43 463Q34 474 31 482T28 498Q28 515 38 526T65 538Z"  />
<glyph unicode="y" horiz-adv-x="444" d="M57 538Q74 538 85 529T101 506L223 140H225L345 505Q350 520 360 529T387 538Q402 538 414 528T427 501Q427 493 424 481T419 464L193 -183Q188 -196 178 -206T150 -216Q135 -216 123 -206T110 -179Q110 -170 113 -159T125 -125L179 19L29 453Q24 469 21 481T17 501Q17 518 29 528T57 538Z"  />
<glyph unicode="z" horiz-adv-x="444" d="M373 532Q390 532 401 524T413 501Q413 482 399 462L138 78L141 76H382Q401 76 412 67T424 38Q424 20 413 10T382 0H61Q44 0 32 8T20 31Q20 50 33 68T54 99L292 456H72Q53 456 42 466T30 494Q30 513 41 522T72 532H373Z"  />
<glyph unicode="{" horiz-adv-x="241" d="M67 317Q115 311 136 277T158 188V32Q158 2 170 -10T205 -22H216Q243 -23 249 -32T256 -52Q256 -82 217 -82H176Q148 -82 129 -74T98 -51T81 -17T76 23V170Q76 188 75 205T70 238T56 264T29 280Q6 287 -4 294T-15 318Q-15 333 -6 341T26 355Q61 364 68 393T76 467V613Q76 634 81 653T98 686T129 709T177 718H217Q236 718 246 711T256 687Q256 683 255 678T250 669T237 661T213 658H205Q183 658 171 646T158 604V447Q158 393 137 359T67 319V317Z"  />
<glyph unicode="|" horiz-adv-x="222" d="M111 793Q132 793 142 781T152 750V-252Q152 -268 143 -280T111 -293Q90 -293 80 -281T70 -252V752Q70 768 80 780T111 793Z"  />
<glyph unicode="}" horiz-adv-x="241" d="M174 319Q126 325 105 359T83 447V604Q83 633 71 645T36 658H28Q13 658 4 661T-9 668T-14 678T-15 687Q-15 704 -5 711T24 718H64Q92 718 111 710T143 687T160 653T165 613V467Q165 423 172 394T215 355Q237 350 246 342T256 318Q256 302 246 295T212 280Q195 275 186 264T172 238T166 206T165 170V23Q165 2 160 -17T143 -50T112 -73T65 -82H24Q-15 -82 -15 -52Q-15 -41 -9 -32T25 -22H36Q58 -22 70 -10T83 32V188Q83 243 104 277T174 317V319Z"  />
<glyph unicode="~" horiz-adv-x="600" d="M194 325Q228 325 257 315T312 291T360 268T403 257Q419 257 429 267T449 291T470 314T500 325Q514 325 525 317T536 295Q536 275 525 255T496 219T454 192T405 181Q372 181 343 191T288 215T239 238T197 249Q182 249 171 239T151 215T130 192T101 181Q86 181 75 189T64 210Q64 232 76 253T107 290T149 315T194 325Z"  />
<glyph unicode="&#xA0;" horiz-adv-x="250" />
<glyph unicode="&#xA1;" horiz-adv-x="296" d="M148 341Q169 341 180 328T192 296V-141Q192 -160 181 -173T148 -186Q127 -186 116 -173T104 -141V296Q104 315 115 328T148 341ZM148 538Q168 538 183 523T199 487Q199 467 185 452T148 436Q127 436 112 451T97 487Q97 509 112 523T148 538Z"  />
<glyph unicode="&#xA2;" horiz-adv-x="444" d="M123 266Q123 233 130 203T150 148T183 105T227 79V454Q178 436 151 385T123 266ZM248 613Q269 613 269 588V538Q341 538 379 519T418 471Q418 457 408 446T381 434Q367 434 354 440Q329 452 313 457T274 462H269V70Q293 70 310 74T339 85T361 95T381 100Q396 100 405 91T415 63Q415 35 376 15T269 -6V-56Q269 -81 248 -81Q227 -81 227 -55V-1Q181 7 146 30T86 89T48 170T35 266Q35 317 47 362T84 442T145 501T227 534V588Q227 613 248 613Z"  />
<glyph unicode="&#xA3;" horiz-adv-x="593" d="M317 718Q363 718 405 701T478 658T527 602T546 544Q546 519 534 509T504 498Q483 498 472 515T447 561Q430 597 400 616T318 636Q291 636 268 629T227 609T199 577T189 535Q189 517 192 503T202 473T219 440T242 398H373Q390 398 402 388T414 357Q414 336 402 326T373 316H262Q266 294 267 280T269 251Q269 231 263 209T245 164T218 120T183 82H522Q538 82 550 72T563 41Q563 19 551 10T522 0H118Q67 0 67 42Q67 59 91 83Q119 111 137 134T164 177T177 215T181 253Q181 267 180 283T174 316H71Q55 316 43 325T30 357Q30 378 42 388T71 398H150Q121 451 111 481T101 541Q101 578 118 610T164 667T233 704T317 718Z"  />
<glyph unicode="&#xA4;" horiz-adv-x="536" d="M102 356Q102 319 115 288T150 233T203 197T268 184Q303 184 333 197T386 233T421 288T434 356Q434 392 422 423T387 478T334 514T267 528Q234 528 204 515T152 480T116 425T102 356ZM55 604Q65 604 77 592L118 550Q146 577 185 590T268 604Q311 604 350 591T418 550L458 590Q472 604 481 604Q493 604 504 593T515 568Q515 554 501 540L467 505Q492 477 504 438T516 356Q516 313 504 274T467 207L501 172Q515 158 515 144Q515 130 504 119T481 108Q472 108 458 122L418 162Q389 135 350 122T268 108Q225 108 186 121T118 162L77 120Q65 108 55 108Q43 108 32 119T21 144Q21 158 34 171L69 207Q44 235 32 274T20 356Q20 399 32 438T69 505L35 540Q21 554 21 568Q21 582 32 593T55 604Z"  />
<glyph unicode="&#xA5;" horiz-adv-x="536" d="M43 718Q70 718 88 691L268 421L446 689Q466 718 493 718Q505 718 516 709T528 685Q528 673 524 665T514 646L353 398H450Q466 398 478 390T490 365Q490 348 478 340T451 332H312V261H451Q466 261 478 253T490 228Q490 211 478 203T451 195H312V39Q312 20 300 7T268 -6Q248 -6 236 7T224 39V195H85Q70 195 58 203T46 228Q46 245 58 253T85 261H224V332H85Q70 332 58 340T46 365Q46 382 58 390T86 398H183L23 645Q17 655 13 664T8 685Q8 699 19 708T43 718Z"  />
<glyph unicode="&#xA6;" horiz-adv-x="222" d="M111 175Q132 175 142 163T152 134V-134Q152 -150 142 -162T111 -175Q90 -175 80 -163T70 -134V134Q70 150 80 162T111 175ZM111 675Q132 675 142 663T152 634V366Q152 350 143 338T111 325Q90 325 80 337T70 366V634Q70 650 80 662T111 675Z"  />
<glyph unicode="&#xA7;" horiz-adv-x="556" d="M116 277Q116 242 145 214T243 151L354 97Q375 114 391 128T418 157T434 189T440 228Q440 250 433 267T414 296T387 318T355 335L226 395Q178 375 147 348T116 277ZM295 718Q338 718 375 705T441 671T485 622T501 567Q501 547 490 534T461 521Q443 521 432 533T407 575Q393 605 366 623T291 642Q239 642 206 619T173 558Q173 524 206 498T312 442Q381 413 423 388T488 336Q513 308 520 279T528 227Q528 178 499 132T419 57Q452 34 468 6T484 -61Q484 -96 467 -125T420 -174T354 -205T277 -216Q225 -216 183 -202T110 -166T64 -119T48 -71Q48 -45 60 -34T92 -22Q110 -22 122 -35T148 -73Q168 -108 196 -124T272 -140Q329 -140 362 -118T396 -60Q396 -27 364 -2T258 54Q199 79 158 98T91 142Q55 174 42 204T28 270Q28 327 56 367T150 441Q113 468 99 493T85 554Q85 591 100 621T142 673T208 706T295 718Z"  />
<glyph unicode="&#xA8;" horiz-adv-x="204" d="M195 712Q217 712 233 697T249 658Q249 636 234 620T195 604Q172 604 157 620T141 658Q141 681 156 696T195 712ZM9 712Q31 712 47 697T63 658Q63 636 48 620T9 604Q-14 604 -29 620T-45 658Q-45 681 -30 696T9 712Z"  />
<glyph unicode="&#xA9;" horiz-adv-x="800" d="M680 356Q680 415 658 467T597 558T509 619T405 642Q343 642 291 619T201 557T142 466T120 356Q120 298 142 246T202 155T289 93T395 70Q456 70 508 92T598 154T658 245T680 356ZM762 356Q762 279 733 213T655 98T541 22T406 -6Q321 -6 253 25T137 106T64 221T38 351Q38 431 67 498T146 614T260 690T395 718Q473 718 540 690T656 612T734 497T762 356ZM402 579Q443 579 476 566T532 534T568 492T581 452Q581 439 572 432T548 424Q533 424 523 432T498 464Q483 487 460 500T402 513Q342 513 307 472T272 358Q272 326 281 298T308 248T349 215T402 203Q437 203 461 216T504 256Q518 277 527 286T549 295Q563 295 572 288T581 267Q581 252 569 230T535 188T480 152T406 137Q356 137 316 154T248 201T205 271T190 358Q190 406 205 446T247 516T314 562T402 579Z"  />
<glyph unicode="&#xAA;" horiz-adv-x="361" d="M101 555Q101 510 124 481T184 451Q220 451 243 480T267 555Q267 598 244 628T184 658Q147 658 124 628T101 555ZM181 718Q211 718 230 707T264 676H266V691Q266 702 274 710T299 718Q312 718 322 712T332 693V416Q332 404 323 398T299 391Q285 391 276 397T266 417V433H264Q250 413 231 402T181 391Q147 391 119 403T71 437T40 489T29 555Q29 590 40 620T71 671T119 705T181 718Z"  />
<glyph unicode="&#xAB;" horiz-adv-x="407" d="M329 472Q346 472 357 462T369 437Q369 425 356 402L275 268L359 128Q369 111 369 99Q369 84 358 74T329 64Q317 64 309 71T296 88L196 268L295 446Q302 458 310 465T329 472ZM171 472Q188 472 199 462T211 437Q211 425 198 402L117 268L201 128Q211 111 211 99Q211 84 200 74T171 64Q159 64 151 71T138 88L38 268L137 446Q144 458 152 465T171 472Z"  />
<glyph unicode="&#xAC;" horiz-adv-x="600" d="M514 398Q533 398 543 386T553 357V149Q553 132 543 120T512 108Q491 108 481 120T471 149V316H88Q72 316 60 326T47 357Q47 378 59 388T88 398H514Z"  />
<glyph unicode="&#xAD;" horiz-adv-x="352" d="M280 306Q294 306 305 295T317 268Q317 252 306 241T280 230H72Q58 230 47 241T35 268Q35 284 46 295T72 306H280Z"  />
<glyph unicode="&#xAE;" horiz-adv-x="400" d="M158 549H206Q245 549 245 581Q245 608 204 608H158V549ZM270 455Q272 451 274 447T276 440Q276 436 270 434T258 432Q250 432 246 434T237 445L190 519H158V447Q158 441 154 437T142 432Q133 432 129 436T125 447V628Q125 638 136 638H203Q239 638 258 626T278 578Q278 552 265 538T227 521L270 455ZM60 537Q60 508 71 482T101 437T145 406T200 394Q229 394 254 405T299 436T329 482T340 537Q340 566 329 592T300 637T255 668T199 680Q172 680 147 669T103 639T72 594T60 537ZM200 718Q237 718 270 704T327 665T366 607T381 537Q381 500 367 467T329 410T271 371T200 356Q163 356 130 370T73 408T34 466T19 537Q19 574 33 607T72 665T130 704T200 718Z"  />
<glyph unicode="&#xAF;" horiz-adv-x="204" d="M205 689Q221 689 233 679T246 648Q246 627 234 617T205 607H-1Q-17 607 -29 617T-42 648Q-42 669 -30 679T-1 689H205Z"  />
<glyph unicode="&#xB0;" horiz-adv-x="400" d="M111 575Q111 557 118 541T137 513T166 493T200 486Q218 486 234 493T262 512T282 540T289 575Q289 593 282 609T263 637T235 657T200 664Q182 664 166 657T138 638T118 609T111 575ZM200 718Q230 718 256 707T301 676T332 630T343 575Q343 546 332 520T302 475T256 444T200 432Q170 432 144 443T99 474T68 520T57 575Q57 604 68 630T99 675T145 706T200 718Z"  />
<glyph unicode="&#xB1;" horiz-adv-x="600" d="M512 82Q528 82 540 72T553 41Q553 20 541 10T512 0H88Q72 0 60 10T47 41Q47 62 59 72T88 82H512ZM300 506Q321 506 331 493T341 465V353H512Q528 353 540 343T553 312Q553 291 541 281T512 271H341V160Q341 143 332 131T300 118Q279 118 269 131T259 160V271H88Q72 271 60 281T47 312Q47 333 59 343T88 353H259V465Q259 480 269 493T300 506Z"  />
<glyph unicode="&#xB2;" horiz-adv-x="348" d="M180 718Q242 718 277 688T312 610Q312 588 305 570T283 535L131 351H281Q295 351 306 344T317 321Q317 305 306 298T281 291H59Q44 291 38 298T31 312Q31 315 33 320T45 337L214 552Q225 566 232 580T240 608Q240 631 223 644T176 658Q158 658 143 651T116 631T98 605T92 578Q92 561 82 557T63 552Q32 552 32 585Q32 613 42 637T72 680T119 708T180 718Z"  />
<glyph unicode="&#xB3;" horiz-adv-x="348" d="M164 718Q224 718 259 687T294 608Q294 582 281 557T239 517Q277 506 297 478T318 414Q318 385 307 362T275 321T226 295T163 285Q132 285 108 294T66 318T39 352T30 390Q30 401 36 411T58 422Q69 422 75 416T87 397Q98 374 115 360T167 345Q200 345 223 367T246 421Q246 484 178 484Q168 484 159 485T143 490Q133 496 133 510Q133 521 140 528Q145 533 152 535T171 540Q193 546 207 560T222 604Q222 627 205 642T161 658Q132 658 116 644T96 608Q94 595 87 591T67 586Q42 586 42 614Q42 659 74 688T164 718Z"  />
<glyph unicode="&#xB4;" horiz-adv-x="204" d="M29 607Q12 607 2 621T-9 649Q-9 656 -4 666T26 686L151 737Q162 742 175 742Q192 742 202 729T213 700Q213 693 208 684T178 663L63 616Q55 612 47 610T29 607Z"  />
<glyph unicode="&#xB5;" horiz-adv-x="538" d="M102 538Q123 538 134 525T146 493V205Q146 133 174 102T269 70Q336 70 364 101T392 205V493Q392 512 403 525T436 538Q457 538 468 525T480 493V39Q480 20 469 7T436 -6Q403 -6 395 23Q368 7 337 1T270 -6Q230 -6 200 4T146 40V-171Q146 -190 135 -203T102 -216Q81 -216 70 -203T58 -171V493Q58 512 69 525T102 538Z"  />
<glyph unicode="&#xB6;" horiz-adv-x="600" d="M476 712Q498 712 509 698T521 666V-175Q521 -191 511 -203T480 -216Q459 -216 449 -204T439 -175V646H324V-175Q324 -191 314 -203T283 -216Q262 -216 252 -204T242 -175V344Q192 345 153 358T85 396T43 454T28 529Q28 571 45 605T95 663T174 699T279 712H476Z"  />
<glyph unicode="&#xB7;" horiz-adv-x="250" d="M125 357Q147 357 163 341T179 303Q179 281 164 265T125 249Q102 249 87 265T71 303Q71 325 87 341T125 357Z"  />
<glyph unicode="&#xB8;" horiz-adv-x="204" d="M183 0L154 -42Q163 -39 175 -39Q204 -39 224 -56T244 -96Q244 -135 216 -157T133 -180Q101 -180 81 -171T60 -145Q60 -135 65 -127T82 -118Q91 -118 106 -122T133 -126Q168 -126 168 -102Q168 -88 160 -85T127 -81Q108 -81 101 -75T94 -61Q94 -50 107 -33T130 0H183Z"  />
<glyph unicode="&#xB9;" horiz-adv-x="229" d="M159 319Q159 303 149 294T123 285Q108 285 98 294T87 319V652H41Q8 652 8 682Q8 698 16 705T35 712H140Q159 712 159 699V319Z"  />
<glyph unicode="&#xBA;" horiz-adv-x="350" d="M95 555Q95 510 118 481T175 451Q208 451 231 480T255 555Q255 598 233 628T174 658Q141 658 118 628T95 555ZM175 718Q209 718 237 706T285 671T316 619T327 555Q327 519 316 489T285 437T237 403T175 391Q141 391 113 403T65 437T34 489T23 555Q23 590 34 620T64 671T112 705T175 718Z"  />
<glyph unicode="&#xBB;" horiz-adv-x="407" d="M236 472Q247 472 255 465T270 446L369 268L272 94Q264 79 256 72T236 64Q219 64 208 74T196 99Q196 112 205 126L290 268L208 405Q201 416 199 423T196 437Q196 452 207 462T236 472ZM78 472Q89 472 97 465T112 446L211 268L114 94Q106 79 98 72T78 64Q61 64 50 74T38 99Q38 112 47 126L132 268L50 405Q43 416 41 423T38 437Q38 452 49 462T78 472Z"  />
<glyph unicode="&#xBC;" horiz-adv-x="805" d="M504 726Q521 726 529 717T538 699Q538 690 534 679T525 655L258 16Q252 2 245 -6T221 -14Q204 -14 196 -6T188 13Q188 21 192 34T202 59L465 687Q476 712 483 719T504 726ZM187 319Q187 303 177 294T151 285Q136 285 126 294T115 319V652H69Q36 652 36 682Q36 698 44 705T63 712H168Q187 712 187 699V319ZM522 160H646V356H643L522 160ZM667 427Q689 427 703 414T718 378V160H739Q751 160 759 152T767 129Q767 114 759 106T740 97H718V23Q718 13 708 4T680 -6Q663 -6 655 3T646 23V97H474Q459 97 452 105T445 126Q445 134 450 144T459 161L608 397Q627 427 667 427Z"  />
<glyph unicode="&#xBD;" horiz-adv-x="805" d="M202 319Q202 303 192 294T166 285Q151 285 141 294T130 319V652H84Q51 652 51 682Q51 698 59 705T78 712H183Q202 712 202 699V319ZM489 726Q506 726 514 717T523 699Q523 690 519 679T510 655L243 16Q237 2 230 -6T206 -14Q189 -14 181 -6T173 13Q173 21 177 34T187 59L450 687Q461 712 468 719T489 726ZM617 427Q679 427 714 397T749 319Q749 297 742 279T720 244L568 60H718Q732 60 743 53T754 30Q754 14 743 7T718 0H496Q481 0 475 7T468 21Q468 24 470 29T482 46L651 261Q662 275 669 289T677 317Q677 340 660 353T613 367Q595 367 580 360T553 340T535 314T529 287Q529 270 519 266T500 261Q469 261 469 294Q469 322 479 346T509 389T556 417T617 427Z"  />
<glyph unicode="&#xBE;" horiz-adv-x="805" d="M561 726Q578 726 586 717T595 699Q595 690 591 679T582 655L315 16Q309 2 302 -6T278 -14Q261 -14 253 -6T245 13Q245 21 249 34T259 59L522 687Q533 712 540 719T561 726ZM173 718Q233 718 268 687T303 608Q303 582 290 557T248 517Q286 506 306 478T327 414Q327 385 316 362T284 321T235 295T172 285Q141 285 117 294T75 318T48 352T39 390Q39 401 45 411T67 422Q78 422 84 416T96 397Q107 374 124 360T176 345Q209 345 232 367T255 421Q255 484 187 484Q177 484 168 485T152 490Q142 496 142 510Q142 521 149 528Q154 533 161 535T180 540Q202 546 216 560T231 604Q231 627 214 642T170 658Q141 658 125 644T105 608Q103 595 96 591T76 586Q51 586 51 614Q51 659 83 688T173 718ZM519 160H643V356H640L519 160ZM664 427Q686 427 700 414T715 378V160H736Q748 160 756 152T764 129Q764 114 756 106T737 97H715V23Q715 13 705 4T677 -6Q660 -6 652 3T643 23V97H471Q456 97 449 105T442 126Q442 134 447 144T456 161L605 397Q624 427 664 427Z"  />
<glyph unicode="&#xBF;" horiz-adv-x="444" d="M231 436Q210 436 195 451T179 487Q179 507 193 522T231 538Q252 538 266 523T281 487Q281 465 266 451T231 436ZM230 -186Q185 -186 146 -172T79 -133T34 -75T18 -2Q18 73 61 125T186 194V296Q186 315 197 328T230 341Q251 341 262 328T274 296V169Q274 157 272 149T263 135T243 124T208 115Q159 106 136 78T112 6Q112 -42 143 -73T228 -104Q276 -104 304 -82T346 -17Q356 11 382 11Q401 11 413 -1T426 -32Q426 -63 410 -91T366 -140T304 -173T230 -186Z"  />
<glyph unicode="&#xC0;" horiz-adv-x="612" d="M305 616L168 231H444L307 616H305ZM471 155H141L96 29Q90 13 80 4T52 -6Q35 -6 23 4T10 31Q10 39 15 54T22 76L244 667Q252 688 266 703T306 718Q331 718 345 703T369 665L590 76Q593 67 597 53T602 31Q602 14 590 4T560 -6Q542 -6 532 3T516 29L471 155ZM233 902Q243 902 251 900T267 893L382 846Q407 835 412 826T417 809Q417 794 407 781T379 767Q366 767 355 772L230 823Q206 833 201 843T195 860Q195 874 205 888T233 902Z"  />
<glyph unicode="&#xC1;" horiz-adv-x="612" d="M305 616L168 231H444L307 616H305ZM471 155H141L96 29Q90 13 80 4T52 -6Q35 -6 23 4T10 31Q10 39 15 54T22 76L244 667Q252 688 266 703T306 718Q331 718 345 703T369 665L590 76Q593 67 597 53T602 31Q602 14 590 4T560 -6Q542 -6 532 3T516 29L471 155ZM379 902Q396 902 406 888T417 860Q417 853 412 843T382 823L257 772Q246 767 233 767Q216 767 206 780T195 809Q195 816 200 825T230 846L345 893Q353 897 361 899T379 902Z"  />
<glyph unicode="&#xC2;" horiz-adv-x="612" d="M305 616L168 231H444L307 616H305ZM471 155H141L96 29Q90 13 80 4T52 -6Q35 -6 23 4T10 31Q10 39 15 54T22 76L244 667Q252 688 266 703T306 718Q331 718 345 703T369 665L590 76Q593 67 597 53T602 31Q602 14 590 4T560 -6Q542 -6 532 3T516 29L471 155ZM422 767Q419 767 414 767T400 772L306 809L211 771Q203 768 198 768T190 767Q173 767 164 778T154 805Q154 829 177 840L306 895L433 841Q458 830 458 805Q458 789 449 778T422 767Z"  />
<glyph unicode="&#xC3;" horiz-adv-x="612" d="M305 616L168 231H444L307 616H305ZM471 155H141L96 29Q90 13 80 4T52 -6Q35 -6 23 4T10 31Q10 39 15 54T22 76L244 667Q252 688 266 703T306 718Q331 718 345 703T369 665L590 76Q593 67 597 53T602 31Q602 14 590 4T560 -6Q542 -6 532 3T516 29L471 155ZM250 878Q281 878 307 868T359 858Q370 858 378 861T393 868T406 875T421 878Q434 878 444 866T455 839Q455 815 430 796T362 776Q331 776 305 786T252 796Q242 796 235 793T220 786T205 779T190 776Q179 776 168 787T157 815Q157 839 183 858T250 878Z"  />
<glyph unicode="&#xC4;" horiz-adv-x="612" d="M305 616L168 231H444L307 616H305ZM471 155H141L96 29Q90 13 80 4T52 -6Q35 -6 23 4T10 31Q10 39 15 54T22 76L244 667Q252 688 266 703T306 718Q331 718 345 703T369 665L590 76Q593 67 597 53T602 31Q602 14 590 4T560 -6Q542 -6 532 3T516 29L471 155ZM399 872Q421 872 437 857T453 818Q453 795 437 780T399 764Q376 764 361 779T345 818Q345 840 360 856T399 872ZM213 872Q235 872 251 857T267 818Q267 795 251 780T213 764Q190 764 175 779T159 818Q159 840 174 856T213 872Z"  />
<glyph unicode="&#xC5;" horiz-adv-x="612" d="M305 616L168 231H444L307 616H305ZM471 155H141L96 29Q90 13 80 4T52 -6Q35 -6 23 4T10 31Q10 39 15 54T22 76L244 667Q252 688 266 703T306 718Q331 718 345 703T369 665L590 76Q593 67 597 53T602 31Q602 14 590 4T560 -6Q542 -6 532 3T516 29L471 155ZM260 828Q260 810 273 796T306 782Q325 782 338 796T352 828Q352 846 339 860T306 874Q288 874 274 861T260 828ZM306 922Q325 922 342 915T372 895T392 865T400 828Q400 809 393 792T373 762T343 742T306 734Q286 734 269 741T240 762T220 792T212 828Q212 847 219 864T239 894T269 914T306 922Z"  />
<glyph unicode="&#xC6;" horiz-adv-x="759" d="M180 231H373V610H371L180 231ZM665 712Q681 712 693 702T706 671Q706 650 694 640T665 630H461V397H656Q672 397 684 387T697 356Q697 335 685 325T656 315H461V82H675Q691 82 703 72T716 41Q716 20 704 10T675 0H418Q396 0 385 14T373 46V155H142L75 24Q64 4 54 -1T32 -6Q14 -6 3 3T-9 26Q-9 32 -9 36T-6 47T2 65T18 95L312 668Q319 682 324 690T336 704T351 710T373 712H665Z"  />
<glyph unicode="&#xC7;" horiz-adv-x="593" d="M348 718Q392 718 430 708T495 681T538 647T554 613Q554 597 545 585T518 572Q500 572 482 589Q444 621 414 631T348 642Q292 642 251 619T181 556T139 465T125 356Q125 297 140 245T183 154T250 93T339 70Q371 70 395 75T438 89Q459 98 473 106T497 120T516 130T534 134Q550 134 559 123T569 93Q569 78 554 62T512 31T445 7T359 -5L334 -42Q343 -39 355 -39Q384 -39 404 -56T424 -96Q424 -135 396 -157T313 -180Q281 -180 261 -171T240 -145Q240 -135 245 -127T262 -118Q271 -118 286 -122T313 -126Q348 -126 348 -102Q348 -88 340 -85T307 -81Q288 -81 281 -75T274 -61Q274 -50 286 -34T308 -4Q246 2 195 31T108 109T51 219T31 353Q31 433 53 500T117 615T217 691T348 718Z"  />
<glyph unicode="&#xC8;" horiz-adv-x="444" d="M103 0Q81 0 70 13T58 46V666Q58 685 69 698T103 712H360Q377 712 389 702T401 671Q401 650 389 640T360 630H146V397H341Q357 397 369 387T382 356Q382 335 370 325T341 315H146V82H356Q376 82 388 72T401 41Q401 20 389 10T360 0H103ZM149 902Q159 902 167 900T183 893L298 846Q323 835 328 826T333 809Q333 794 323 781T295 767Q282 767 271 772L146 823Q122 833 117 843T111 860Q111 874 121 888T149 902Z"  />
<glyph unicode="&#xC9;" horiz-adv-x="444" d="M103 0Q81 0 70 13T58 46V666Q58 685 69 698T103 712H360Q377 712 389 702T401 671Q401 650 389 640T360 630H146V397H341Q357 397 369 387T382 356Q382 335 370 325T341 315H146V82H356Q376 82 388 72T401 41Q401 20 389 10T360 0H103ZM295 902Q312 902 322 888T333 860Q333 853 328 843T298 823L173 772Q162 767 149 767Q132 767 122 780T111 809Q111 816 116 825T146 846L261 893Q269 897 277 899T295 902Z"  />
<glyph unicode="&#xCA;" horiz-adv-x="444" d="M103 0Q81 0 70 13T58 46V666Q58 685 69 698T103 712H360Q377 712 389 702T401 671Q401 650 389 640T360 630H146V397H341Q357 397 369 387T382 356Q382 335 370 325T341 315H146V82H356Q376 82 388 72T401 41Q401 20 389 10T360 0H103ZM338 767Q335 767 330 767T316 772L222 809L127 771Q119 768 114 768T106 767Q89 767 80 778T70 805Q70 829 93 840L222 895L349 841Q374 830 374 805Q374 789 365 778T338 767Z"  />
<glyph unicode="&#xCB;" horiz-adv-x="444" d="M103 0Q81 0 70 13T58 46V666Q58 685 69 698T103 712H360Q377 712 389 702T401 671Q401 650 389 640T360 630H146V397H341Q357 397 369 387T382 356Q382 335 370 325T341 315H146V82H356Q376 82 388 72T401 41Q401 20 389 10T360 0H103ZM315 872Q337 872 353 857T369 818Q369 795 353 780T315 764Q292 764 277 779T261 818Q261 840 276 856T315 872ZM129 872Q151 872 167 857T183 818Q183 795 167 780T129 764Q106 764 91 779T75 818Q75 840 90 856T129 872Z"  />
<glyph unicode="&#xCC;" horiz-adv-x="204" d="M102 718Q123 718 134 705T146 673V39Q146 20 135 7T102 -6Q81 -6 70 7T58 39V673Q58 692 69 705T102 718ZM29 902Q39 902 47 900T63 893L178 846Q203 835 208 826T213 809Q213 794 203 781T175 767Q162 767 151 772L26 823Q2 833 -3 843T-9 860Q-9 874 1 888T29 902Z"  />
<glyph unicode="&#xCD;" horiz-adv-x="204" d="M102 718Q123 718 134 705T146 673V39Q146 20 135 7T102 -6Q81 -6 70 7T58 39V673Q58 692 69 705T102 718ZM175 902Q192 902 202 888T213 860Q213 853 208 843T178 823L53 772Q42 767 29 767Q12 767 2 780T-9 809Q-9 816 -4 825T26 846L141 893Q149 897 157 899T175 902Z"  />
<glyph unicode="&#xCE;" horiz-adv-x="204" d="M102 718Q123 718 134 705T146 673V39Q146 20 135 7T102 -6Q81 -6 70 7T58 39V673Q58 692 69 705T102 718ZM218 767Q215 767 210 767T196 772L102 809L7 771Q-1 768 -6 768T-14 767Q-31 767 -40 778T-50 805Q-50 829 -27 840L102 895L229 841Q254 830 254 805Q254 789 245 778T218 767Z"  />
<glyph unicode="&#xCF;" horiz-adv-x="204" d="M102 718Q123 718 134 705T146 673V39Q146 20 135 7T102 -6Q81 -6 70 7T58 39V673Q58 692 69 705T102 718ZM195 872Q217 872 233 857T249 818Q249 795 233 780T195 764Q172 764 157 779T141 818Q141 840 156 856T195 872ZM9 872Q31 872 47 857T63 818Q63 795 47 780T9 764Q-14 764 -29 779T-45 818Q-45 840 -30 856T9 872Z"  />
<glyph unicode="&#xD0;" horiz-adv-x="630" d="M278 76Q333 76 375 96T446 154T490 243T505 360Q505 424 489 475T443 562T371 617T275 636H151V397H273Q289 397 301 388T314 359Q314 340 302 331T273 321H151V76H278ZM288 712Q358 712 415 686T514 614T577 504T599 365Q599 279 578 212T517 97T421 25T295 0H108Q86 0 75 14T63 46V321H24Q6 321 -6 330T-18 359Q-18 377 -6 387T24 397H63V666Q63 684 74 698T108 712H288Z"  />
<glyph unicode="&#xD1;" horiz-adv-x="668" d="M98 718Q118 718 129 709T154 681L520 155H522V673Q522 692 533 705T566 718Q587 718 598 705T610 673V43Q610 21 601 8T570 -6Q552 -6 540 3T518 26L148 557H146V39Q146 20 135 7T102 -6Q81 -6 70 7T58 39V669Q58 691 67 704T98 718ZM278 878Q309 878 335 868T387 858Q398 858 406 861T421 868T434 875T449 878Q462 878 472 866T483 839Q483 815 458 796T390 776Q359 776 333 786T280 796Q270 796 263 793T248 786T233 779T218 776Q207 776 196 787T185 815Q185 839 211 858T278 878Z"  />
<glyph unicode="&#xD2;" horiz-adv-x="686" d="M125 356Q125 297 138 245T179 154T247 93T343 70Q398 70 439 92T507 154T547 245T561 356Q561 407 550 458T512 550T444 616T340 642Q289 642 249 621T182 561T140 471T125 356ZM343 718Q414 718 471 690T570 612T633 497T655 356Q655 284 635 219T574 103T475 24T340 -6Q269 -6 212 23T114 101T53 215T31 351Q31 429 53 496T115 612T213 690T343 718ZM270 902Q280 902 288 900T304 893L419 846Q444 835 449 826T454 809Q454 794 444 781T416 767Q403 767 392 772L267 823Q243 833 238 843T232 860Q232 874 242 888T270 902Z"  />
<glyph unicode="&#xD3;" horiz-adv-x="686" d="M125 356Q125 297 138 245T179 154T247 93T343 70Q398 70 439 92T507 154T547 245T561 356Q561 407 550 458T512 550T444 616T340 642Q289 642 249 621T182 561T140 471T125 356ZM343 718Q414 718 471 690T570 612T633 497T655 356Q655 284 635 219T574 103T475 24T340 -6Q269 -6 212 23T114 101T53 215T31 351Q31 429 53 496T115 612T213 690T343 718ZM416 902Q433 902 443 888T454 860Q454 853 449 843T419 823L294 772Q283 767 270 767Q253 767 243 780T232 809Q232 816 237 825T267 846L382 893Q390 897 398 899T416 902Z"  />
<glyph unicode="&#xD4;" horiz-adv-x="686" d="M125 356Q125 297 138 245T179 154T247 93T343 70Q398 70 439 92T507 154T547 245T561 356Q561 407 550 458T512 550T444 616T340 642Q289 642 249 621T182 561T140 471T125 356ZM343 718Q414 718 471 690T570 612T633 497T655 356Q655 284 635 219T574 103T475 24T340 -6Q269 -6 212 23T114 101T53 215T31 351Q31 429 53 496T115 612T213 690T343 718ZM459 767Q456 767 451 767T437 772L343 809L248 771Q240 768 235 768T227 767Q210 767 201 778T191 805Q191 829 214 840L343 895L470 841Q495 830 495 805Q495 789 486 778T459 767Z"  />
<glyph unicode="&#xD5;" horiz-adv-x="686" d="M125 356Q125 297 138 245T179 154T247 93T343 70Q398 70 439 92T507 154T547 245T561 356Q561 407 550 458T512 550T444 616T340 642Q289 642 249 621T182 561T140 471T125 356ZM343 718Q414 718 471 690T570 612T633 497T655 356Q655 284 635 219T574 103T475 24T340 -6Q269 -6 212 23T114 101T53 215T31 351Q31 429 53 496T115 612T213 690T343 718ZM287 878Q318 878 344 868T396 858Q407 858 415 861T430 868T443 875T458 878Q471 878 481 866T492 839Q492 815 467 796T399 776Q368 776 342 786T289 796Q279 796 272 793T257 786T242 779T227 776Q216 776 205 787T194 815Q194 839 220 858T287 878Z"  />
<glyph unicode="&#xD6;" horiz-adv-x="686" d="M125 356Q125 297 138 245T179 154T247 93T343 70Q398 70 439 92T507 154T547 245T561 356Q561 407 550 458T512 550T444 616T340 642Q289 642 249 621T182 561T140 471T125 356ZM343 718Q414 718 471 690T570 612T633 497T655 356Q655 284 635 219T574 103T475 24T340 -6Q269 -6 212 23T114 101T53 215T31 351Q31 429 53 496T115 612T213 690T343 718ZM436 872Q458 872 474 857T490 818Q490 795 474 780T436 764Q413 764 398 779T382 818Q382 840 397 856T436 872ZM250 872Q272 872 288 857T304 818Q304 795 288 780T250 764Q227 764 212 779T196 818Q196 840 211 856T250 872Z"  />
<glyph unicode="&#xD7;" horiz-adv-x="600" d="M106 483Q116 483 125 478T148 460L300 309L452 460Q466 474 475 478T494 483Q509 483 519 471T530 446Q530 436 526 428T507 404L356 253L509 100Q521 87 525 79T530 61Q530 46 520 35T494 23Q483 23 474 28T456 42L300 198L167 65Q162 60 156 53T141 39T124 28T106 23Q91 23 81 34T70 60Q70 78 83 92T110 119L244 253L110 387Q98 399 84 413T70 446Q70 460 80 471T106 483Z"  />
<glyph unicode="&#xD8;" horiz-adv-x="686" d="M194 135Q220 104 256 87T343 70Q396 70 437 92T505 152T547 242T561 356Q561 401 553 443T527 524L194 135ZM125 356Q125 313 133 271T160 190L492 578Q464 609 428 625T337 642Q287 642 248 620T182 560T140 469T125 356ZM635 726Q646 726 656 719T666 698Q666 685 655 673L585 592Q620 543 637 483T655 356Q655 279 633 213T570 98T471 22T343 -6Q279 -6 229 16T141 74L79 1Q76 -3 68 -8T49 -14Q35 -14 28 -5T20 13Q20 19 23 26T37 46L100 120Q65 172 48 231T31 356Q31 430 52 495T114 610T210 689T337 718Q403 718 453 698T545 639L604 708Q614 719 620 722T635 726Z"  />
<glyph unicode="&#xD9;" horiz-adv-x="668" d="M102 718Q123 718 134 705T146 673V245Q146 206 159 174T196 119T255 83T334 70Q377 70 412 83T471 119T509 174T522 245V673Q522 692 533 705T566 718Q587 718 598 705T610 673V277Q610 141 541 68T334 -6Q198 -6 128 67T58 277V673Q58 692 69 705T102 718ZM261 902Q271 902 279 900T295 893L410 846Q435 835 440 826T445 809Q445 794 435 781T407 767Q394 767 383 772L258 823Q234 833 229 843T223 860Q223 874 233 888T261 902Z"  />
<glyph unicode="&#xDA;" horiz-adv-x="668" d="M102 718Q123 718 134 705T146 673V245Q146 206 159 174T196 119T255 83T334 70Q377 70 412 83T471 119T509 174T522 245V673Q522 692 533 705T566 718Q587 718 598 705T610 673V277Q610 141 541 68T334 -6Q198 -6 128 67T58 277V673Q58 692 69 705T102 718ZM407 902Q424 902 434 888T445 860Q445 853 440 843T410 823L285 772Q274 767 261 767Q244 767 234 780T223 809Q223 816 228 825T258 846L373 893Q381 897 389 899T407 902Z"  />
<glyph unicode="&#xDB;" horiz-adv-x="668" d="M102 718Q123 718 134 705T146 673V245Q146 206 159 174T196 119T255 83T334 70Q377 70 412 83T471 119T509 174T522 245V673Q522 692 533 705T566 718Q587 718 598 705T610 673V277Q610 141 541 68T334 -6Q198 -6 128 67T58 277V673Q58 692 69 705T102 718ZM450 767Q447 767 442 767T428 772L334 809L239 771Q231 768 226 768T218 767Q201 767 192 778T182 805Q182 829 205 840L334 895L461 841Q486 830 486 805Q486 789 477 778T450 767Z"  />
<glyph unicode="&#xDC;" horiz-adv-x="668" d="M102 718Q123 718 134 705T146 673V245Q146 206 159 174T196 119T255 83T334 70Q377 70 412 83T471 119T509 174T522 245V673Q522 692 533 705T566 718Q587 718 598 705T610 673V277Q610 141 541 68T334 -6Q198 -6 128 67T58 277V673Q58 692 69 705T102 718ZM427 872Q449 872 465 857T481 818Q481 795 465 780T427 764Q404 764 389 779T373 818Q373 840 388 856T427 872ZM241 872Q263 872 279 857T295 818Q295 795 279 780T241 764Q218 764 203 779T187 818Q187 840 202 856T241 872Z"  />
<glyph unicode="&#xDD;" horiz-adv-x="500" d="M41 718Q57 718 68 710T88 686L250 421L409 681Q422 702 432 710T459 718Q476 718 487 709T499 682Q499 676 497 669T485 645L294 334V39Q294 20 283 7T250 -6Q229 -6 218 7T206 39V334L11 652Q1 668 1 682Q1 699 12 708T41 718ZM323 902Q340 902 350 888T361 860Q361 853 356 843T326 823L201 772Q190 767 177 767Q160 767 150 780T139 809Q139 816 144 825T174 846L289 893Q297 897 305 899T323 902Z"  />
<glyph unicode="&#xDE;" horiz-adv-x="519" d="M279 232Q309 232 335 243T380 273T411 319T422 377Q422 409 412 436T382 482T335 513T275 524H146V232H279ZM102 718Q123 718 134 705T146 673V600H283Q329 600 370 585T442 540T491 470T510 377Q510 333 494 294T447 223T376 174T286 156H146V39Q146 20 135 7T102 -6Q81 -6 70 7T58 39V673Q58 692 69 705T102 718Z"  />
<glyph unicode="&#xDF;" horiz-adv-x="556" d="M250 772Q293 772 329 757T392 716T434 657T449 589Q449 534 432 492T372 422Q435 405 470 351T506 224Q506 183 493 142T454 68T392 15T312 -6Q277 -6 264 4T250 35Q250 73 287 73Q348 73 380 109T412 228Q412 291 381 330T288 374Q246 376 246 412Q246 429 254 438T295 456Q328 465 344 494T361 579Q361 630 331 663T252 696Q198 696 172 657T146 551V35Q146 18 135 6T102 -6Q82 -6 70 6T58 35V567Q58 612 71 649T110 714T170 756T250 772Z"  />
<glyph unicode="&#xE0;" horiz-adv-x="556" d="M123 266Q123 224 132 188T160 126T206 85T269 70Q304 70 331 85T377 126T405 188T415 266Q415 309 405 345T377 407T331 447T268 462Q235 462 208 448T162 408T133 346T123 266ZM269 538Q315 538 349 520T414 467H416V496Q416 515 428 526T457 538Q474 538 486 527T498 497V35Q498 18 487 6T457 -6Q439 -6 428 5T416 38V74H414Q385 32 349 13T269 -6Q214 -6 171 16T97 76T51 161T35 261Q35 322 52 373T100 460T174 517T269 538ZM205 742Q215 742 223 740T239 733L354 686Q379 675 384 666T389 649Q389 634 379 621T351 607Q338 607 327 612L202 663Q178 673 173 683T167 700Q167 714 177 728T205 742Z"  />
<glyph unicode="&#xE1;" horiz-adv-x="556" d="M123 266Q123 224 132 188T160 126T206 85T269 70Q304 70 331 85T377 126T405 188T415 266Q415 309 405 345T377 407T331 447T268 462Q235 462 208 448T162 408T133 346T123 266ZM269 538Q315 538 349 520T414 467H416V496Q416 515 428 526T457 538Q474 538 486 527T498 497V35Q498 18 487 6T457 -6Q439 -6 428 5T416 38V74H414Q385 32 349 13T269 -6Q214 -6 171 16T97 76T51 161T35 261Q35 322 52 373T100 460T174 517T269 538ZM205 607Q188 607 178 621T167 649Q167 656 172 666T202 686L327 737Q338 742 351 742Q368 742 378 729T389 700Q389 693 384 684T354 663L239 616Q231 612 223 610T205 607Z"  />
<glyph unicode="&#xE2;" horiz-adv-x="556" d="M123 266Q123 224 132 188T160 126T206 85T269 70Q304 70 331 85T377 126T405 188T415 266Q415 309 405 345T377 407T331 447T268 462Q235 462 208 448T162 408T133 346T123 266ZM269 538Q315 538 349 520T414 467H416V496Q416 515 428 526T457 538Q474 538 486 527T498 497V35Q498 18 487 6T457 -6Q439 -6 428 5T416 38V74H414Q385 32 349 13T269 -6Q214 -6 171 16T97 76T51 161T35 261Q35 322 52 373T100 460T174 517T269 538ZM394 607Q391 607 386 607T372 612L278 649L183 611Q175 608 170 608T162 607Q145 607 136 618T126 645Q126 669 149 680L278 735L405 681Q430 670 430 645Q430 629 421 618T394 607Z"  />
<glyph unicode="&#xE3;" horiz-adv-x="556" d="M123 266Q123 224 132 188T160 126T206 85T269 70Q304 70 331 85T377 126T405 188T415 266Q415 309 405 345T377 407T331 447T268 462Q235 462 208 448T162 408T133 346T123 266ZM269 538Q315 538 349 520T414 467H416V496Q416 515 428 526T457 538Q474 538 486 527T498 497V35Q498 18 487 6T457 -6Q439 -6 428 5T416 38V74H414Q385 32 349 13T269 -6Q214 -6 171 16T97 76T51 161T35 261Q35 322 52 373T100 460T174 517T269 538ZM222 718Q253 718 279 708T331 698Q342 698 350 701T365 708T378 715T393 718Q406 718 416 706T427 679Q427 655 402 636T334 616Q303 616 277 626T224 636Q214 636 207 633T192 626T177 619T162 616Q151 616 140 627T129 655Q129 679 155 698T222 718Z"  />
<glyph unicode="&#xE4;" horiz-adv-x="556" d="M123 266Q123 224 132 188T160 126T206 85T269 70Q304 70 331 85T377 126T405 188T415 266Q415 309 405 345T377 407T331 447T268 462Q235 462 208 448T162 408T133 346T123 266ZM269 538Q315 538 349 520T414 467H416V496Q416 515 428 526T457 538Q474 538 486 527T498 497V35Q498 18 487 6T457 -6Q439 -6 428 5T416 38V74H414Q385 32 349 13T269 -6Q214 -6 171 16T97 76T51 161T35 261Q35 322 52 373T100 460T174 517T269 538ZM371 712Q393 712 409 697T425 658Q425 636 410 620T371 604Q348 604 333 620T317 658Q317 681 332 696T371 712ZM185 712Q207 712 223 697T239 658Q239 636 224 620T185 604Q162 604 147 620T131 658Q131 681 146 696T185 712Z"  />
<glyph unicode="&#xE5;" horiz-adv-x="556" d="M123 266Q123 224 132 188T160 126T206 85T269 70Q304 70 331 85T377 126T405 188T415 266Q415 309 405 345T377 407T331 447T268 462Q235 462 208 448T162 408T133 346T123 266ZM269 538Q315 538 349 520T414 467H416V496Q416 515 428 526T457 538Q474 538 486 527T498 497V35Q498 18 487 6T457 -6Q439 -6 428 5T416 38V74H414Q385 32 349 13T269 -6Q214 -6 171 16T97 76T51 161T35 261Q35 322 52 373T100 460T174 517T269 538ZM232 678Q232 659 246 646T278 632Q297 632 310 645T324 678Q324 696 311 710T278 724Q260 724 246 711T232 678ZM278 772Q297 772 314 765T344 745T364 715T372 678Q372 659 365 642T345 612T315 592T278 584Q258 584 241 591T212 612T192 642T184 678Q184 697 191 714T211 744T241 764T278 772Z"  />
<glyph unicode="&#xE6;" horiz-adv-x="889" d="M775 298Q773 371 735 416T633 462Q572 462 535 419T495 298H775ZM123 266Q123 224 132 189T160 127T206 85T269 70Q305 70 332 85T377 127T405 189T415 266Q415 309 405 345T377 407T331 447T268 462Q235 462 208 448T162 408T133 346T123 266ZM456 -6Q438 -6 427 5T415 36V74H413Q385 32 349 13T269 -6Q214 -6 171 16T97 75T51 161T35 263Q35 324 52 374T101 461T174 518T265 538Q314 538 347 521T413 467H415V496Q415 515 427 526T456 538Q471 538 484 527T497 499V473H499Q522 499 561 518T639 538Q682 538 722 520T793 468T844 387T863 282Q863 255 853 244T816 232H489Q491 196 504 167T537 116T585 84T643 72Q695 72 728 88T784 124Q806 142 820 142Q832 142 842 132T852 103Q852 85 834 66T788 31T724 5T655 -6Q607 -6 566 10T499 58H497V36Q497 17 486 6T456 -6Z"  />
<glyph unicode="&#xE7;" horiz-adv-x="444" d="M275 538Q341 538 379 519T418 471Q418 457 408 446T381 434Q370 434 360 438T338 448T311 457T275 462Q240 462 212 447T164 406T134 344T123 266Q123 226 133 191T162 128T210 86T275 70Q300 70 317 75T357 93Q368 100 381 100Q396 100 405 91T415 63Q415 36 378 16T283 -6L259 -42Q268 -39 280 -39Q309 -39 329 -56T349 -96Q349 -135 321 -157T238 -180Q206 -180 186 -171T165 -145Q165 -135 170 -127T187 -118Q196 -118 211 -122T238 -126Q273 -126 273 -102Q273 -88 265 -85T232 -81Q213 -81 206 -75T199 -61Q199 -50 211 -34T233 -3Q186 4 150 27T88 85T49 167T35 266Q35 324 51 374T99 460T174 517T275 538Z"  />
<glyph unicode="&#xE8;" horiz-adv-x="520" d="M406 298Q403 374 365 418T261 462Q196 462 158 422T114 298H406ZM265 538Q319 538 361 516T433 457T478 376T494 283Q494 254 484 243T446 232H114Q115 157 158 114T271 70Q313 70 347 82T410 119Q438 142 451 142Q463 142 473 132T483 104Q483 86 464 67Q453 56 434 44T389 20T333 2T270 -6Q213 -6 168 13T91 69T43 155T26 266Q26 321 43 370T91 457T166 516T265 538ZM187 742Q197 742 205 740T221 733L336 686Q361 675 366 666T371 649Q371 634 361 621T333 607Q320 607 309 612L184 663Q160 673 155 683T149 700Q149 714 159 728T187 742Z"  />
<glyph unicode="&#xE9;" horiz-adv-x="520" d="M406 298Q403 374 365 418T261 462Q196 462 158 422T114 298H406ZM265 538Q319 538 361 516T433 457T478 376T494 283Q494 254 484 243T446 232H114Q115 157 158 114T271 70Q313 70 347 82T410 119Q438 142 451 142Q463 142 473 132T483 104Q483 86 464 67Q453 56 434 44T389 20T333 2T270 -6Q213 -6 168 13T91 69T43 155T26 266Q26 321 43 370T91 457T166 516T265 538ZM187 607Q170 607 160 621T149 649Q149 656 154 666T184 686L309 737Q320 742 333 742Q350 742 360 729T371 700Q371 693 366 684T336 663L221 616Q213 612 205 610T187 607Z"  />
<glyph unicode="&#xEA;" horiz-adv-x="520" d="M406 298Q403 374 365 418T261 462Q196 462 158 422T114 298H406ZM265 538Q319 538 361 516T433 457T478 376T494 283Q494 254 484 243T446 232H114Q115 157 158 114T271 70Q313 70 347 82T410 119Q438 142 451 142Q463 142 473 132T483 104Q483 86 464 67Q453 56 434 44T389 20T333 2T270 -6Q213 -6 168 13T91 69T43 155T26 266Q26 321 43 370T91 457T166 516T265 538ZM376 607Q373 607 368 607T354 612L260 649L165 611Q157 608 152 608T144 607Q127 607 118 618T108 645Q108 669 131 680L260 735L387 681Q412 670 412 645Q412 629 403 618T376 607Z"  />
<glyph unicode="&#xEB;" horiz-adv-x="520" d="M406 298Q403 374 365 418T261 462Q196 462 158 422T114 298H406ZM265 538Q319 538 361 516T433 457T478 376T494 283Q494 254 484 243T446 232H114Q115 157 158 114T271 70Q313 70 347 82T410 119Q438 142 451 142Q463 142 473 132T483 104Q483 86 464 67Q453 56 434 44T389 20T333 2T270 -6Q213 -6 168 13T91 69T43 155T26 266Q26 321 43 370T91 457T166 516T265 538ZM353 712Q375 712 391 697T407 658Q407 636 392 620T353 604Q330 604 315 620T299 658Q299 681 314 696T353 712ZM167 712Q189 712 205 697T221 658Q221 636 206 620T167 604Q144 604 129 620T113 658Q113 681 128 696T167 712Z"  />
<glyph unicode="&#xEC;" horiz-adv-x="204" d="M102 538Q123 538 134 525T146 493V39Q146 20 135 7T102 -6Q81 -6 70 7T58 39V493Q58 512 69 525T102 538ZM29 742Q39 742 47 740T63 733L178 686Q203 675 208 666T213 649Q213 634 203 621T175 607Q162 607 151 612L26 663Q2 673 -3 683T-9 700Q-9 714 1 728T29 742Z"  />
<glyph unicode="&#xED;" horiz-adv-x="204" d="M102 538Q123 538 134 525T146 493V39Q146 20 135 7T102 -6Q81 -6 70 7T58 39V493Q58 512 69 525T102 538ZM29 607Q12 607 2 621T-9 649Q-9 656 -4 666T26 686L151 737Q162 742 175 742Q192 742 202 729T213 700Q213 693 208 684T178 663L63 616Q55 612 47 610T29 607Z"  />
<glyph unicode="&#xEE;" horiz-adv-x="204" d="M102 538Q123 538 134 525T146 493V39Q146 20 135 7T102 -6Q81 -6 70 7T58 39V493Q58 512 69 525T102 538ZM218 607Q215 607 210 607T196 612L102 649L7 611Q-1 608 -6 608T-14 607Q-31 607 -40 618T-50 645Q-50 669 -27 680L102 735L229 681Q254 670 254 645Q254 629 245 618T218 607Z"  />
<glyph unicode="&#xEF;" horiz-adv-x="204" d="M102 538Q123 538 134 525T146 493V39Q146 20 135 7T102 -6Q81 -6 70 7T58 39V493Q58 512 69 525T102 538ZM195 712Q217 712 233 697T249 658Q249 636 234 620T195 604Q172 604 157 620T141 658Q141 681 156 696T195 712ZM9 712Q31 712 47 697T63 658Q63 636 48 620T9 604Q-14 604 -29 620T-45 658Q-45 681 -30 696T9 712Z"  />
<glyph unicode="&#xF0;" horiz-adv-x="538" d="M123 262Q123 223 133 188T162 127T208 85T270 70Q304 70 331 85T376 127T405 188T415 262Q415 301 405 335T377 396T331 438T268 454Q235 454 208 439T163 398T134 337T123 262ZM167 772Q177 772 193 767T227 754T265 735T302 711L394 757Q413 766 423 766Q431 766 439 761T447 742Q447 730 442 724T427 713L348 675Q425 606 464 515T503 299Q503 150 439 72T258 -6Q207 -6 166 16T96 76T51 161T35 258Q35 312 50 361T95 449T165 509T259 532Q296 532 330 517T389 472L391 474Q377 512 348 553T270 635L187 595Q180 591 172 588T154 584Q145 584 138 591T130 611Q130 616 133 622T148 634L224 671Q206 686 181 696Q154 707 142 716T130 741Q130 754 140 763T167 772Z"  />
<glyph unicode="&#xF1;" horiz-adv-x="538" d="M102 538Q118 538 132 528T146 484V470L148 468Q178 506 216 522T295 538Q334 538 368 524T426 485T465 423T480 340V39Q480 20 469 7T436 -6Q415 -6 404 7T392 39V334Q392 391 358 426T269 462Q242 462 220 453T181 427T155 386T146 334V39Q146 20 135 7T102 -6Q81 -6 70 7T58 39V493Q58 512 69 525T102 538ZM213 718Q244 718 270 708T322 698Q333 698 341 701T356 708T369 715T384 718Q397 718 407 706T418 679Q418 655 393 636T325 616Q294 616 268 626T215 636Q205 636 198 633T183 626T168 619T153 616Q142 616 131 627T120 655Q120 679 146 698T213 718Z"  />
<glyph unicode="&#xF2;" horiz-adv-x="538" d="M123 266Q123 224 132 188T160 126T206 85T269 70Q304 70 331 84T377 125T405 188T415 266Q415 309 405 345T376 407T330 447T268 462Q235 462 208 448T162 408T133 346T123 266ZM269 538Q323 538 366 517T440 458T486 372T503 268Q503 213 488 163T442 76T369 16T270 -6Q211 -6 167 18T94 80T50 165T35 259Q35 320 52 371T99 460T173 517T269 538ZM196 742Q206 742 214 740T230 733L345 686Q370 675 375 666T380 649Q380 634 370 621T342 607Q329 607 318 612L193 663Q169 673 164 683T158 700Q158 714 168 728T196 742Z"  />
<glyph unicode="&#xF3;" horiz-adv-x="538" d="M123 266Q123 224 132 188T160 126T206 85T269 70Q304 70 331 84T377 125T405 188T415 266Q415 309 405 345T376 407T330 447T268 462Q235 462 208 448T162 408T133 346T123 266ZM269 538Q323 538 366 517T440 458T486 372T503 268Q503 213 488 163T442 76T369 16T270 -6Q211 -6 167 18T94 80T50 165T35 259Q35 320 52 371T99 460T173 517T269 538ZM196 607Q179 607 169 621T158 649Q158 656 163 666T193 686L318 737Q329 742 342 742Q359 742 369 729T380 700Q380 693 375 684T345 663L230 616Q222 612 214 610T196 607Z"  />
<glyph unicode="&#xF4;" horiz-adv-x="538" d="M123 266Q123 224 132 188T160 126T206 85T269 70Q304 70 331 84T377 125T405 188T415 266Q415 309 405 345T376 407T330 447T268 462Q235 462 208 448T162 408T133 346T123 266ZM269 538Q323 538 366 517T440 458T486 372T503 268Q503 213 488 163T442 76T369 16T270 -6Q211 -6 167 18T94 80T50 165T35 259Q35 320 52 371T99 460T173 517T269 538ZM385 607Q382 607 377 607T363 612L269 649L174 611Q166 608 161 608T153 607Q136 607 127 618T117 645Q117 669 140 680L269 735L396 681Q421 670 421 645Q421 629 412 618T385 607Z"  />
<glyph unicode="&#xF5;" horiz-adv-x="538" d="M123 266Q123 224 132 188T160 126T206 85T269 70Q304 70 331 84T377 125T405 188T415 266Q415 309 405 345T376 407T330 447T268 462Q235 462 208 448T162 408T133 346T123 266ZM269 538Q323 538 366 517T440 458T486 372T503 268Q503 213 488 163T442 76T369 16T270 -6Q211 -6 167 18T94 80T50 165T35 259Q35 320 52 371T99 460T173 517T269 538ZM213 718Q244 718 270 708T322 698Q333 698 341 701T356 708T369 715T384 718Q397 718 407 706T418 679Q418 655 393 636T325 616Q294 616 268 626T215 636Q205 636 198 633T183 626T168 619T153 616Q142 616 131 627T120 655Q120 679 146 698T213 718Z"  />
<glyph unicode="&#xF6;" horiz-adv-x="538" d="M123 266Q123 224 132 188T160 126T206 85T269 70Q304 70 331 84T377 125T405 188T415 266Q415 309 405 345T376 407T330 447T268 462Q235 462 208 448T162 408T133 346T123 266ZM269 538Q323 538 366 517T440 458T486 372T503 268Q503 213 488 163T442 76T369 16T270 -6Q211 -6 167 18T94 80T50 165T35 259Q35 320 52 371T99 460T173 517T269 538ZM362 712Q384 712 400 697T416 658Q416 636 401 620T362 604Q339 604 324 620T308 658Q308 681 323 696T362 712ZM176 712Q198 712 214 697T230 658Q230 636 215 620T176 604Q153 604 138 620T122 658Q122 681 137 696T176 712Z"  />
<glyph unicode="&#xF7;" horiz-adv-x="600" d="M300 118Q330 118 351 97T372 46Q372 16 351 -5T300 -26Q270 -26 249 -5T228 46Q228 76 249 97T300 118ZM512 294Q528 294 540 284T553 253Q553 231 541 222T512 212H88Q72 212 60 222T47 253Q47 274 59 284T88 294H512ZM300 532Q330 532 351 511T372 460Q372 430 351 409T300 388Q270 388 249 409T228 460Q228 490 249 511T300 532Z"  />
<glyph unicode="&#xF8;" horiz-adv-x="538" d="M177 107Q193 90 216 80T269 70Q304 70 331 85T377 126T405 188T415 266Q415 292 411 318T395 370L177 107ZM123 266Q123 240 127 214T143 162L361 425Q344 442 321 452T268 462Q235 462 208 448T162 408T133 346T123 266ZM484 556Q497 556 506 548T515 528Q515 518 511 511T501 497L453 440Q503 363 503 266Q503 212 487 163T442 77T369 17T272 -6Q185 -6 127 46L78 -13Q68 -24 53 -24Q41 -24 32 -15T23 4Q23 16 34 30L86 93Q60 128 48 173T35 266Q35 320 51 369T96 455T169 515T266 538Q311 538 347 525T412 487L454 538Q459 545 466 550T484 556Z"  />
<glyph unicode="&#xF9;" horiz-adv-x="538" d="M102 538Q123 538 134 525T146 493V205Q146 142 176 106T269 70Q333 70 362 106T392 205V493Q392 512 403 525T436 538Q457 538 468 525T480 493V202Q480 105 424 50T269 -6Q170 -6 114 49T58 202V493Q58 512 69 525T102 538ZM196 742Q206 742 214 740T230 733L345 686Q370 675 375 666T380 649Q380 634 370 621T342 607Q329 607 318 612L193 663Q169 673 164 683T158 700Q158 714 168 728T196 742Z"  />
<glyph unicode="&#xFA;" horiz-adv-x="538" d="M102 538Q123 538 134 525T146 493V205Q146 142 176 106T269 70Q333 70 362 106T392 205V493Q392 512 403 525T436 538Q457 538 468 525T480 493V202Q480 105 424 50T269 -6Q170 -6 114 49T58 202V493Q58 512 69 525T102 538ZM196 607Q179 607 169 621T158 649Q158 656 163 666T193 686L318 737Q329 742 342 742Q359 742 369 729T380 700Q380 693 375 684T345 663L230 616Q222 612 214 610T196 607Z"  />
<glyph unicode="&#xFB;" horiz-adv-x="538" d="M102 538Q123 538 134 525T146 493V205Q146 142 176 106T269 70Q333 70 362 106T392 205V493Q392 512 403 525T436 538Q457 538 468 525T480 493V202Q480 105 424 50T269 -6Q170 -6 114 49T58 202V493Q58 512 69 525T102 538ZM385 607Q382 607 377 607T363 612L269 649L174 611Q166 608 161 608T153 607Q136 607 127 618T117 645Q117 669 140 680L269 735L396 681Q421 670 421 645Q421 629 412 618T385 607Z"  />
<glyph unicode="&#xFC;" horiz-adv-x="538" d="M102 538Q123 538 134 525T146 493V205Q146 142 176 106T269 70Q333 70 362 106T392 205V493Q392 512 403 525T436 538Q457 538 468 525T480 493V202Q480 105 424 50T269 -6Q170 -6 114 49T58 202V493Q58 512 69 525T102 538ZM362 712Q384 712 400 697T416 658Q416 636 401 620T362 604Q339 604 324 620T308 658Q308 681 323 696T362 712ZM176 712Q198 712 214 697T230 658Q230 636 215 620T176 604Q153 604 138 620T122 658Q122 681 137 696T176 712Z"  />
<glyph unicode="&#xFD;" horiz-adv-x="444" d="M57 538Q74 538 85 529T101 506L223 140H225L345 505Q350 520 360 529T387 538Q402 538 414 528T427 501Q427 493 424 481T419 464L193 -183Q188 -196 178 -206T150 -216Q135 -216 123 -206T110 -179Q110 -170 113 -159T125 -125L179 19L29 453Q24 469 21 481T17 501Q17 518 29 528T57 538ZM149 607Q132 607 122 621T111 649Q111 656 116 666T146 686L271 737Q282 742 295 742Q312 742 322 729T333 700Q333 693 328 684T298 663L183 616Q175 612 167 610T149 607Z"  />
<glyph unicode="&#xFE;" horiz-adv-x="556" d="M141 266Q141 224 150 188T178 126T224 85T287 70Q323 70 350 85T396 127T423 189T433 266Q433 308 423 344T395 406T349 447T286 462Q253 462 226 448T180 408T151 346T141 266ZM106 772Q126 772 138 760T150 727V465H152Q190 538 294 538Q348 538 390 516T461 456T505 370T521 270Q521 213 505 163T460 75T388 16T294 -6Q251 -6 214 12T152 66H150V-171Q150 -190 139 -203T106 -216Q85 -216 74 -203T62 -171V727Q62 746 73 759T106 772Z"  />
<glyph unicode="&#xFF;" horiz-adv-x="444" d="M57 538Q74 538 85 529T101 506L223 140H225L345 505Q350 520 360 529T387 538Q402 538 414 528T427 501Q427 493 424 481T419 464L193 -183Q188 -196 178 -206T150 -216Q135 -216 123 -206T110 -179Q110 -170 113 -159T125 -125L179 19L29 453Q24 469 21 481T17 501Q17 518 29 528T57 538ZM315 712Q337 712 353 697T369 658Q369 636 354 620T315 604Q292 604 277 620T261 658Q261 681 276 696T315 712ZM129 712Q151 712 167 697T183 658Q183 636 168 620T129 604Q106 604 91 620T75 658Q75 681 90 696T129 712Z"  />
<glyph unicode="&#x131;" horiz-adv-x="204" d="M102 538Q123 538 134 525T146 493V39Q146 20 135 7T102 -6Q81 -6 70 7T58 39V493Q58 512 69 525T102 538Z"  />
<glyph unicode="&#x152;" horiz-adv-x="926" d="M125 356Q125 297 139 245T180 154T247 93T340 70Q397 70 438 93T507 155T548 245T561 354Q561 412 548 464T508 556T439 619T336 642Q287 642 248 621T182 561T140 470T125 356ZM337 718Q404 718 456 693T554 618V663Q554 712 599 712H844Q860 712 872 702T885 671Q885 650 873 640T844 630H642V397H837Q853 397 865 387T878 356Q878 335 866 325T837 315H642V82H854Q870 82 882 72T895 41Q895 20 883 10T854 0H599Q554 0 554 50V104H552Q510 47 455 21T335 -6Q268 -6 213 22T117 99T54 213T31 351Q31 429 53 496T115 612T212 690T337 718Z"  />
<glyph unicode="&#x153;" horiz-adv-x="907" d="M793 298Q793 334 782 364T752 416T706 450T646 462Q614 462 588 451T543 418T513 366T501 298H793ZM123 266Q123 223 132 187T160 125T206 85T267 70Q304 70 331 85T377 128T404 191T413 267Q413 308 404 343T376 405T330 447T267 462Q232 462 206 447T161 406T133 344T123 266ZM266 538Q323 538 373 512T459 434Q488 483 537 510T647 538Q701 538 744 517T818 459T865 377T881 282Q881 254 871 243T834 232H501Q502 159 545 116T660 72Q688 72 708 76T746 88T777 105T805 126Q826 142 838 142Q850 142 860 132T870 103Q870 85 851 66T802 31T735 5T662 -6Q593 -6 541 20T459 98Q422 47 373 21T266 -6Q212 -6 169 16T97 76T51 161T35 262Q35 316 50 366T95 454T167 515T266 538Z"  />
<glyph unicode="&#x160;" horiz-adv-x="481" d="M238 718Q271 718 302 712T358 694T398 667T413 635Q413 619 403 608T375 596Q360 596 341 608Q328 616 317 622T293 633T267 640T235 642Q184 642 153 613T122 541Q122 501 151 475T241 429Q288 413 328 397T397 357T443 300T460 219Q460 172 444 132T396 60T320 12T219 -6Q183 -6 148 0T84 18T39 46T21 81Q21 98 30 111T58 125Q69 125 83 117T116 98T161 79T220 70Q253 70 279 81T325 111T355 157T366 215Q366 260 337 285T268 326Q245 335 220 343T175 359Q98 387 63 428T28 535Q28 568 43 600T85 659T151 701T238 718ZM357 895Q374 895 383 884T393 857Q393 832 368 821L241 767L112 822Q89 833 89 857Q89 873 98 884T125 895Q128 895 133 895T146 891L241 853L335 890Q343 894 348 894T357 895Z"  />
<glyph unicode="&#x161;" horiz-adv-x="444" d="M227 538Q256 538 287 531T345 511T387 481T404 444Q404 430 394 419T364 408Q354 408 347 412T332 421Q320 429 310 436T288 449T262 458T227 462Q185 462 160 444T134 395Q134 372 158 354T235 315Q272 301 300 290T348 265Q391 239 404 212T418 158Q418 120 404 90T364 39T303 6T224 -6Q184 -6 148 3T84 26T40 59T24 95Q24 113 35 124T60 135Q79 135 108 112Q138 89 166 80T227 70Q272 70 301 91T330 142Q330 169 305 190T222 234Q181 250 149 266T94 299T59 338T46 388Q46 423 61 451T101 498T159 528T227 538ZM338 735Q355 735 364 724T374 697Q374 672 349 661L222 607L93 662Q70 673 70 697Q70 713 79 724T106 735Q109 735 114 735T127 731L222 693L316 730Q324 734 329 734T338 735Z"  />
<glyph unicode="&#x178;" horiz-adv-x="500" d="M41 718Q57 718 68 710T88 686L250 421L409 681Q422 702 432 710T459 718Q476 718 487 709T499 682Q499 676 497 669T485 645L294 334V39Q294 20 283 7T250 -6Q229 -6 218 7T206 39V334L11 652Q1 668 1 682Q1 699 12 708T41 718ZM343 872Q365 872 381 857T397 818Q397 795 381 780T343 764Q320 764 305 779T289 818Q289 840 304 856T343 872ZM157 872Q179 872 195 857T211 818Q211 795 195 780T157 764Q134 764 119 779T103 818Q103 840 118 856T157 872Z"  />
<glyph unicode="&#x17D;" horiz-adv-x="556" d="M476 712Q494 712 506 703T519 680Q519 668 516 658T498 626L130 76H491Q507 76 519 67T532 38Q532 18 520 9T491 0H73Q24 0 24 40Q24 51 27 60T41 87L407 636H82Q66 636 54 645T41 674Q41 693 53 702T82 712H476ZM394 895Q411 895 420 884T430 857Q430 832 405 821L278 767L149 822Q126 833 126 857Q126 873 135 884T162 895Q165 895 170 895T183 891L278 853L372 890Q380 894 385 894T394 895Z"  />
<glyph unicode="&#x17E;" horiz-adv-x="444" d="M373 532Q390 532 401 524T413 501Q413 482 399 462L138 78L141 76H382Q401 76 412 67T424 38Q424 20 413 10T382 0H61Q44 0 32 8T20 31Q20 50 33 68T54 99L292 456H72Q53 456 42 466T30 494Q30 513 41 522T72 532H373ZM338 735Q355 735 364 724T374 697Q374 672 349 661L222 607L93 662Q70 673 70 697Q70 713 79 724T106 735Q109 735 114 735T127 731L222 693L316 730Q324 734 329 734T338 735Z"  />
<glyph unicode="&#x192;" horiz-adv-x="536" d="M388 718Q423 718 438 707T454 680Q454 663 442 656T399 648Q382 648 369 643T346 624T327 584T311 517L296 432H359Q373 432 384 421T396 394Q396 378 385 367T359 356H283L212 -37Q202 -91 190 -125T158 -180T112 -208T46 -216Q11 -216 -4 -205T-19 -176Q-19 -139 27 -139H65Q93 -139 105 -111T126 -41L197 356H147Q131 356 120 367T109 394Q109 410 120 421T146 432H210L230 545Q239 596 252 629T284 682T328 710T388 718Z"  />
<glyph unicode="&#x237;" horiz-adv-x="204" d="M102 538Q123 538 134 525T146 493V-171Q146 -190 135 -203T102 -216Q81 -216 70 -203T58 -171V493Q58 512 69 525T102 538Z"  />
<glyph unicode="&#x2C6;" horiz-adv-x="204" d="M218 607Q215 607 210 607T196 612L102 649L7 611Q-1 608 -6 608T-14 607Q-31 607 -40 618T-50 645Q-50 669 -27 680L102 735L229 681Q254 670 254 645Q254 629 245 618T218 607Z"  />
<glyph unicode="&#x2C7;" horiz-adv-x="204" d="M218 735Q235 735 244 724T254 697Q254 672 229 661L102 607L-27 662Q-50 673 -50 697Q-50 713 -41 724T-14 735Q-11 735 -6 735T7 731L102 693L196 730Q204 734 209 734T218 735Z"  />
<glyph unicode="&#x2DA;" horiz-adv-x="204" d="M56 678Q56 659 70 646T102 632Q121 632 134 645T148 678Q148 696 135 710T102 724Q84 724 70 711T56 678ZM102 772Q121 772 138 765T168 745T188 715T196 678Q196 659 189 642T169 612T139 592T102 584Q82 584 65 591T36 612T16 642T8 678Q8 697 15 714T35 744T65 764T102 772Z"  />
<glyph unicode="&#x2DC;" horiz-adv-x="204" d="M46 718Q77 718 103 708T155 698Q166 698 174 701T189 708T202 715T217 718Q230 718 240 706T251 679Q251 655 226 636T158 616Q127 616 101 626T48 636Q38 636 31 633T16 626T1 619T-14 616Q-25 616 -36 627T-47 655Q-47 679 -21 698T46 718Z"  />
<glyph unicode="&#x2013;" horiz-adv-x="500" d="M463 306Q477 306 488 295T500 268Q500 252 489 241T463 230H37Q23 230 12 241T0 268Q0 284 11 295T40 306H463Z"  />
<glyph unicode="&#x2014;" horiz-adv-x="1000" d="M1001 306Q1015 306 1026 295T1038 268Q1038 252 1027 241T1001 230H-1Q-15 230 -26 241T-38 268Q-38 284 -27 295T-1 306H1001Z"  />
<glyph unicode="&#x2018;" horiz-adv-x="204" d="M139 718Q156 718 167 707T179 680Q179 664 169 645L113 535Q99 509 89 503T65 496Q49 496 37 507T25 534Q25 540 26 547T36 570L96 688Q112 718 139 718Z"  />
<glyph unicode="&#x2019;" horiz-adv-x="204" d="M139 718Q156 718 167 707T179 680Q179 664 169 645L113 535Q99 509 89 503T65 496Q49 496 37 507T25 534Q25 540 26 547T36 570L96 688Q112 718 139 718Z"  />
<glyph unicode="&#x201A;" horiz-adv-x="204" d="M139 96Q156 96 167 85T179 58Q179 42 169 23L113 -87Q99 -113 89 -119T65 -126Q49 -126 37 -115T25 -88Q25 -82 26 -75T36 -52L96 66Q112 96 139 96Z"  />
<glyph unicode="&#x201C;" horiz-adv-x="334" d="M275 718Q292 718 303 707T315 680Q315 664 305 645L249 535Q235 509 225 503T201 496Q185 496 173 507T161 534Q161 540 162 547T172 570L232 688Q248 718 275 718ZM133 718Q150 718 161 707T173 680Q173 664 163 645L107 535Q93 509 83 503T59 496Q43 496 31 507T19 534Q19 540 20 547T30 570L90 688Q106 718 133 718Z"  />
<glyph unicode="&#x201D;" horiz-adv-x="334" d="M275 718Q292 718 303 707T315 680Q315 664 305 645L249 535Q235 509 225 503T201 496Q185 496 173 507T161 534Q161 540 162 547T172 570L232 688Q248 718 275 718ZM133 718Q150 718 161 707T173 680Q173 664 163 645L107 535Q93 509 83 503T59 496Q43 496 31 507T19 534Q19 540 20 547T30 570L90 688Q106 718 133 718Z"  />
<glyph unicode="&#x201E;" horiz-adv-x="334" d="M275 96Q292 96 303 85T315 58Q315 42 305 23L249 -87Q235 -113 225 -119T201 -126Q185 -126 173 -115T161 -88Q161 -82 162 -75T172 -52L232 66Q248 96 275 96ZM133 96Q150 96 161 85T173 58Q173 42 163 23L107 -87Q93 -113 83 -119T59 -126Q43 -126 31 -115T19 -88Q19 -82 20 -75T30 -52L90 66Q106 96 133 96Z"  />
<glyph unicode="&#x2020;" horiz-adv-x="612" d="M306 718Q327 718 337 706T347 677V470H544Q560 470 572 460T585 429Q585 408 573 398T544 388H347V-175Q347 -191 337 -203T306 -216Q285 -216 275 -204T265 -175V388H68Q52 388 40 398T27 429Q27 450 39 460T68 470H265V677Q265 693 275 705T306 718Z"  />
<glyph unicode="&#x2021;" horiz-adv-x="612" d="M306 718Q327 718 337 706T347 677V490H544Q560 490 572 480T585 449Q585 428 573 418T544 408H347V94H544Q560 94 572 84T585 53Q585 32 573 22T544 12H347V-175Q347 -191 337 -203T306 -216Q285 -216 275 -204T265 -175V12H68Q52 12 40 22T27 53Q27 74 39 84T68 94H265V408H68Q52 408 40 418T27 449Q27 470 39 480T68 490H265V677Q265 693 275 705T306 718Z"  />
<glyph unicode="&#x2022;" horiz-adv-x="500" d="M250 534Q287 534 319 520T376 481T414 424T428 356Q428 320 414 288T376 232T320 193T250 178Q214 178 182 192T125 231T86 287T72 356Q72 392 86 424T124 480T180 519T250 534Z"  />
<glyph unicode="&#x2026;" horiz-adv-x="1000" d="M833 96Q853 96 868 82T884 45Q884 24 869 9T833 -6Q812 -6 797 9T782 45Q782 67 797 81T833 96ZM500 96Q520 96 535 82T551 45Q551 24 536 9T500 -6Q479 -6 464 9T449 45Q449 67 464 81T500 96ZM167 96Q187 96 202 82T218 45Q218 24 203 9T167 -6Q146 -6 131 9T116 45Q116 67 131 81T167 96Z"  />
<glyph unicode="&#x2030;" horiz-adv-x="1093" d="M809 163Q809 112 831 80T895 48Q937 48 959 80T981 163Q981 214 959 246T894 278Q855 278 832 247T809 163ZM895 332Q929 332 957 320T1005 285T1036 231T1047 163Q1047 128 1037 98T1008 44T960 8T895 -6Q859 -6 831 7T784 43T754 96T743 163Q743 200 754 231T785 284T833 319T895 332ZM459 163Q459 112 481 80T545 48Q587 48 609 80T631 163Q631 214 609 246T544 278Q505 278 482 247T459 163ZM545 332Q579 332 607 320T655 285T686 231T697 163Q697 128 687 98T658 44T610 8T545 -6Q509 -6 481 7T434 43T404 96T393 163Q393 200 404 231T435 284T483 319T545 332ZM112 549Q112 498 134 466T198 434Q240 434 262 466T284 549Q284 600 262 632T197 664Q158 664 135 633T112 549ZM198 718Q232 718 260 706T308 671T339 617T350 549Q350 514 340 484T311 430T263 394T198 380Q162 380 134 393T87 429T57 482T46 549Q46 586 57 617T88 670T136 705T198 718ZM512 726Q530 726 538 717T547 699Q547 688 533 654L266 13Q255 -14 230 -14Q213 -14 205 -6T197 13Q197 21 202 35T211 58L473 687Q484 712 492 719T512 726Z"  />
<glyph unicode="&#x2039;" horiz-adv-x="259" d="M176 472Q193 472 204 462T216 437Q216 425 203 402L122 268L206 128Q216 111 216 99Q216 84 205 74T176 64Q164 64 156 71T143 88L43 268L142 446Q149 458 157 465T176 472Z"  />
<glyph unicode="&#x203A;" horiz-adv-x="259" d="M83 472Q94 472 102 465T117 446L216 268L119 94Q111 79 103 72T83 64Q66 64 55 74T43 99Q43 112 52 126L137 268L55 405Q48 416 46 423T43 437Q43 452 54 462T83 472Z"  />
<glyph unicode="&#x2044;" horiz-adv-x="168" d="M225 726Q242 726 250 717T259 699Q259 690 255 679T246 655L-21 16Q-27 2 -34 -6T-58 -14Q-75 -14 -83 -6T-91 13Q-91 21 -87 34T-77 59L186 687Q197 712 204 719T225 726Z"  />
<glyph unicode="&#x20AC;" horiz-adv-x="536" d="M333 718Q367 718 396 708T448 682T484 647T497 612Q497 595 486 584T460 572Q448 572 439 583T416 607T383 631T331 642Q296 642 268 628T219 590T183 532T160 462H376Q396 462 405 452T414 429Q414 417 405 407T375 396H150Q149 382 149 373T148 359Q148 354 148 345T149 325H333Q356 325 365 315T374 292Q374 280 365 270T335 259H157Q168 205 186 169T227 111T275 80T324 70Q350 70 366 74T402 90Q433 108 447 121T476 134Q488 134 500 124T512 93Q512 78 499 61T461 28T404 4T332 -6Q230 -6 159 60T62 259H29Q6 259 -3 270T-12 292Q-12 303 -3 314T29 325H55Q54 338 54 346T54 360Q54 368 54 376T55 396H29Q6 396 -3 406T-12 429Q-12 441 -3 451T29 462H64Q76 522 101 569T161 650T239 700T333 718Z"  />
<glyph unicode="&#x2122;" horiz-adv-x="990" d="M363 712Q376 712 385 704T394 679Q394 646 363 646H267V339Q267 323 257 311T226 298Q205 298 195 310T185 339V646H88Q76 646 67 654T58 679Q58 696 67 704T88 712H363ZM537 718Q566 718 581 708T608 669L704 418L801 677Q808 694 824 706T869 718Q932 718 932 653V334Q932 321 921 310T894 298Q878 298 867 309T856 334V624H854L746 335Q739 317 730 308T703 298Q687 298 678 306T660 335L552 624H550V334Q550 321 539 310T512 298Q496 298 485 309T474 334V653Q474 718 537 718Z"  />
<glyph unicode="&#xE000;" horiz-adv-x="204" d="M29 902Q39 902 47 900T63 893L178 846Q203 835 208 826T213 809Q213 794 203 781T175 767Q162 767 151 772L26 823Q2 833 -3 843T-9 860Q-9 874 1 888T29 902Z"  />
<glyph unicode="&#xE002;" horiz-adv-x="204" d="M175 902Q192 902 202 888T213 860Q213 853 208 843T178 823L53 772Q42 767 29 767Q12 767 2 780T-9 809Q-9 816 -4 825T26 846L141 893Q149 897 157 899T175 902Z"  />
<glyph unicode="&#xE004;" horiz-adv-x="204" d="M218 767Q215 767 210 767T196 772L102 809L7 771Q-1 768 -6 768T-14 767Q-31 767 -40 778T-50 805Q-50 829 -27 840L102 895L229 841Q254 830 254 805Q254 789 245 778T218 767Z"  />
<glyph unicode="&#xE006;" horiz-adv-x="204" d="M218 895Q235 895 244 884T254 857Q254 832 229 821L102 767L-27 822Q-50 833 -50 857Q-50 873 -41 884T-14 895Q-11 895 -6 895T7 891L102 853L196 890Q204 894 209 894T218 895Z"  />
<glyph unicode="&#xE009;" horiz-adv-x="204" d="M46 878Q77 878 103 868T155 858Q166 858 174 861T189 868T202 875T217 878Q230 878 240 866T251 839Q251 815 226 796T158 776Q127 776 101 786T48 796Q38 796 31 793T16 786T1 779T-14 776Q-25 776 -36 787T-47 815Q-47 839 -21 858T46 878Z"  />
<glyph unicode="&#xE00B;" horiz-adv-x="204" d="M195 872Q217 872 233 857T249 818Q249 795 233 780T195 764Q172 764 157 779T141 818Q141 840 156 856T195 872ZM9 872Q31 872 47 857T63 818Q63 795 47 780T9 764Q-14 764 -29 779T-45 818Q-45 840 -30 856T9 872Z"  />
<glyph unicode="&#xE011;" horiz-adv-x="204" d="M56 828Q56 810 69 796T102 782Q121 782 134 796T148 828Q148 846 135 860T102 874Q84 874 70 861T56 828ZM102 922Q121 922 138 915T168 895T188 865T196 828Q196 809 189 792T169 762T139 742T102 734Q82 734 65 741T36 762T16 792T8 828Q8 847 15 864T35 894T65 914T102 922Z"  />


</font>
</defs>
<text x="40" y="40" font-family="VAG Rounded LT W01 Light" font-size="30" fill="#933" >ABCDEFGHIJKLMNOPQRSTUVWXYZ abcdefghijklmnopqrstuvwxyz AÁÀÂÄÅÃÆ CÇ DÐ EÉÈÊË I Í Ì Î Ï NÑ</text>
<text x="40" y="80" font-family="VAG Rounded LT W01 Light" font-size="30" fill="#933" >OÓÒÔÖÕØŒ SŠ UÚÙÛÜ YÝŸ ZŽ Þ aáàâäåãæ cç dð eéèêë i ı í ì î ï nñ oóòôöõøœ sšß uúùûü yýÿ zž</text>
<text x="40" y="120" font-family="VAG Rounded LT W01 Light" font-size="30" fill="#933" >þ 1234567890 ½ ¼ ¾ % ‰ $¢£¥ƒ€¤ † ‡ § ¶ # ^~µ +×± &lt; = &gt; ÷¬ !¡?¿ &quot; &amp; &apos; * ° . , : ; () [ \ ] {} / |</text>
<text x="40" y="160" font-family="VAG Rounded LT W01 Light" font-size="30" fill="#933" >¦ _ ‚ „ … ‹› «» ‘ ’ “ ” • ­ - – — @ © ® ™ ªº ¹²³ ´ ` ˆ ˜ ¨ ¯ · ¸</text>
</svg>
