<?xml  version="1.0" encoding="UTF-8"?>
<!DOCTYPE svg PUBLIC "-//W3C//DTD SVG 1.0//EN" "http://www.w3.org/TR/2001/REC-SVG-20010904/DTD/svg10.dtd" >
<svg xmlns="http://www.w3.org/2000/svg" >
<metadata>
<version>1.0</version>
<id><![CDATA[Utopia W01 Bd It]]></id>
<vendor>Monotype Imaging Inc.</vendor>
<credits>
<name>Fonts.com WebFonts</name>
<URL>http://webfonts.fonts.com</URL>
<role>Home of the Web fonts</role>
</credits>
<license>
<URL>http://webfonts.fonts.com/Legal</URL>
</license>
<copyright><![CDATA[© 1989, 1990, 1991, 1992, 2002 Adobe Systems Incorporated. All rights reserved.]]></copyright>
<trademark><![CDATA[Utopia is either a registered trademark or a trademark of Adobe Systems Incorporated in the United States and/or other countries.]]></trademark>
<licensee>
<name></name>
</licensee>
</metadata>
<defs >
<font horiz-adv-x="533" id="99e30d7f-001d-488e-8848-6f1ea4cceafd">
<font-face font-family="Utopia W01 Bd It" panose-1="2 4 8 3 6 5 6 9 2 4" ascent="906" descent="-269" units-per-em="1000" alphabetic="0">
</font-face>
<missing-glyph horiz-adv-x="199" />

<glyph unicode="&#xA;" horiz-adv-x="0" />
<glyph unicode="&#xD;" horiz-adv-x="199" />
<glyph unicode=" " horiz-adv-x="199" />
<glyph unicode="!" horiz-adv-x="274" d="M117 205L134 561Q137 615 162 640T249 665Q311 665 323 640T315 562L172 205H117ZM116 -11Q71 -11 51 11T31 66Q31 111 59 137T126 163Q169 163 188 140T208 87Q208 42 181 16T116 -11Z"  />
<glyph unicode="&quot;" horiz-adv-x="386" d="M112 400Q126 440 135 483T150 564T156 635T156 687Q162 691 176 698T207 712T240 723T266 726Q271 718 273 701T277 667Q277 637 266 601T236 529T198 461T160 406L112 400ZM286 400Q300 440 309 482T323 562T329 632T330 687Q336 691 350 698T380 712T413 723T440 726Q442 718 446 701T450 667Q451 638 439 602T410 530T372 461T334 406L286 400Z"  />
<glyph unicode="#" horiz-adv-x="530" d="M258 375L224 280H332L366 375H258ZM416 375L381 280H483L460 207H358L292 16H241L308 207H201L135 16H83L150 207H51L74 280H174L208 375H109L133 448H232L294 625H344L281 448H389L452 625H501L438 448H540L518 375H416Z"  />
<glyph unicode="$" horiz-adv-x="530" d="M339 583Q318 584 299 579T266 563T242 534T233 492Q233 465 249 446T298 409L339 583ZM396 626Q421 624 449 616T500 594T538 559T553 513Q552 493 534 478T488 463Q471 463 462 476T449 497Q438 533 422 555T386 581L343 387Q386 364 417 345T468 305T497 257T507 189Q507 159 495 126T453 64T376 18T254 0L233 -97H184L206 2Q168 4 136 14T79 41T42 78T28 121Q29 153 51 171T101 189Q122 189 130 180T143 157Q160 101 180 76T216 51L264 253Q220 273 191 292T143 332T118 379T110 438Q110 485 127 521T175 581T250 617T348 629L367 704H414L396 626ZM263 42Q281 40 301 44T337 58T365 88T376 137Q376 166 363 186T307 230L263 42Z"  />
<glyph unicode="%" horiz-adv-x="803" d="M717 635L193 -28L159 1L598 554H436Q436 548 437 536T438 515Q438 470 425 430T387 358T323 308T234 289Q165 289 136 321T106 412Q106 457 118 498T156 570T220 620T309 639Q343 639 367 630T410 605Q418 599 426 597T449 595H568Q589 595 602 596T624 602T641 613T656 631L684 665L717 635ZM300 601Q276 601 259 576T231 516T214 445T208 388Q208 355 216 341T242 327Q266 327 284 353T313 416T329 489T335 547Q335 575 326 588T300 601ZM635 339Q763 339 763 221Q763 177 751 136T713 62T651 9T562 -11Q433 -11 432 104Q432 150 444 192T482 267T546 319T635 339ZM627 301Q603 301 586 276T557 215T541 144T535 85Q534 54 543 41T570 27Q594 27 611 54T640 118T657 193T663 252Q662 280 652 290T627 301Z"  />
<glyph unicode="&amp;" horiz-adv-x="711" d="M383 595Q356 595 336 569T316 491Q316 463 326 437T348 391Q364 398 379 410T407 441T426 482T434 532Q434 558 421 576T383 595ZM383 639Q454 639 495 604T537 509Q537 475 525 452T492 412T439 381T369 350Q382 329 398 306T433 258T471 210T511 165Q543 204 555 265T560 392Q584 410 617 416T672 419Q685 397 685 365T673 310Q661 287 649 266T623 222T589 177T544 130Q577 94 607 69T674 26L669 -7L646 -6Q575 -3 523 8T436 45Q415 26 371 8T259 -11Q209 -11 172 3T109 41T70 96T57 162Q57 194 63 216T88 258T137 297T220 343Q209 364 202 394T194 450Q194 493 209 527T249 587T309 625T383 639ZM193 190Q193 159 203 135T233 93T277 66T332 57Q349 57 369 61T400 74Q372 100 348 130T304 191T268 249T241 298Q236 295 228 287T212 266T199 234T193 190Z"  />
<glyph unicode="&apos;" horiz-adv-x="223" d="M101 400Q115 440 126 482T145 564T155 635T153 687Q159 691 172 698T202 712T233 723T259 726Q270 712 274 691T280 652Q280 629 266 596T232 529T189 461T149 406L101 400H101Z"  />
<glyph unicode="(" horiz-adv-x="402" d="M194 170Q194 120 200 72T218 -17T251 -90T300 -141L280 -178Q224 -163 186 -128T123 -44T88 61T77 172Q77 270 100 368T171 548T294 683T473 748L480 708Q402 684 348 627T259 496T210 337T194 170Z"  />
<glyph unicode=")" horiz-adv-x="402" d="M258 400Q258 449 252 497T234 586T201 660T152 711L172 748Q227 733 265 697T328 613T363 509T374 397Q374 299 351 201T280 22T158 -113T-21 -178L-28 -138Q50 -114 104 -58T193 73T242 233T258 400Z"  />
<glyph unicode="*" horiz-adv-x="422" d="M304 667Q327 662 337 650T338 619L306 548Q301 536 305 530T320 531L395 578Q413 589 427 584T449 559Q462 533 454 519T422 501L328 487Q317 485 317 478T323 466L408 423Q429 412 430 394T415 357Q395 337 379 338T348 362L303 428Q297 437 290 433T283 419L290 337Q292 317 280 306T239 299Q211 304 203 319T203 353L240 426Q244 435 239 442T224 442L158 394Q116 363 94 414Q85 436 92 453T123 473L217 483Q226 485 227 492T220 505L135 552Q116 563 114 579T131 616Q145 630 160 630T188 615L241 545Q250 534 256 538T261 555L254 634Q252 654 266 662T304 667Z"  />
<glyph unicode="+" horiz-adv-x="664" d="M73 309H295V539H383V309H606V240H383V0H295V240H73V309Z"  />
<glyph unicode="&#x2c;" horiz-adv-x="265" d="M-34 -115Q-19 -97 -2 -71T30 -17T54 41T64 94Q64 111 61 129T53 160Q59 166 76 173T112 188T151 199T181 202Q189 192 194 177T200 145Q200 106 177 64T122 -18T55 -90T-6 -142L-34 -115H-34Z"  />
<glyph unicode="-" horiz-adv-x="347" d="M321 276L304 194H55L73 276H321Z"  />
<glyph unicode="." horiz-adv-x="265" d="M100 -11Q68 -11 49 8T29 58Q29 101 54 131T125 161Q161 161 179 139T198 88Q198 45 173 17T100 -11Z"  />
<glyph unicode="/" horiz-adv-x="423" d="M-22 -68L432 712L482 681L26 -100L-22 -68Z"  />
<glyph unicode="0" horiz-adv-x="530" d="M363 595Q332 595 307 555T259 450Q247 417 236 378T216 296T202 209T196 121Q196 33 251 33Q272 33 289 49T320 94T346 159T369 237Q381 279 389 320T403 397T412 463T415 510Q415 545 405 570T363 595ZM354 639Q419 639 459 618T522 564T552 496T560 428Q560 380 551 319T512 185Q495 144 473 109T421 47T352 5T261 -11Q202 -11 162 7T98 55T62 125T51 207Q51 264 63 328T103 455Q121 495 145 528T201 586T271 625T354 639Z"  />
<glyph unicode="1" horiz-adv-x="530" d="M68 37L134 41Q151 42 159 49T173 78L271 527Q276 549 272 556T256 566L187 571L195 603L442 639L450 632L327 78Q322 57 330 50T355 41L421 37L413 0H60L68 37Z"  />
<glyph unicode="2" horiz-adv-x="530" d="M12 0L5 10Q12 47 30 79T75 142T139 200T217 259Q254 285 285 314T340 375T375 444T388 522Q388 554 376 574T336 595Q304 595 279 564T228 470Q219 449 208 434T173 419Q160 419 148 423T125 437T108 459T101 489Q101 515 118 542T166 590T240 625T335 639Q439 639 494 594T549 472Q549 430 537 398T499 341T437 294T351 255Q339 250 319 241T275 220T225 194T177 166T138 138T115 115H385Q401 115 412 118T432 129T451 151T479 189L511 178L448 0H12Z"  />
<glyph unicode="3" horiz-adv-x="530" d="M265 312Q233 312 213 307T179 301Q154 301 154 333Q154 352 162 364T186 377Q201 377 220 371T269 364Q300 364 322 378T357 414T377 465T383 522Q383 559 368 577T330 595Q299 595 275 569T227 491Q221 477 212 467T181 456Q155 456 134 472T110 516Q109 534 122 555T162 595T231 626T327 639Q434 639 486 597T539 485Q539 422 492 387T368 343V339Q436 322 472 285T508 187Q508 130 484 92T421 31T334 -1T238 -11Q184 -11 143 0T74 28T32 67T18 112Q18 128 25 142T43 166T68 182T96 188Q108 188 116 184T129 172T137 157T142 142Q160 78 181 56T235 33Q256 33 275 45T310 78T333 131T342 202Q342 236 335 257T317 291T292 307T265 312Z"  />
<glyph unicode="4" horiz-adv-x="530" d="M429 162L409 69Q405 54 410 48T426 41L470 37L462 0H161L170 37L225 42Q237 43 244 48T255 69L278 162H33L19 193Q29 208 52 236T106 301T175 380T252 466T332 551T409 628H532L441 217H528L515 162H429ZM290 217L367 523H366Q345 500 320 472T269 415T218 356T170 300T132 252T108 217H290Z"  />
<glyph unicode="5" horiz-adv-x="530" d="M397 628Q438 628 466 628T513 629T543 632T560 637L568 627L492 503H227Q211 503 204 498T190 473L148 341L150 339Q178 358 217 373T303 389Q403 389 451 342T500 217Q500 157 478 114T419 43T334 2T232 -11Q177 -11 138 0T72 28T33 68T19 112Q18 128 24 142T42 166T68 182T98 188Q121 188 130 174T144 139Q152 107 161 87T182 54T207 38T236 33Q257 33 275 42T307 73T329 127T337 209Q337 266 310 295T237 324Q206 324 178 311T124 266L89 291L176 618L191 628H397Z"  />
<glyph unicode="6" horiz-adv-x="530" d="M379 639Q429 639 463 628T518 599T548 564T557 532Q557 515 550 503T533 484T510 473T486 469Q467 469 458 481T445 509Q436 556 417 575T370 595Q346 595 323 576T281 522T245 442T219 341H221Q233 354 250 365T285 385T323 398T358 403Q445 403 485 356T526 228Q526 180 509 137T459 60T379 8T272 -11Q208 -11 165 7T96 56T58 129T46 217Q46 269 56 320T84 419T130 506T194 576Q226 602 272 620T379 639ZM287 330Q263 330 248 320T219 285Q206 264 201 231T195 157Q195 131 198 109T210 70T232 43T267 33Q290 33 309 49T341 92T361 155T368 231Q368 280 344 305T287 330Z"  />
<glyph unicode="7" horiz-adv-x="530" d="M586 628L596 616Q580 555 527 485T404 337Q350 276 321 202T286 46Q281 -11 209 -11Q171 -11 154 3T137 46Q137 83 154 120T198 193T260 267T331 340Q358 368 379 389T419 429T452 465T484 503H221Q202 503 190 501T167 490T148 468T125 430L90 447L157 628H586Z"  />
<glyph unicode="8" horiz-adv-x="530" d="M348 639Q409 639 449 626T514 591T549 543T559 489Q559 453 546 427T511 383T463 355T412 341V337Q433 331 452 319T487 290T511 249T520 199Q520 139 498 99T440 35T356 0T257 -11Q196 -11 153 3T81 41T40 96T26 163Q26 198 39 229T76 285T132 325T203 344V347Q189 351 173 359T144 383T121 418T112 467Q112 516 132 549T186 602T261 630T348 639ZM355 595Q332 595 315 579T286 539T268 485T262 429Q262 388 277 373T316 357Q335 357 351 369T379 405T398 460T405 531Q405 554 395 574T355 595ZM294 312Q274 312 255 298T221 259T197 200T188 123Q188 82 204 58T253 33Q277 33 296 48T330 89T351 150T359 224Q359 264 346 288T294 312Z"  />
<glyph unicode="9" horiz-adv-x="530" d="M240 239Q206 239 178 251T129 284T97 336T85 405Q85 457 102 500T151 574T227 622T327 639Q385 639 426 622T492 574T530 500T542 406Q543 339 528 271T481 141Q446 71 386 30T230 -11Q185 -11 150 -1T91 26T53 64T39 107Q38 121 44 133T60 154T84 168T113 174Q135 174 144 160T159 127Q173 75 191 55T234 35Q266 35 289 60T329 123T357 208T378 299L377 300Q354 275 318 257T240 239ZM306 312Q324 312 342 320T372 349Q378 359 382 375T391 411T397 453T399 496Q399 539 384 569T335 599Q311 599 293 584T261 542T240 481T233 411Q233 368 250 340T306 312Z"  />
<glyph unicode=":" horiz-adv-x="265" d="M158 279Q126 279 108 299T89 348Q89 391 114 421T184 451Q220 451 238 430T257 378Q257 335 232 307T158 279ZM100 -11Q68 -11 49 8T29 58Q29 101 54 131T125 161Q161 161 179 139T198 88Q198 45 173 17T100 -11Z"  />
<glyph unicode=";" horiz-adv-x="265" d="M158 279Q126 279 108 299T89 348Q89 391 114 421T184 451Q220 451 238 430T257 378Q257 335 232 307T158 279ZM-34 -115Q-19 -97 -2 -71T30 -17T54 41T64 94Q64 111 61 129T53 160Q59 166 76 173T112 188T151 199T181 202Q189 192 194 177T200 145Q200 106 177 64T122 -18T55 -90T-6 -142L-34 -115Z"  />
<glyph unicode="&lt;" horiz-adv-x="568" d="M492 5L61 193V271L492 463V374L157 233L492 92V5Z"  />
<glyph unicode="=" horiz-adv-x="664" d="M73 428H606V358H73V428ZM73 192H606V123H73V192Z"  />
<glyph unicode="&gt;" horiz-adv-x="568" d="M97 463L528 271V193L97 5V92L431 233L97 374V463Z"  />
<glyph unicode="?" horiz-adv-x="431" d="M303 665Q400 665 445 631T490 538Q490 511 480 490T452 453T410 423T359 400Q315 383 288 363T260 312Q260 292 275 282T303 270Q328 267 345 270L351 241Q325 224 291 216T228 207Q178 207 148 233T118 298Q118 335 144 362T218 416Q276 447 309 487T343 581Q343 596 336 608T314 620Q295 620 275 597T231 521Q224 505 214 496T183 487Q172 487 159 490T135 500T116 520T108 549Q108 567 119 587T154 624T215 653T303 665ZM191 -11Q146 -11 126 11T106 66Q106 111 134 137T201 163Q244 163 263 140T283 87Q283 42 256 16T191 -11Z"  />
<glyph unicode="@" horiz-adv-x="811" d="M649 415Q629 335 612 260T579 105Q577 98 576 90T575 74T581 62T597 57Q630 57 655 77T698 132T725 208T735 294Q735 355 713 400T655 475T572 519T476 534Q398 534 338 501T237 412T175 288T154 148Q154 97 166 49T206 -38T283 -100T406 -124Q536 -124 623 -40L647 -74Q617 -107 583 -128T515 -162T447 -180T386 -185Q312 -185 252 -165T149 -103T83 2T59 151Q59 242 90 322T178 461T312 554T485 588Q555 588 612 568T709 510T770 421T791 305Q791 243 776 189T732 95T660 32T559 8Q523 8 504 16T478 41T471 79T477 127L474 129Q443 68 400 38T304 8Q263 8 246 39T228 114Q228 140 233 172T251 239T282 305T330 363T397 403T485 419Q498 419 511 416T533 408L536 415H649ZM371 68Q387 68 405 87T441 135T472 197T494 258Q495 261 499 279T509 318T518 354T522 369Q517 374 510 375T497 377Q477 377 459 364T424 328T395 277T373 220T358 162T353 112Q353 68 371 68Z"  />
<glyph unicode="A" horiz-adv-x="645" d="M204 229Q184 194 167 159T126 76Q118 62 120 52T138 41L191 37L184 0H-38L-31 37L-6 40Q15 42 27 51T53 81Q64 97 89 139T148 238T217 359T286 481T344 585T379 653H497Q501 606 508 535T525 385T543 225T560 81Q562 62 567 52T588 40L627 37L619 0H323L331 37L380 41Q394 42 398 50T401 75Q400 88 398 108T394 149T390 192T386 229H204ZM382 276Q380 297 377 331T371 401T364 470T359 522H357Q344 496 326 462T290 392T256 326T230 276H382Z"  />
<glyph unicode="B" horiz-adv-x="655" d="M442 653Q481 653 520 650T589 632T639 589T658 507Q658 481 648 455T617 406T560 369T475 349V341Q499 337 525 328T572 303T608 261T622 197Q622 152 608 120T570 65T515 30T451 11T386 2T325 0H3L12 37L53 41Q74 43 82 55T95 94L199 558Q204 584 203 597T181 612L134 616L144 653H442ZM347 367Q417 367 459 402T502 513Q502 566 475 587T403 608Q374 608 368 601T357 573L311 367H347ZM302 322L253 107Q247 78 253 61T298 44Q339 44 368 57T417 92T446 145T455 208Q455 271 428 296T337 322H302Z"  />
<glyph unicode="C" horiz-adv-x="665" d="M653 212L591 24Q568 12 541 5T485 -7T428 -14T375 -16Q305 -16 255 -1T171 37T117 91T86 152T72 211T69 259Q69 284 72 313T83 374T103 435T135 494Q160 533 193 565T269 620T367 657T491 670Q510 670 537 668T595 660T654 647T704 625L666 452H627Q626 483 621 514T603 569T564 609T497 624Q450 624 413 606T347 556T299 484T267 399T248 308T242 220Q242 123 281 76T381 28Q420 28 452 43T513 83T567 141T615 212H653Z"  />
<glyph unicode="D" horiz-adv-x="749" d="M253 93Q246 62 261 53T310 44Q364 44 405 63T476 115T525 188T556 272T573 356T578 430Q578 460 573 492T552 550T507 592T431 608Q409 608 396 607T376 601T365 589T359 570L253 93ZM144 653H425Q498 653 557 642T658 599T723 515T746 379Q746 365 744 342T735 290T716 230T685 168Q661 129 629 98T553 46T450 12T313 0H3L12 37L53 41Q74 43 81 55T95 94L199 558Q204 584 203 596T181 611L134 616L144 653Z"  />
<glyph unicode="E" horiz-adv-x="610" d="M143 653H645L607 476H570Q565 522 559 548T541 588T510 604T457 608H407Q380 608 372 603T359 576L313 366H396Q417 366 431 369T457 383T477 409T498 452H536L488 234H451Q453 279 441 299T385 319H302L251 95Q247 76 251 66T269 51T305 45T358 44Q402 44 432 56T486 89T527 138T566 200H602L535 0H-4L4 37L52 41Q73 43 80 55T94 94L197 558Q203 584 202 596T180 611L133 616L143 653Z"  />
<glyph unicode="F" horiz-adv-x="569" d="M144 653H654L616 478H577Q572 523 568 549T552 588T521 604T466 608H402Q384 608 376 602T364 581L313 349H417Q438 349 452 353T477 366T497 393T518 436H557L510 216H471Q473 261 462 282T407 303H301L254 91Q248 65 253 54T281 41L331 37L323 0H3L12 37L53 41Q74 43 81 56T95 95L198 558Q204 584 203 597T181 612L134 616L144 653Z"  />
<glyph unicode="G" horiz-adv-x="699" d="M626 439Q622 476 613 509T587 568T546 609T487 624Q443 624 408 606T345 556T299 485T268 399T250 309T244 223Q244 130 275 79T383 28Q412 28 426 37T448 76L478 202Q490 253 463 256L404 260L412 297H719L710 260L672 254Q654 251 648 239T637 202L598 29Q573 16 545 8T488 -6T429 -14T372 -16Q305 -16 250 -1T155 48T93 136T71 268Q71 332 92 402T160 532Q204 591 284 630T487 670Q509 670 537 668T595 659T653 643T703 618L665 439H626Z"  />
<glyph unicode="H" horiz-adv-x="763" d="M545 366L587 558Q593 584 591 596T569 611L523 616L532 653H837L828 616L788 613Q767 611 760 598T746 558L642 94Q636 68 638 56T660 41L706 37L697 0H392L400 37L442 41Q462 43 470 55T483 94L534 319H304L254 94Q248 68 249 56T271 41L317 37L308 0H3L12 37L53 41Q74 43 81 55T95 94L198 558Q204 584 203 596T181 611L134 616L143 653H449L439 616L399 613Q378 611 371 598T357 558L315 366H545Z"  />
<glyph unicode="I" horiz-adv-x="378" d="M449 653L439 616L399 613Q378 611 371 598T357 558L254 94Q248 68 249 56T271 41L317 37L308 0H3L12 37L53 41Q74 43 81 55T95 94L198 558Q204 585 203 597T181 611L134 616L143 653H449Z"  />
<glyph unicode="J" horiz-adv-x="362" d="M448 653L438 616L398 612Q377 610 370 597T356 558L252 100Q241 53 225 15T181 -48Q161 -67 138 -78T89 -96T40 -105T-7 -107Q-18 -107 -24 -107T-41 -105L-43 -67Q-17 -63 3 -57T39 -31Q59 -6 73 36T105 151L197 558Q203 584 202 596T179 611L133 616L142 653H448Z"  />
<glyph unicode="K" horiz-adv-x="687" d="M449 653L439 616L399 613Q378 611 371 598T357 558L254 94Q248 68 249 56T271 41L317 37L308 0H3L12 37L53 41Q74 43 81 55T95 94L198 558Q204 585 203 597T181 611L134 616L143 653H449ZM783 653L776 616Q755 614 740 612T712 607T687 598T658 581Q628 560 601 538T548 492T496 443T442 393Q451 368 466 331T501 251T544 167T591 91Q603 74 611 63T629 46T649 36T678 29L672 -6L609 -5Q558 -4 525 0T468 17T427 50T393 106Q367 159 348 215T313 318L314 327Q345 355 384 393T461 469T527 536T566 578Q580 596 581 603T560 613L529 616L536 653H783Z"  />
<glyph unicode="L" horiz-adv-x="582" d="M-4 0L5 37L53 41Q73 43 81 55T95 94L198 558Q204 584 203 597T181 613L134 616L143 653H456L447 616L401 612Q380 610 372 597T357 558L253 92Q246 60 267 52T336 44Q369 44 390 47T431 65T474 110T532 195H571L510 0H-4Z"  />
<glyph unicode="M" horiz-adv-x="881" d="M137 653H376Q396 558 417 446T459 223H462Q493 278 525 331T588 437T650 543T710 653H951L941 616L901 612Q880 610 872 597T859 558L759 94Q753 68 754 55T776 40L822 37L813 0H514L523 37L563 41Q584 43 592 55T605 94L708 549H705Q688 518 664 476T613 384T556 283T498 180T443 83T397 1H330Q323 66 313 142T292 292T270 433T250 548H246Q207 361 186 245T157 88Q152 64 160 53T189 40L240 37L232 0H2L9 37L44 40Q61 42 71 52T89 88Q96 114 107 159T132 265T162 400T195 558Q200 584 199 597T177 612L127 616L137 653Z"  />
<glyph unicode="N" horiz-adv-x="706" d="M355 653Q403 534 456 414T559 173H562Q573 220 586 279T612 396T634 499T645 565Q647 588 641 600T614 613L562 616L569 653H795L787 616L752 613Q721 612 706 565Q700 546 690 506T668 413T642 302T616 187T592 81T574 0H463Q409 132 356 264T247 528H243Q237 500 228 459T209 371T190 278T172 191T159 124T153 88Q147 41 183 40L236 37L228 0H-7L1 37L42 40Q58 42 69 52T88 88Q97 115 109 166T137 282T167 418T197 558Q203 584 201 597T179 612L122 616L132 653H355Z"  />
<glyph unicode="O" horiz-adv-x="731" d="M447 670Q506 670 557 654T647 605T707 519T729 396Q729 357 720 297T674 166Q655 130 628 97T562 39T473 -1T359 -16Q288 -16 234 2T144 55T89 139T70 248Q70 265 71 289T77 342T92 405T122 477Q141 514 169 549T238 611T329 654T447 670ZM460 624Q423 624 393 601T338 541T295 455T264 357T245 259T239 174Q239 105 264 67T346 28Q378 28 406 49T459 105T501 186T533 284T553 386T560 485Q560 513 556 538T541 583T511 613T460 624Z"  />
<glyph unicode="P" horiz-adv-x="627" d="M145 653H406Q454 653 499 648T580 623T637 569T659 472Q659 424 639 379T581 306Q536 272 483 260T367 248Q350 248 326 250T286 255L253 94Q248 70 249 57T272 42L328 37L320 0H2L12 37L53 41Q74 43 81 55T95 94L199 558Q205 584 204 596T182 611L135 616L145 653ZM303 323Q301 310 310 302T353 293Q395 293 423 314T468 367T492 435T500 502Q500 608 408 608Q393 608 384 606T370 600T363 589T358 572L303 323Z"  />
<glyph unicode="Q" horiz-adv-x="731" d="M448 670Q507 670 558 654T648 605T707 521T729 398Q729 378 727 353T719 297T703 234T674 166Q643 107 593 60T461 -3Q471 -23 481 -40T506 -75Q531 -102 559 -120T625 -137V-171Q609 -180 584 -183T532 -187Q484 -187 447 -175T381 -142Q340 -114 316 -78T281 -9Q228 0 189 22T123 79T84 156T70 248Q70 266 71 290T77 343T92 406T122 477Q141 514 169 548T238 610T330 653T448 670ZM461 624Q425 624 394 601T339 541T296 455T265 357T246 259T239 174Q239 105 265 67T348 29Q381 29 409 50T461 106T503 187T533 284T552 386T559 485Q559 513 556 538T542 583T512 613T461 624Z"  />
<glyph unicode="R" horiz-adv-x="646" d="M439 653Q476 653 515 650T585 631T637 586T658 503Q658 461 643 430T599 378T534 346T451 331V325Q491 315 515 296T553 254T571 207T575 164Q575 134 576 106T589 64Q598 53 612 47T652 37L644 0H540Q492 0 461 17T422 76Q417 102 417 140T418 223Q419 265 400 283T346 302H297L252 94Q246 68 247 56T269 41L315 37L306 0H3L12 37L53 41Q74 43 81 55T95 94L198 558Q204 584 203 596T181 611L134 616L143 653H439ZM361 346Q387 346 411 357T454 389T484 441T496 513Q496 561 476 584T407 608Q392 608 383 607T370 601T363 591T359 575L308 346H361Z"  />
<glyph unicode="S" horiz-adv-x="522" d="M465 455Q461 539 428 581T343 624Q318 624 300 616T271 595T255 564T249 527Q249 482 277 453T359 390Q399 365 426 344T471 302T495 256T503 200Q503 155 488 116T441 47T363 2T252 -16Q224 -16 193 -12T133 1T77 26T31 64L52 236H90Q94 185 110 146T150 81T200 42T255 28Q305 28 331 56T357 133Q357 156 349 175T329 209T299 238T264 263Q225 288 196 311T147 357T118 408T108 468Q108 498 118 533T154 599T227 650T348 670Q369 670 394 667T443 656T491 637T535 610L504 455H465Z"  />
<glyph unicode="T" horiz-adv-x="587" d="M685 653L644 469H607Q604 515 599 542T583 584T557 603T519 608H475L359 94Q353 68 356 57T379 43L440 37L431 0H96L104 37L159 42Q179 44 186 56T200 94L316 608H269Q240 608 222 605T189 588T158 546T117 469H80L121 653H685Z"  />
<glyph unicode="U" horiz-adv-x="735" d="M435 653L426 616L386 612Q365 610 357 597T344 558L268 215Q257 164 259 128T273 70T306 38T354 28Q412 28 445 80T502 243L573 558Q578 584 577 596T555 611L508 616L518 653H816L807 616L767 611Q746 609 739 597T725 558L652 239Q637 173 616 125T560 46T473 -1T344 -16Q279 -16 229 -3T148 38T107 113T111 225L185 558Q190 584 189 596T168 611L120 616L130 653H435Z"  />
<glyph unicode="V" horiz-adv-x="644" d="M401 653L394 616L337 611Q323 609 321 601T320 582Q326 532 332 476T345 362T359 246T372 132H374Q394 166 417 208T465 296T512 386T554 469T587 536T607 578Q612 592 611 600T595 611L538 616L546 653H763L756 616Q735 614 724 612T704 605T688 590T668 562Q654 542 629 500T574 405T511 293T448 177T392 75T352 0H232Q217 149 199 288T161 569Q159 582 157 590T147 604T128 611T94 616L101 653H401Z"  />
<glyph unicode="W" horiz-adv-x="894" d="M386 653L380 616L329 612Q315 610 313 602T310 579Q312 532 313 473T316 355T319 244T321 157H326Q341 189 367 250T423 381T480 521T528 638H639Q642 591 646 530T656 402T666 271T675 154H680Q734 263 777 364T864 569Q872 589 870 599T851 611L796 616L803 653H1021L1014 616Q996 614 984 612T962 604T943 586T923 553Q860 425 795 286T661 0H538Q536 48 533 108T525 230T516 352T507 456H503Q488 423 464 368T413 249T357 120T307 0H184Q180 74 177 144T170 285T163 428T153 575Q152 585 150 592T141 604T124 611T95 616L102 653H386Z"  />
<glyph unicode="X" horiz-adv-x="637" d="M708 616Q691 615 677 614T651 608T626 597T599 578Q559 542 515 491T422 382Q454 310 482 234T542 87Q550 69 558 60T576 46T599 40T629 37L623 0H293L300 37L352 43Q366 45 370 52T373 72Q371 77 366 92T353 128T337 171T321 213T308 246T302 262H300Q263 216 221 166T148 71Q129 44 151 42L210 37L202 0H-45L-38 37Q-20 39 -5 41T23 47T50 60T77 83Q95 101 118 127T168 183T223 247T280 313Q253 379 227 447T172 579Q165 594 157 601T139 611T118 614T92 616L102 653H408L401 616L353 609Q327 606 342 577Q344 571 353 548T372 500T391 453T400 429H403Q451 483 480 520T528 584Q536 595 536 603T524 612L476 616L485 653H716L708 616Z"  />
<glyph unicode="Y" horiz-adv-x="607" d="M401 653L393 616L340 610Q326 608 324 602T325 583Q329 565 338 532T359 462T382 388T401 327H403Q412 339 424 358T451 401T481 449T510 497T536 542T556 578Q572 608 544 611L494 616L501 653H732L725 616Q703 614 690 613T668 607T649 594T626 568Q609 547 586 515T538 446T486 371T439 301Q425 281 420 264T411 227L382 95Q377 69 378 57T400 42L458 37L449 0H118L127 37L181 41Q202 42 210 55T223 95L253 232Q258 251 258 265T255 294Q244 333 232 373T207 451T183 520T164 574Q158 591 152 599T137 612T118 616T91 618L99 653H401Z"  />
<glyph unicode="Z" horiz-adv-x="625" d="M661 653L669 634Q645 603 609 556T530 454T441 340T353 225T274 122T213 44H386Q421 44 443 49T485 70T524 118T577 200H614L556 0H3L-4 20Q24 53 61 99T140 198T226 307T312 418T391 522T457 608H328Q284 608 257 604T211 586T176 544T137 467H100L145 653H661Z"  />
<glyph unicode="[" horiz-adv-x="362" d="M162 -74Q159 -87 159 -96T168 -112T196 -124T252 -134L243 -172H32L226 741H438L429 702Q390 697 368 693T336 682T322 667T315 644L162 -74Z"  />
<glyph unicode="\" horiz-adv-x="400" d="M157 697L215 706L330 -83L273 -93L157 697Z"  />
<glyph unicode="]" horiz-adv-x="362" d="M239 644Q242 657 242 666T234 682T206 693T149 702L158 741H370L175 -172H-36L-27 -134Q12 -129 33 -125T66 -113T80 -97T87 -74L239 644Z"  />
<glyph unicode="^" horiz-adv-x="568" d="M440 200L289 545L139 200H59L255 628H330L521 200H440Z"  />
<glyph unicode="_" horiz-adv-x="470" d="M468 -118H-2V-71H468V-118Z"  />
<glyph unicode="`" horiz-adv-x="376" d="M190 601Q172 625 162 641T152 673Q152 682 158 691T175 707T197 719T220 724Q239 724 247 711T264 659L293 518L265 501L190 601Z"  />
<glyph unicode="a" horiz-adv-x="585" d="M560 466L466 110Q461 92 461 80T475 68Q482 68 492 76T512 97T533 126T551 158L580 138Q565 108 547 81T507 33T458 0T396 -12Q351 -12 335 18T336 109L357 181H353Q336 149 314 115T263 53T200 6T123 -12Q96 -12 78 -2T50 24T35 62T30 106Q30 137 38 176T65 256T109 336T172 405T255 454T357 473Q376 473 394 469T424 457L427 466H560ZM411 417Q401 423 389 425T364 428Q339 428 316 412T272 368T234 307T205 237T187 169T180 111Q180 88 185 78T204 68Q225 68 251 97T304 167T351 254T384 333Q392 356 399 379T411 417Z"  />
<glyph unicode="b" horiz-adv-x="563" d="M408 343Q408 394 377 394Q363 394 347 385T314 358T281 317T250 267Q239 246 230 224T213 179T202 138T198 103Q198 72 210 52T252 32Q277 32 298 50T337 96T367 159T390 228T403 293T408 343ZM226 309H231Q251 345 276 375T330 426T391 460T456 473Q512 473 535 440T559 354Q559 339 557 317T549 267T533 209T505 147Q488 116 464 88T409 37T338 1T249 -13Q199 -13 166 2T112 40L76 0L29 6L161 588Q167 614 164 623T148 635L102 642L106 674L320 696L326 690L226 309Z"  />
<glyph unicode="c" horiz-adv-x="460" d="M451 156Q425 104 394 71T329 20T260 -5T190 -12Q158 -12 131 -4T83 23T52 72T40 146Q40 198 58 256T113 362T202 441T327 473Q391 473 428 450T466 390Q466 377 459 365T441 344T415 329T387 323Q367 323 360 335T349 369Q341 428 313 428Q288 428 266 403T226 339T199 251T189 155Q189 111 205 83T264 54Q287 54 310 65T353 93T392 133T423 177L451 156Z"  />
<glyph unicode="d" horiz-adv-x="598" d="M612 696L619 690L483 112Q479 93 480 81T492 69Q507 69 528 95T570 160L599 139Q582 106 564 78T525 31T476 0T415 -12Q367 -13 349 13T347 98Q345 93 347 102T353 125T361 154T368 179L366 180Q349 145 327 111T276 49T211 5T130 -12Q100 -12 81 -2T50 26T35 66T30 114Q30 142 38 180T63 258T105 336T166 405T247 454T348 473Q371 473 390 469T423 457L456 597Q465 633 442 637L396 644L402 674L612 696ZM180 120Q180 96 187 83T212 69Q237 69 264 96T315 162T359 247T390 327Q406 378 413 414Q396 428 365 428Q339 428 315 412T270 368T233 307T205 239T187 174T180 120Z"  />
<glyph unicode="e" horiz-adv-x="454" d="M443 146Q417 98 388 68T326 20T260 -5T191 -12Q164 -12 136 -5T86 21T50 71T36 152Q36 206 53 261T109 366Q147 414 201 443T328 473Q394 473 428 444T462 363Q462 331 447 307T406 264T350 233T288 212T229 200T182 193Q181 185 181 172T181 151Q181 133 185 116T198 84T221 62T256 53Q335 53 414 168L443 146ZM186 231Q267 248 307 293T348 388Q348 407 340 418T315 430Q295 430 275 414T236 371T205 307T186 231Z"  />
<glyph unicode="f" horiz-adv-x="310" d="M53 414L66 461H145Q159 510 175 550T224 627Q250 656 287 675T376 695Q411 695 434 689T471 673T491 649T497 622Q497 609 491 597T474 576T451 562T429 556Q411 556 403 564T390 586Q379 623 370 637T352 651Q331 651 319 598L289 461H390L378 414H280L191 22Q163 -104 102 -167T-48 -231Q-105 -231 -139 -211T-174 -160Q-174 -149 -168 -136T-151 -112T-129 -94T-104 -86Q-87 -86 -78 -95T-63 -116Q-53 -138 -44 -151T-29 -171T-17 -181T-8 -184Q3 -184 9 -169T19 -141Q26 -113 35 -71T55 21T77 125T99 232T119 331T135 414H53Z"  />
<glyph unicode="g" horiz-adv-x="489" d="M451 390Q458 381 463 363T468 327Q468 249 413 207T254 164Q239 164 227 164T196 167Q185 162 177 156T168 138Q168 124 183 116T231 101Q264 93 297 86T361 67Q415 50 435 19T456 -60Q456 -93 438 -124T387 -178T307 -216T200 -231Q147 -231 104 -222T31 -194T-16 -151T-33 -94Q-33 -66 -19 -48T17 -20T60 -4T99 4V6Q86 12 75 18T54 34T40 56T35 88Q35 104 45 117T70 142T105 162T145 176V178Q113 187 88 216T62 299Q62 327 71 358T105 414T174 456T288 473Q325 473 355 465T409 444L541 472L546 463L518 390H451ZM287 428Q266 428 249 414T221 378T203 329T197 276Q197 243 211 226T249 208Q275 208 292 224T319 263T334 314T339 363Q339 395 325 411T287 428ZM221 -187Q239 -187 258 -183T293 -170T319 -145T330 -109Q330 -79 310 -65T260 -39Q248 -35 231 -31T197 -23T167 -17T147 -13Q138 -15 128 -19T107 -31T91 -52T84 -84Q84 -109 95 -128T126 -161T170 -180T221 -187Z"  />
<glyph unicode="h" horiz-adv-x="592" d="M589 142Q575 110 557 82T515 33T463 0T400 -12Q354 -12 333 18T331 110L399 339Q407 365 402 378T382 392Q367 392 347 376T305 333T264 272T230 200Q222 180 215 160T200 117T184 65T166 0L29 -11L163 596Q172 632 149 635L95 642L102 673L322 695L327 691L232 295H235Q252 328 276 360T330 417T394 457T465 473Q521 473 539 432T535 324L469 112Q462 92 463 81T478 69Q486 69 496 77T517 98T540 127T560 161L589 142Z"  />
<glyph unicode="i" horiz-adv-x="320" d="M322 140Q307 110 289 83T247 34T195 1T130 -12Q81 -12 65 17T63 104L135 367Q144 405 119 406L65 412L72 444L293 472L299 466L203 111Q198 94 199 82T214 69Q221 69 231 77T252 98T274 127T294 160L322 140ZM249 670Q279 670 299 653T320 603Q320 564 297 543T238 522Q204 522 185 540T166 589Q166 604 171 618T186 644T212 663T249 670Z"  />
<glyph unicode="j" horiz-adv-x="301" d="M78 444L301 472L308 467L196 12Q179 -55 151 -108T86 -188Q63 -206 36 -216T-24 -227Q-88 -227 -119 -206T-151 -155Q-151 -144 -145 -133T-130 -112T-109 -96T-86 -90Q-70 -90 -61 -100T-46 -124Q-35 -156 -24 -169T-5 -183Q5 -183 11 -171T21 -144L146 367Q155 404 132 407L72 412L78 444ZM264 670Q294 670 314 653T335 603Q335 564 313 543T256 522Q222 522 203 540T183 589Q183 604 188 618T203 644T228 663T264 670Z"  />
<glyph unicode="k" horiz-adv-x="532" d="M24 -11L163 596Q167 616 164 624T148 635L94 642L105 673L320 695L324 691L163 0L24 -11ZM542 130Q513 64 471 26T373 -13Q332 -13 313 5T277 65Q270 84 262 109T246 158T232 204T222 237Q235 253 254 277T296 327T345 380T396 426T446 460T492 473Q521 473 535 460T549 424Q549 415 544 404T530 382T510 365T488 358Q483 358 480 359T471 365Q459 373 447 375T426 377Q409 377 383 360T332 314Q339 291 348 263T368 207T389 152T407 108Q423 71 440 71Q470 71 515 151L542 130Z"  />
<glyph unicode="l" horiz-adv-x="308" d="M308 134Q293 104 275 78T236 31T187 0T125 -12Q75 -12 57 20T54 113L170 596Q175 616 172 624T155 635L101 642L107 673L325 695L332 691L191 112Q186 93 187 81T202 68Q217 68 237 94T277 155L308 134Z"  />
<glyph unicode="m" horiz-adv-x="863" d="M71 444L290 472L295 466L236 272H241Q262 313 288 349T343 413T404 457T471 473Q499 473 514 462T535 432T537 388T526 334L510 278H514Q535 320 561 356T616 418T679 458T747 473Q775 473 791 462T815 431T822 387T813 335L744 111Q739 94 739 81T753 68Q761 68 771 76T792 98T813 127T833 161L863 141Q849 111 831 84T790 35T738 1T672 -12Q626 -12 608 18T607 104L677 339Q684 362 683 377T664 392Q649 392 629 374T589 327T549 268T517 209Q497 166 478 111T444 0L309 -11Q311 -4 318 24T336 90T359 173T381 255T399 320T408 352Q413 369 410 380T394 392Q379 392 358 372T316 322T275 259T244 201Q235 181 227 161T211 117T193 65T174 0L38 -11L133 367Q142 405 119 406L65 412L71 444Z"  />
<glyph unicode="n" horiz-adv-x="602" d="M34 -11L130 367Q141 405 116 406L60 412L68 444L292 472L297 468L233 268H238Q260 308 287 345T344 410T409 456T480 473Q510 473 528 462T553 432T560 388T550 335L480 111Q475 94 475 82T488 70Q497 70 507 78T529 99T550 128T570 161L600 139Q585 109 567 82T525 34T472 1T406 -12Q362 -12 343 17T340 104L410 338Q416 358 416 375T397 392Q382 392 361 372T317 323T274 260T243 201Q234 181 226 161T209 117T191 65T172 0L34 -11Z"  />
<glyph unicode="o" horiz-adv-x="543" d="M328 473Q365 473 400 465T464 437T509 381T527 290Q527 276 526 256T519 211T504 161T478 107Q444 53 386 21T237 -12Q185 -12 148 1T86 38T51 94T39 164Q39 231 60 287T120 385T212 449T328 473ZM334 428Q308 428 287 409T249 360T220 293T199 219T186 152T181 101Q181 68 194 50T234 32Q258 32 278 51T315 100T345 167T367 240T380 306T385 354Q385 382 376 405T334 428Z"  />
<glyph unicode="p" horiz-adv-x="580" d="M396 392Q371 392 340 358T277 266Q264 243 252 215T230 158T212 104T200 60Q212 48 229 40T267 32Q293 32 315 51T355 99T386 165T409 235T423 299T427 344Q425 392 396 392ZM-4 -231L126 367Q130 385 128 395T112 406L57 412L64 444L284 472L288 467L238 280H242Q297 381 354 427T475 473Q526 473 552 442T578 350Q578 324 573 288T554 211T519 131T465 59T390 8T290 -12Q253 -12 228 -5T188 11L133 -220L-4 -231Z"  />
<glyph unicode="q" horiz-adv-x="568" d="M269 -231L360 159H357Q306 70 250 29T130 -12Q75 -12 53 17T31 95Q31 128 39 168T63 251T106 333T170 404T255 454T364 473Q403 473 433 467T486 451L522 481H576L414 -212L269 -231ZM181 115Q181 94 187 81T208 68Q229 68 251 87T308 156Q345 207 376 274T424 416Q415 422 402 425T376 428Q345 428 319 411T271 367T233 306T205 236T187 169T181 115Z"  />
<glyph unicode="r" horiz-adv-x="435" d="M43 -11L119 310Q127 344 129 363T131 391T124 403T111 407L61 412L68 444L273 472L278 468L237 297H242Q259 330 279 362T321 418T365 458T411 473Q469 473 469 412Q469 398 463 382T446 353T423 332T399 323Q386 323 378 327T363 338T350 348T333 353Q322 353 309 337T281 295T254 236T229 167Q214 120 204 83T180 0L43 -11Z"  />
<glyph unicode="s" horiz-adv-x="397" d="M268 473Q308 473 335 464T378 442T401 413T408 386Q408 373 402 363T387 344T366 332T344 327Q331 327 323 333T306 354Q285 393 270 410T234 428Q217 428 207 418T196 385Q196 367 215 344T279 284Q297 269 312 255T340 224T359 188T366 145Q366 113 353 85T315 35T253 1T169 -12Q124 -12 93 -3T44 20T17 52T8 85Q8 99 14 111T29 132T49 146T71 152Q88 152 97 146T112 129Q141 74 163 54T206 33Q226 33 236 45T247 77Q247 103 224 130T169 183Q155 195 140 208T113 238T92 274T84 318Q84 351 96 379T132 428T190 461T268 473Z"  />
<glyph unicode="t" horiz-adv-x="344" d="M281 414L205 107Q201 92 204 82T219 71Q238 71 262 98T309 162L337 141Q303 75 254 31T137 -13Q116 -13 99 -6T72 15T60 52T66 107L145 414H75L86 461H153L177 550L318 603L330 596L291 461H394L383 414H281Z"  />
<glyph unicode="u" horiz-adv-x="602" d="M580 472L486 112Q481 94 482 82T495 69Q503 69 513 77T534 98T557 127T578 160L606 140Q591 110 574 83T533 34T481 1T414 -12Q374 -12 357 14T354 95L377 181H373Q350 140 326 105T272 44T209 3T134 -12Q106 -12 90 -1T68 29T62 73T71 126L134 367Q145 407 120 410L65 416L73 448L295 472L299 467L211 122Q206 98 208 85T226 71Q240 71 260 89T301 136T343 200T379 270Q387 287 402 332T441 461L580 472Z"  />
<glyph unicode="v" horiz-adv-x="503" d="M284 472L290 467L211 132Q204 103 212 86T243 68Q266 68 292 90T340 149T376 234T391 333Q391 371 389 399T379 453Q404 462 431 467T485 473Q488 473 492 468T502 452T510 429T514 400Q514 378 506 347T482 280T444 208T395 137Q369 105 342 78T284 30T223 -1T157 -13Q100 -13 78 19T71 121L129 367Q139 407 115 410L60 416L67 448L284 472Z"  />
<glyph unicode="w" horiz-adv-x="763" d="M559 463L494 175Q471 68 521 68Q543 68 566 91T609 152T642 238T657 334Q659 369 655 397T644 453Q672 462 695 467T745 473Q748 473 753 467T763 451T771 428T774 400Q774 379 767 350T747 288T715 218T670 148Q646 116 620 87T566 35T507 0T444 -13Q398 -13 377 11T355 74Q355 97 359 122T371 175L367 174Q322 89 266 38T143 -13Q122 -13 105 -5T78 20T65 62T70 121L129 367Q139 408 115 409L60 415L67 448L285 472L290 467L210 134Q201 96 207 83T229 70Q243 70 259 85T292 125T324 179T352 237T374 289T388 326Q399 356 407 389T425 458L559 463Z"  />
<glyph unicode="x" horiz-adv-x="493" d="M52 425L253 472L259 468L292 323H294Q304 341 320 367T356 416T401 456T455 473Q478 473 497 459T517 419Q517 408 511 396T497 373T479 355T462 348Q456 348 451 349T438 355Q428 363 416 368T393 374Q384 374 373 365T349 340T326 308T305 274Q314 232 321 207T335 159Q342 131 347 114T358 87T369 74T383 70Q392 70 402 78T422 101T443 135T463 174L494 156Q483 125 467 95T428 41T377 3T313 -12Q271 -12 250 7T216 74Q212 90 209 102T200 142H197Q186 122 173 96T141 45T100 5T46 -12Q11 -12 -6 5T-23 48Q-23 61 -18 74T-3 97T16 115T37 122Q45 122 52 119T64 110Q75 100 85 94T104 87Q113 87 124 98T147 126T168 162T187 199L147 369Q143 386 135 391T109 397L55 395L52 425Z"  />
<glyph unicode="y" horiz-adv-x="475" d="M229 472L232 468Q237 450 244 405T257 303T268 184T274 68H276Q318 142 339 207T370 321Q373 336 374 353T377 387T378 420T378 449Q408 462 435 467T479 473Q485 473 492 456T499 422Q499 407 491 384T469 331T437 269T398 202Q377 167 356 130T315 61T282 4T260 -33Q231 -79 207 -115T157 -177T102 -217T36 -231Q-6 -231 -26 -214T-47 -173Q-47 -159 -42 -145T-27 -120T-6 -102T19 -95Q31 -95 36 -97T54 -117Q65 -132 80 -143T107 -155Q119 -155 131 -144T151 -106Q156 -87 157 -59T156 -3Q153 46 147 96T134 191T120 275T108 342Q102 373 92 385T65 398H15L16 427L229 472Z"  />
<glyph unicode="z" horiz-adv-x="454" d="M132 470Q141 467 153 466T178 463T200 462T215 461H372Q396 461 413 461T441 463T460 466T475 471L488 446Q443 408 396 366T304 283T219 202T149 131V125Q156 125 172 121T217 109Q240 104 265 101T308 97Q327 97 342 100T372 114T401 142T431 191L459 175Q447 138 431 104T396 42T353 -1T303 -17Q272 -17 242 -12T170 8Q138 19 116 26T77 34Q57 34 45 25T22 -1Q17 -9 11 -9Q6 -9 2 -3T-2 11Q-2 23 4 37T35 78Q107 156 179 225T324 360V362H181Q141 362 117 341T70 281L45 294Q51 319 62 346T86 397T111 441T132 470Z"  />
<glyph unicode="{" horiz-adv-x="359" d="M435 701Q402 699 382 690T349 664T332 624T323 573L312 477Q308 445 305 415T288 359T249 314T171 284V279Q207 271 225 257T249 219T248 164T228 87L203 4Q194 -23 190 -47T189 -90T209 -120T258 -133L250 -170H213Q154 -170 126 -150T88 -98T85 -29T102 42L135 142Q153 199 137 231T58 263L66 301Q107 301 130 309T167 332T184 370T193 422L208 536Q212 570 219 606T246 671T301 720T395 739H443L435 701Z"  />
<glyph unicode="|" horiz-adv-x="274" d="M102 705H196V-235H102V705Z"  />
<glyph unicode="}" horiz-adv-x="359" d="M-25 -133Q9 -132 29 -122T62 -95T79 -55T87 -4L99 91Q103 124 106 154T123 210T162 254T239 283L240 290Q204 298 186 312T162 350T162 405T182 481L208 564Q217 592 222 616T223 658T202 688T154 701L161 739H198Q256 739 284 718T322 666T325 597T309 528L276 426Q258 370 274 338T352 305L344 268Q303 268 279 260T243 237T225 199T217 147L204 33Q200 -1 192 -37T165 -102T110 -151T16 -170H-32L-25 -133Z"  />
<glyph unicode="~" horiz-adv-x="664" d="M622 324Q608 299 590 278T549 240T501 214T445 204Q415 204 388 215T332 240Q315 248 302 255T277 267T253 275T226 278Q193 278 164 253T105 193L62 239Q76 258 93 277T131 311T178 336T238 346Q268 346 297 336T351 313Q378 299 403 286T454 273Q487 273 516 293T577 360L622 324Z"  />
<glyph unicode="&#xA0;" horiz-adv-x="199" />
<glyph unicode="&#xA1;" horiz-adv-x="274" d="M190 472Q235 472 255 449T275 394Q275 350 247 324T181 298Q138 298 118 321T98 373Q98 418 125 445T190 472ZM189 255L166 -101Q163 -154 141 -179T57 -204Q-5 -204 -17 -179T-9 -101L134 255H189Z"  />
<glyph unicode="&#xA2;" horiz-adv-x="530" d="M442 630L425 561Q445 561 468 555T512 537T547 507T561 466Q561 443 544 428T503 414Q484 414 477 424T465 449Q453 487 441 500T415 518L329 134Q371 131 417 155T504 238L532 217Q494 149 437 116T318 80L299 -1H250L269 81Q233 82 199 92T137 124T92 180T75 264Q75 330 97 385T159 479T255 541T378 563L394 630H442ZM369 518Q339 518 314 494T271 431T244 348T234 261Q234 214 244 185T282 143L369 518Z"  />
<glyph unicode="&#xA3;" horiz-adv-x="530" d="M2 0L-7 9L22 71Q67 81 93 101T131 150T145 213T143 288H47L57 333H141Q140 350 140 364T139 390Q139 474 160 523T215 597T289 630T369 638Q423 638 457 626T510 597T537 562T545 531Q545 514 538 503T520 484T497 474T474 470Q454 470 445 477T430 501Q413 548 397 571T352 594Q328 594 312 572T295 499Q295 488 296 467T298 422T300 373T303 333H444L435 288H302Q298 251 288 224T261 177T224 143T177 119L176 116H383Q397 116 407 117T428 125T452 148T487 195L520 178L442 0H2Z"  />
<glyph unicode="&#xA4;" horiz-adv-x="530" d="M293 523Q322 523 353 517T408 486L463 556L513 508L450 443Q474 411 479 380T485 314Q485 279 478 250T446 188L515 130L460 71L406 145Q382 123 351 114T289 105Q247 105 217 114T169 141L116 73L66 125L126 182Q118 197 112 210T101 239T95 273T93 314Q93 346 100 379T129 442L65 507L114 557L171 484Q191 504 223 513T293 523ZM288 467Q235 467 201 430T166 317Q166 241 199 201T292 161Q318 161 340 169T378 196T404 244T413 314Q413 385 378 426T288 467Z"  />
<glyph unicode="&#xA5;" horiz-adv-x="530" d="M368 628L359 593L319 588Q305 586 303 581T302 563Q312 525 326 475T353 375H355Q377 405 399 436T441 494T473 540T491 567Q502 586 481 588L429 593L438 628H638L630 593L602 590Q584 588 574 578T543 545Q528 528 508 505T467 455T425 400T385 346H504L495 302H369L355 237H490L481 193H345L321 76Q318 61 320 52T339 40L394 35L387 0H82L88 35L143 39Q159 40 166 50T176 76L204 193H84L94 237H214L228 302H111L121 346H226Q218 372 209 401T189 458T169 510T153 552Q149 563 146 569T140 579T134 584T124 587L91 593L100 628H368Z"  />
<glyph unicode="&#xA6;" horiz-adv-x="274" d="M196 635V306H102V635H196ZM102 165H196V-165H102V165Z"  />
<glyph unicode="&#xA7;" horiz-adv-x="537" d="M158 346Q158 331 160 315T171 279T201 239T260 192Q309 158 345 121T386 54Q400 71 408 92T416 147Q417 177 396 215T319 302Q300 318 279 335T240 371T210 409T197 450Q191 441 185 432T172 410T162 383T158 346ZM503 213Q503 180 493 150T466 94T431 46T392 8Q390 -25 377 -53T340 -103T285 -136T212 -149Q172 -149 140 -141T86 -120T53 -88T41 -51Q41 -28 58 -10T105 9Q119 9 128 1T145 -22Q167 -72 192 -88T238 -104Q261 -104 279 -92T297 -46Q297 -29 292 -14T274 18T240 53T189 92Q150 119 127 144T93 192T79 237T76 282Q76 334 104 389T191 486Q192 505 202 529T233 574T286 609T362 624Q436 624 472 599T509 538Q509 515 490 501T449 486Q435 486 427 493T411 514Q391 549 373 564T335 579Q312 579 297 566T282 525Q282 514 286 503T303 478T336 445T390 402Q422 378 443 356T478 312T497 265T503 213Z"  />
<glyph unicode="&#xA8;" horiz-adv-x="376" d="M176 675Q206 675 228 659T250 609Q250 569 228 548T170 526Q138 526 117 544T95 593Q95 608 99 622T114 648T139 667T176 675ZM394 675Q424 675 446 659T468 609Q468 569 446 548T388 526Q355 526 334 544T312 593Q312 608 317 622T332 648T357 667T394 675Z"  />
<glyph unicode="&#xA9;" horiz-adv-x="735" d="M400 2Q325 2 266 24T166 88T102 190T80 325Q80 392 103 451T168 554T269 623T401 649Q474 649 533 624T634 554T699 451T722 325Q722 258 698 200T630 97T527 28T400 2ZM399 611Q341 611 293 589T209 529T154 439T134 325Q134 265 154 213T211 122T296 62T401 40Q457 40 505 62T590 122T646 213T667 325Q667 386 647 438T591 528T506 589T399 611ZM514 387Q509 402 502 417T485 443T461 462T428 469Q383 469 361 431T339 333Q339 270 361 230T433 189Q472 189 490 213T526 276H555L537 178Q514 164 484 158T419 151Q366 151 329 164T270 201T237 257T227 327Q227 364 237 396T271 453T331 492T419 507Q457 507 489 501T543 481V387H514Z"  />
<glyph unicode="&#xAA;" horiz-adv-x="419" d="M306 514Q299 519 293 520T278 522Q256 522 236 500T199 448T172 384T162 330Q162 305 177 305Q188 305 202 318T236 356Q252 375 263 397T282 440T295 480T306 514ZM434 550L374 336Q371 326 371 318T379 309Q389 309 405 326T433 364L454 352Q444 332 431 314T402 281T364 258T315 249Q289 249 276 268T276 330L290 373L286 374Q272 355 257 333T222 293T178 262T122 249Q89 249 72 269T54 320Q54 349 67 389T109 466T180 529T282 555Q295 555 308 553T331 545L333 550H434Z"  />
<glyph unicode="&#xAB;" horiz-adv-x="556" d="M326 420L198 252Q185 234 190 217L248 55L216 35L80 218Q66 237 88 256L302 440L326 420ZM532 420L403 252Q398 244 396 236T396 217L454 55L422 35L286 218Q272 238 294 256L508 440L532 420Z"  />
<glyph unicode="&#xAC;" horiz-adv-x="664" d="M518 369H74V438H605V104H518V369Z"  />
<glyph unicode="&#xAD;" horiz-adv-x="347" d="M321 276L304 194H55L73 276H321Z"  />
<glyph unicode="&#xAE;" horiz-adv-x="257" d="M169 497V509L176 510Q180 510 180 512T180 519V582Q180 586 180 588T176 590L169 591V603H233Q256 603 264 596T273 577Q273 563 265 557T244 551V549Q264 544 269 523Q271 515 273 513T283 509V497H267Q242 497 236 509Q233 520 230 528Q230 533 227 537T219 542H215V519Q215 510 220 510L227 509V497H169ZM215 557H221Q239 557 239 573Q239 589 222 589Q215 589 215 584V557ZM220 429Q171 429 139 459T107 547Q107 572 115 593T139 631T176 656T222 665Q276 665 305 634T335 547Q335 497 303 463T220 429ZM136 546Q136 507 160 480T221 452Q259 452 282 477T306 547Q306 589 283 616T221 643Q180 643 158 616T136 546Z"  />
<glyph unicode="&#xAF;" horiz-adv-x="376" d="M425 631L407 550H130L147 631H425Z"  />
<glyph unicode="&#xB0;" horiz-adv-x="378" d="M254 333Q222 333 194 344T144 376T111 425T99 486Q99 518 111 546T144 594T193 627T255 639Q288 639 316 627T366 595T399 546T412 486Q412 453 400 425T366 377T316 345T254 333ZM254 583Q220 583 197 556T174 487Q175 444 198 416T255 388Q289 388 312 415T336 487Q336 529 313 556T254 583Z"  />
<glyph unicode="&#xB1;" horiz-adv-x="664" d="M73 406H297V621H384V406H606V336H384V122H297V336H73V406ZM73 69H606V0H73V69Z"  />
<glyph unicode="&#xB2;" horiz-adv-x="382" d="M69 398L59 408Q60 440 95 479T202 561Q254 591 277 629T300 703Q300 727 292 735T272 744Q252 744 236 721T200 659Q195 649 188 640T161 630Q142 630 124 643T105 677Q105 694 117 712T152 746T205 771T272 781Q317 781 346 772T392 747T416 713T423 674Q423 647 415 627T391 592T354 566T305 546Q282 538 259 531T215 516T180 500T159 484H330Q337 484 343 485T356 490T372 505T395 536L420 521L365 398H69Z"  />
<glyph unicode="&#xB3;" horiz-adv-x="382" d="M280 781Q307 781 333 776T379 758T412 728T424 686Q424 661 414 645T389 620T355 607T321 602L320 598Q355 590 381 568T407 508Q407 451 360 421T231 391Q161 391 122 415T82 473Q82 496 101 510T141 525Q155 525 164 517T177 497Q189 462 200 445T230 428Q237 428 246 433T262 449T275 480T280 526Q280 544 277 554T268 570T256 577T244 579Q228 579 212 575T184 571Q165 571 165 595Q165 609 170 619T187 629Q198 629 215 623T251 617Q277 617 290 644T304 706Q304 722 298 733T275 744Q264 744 251 730T217 684Q210 672 202 663T177 654Q162 654 145 666T128 699Q128 713 138 727T167 754T215 773T280 781Z"  />
<glyph unicode="&#xB4;" horiz-adv-x="376" d="M236 528L315 653Q335 685 349 698T382 710Q392 708 402 702T420 688T432 670T436 651Q434 633 420 619T382 588L260 501L236 528Z"  />
<glyph unicode="&#xB5;" horiz-adv-x="588" d="M597 139Q582 109 564 82T522 35T470 2T406 -11Q368 -11 349 15T343 90L368 182H364Q341 141 321 106T279 44T233 2T180 -14Q167 -14 155 0Q140 -58 131 -109T117 -219L105 -227Q83 -227 60 -221T18 -206T-12 -187T-20 -167Q-12 -136 -1 -97T23 -16T46 64T64 133L146 461L292 472L203 121Q191 68 221 68Q236 68 256 88T297 139T337 205T369 269Q376 286 383 305T397 346T413 397T432 461L572 472L478 111Q473 93 474 81T489 69Q497 69 507 77T527 97T549 126T569 159L597 139Z"  />
<glyph unicode="&#xB6;" horiz-adv-x="562" d="M291 -189Q298 -154 306 -123T326 -47T352 62T388 227Q402 291 411 334T426 407T436 462T446 512L403 510Q378 509 355 484T315 419T288 328T278 223Q278 197 281 180T291 151T310 132T338 120L333 95Q330 94 323 93T308 92T292 91T281 90Q233 90 194 102T127 140T83 201T67 284Q67 338 83 387T131 474T206 534T305 556H455Q457 569 459 580T463 603L518 616Q516 605 512 587T505 556H604L596 524L496 516Q490 489 484 466T471 411T455 338T432 231Q411 131 398 63T376 -52T362 -131T351 -189H291H291Z"  />
<glyph unicode="&#xB7;" horiz-adv-x="265" d="M132 147Q99 147 80 167T61 216Q61 259 86 289T157 319Q193 319 211 298T229 246Q229 203 205 175T132 147Z"  />
<glyph unicode="&#xB8;" horiz-adv-x="408" d="M211 0L156 -55Q170 -57 185 -63T212 -79T232 -103T240 -137Q240 -187 207 -210T122 -234Q93 -234 75 -230T47 -221L55 -187Q63 -189 73 -190T94 -191Q114 -191 130 -180T146 -142Q146 -129 140 -121T126 -107T108 -99T91 -95L88 -87L168 0H211Z"  />
<glyph unicode="&#xB9;" horiz-adv-x="382" d="M106 398L114 430L149 435Q165 437 172 444T185 470L236 692Q243 726 221 726L182 729L189 758L365 781L371 774L303 470Q298 451 303 444T323 435L356 430L347 398H106Z"  />
<glyph unicode="&#xBA;" horiz-adv-x="390" d="M270 555Q299 555 326 549T374 529T408 491T421 430Q421 386 407 352T366 295T303 261T224 249Q147 249 113 283T79 369Q79 411 93 445T132 503T193 541T270 555ZM282 522Q258 522 240 498T210 442T192 378T186 327Q186 282 218 282Q239 282 257 306T287 364T307 430T314 482Q314 499 307 510T282 522Z"  />
<glyph unicode="&#xBB;" horiz-adv-x="556" d="M43 54L172 223Q186 240 180 257L121 420L153 440L290 256Q304 237 282 218L67 35L43 54ZM249 54L378 223Q391 239 385 257L327 420L359 440L495 256Q503 246 501 237T488 218L274 35L249 54Z"  />
<glyph unicode="&#xBC;" horiz-adv-x="859" d="M99 256L107 288L143 293Q159 295 166 302T178 328L229 550Q234 568 230 575T214 584L175 587L182 616L359 639L364 632L297 328Q292 309 297 302T316 293L349 288L341 256H99ZM208 2L682 653L716 625L244 -26L208 2ZM461 108L454 133Q477 160 507 191T571 255T638 318T702 377H790L740 148H798L789 108H730L719 55Q715 35 734 33L761 30L755 0H543L549 30L581 33Q604 35 608 55L619 108H461ZM630 148L665 291H664Q649 274 630 257T592 221T555 185T524 148H630Z"  />
<glyph unicode="&#xBD;" horiz-adv-x="859" d="M68 256L76 288L111 293Q128 295 135 302T147 328L197 550Q202 568 198 575T182 584L143 587L150 616L327 639L333 632L264 328Q259 309 264 302T284 293L317 288L310 256H68ZM177 2L651 653L686 625L213 -26L177 2ZM476 0L467 10Q467 42 503 81T610 163Q662 193 685 231T708 305Q708 330 700 338T680 347Q660 347 643 324T608 262Q603 251 595 242T569 232Q549 232 531 245T513 279Q513 296 525 314T560 348T613 374T680 384Q725 384 754 375T800 350T824 315T831 275Q831 248 823 228T799 194T761 168T713 148Q690 140 666 133T622 118T587 103T567 87H737Q744 87 750 87T764 93T780 108T803 139L827 123L773 0H476Z"  />
<glyph unicode="&#xBE;" horiz-adv-x="859" d="M275 639Q302 639 328 634T374 616T406 586T418 544Q418 519 408 503T383 478T350 465T316 460L315 456Q350 448 375 426T401 366Q401 309 354 279T226 249Q155 249 116 273T77 331Q77 353 96 368T135 383Q149 383 158 375T172 355Q184 320 195 303T225 286Q232 286 241 291T257 307T270 338T275 384Q275 419 263 428T238 437Q223 437 207 433T179 429Q160 429 160 453Q160 467 165 477T181 487Q192 487 209 481T246 475Q272 475 285 502T298 564Q298 580 292 591T270 602Q259 602 245 588T212 542Q204 530 196 521T171 512Q164 512 156 515T140 524T128 538T123 557Q123 571 133 585T162 612T210 631T275 639ZM231 2L704 653L739 625L267 -26L231 2ZM475 108L468 133Q491 160 521 191T584 255T652 318T717 377H804L754 148H812L803 108H744L733 55Q729 35 748 33L775 30L769 0H557L563 30L595 33Q618 35 622 55L634 108H475ZM644 148L679 291H678Q647 257 607 223T538 148H644Z"  />
<glyph unicode="&#xBF;" horiz-adv-x="431" d="M287 472Q332 472 352 449T372 394Q372 349 344 324T277 298Q234 298 215 321T195 373Q195 418 222 445T287 472ZM174 -204Q78 -204 33 -170T-13 -77Q-13 -50 -3 -29T25 8T67 38T118 61Q162 78 189 98T217 149Q217 168 202 178T173 190Q150 194 132 191L125 220Q151 237 185 245T249 254Q299 254 329 228T359 163Q359 126 333 99T258 45Q200 14 167 -26T134 -120Q134 -135 141 -147T163 -160Q182 -160 202 -136T245 -61Q252 -45 263 -36T294 -26Q305 -26 318 -29T342 -40T361 -60T369 -89Q369 -107 358 -127T323 -164T262 -192T174 -204Z"  />
<glyph unicode="&#xC0;" horiz-adv-x="645" d="M204 229Q184 194 167 159T126 76Q118 62 120 52T138 41L191 37L184 0H-38L-31 37L-6 40Q15 42 27 51T53 81Q64 97 89 139T148 238T217 359T286 481T344 585T379 653H497Q501 606 508 535T525 385T543 225T560 81Q562 62 567 52T588 40L627 37L619 0H323L331 37L380 41Q394 42 398 50T401 75Q400 88 398 108T394 149T390 192T386 229H204ZM382 276Q380 297 377 331T371 401T364 470T359 522H357Q344 496 326 462T290 392T256 326T230 276H382ZM346 744Q316 757 296 771T276 805Q276 815 280 826T292 847T309 863T329 870Q342 870 356 864T395 828L482 723L462 691L346 744Z"  />
<glyph unicode="&#xC1;" horiz-adv-x="645" d="M204 229Q184 194 167 159T126 76Q118 62 120 52T138 41L191 37L184 0H-38L-31 37L-6 40Q15 42 27 51T53 81Q64 97 89 139T148 238T217 359T286 481T344 585T379 653H497Q501 606 508 535T525 385T543 225T560 81Q562 62 567 52T588 40L627 37L619 0H323L331 37L380 41Q394 42 398 50T401 75Q400 88 398 108T394 149T390 192T386 229H204ZM382 276Q380 297 377 331T371 401T364 470T359 522H357Q344 496 326 462T290 392T256 326T230 276H382ZM385 725L493 832Q521 860 537 866T564 873Q575 873 584 867T599 850T609 829T613 808Q613 787 594 774T542 748L402 694L385 725Z"  />
<glyph unicode="&#xC2;" horiz-adv-x="645" d="M204 229Q184 194 167 159T126 76Q118 62 120 52T138 41L191 37L184 0H-38L-31 37L-6 40Q15 42 27 51T53 81Q64 97 89 139T148 238T217 359T286 481T344 585T379 653H497Q501 606 508 535T525 385T543 225T560 81Q562 62 567 52T588 40L627 37L619 0H323L331 37L380 41Q394 42 398 50T401 75Q400 88 398 108T394 149T390 192T386 229H204ZM382 276Q380 297 377 331T371 401T364 470T359 522H357Q344 496 326 462T290 392T256 326T230 276H382ZM571 680L460 757Q448 770 429 757L302 680L281 713L432 860H484L602 713L571 680Z"  />
<glyph unicode="&#xC3;" horiz-adv-x="645" d="M204 229Q184 194 167 159T126 76Q118 62 120 52T138 41L191 37L184 0H-38L-31 37L-6 40Q15 42 27 51T53 81Q64 97 89 139T148 238T217 359T286 481T344 585T379 653H497Q501 606 508 535T525 385T543 225T560 81Q562 62 567 52T588 40L627 37L619 0H323L331 37L380 41Q394 42 398 50T401 75Q400 88 398 108T394 149T390 192T386 229H204ZM382 276Q380 297 377 331T371 401T364 470T359 522H357Q344 496 326 462T290 392T256 326T230 276H382ZM621 812Q616 798 607 779T583 744T551 716T508 704Q494 704 476 709T440 723Q420 731 404 736T370 742Q354 742 337 732T306 694L274 713Q279 727 289 746T313 781T346 809T387 821Q404 821 422 815T458 801Q478 793 495 788T530 782Q550 782 564 794T589 828L621 812Z"  />
<glyph unicode="&#xC4;" horiz-adv-x="645" d="M204 229Q184 194 167 159T126 76Q118 62 120 52T138 41L191 37L184 0H-38L-31 37L-6 40Q15 42 27 51T53 81Q64 97 89 139T148 238T217 359T286 481T344 585T379 653H497Q501 606 508 535T525 385T543 225T560 81Q562 62 567 52T588 40L627 37L619 0H323L331 37L380 41Q394 42 398 50T401 75Q400 88 398 108T394 149T390 192T386 229H204ZM382 276Q380 297 377 331T371 401T364 470T359 522H357Q344 496 326 462T290 392T256 326T230 276H382ZM349 865Q388 865 406 841T422 784Q418 751 394 727T332 702Q293 702 275 726T259 784Q263 816 286 840T349 865ZM576 865Q615 865 634 841T649 784Q646 751 622 727T560 702Q520 702 502 726T487 784Q491 816 513 840T576 865Z"  />
<glyph unicode="&#xC5;" horiz-adv-x="645" d="M204 229Q184 194 167 159T126 76Q118 62 120 52T138 41L191 37L184 0H-38L-31 37L-6 40Q15 42 27 51T53 81Q64 97 89 139T148 238T217 359T286 481T344 585T379 653H497Q501 606 508 535T525 385T543 225T560 81Q562 62 567 52T588 40L627 37L619 0H323L331 37L380 41Q394 42 398 50T401 75Q400 88 398 108T394 149T390 192T386 229H204ZM382 276Q380 297 377 331T371 401T364 470T359 522H357Q344 496 326 462T290 392T256 326T230 276H382ZM460 857Q440 857 424 840T403 791Q398 759 410 742T443 725Q463 725 480 742T502 791Q506 823 494 840T460 857ZM468 896Q489 896 508 891T542 873T563 840T566 791Q562 761 549 741T518 708T479 691T437 685Q416 685 397 690T363 708T341 740T339 791Q343 820 355 840T386 872T425 890T468 896Z"  />
<glyph unicode="&#xC6;" horiz-adv-x="917" d="M938 653L900 476H861Q856 522 851 548T834 588T803 604T750 608H703Q680 608 672 603T658 575L605 338H685Q706 338 720 341T746 355T766 382T788 425H827L779 205H740Q742 249 730 270T674 292H595L554 97Q550 78 555 68T573 52T609 45T661 44Q697 44 721 47T765 66T808 113T864 200H903L846 0H304L313 37L354 41Q375 43 382 55T396 94L442 292H275Q243 246 220 213T179 156T148 113T124 77Q116 66 116 55T130 43L199 37L193 0H-64L-57 37L-14 42Q8 44 23 59T59 98Q72 113 95 142T147 210T209 293T275 380T338 464T391 535Q422 578 426 593T413 610L349 616L359 653H938ZM453 338L514 602H501Q476 568 454 540T411 481T365 417T311 338H453Z"  />
<glyph unicode="&#xC7;" horiz-adv-x="665" d="M627 452Q626 483 621 514T603 569T564 609T497 624Q450 624 413 606T347 556T299 484T267 399T248 308T242 220Q242 123 281 76T381 28Q420 28 452 43T513 83T567 141T615 212H653L591 24Q569 13 543 6T488 -6T433 -13T381 -16L341 -55Q355 -57 370 -63T397 -79T418 -103T426 -137Q426 -187 393 -210T307 -234Q278 -234 260 -230T233 -221L241 -187Q249 -189 259 -190T279 -191Q300 -191 315 -180T331 -143Q331 -130 326 -122T312 -108T294 -100T276 -96L273 -88L341 -15Q279 -11 235 5T160 46T112 99T85 157T72 213T69 259Q69 284 72 313T83 374T103 435T135 494Q160 533 193 565T269 620T367 657T491 670Q510 670 537 668T595 660T654 647T704 625L666 452H627Z"  />
<glyph unicode="&#xC8;" horiz-adv-x="610" d="M143 653H645L607 476H570Q565 522 559 548T541 588T510 604T457 608H407Q380 608 372 603T359 576L313 366H396Q417 366 431 369T457 383T477 409T498 452H536L488 234H451Q453 279 441 299T385 319H302L251 95Q247 76 251 66T269 51T305 45T358 44Q402 44 432 56T486 89T527 138T566 200H602L535 0H-4L4 37L52 41Q73 43 80 55T94 94L197 558Q203 584 202 596T180 611L133 616L143 653ZM341 744Q311 757 291 771T271 805Q271 815 275 826T287 847T304 863T325 870Q337 870 351 864T390 828L478 723L457 691L341 744Z"  />
<glyph unicode="&#xC9;" horiz-adv-x="610" d="M143 653H645L607 476H570Q565 522 559 548T541 588T510 604T457 608H407Q380 608 372 603T359 576L313 366H396Q417 366 431 369T457 383T477 409T498 452H536L488 234H451Q453 279 441 299T385 319H302L251 95Q247 76 251 66T269 51T305 45T358 44Q402 44 432 56T486 89T527 138T566 200H602L535 0H-4L4 37L52 41Q73 43 80 55T94 94L197 558Q203 584 202 596T180 611L133 616L143 653ZM361 723L470 830Q498 857 513 863T540 870Q551 870 560 864T576 848T586 827T590 806Q590 785 570 772T519 746L379 691L361 723Z"  />
<glyph unicode="&#xCA;" horiz-adv-x="610" d="M143 653H645L607 476H570Q565 522 559 548T541 588T510 604T457 608H407Q380 608 372 603T359 576L313 366H396Q417 366 431 369T457 383T477 409T498 452H536L488 234H451Q453 279 441 299T385 319H302L251 95Q247 76 251 66T269 51T305 45T358 44Q402 44 432 56T486 89T527 138T566 200H602L535 0H-4L4 37L52 41Q73 43 80 55T94 94L197 558Q203 584 202 596T180 611L133 616L143 653ZM549 691L439 769Q426 781 408 768L281 691L259 724L411 871H462L580 724L549 691Z"  />
<glyph unicode="&#xCB;" horiz-adv-x="610" d="M143 653H645L607 476H570Q565 522 559 548T541 588T510 604T457 608H407Q380 608 372 603T359 576L313 366H396Q417 366 431 369T457 383T477 409T498 452H536L488 234H451Q453 279 441 299T385 319H302L251 95Q247 76 251 66T269 51T305 45T358 44Q402 44 432 56T486 89T527 138T566 200H602L535 0H-4L4 37L52 41Q73 43 80 55T94 94L197 558Q203 584 202 596T180 611L133 616L143 653ZM325 870Q364 870 382 846T397 789Q393 756 370 732T308 707Q269 707 250 731T235 789Q239 821 261 845T325 870ZM552 870Q591 870 609 846T625 789Q621 756 597 732T535 707Q496 707 478 731T462 789Q466 821 489 845T552 870Z"  />
<glyph unicode="&#xCC;" horiz-adv-x="378" d="M449 653L439 616L399 613Q378 611 371 598T357 558L254 94Q248 68 249 56T271 41L317 37L308 0H3L12 37L53 41Q74 43 81 55T95 94L198 558Q204 585 203 597T181 611L134 616L143 653H449ZM215 742Q184 756 165 770T145 804Q145 813 149 824T161 846T177 862T198 869Q210 869 224 863T264 826L351 722L330 690L215 742Z"  />
<glyph unicode="&#xCD;" horiz-adv-x="378" d="M449 653L439 616L399 613Q378 611 371 598T357 558L254 94Q248 68 249 56T271 41L317 37L308 0H3L12 37L53 41Q74 43 81 55T95 94L198 558Q204 585 203 597T181 611L134 616L143 653H449ZM246 723L354 830Q382 857 397 863T424 870Q435 870 444 864T460 848T470 827T474 806Q474 785 454 772T403 746L263 691L246 723Z"  />
<glyph unicode="&#xCE;" horiz-adv-x="378" d="M449 653L439 616L399 613Q378 611 371 598T357 558L254 94Q248 68 249 56T271 41L317 37L308 0H3L12 37L53 41Q74 43 81 55T95 94L198 558Q204 585 203 597T181 611L134 616L143 653H449ZM437 689L326 766Q314 779 295 766L168 689L147 722L298 868H350L468 722L437 689Z"  />
<glyph unicode="&#xCF;" horiz-adv-x="378" d="M449 653L439 616L399 613Q378 611 371 598T357 558L254 94Q248 68 249 56T271 41L317 37L308 0H3L12 37L53 41Q74 43 81 55T95 94L198 558Q204 585 203 597T181 611L134 616L143 653H449ZM216 872Q255 872 273 848T288 791Q285 758 261 734T199 709Q160 709 142 733T126 791Q130 823 152 847T216 872ZM443 872Q482 872 501 848T516 791Q512 758 488 734T426 709Q387 709 369 733T353 791Q357 823 380 847T443 872Z"  />
<glyph unicode="&#xD0;" horiz-adv-x="754" d="M62 320L74 366H161L204 558Q209 584 208 596T186 611L139 616L149 653H429Q502 653 561 641T663 599T728 515T751 379Q751 365 749 342T741 291T723 232T692 171Q668 132 636 101T559 47T456 12T319 0H8L17 37L58 41Q79 43 86 55T100 94L150 320H62ZM309 320L259 93Q251 62 266 53T315 44Q369 44 410 65T482 119T531 194T562 280T579 362T584 431Q584 465 579 497T558 554T513 593T435 608Q413 608 401 607T381 601T370 589T364 570L320 366H451L440 320H309Z"  />
<glyph unicode="&#xD1;" horiz-adv-x="706" d="M355 653Q403 534 456 414T559 173H562Q573 220 586 279T612 396T634 499T645 565Q647 588 641 600T614 613L562 616L569 653H795L787 616L752 613Q721 612 706 565Q700 546 690 506T668 413T642 302T616 187T592 81T574 0H463Q409 132 356 264T247 528H243Q237 500 228 459T209 371T190 278T172 191T159 124T153 88Q147 41 183 40L236 37L228 0H-7L1 37L42 40Q58 42 69 52T88 88Q97 115 109 166T137 282T167 418T197 558Q203 584 201 597T179 612L122 616L132 653H355ZM654 819Q649 805 640 787T617 752T584 724T541 712Q527 712 509 717T473 730Q454 738 438 744T403 750Q388 750 370 739T339 702L307 720Q312 735 322 753T346 788T379 816T420 828Q437 828 455 823T491 809Q511 801 528 796T563 790Q583 790 597 802T622 836L654 819Z"  />
<glyph unicode="&#xD2;" horiz-adv-x="731" d="M447 670Q506 670 557 654T647 605T707 519T729 396Q729 357 720 297T674 166Q655 130 628 97T562 39T473 -1T359 -16Q288 -16 234 2T144 55T89 139T70 248Q70 265 71 289T77 342T92 405T122 477Q141 514 169 549T238 611T329 654T447 670ZM460 624Q423 624 393 601T338 541T295 455T264 357T245 259T239 174Q239 105 264 67T346 28Q378 28 406 49T459 105T501 186T533 284T553 386T560 485Q560 513 556 538T541 583T511 613T460 624ZM394 754Q364 767 344 781T324 815Q324 825 328 836T340 857T357 873T378 880Q390 880 404 874T443 838L530 733L510 701L394 754Z"  />
<glyph unicode="&#xD3;" horiz-adv-x="731" d="M447 670Q506 670 557 654T647 605T707 519T729 396Q729 357 720 297T674 166Q655 130 628 97T562 39T473 -1T359 -16Q288 -16 234 2T144 55T89 139T70 248Q70 265 71 289T77 342T92 405T122 477Q141 514 169 549T238 611T329 654T447 670ZM460 624Q423 624 393 601T338 541T295 455T264 357T245 259T239 174Q239 105 264 67T346 28Q378 28 406 49T459 105T501 186T533 284T553 386T560 485Q560 513 556 538T541 583T511 613T460 624ZM421 733L529 840Q557 867 573 873T600 880Q611 880 620 874T636 858T646 837T650 816Q650 795 630 782T579 756L439 701L421 733Z"  />
<glyph unicode="&#xD4;" horiz-adv-x="731" d="M447 670Q506 670 557 654T647 605T707 519T729 396Q729 357 720 297T674 166Q655 130 628 97T562 39T473 -1T359 -16Q288 -16 234 2T144 55T89 139T70 248Q70 265 71 289T77 342T92 405T122 477Q141 514 169 549T238 611T329 654T447 670ZM460 624Q423 624 393 601T338 541T295 455T264 357T245 259T239 174Q239 105 264 67T346 28Q378 28 406 49T459 105T501 186T533 284T553 386T560 485Q560 513 556 538T541 583T511 613T460 624ZM604 698L493 775Q481 787 462 775L335 698L314 730L465 877H516L635 731L604 698Z"  />
<glyph unicode="&#xD5;" horiz-adv-x="731" d="M447 670Q506 670 557 654T647 605T707 519T729 396Q729 357 720 297T674 166Q655 130 628 97T562 39T473 -1T359 -16Q288 -16 234 2T144 55T89 139T70 248Q70 265 71 289T77 342T92 405T122 477Q141 514 169 549T238 611T329 654T447 670ZM460 624Q423 624 393 601T338 541T295 455T264 357T245 259T239 174Q239 105 264 67T346 28Q378 28 406 49T459 105T501 186T533 284T553 386T560 485Q560 513 556 538T541 583T511 613T460 624ZM655 825Q650 811 641 792T617 757T584 729T541 717Q527 717 510 722T473 736Q454 744 438 749T404 755Q388 755 371 745T340 707L308 726Q312 740 322 759T346 794T379 822T420 834Q437 834 455 829T492 815Q512 807 529 801T563 795Q583 795 597 808T622 841L655 825Z"  />
<glyph unicode="&#xD6;" horiz-adv-x="731" d="M447 670Q506 670 557 654T647 605T707 519T729 396Q729 357 720 297T674 166Q655 130 628 97T562 39T473 -1T359 -16Q288 -16 234 2T144 55T89 139T70 248Q70 265 71 289T77 342T92 405T122 477Q141 514 169 549T238 611T329 654T447 670ZM460 624Q423 624 393 601T338 541T295 455T264 357T245 259T239 174Q239 105 264 67T346 28Q378 28 406 49T459 105T501 186T533 284T553 386T560 485Q560 513 556 538T541 583T511 613T460 624ZM382 876Q421 876 439 852T455 795Q451 762 427 738T365 713Q326 713 308 737T292 795Q296 828 319 852T382 876ZM609 876Q649 876 667 852T682 795Q679 762 655 738T593 713Q553 713 535 737T520 795Q524 828 546 852T609 876Z"  />
<glyph unicode="&#xD7;" horiz-adv-x="664" d="M392 271L588 75L537 22L340 219L142 22L91 75L287 271L91 468L142 523L340 324L537 523L588 468L392 271Z"  />
<glyph unicode="&#xD8;" horiz-adv-x="735" d="M646 608Q685 574 709 523T734 398Q734 378 732 353T724 297T707 233T678 164Q659 128 632 95T568 38T481 -1T367 -16Q316 -16 274 -7T198 20L144 -51L109 -17L159 48Q117 81 94 131T70 244Q70 262 71 287T77 342T93 406T123 477Q142 514 171 549T240 611T331 654T448 670Q536 670 606 635L651 695L689 663L646 608ZM555 568Q545 594 524 609T465 624Q427 624 395 601T338 540T293 454T260 355T241 256T234 170Q234 164 235 159T236 148L555 568ZM250 89Q278 28 348 28Q381 28 410 49T464 105T508 187T541 285T562 388T569 488Q569 493 569 497T568 507L250 89Z"  />
<glyph unicode="&#xD9;" horiz-adv-x="735" d="M435 653L426 616L386 612Q365 610 357 597T344 558L268 215Q257 164 259 128T273 70T306 38T354 28Q412 28 445 80T502 243L573 558Q578 584 577 596T555 611L508 616L518 653H816L807 616L767 611Q746 609 739 597T725 558L652 239Q637 173 616 125T560 46T473 -1T344 -16Q279 -16 229 -3T148 38T107 113T111 225L185 558Q190 584 189 596T168 611L120 616L130 653H435ZM387 744Q357 757 337 771T317 805Q317 815 321 826T333 847T350 863T370 870Q383 870 397 864T436 828L523 723L503 691L387 744Z"  />
<glyph unicode="&#xDA;" horiz-adv-x="735" d="M435 653L426 616L386 612Q365 610 357 597T344 558L268 215Q257 164 259 128T273 70T306 38T354 28Q412 28 445 80T502 243L573 558Q578 584 577 596T555 611L508 616L518 653H816L807 616L767 611Q746 609 739 597T725 558L652 239Q637 173 616 125T560 46T473 -1T344 -16Q279 -16 229 -3T148 38T107 113T111 225L185 558Q190 584 189 596T168 611L120 616L130 653H435ZM417 730L525 837Q553 864 568 870T595 877Q606 877 615 871T631 855T641 834T645 813Q645 792 625 778T574 753L434 698L417 730Z"  />
<glyph unicode="&#xDB;" horiz-adv-x="735" d="M435 653L426 616L386 612Q365 610 357 597T344 558L268 215Q257 164 259 128T273 70T306 38T354 28Q412 28 445 80T502 243L573 558Q578 584 577 596T555 611L508 616L518 653H816L807 616L767 611Q746 609 739 597T725 558L652 239Q637 173 616 125T560 46T473 -1T344 -16Q279 -16 229 -3T148 38T107 113T111 225L185 558Q190 584 189 596T168 611L120 616L130 653H435ZM612 692L501 769Q489 781 470 769L343 692L322 724L473 871H524L643 725L612 692Z"  />
<glyph unicode="&#xDC;" horiz-adv-x="735" d="M435 653L426 616L386 612Q365 610 357 597T344 558L268 215Q257 164 259 128T273 70T306 38T354 28Q412 28 445 80T502 243L573 558Q578 584 577 596T555 611L508 616L518 653H816L807 616L767 611Q746 609 739 597T725 558L652 239Q637 173 616 125T560 46T473 -1T344 -16Q279 -16 229 -3T148 38T107 113T111 225L185 558Q190 584 189 596T168 611L120 616L130 653H435ZM384 870Q423 870 441 846T456 789Q452 755 429 731T367 706Q328 706 309 730T294 789Q297 821 320 845T384 870ZM610 870Q650 870 668 846T684 789Q680 755 656 731T594 706Q555 706 537 730T521 789Q525 821 548 845T610 870Z"  />
<glyph unicode="&#xDD;" horiz-adv-x="607" d="M401 653L393 616L340 610Q326 608 324 602T325 583Q329 565 338 532T359 462T382 388T401 327H403Q412 339 424 358T451 401T481 449T510 497T536 542T556 578Q572 608 544 611L494 616L501 653H732L725 616Q703 614 690 613T668 607T649 594T626 568Q609 547 586 515T538 446T486 371T439 301Q425 281 420 264T411 227L382 95Q377 69 378 57T400 42L458 37L449 0H118L127 37L181 41Q202 42 210 55T223 95L253 232Q258 251 258 265T255 294Q244 333 232 373T207 451T183 520T164 574Q158 591 152 599T137 612T118 616T91 618L99 653H401ZM373 723L481 829Q509 857 524 863T551 870Q562 870 571 864T587 847T597 826T601 805Q601 785 581 771T530 746L390 691L373 723Z"  />
<glyph unicode="&#xDE;" horiz-adv-x="616" d="M419 517Q516 517 571 481T626 354Q626 292 600 253T534 192T446 162T354 154Q335 154 309 155T264 161L250 94Q245 70 246 57T269 42L332 37L324 0H2L11 37L53 41Q74 43 81 55T94 94L199 558Q205 584 204 597T182 612L134 616L144 653H442L432 616L392 613Q371 611 364 598T350 558L340 517H419ZM276 235Q271 215 285 206T323 197Q363 197 390 211T433 251T456 308T463 376Q463 423 439 447T372 471Q343 471 332 463T317 436L276 235Z"  />
<glyph unicode="&#xDF;" horiz-adv-x="596" d="M52 414L66 461H146Q164 517 189 560T250 634T331 679T440 695Q493 695 526 682T578 649T604 602T611 550Q611 536 607 518T595 491Q521 478 491 451T461 381Q461 367 466 353T480 324T498 297T515 275Q538 246 552 217T567 157Q567 130 555 101T520 46T461 5T378 -12Q312 -12 283 8T253 56Q253 66 258 76T271 94T289 107T309 112Q321 112 327 107T339 92Q359 61 374 47T407 33Q421 33 434 44T447 85Q447 111 431 140T386 205Q363 234 351 261T338 318Q338 353 353 381T392 432T442 469T493 494Q500 508 503 520T507 555Q507 572 503 589T488 620T464 642T430 651Q401 651 380 639T340 600T308 527T278 416L195 36Q181 -24 160 -73T110 -157T43 -211T-41 -231Q-70 -231 -94 -226T-136 -211T-164 -188T-174 -159Q-174 -148 -167 -136T-150 -112T-126 -94T-101 -86Q-85 -86 -75 -97T-60 -120Q-41 -158 -31 -171T-7 -185Q-2 -185 2 -181T9 -172T13 -161T16 -153Q23 -126 32 -83T53 12T76 120T99 231T119 332T136 414H52Z"  />
<glyph unicode="&#xE0;" horiz-adv-x="585" d="M560 466L466 110Q461 92 461 80T475 68Q482 68 492 76T512 97T533 126T551 158L580 138Q565 108 547 81T507 33T458 0T396 -12Q351 -12 335 18T336 109L357 181H353Q336 149 314 115T263 53T200 6T123 -12Q96 -12 78 -2T50 24T35 62T30 106Q30 137 38 176T65 256T109 336T172 405T255 454T357 473Q376 473 394 469T424 457L427 466H560ZM411 417Q401 423 389 425T364 428Q339 428 316 412T272 368T234 307T205 237T187 169T180 111Q180 88 185 78T204 68Q225 68 251 97T304 167T351 254T384 333Q392 356 399 379T411 417ZM309 615Q291 639 281 655T271 687Q271 696 277 705T294 721T316 733T339 738Q358 738 366 725T383 673L412 532L384 515L309 615Z"  />
<glyph unicode="&#xE1;" horiz-adv-x="585" d="M560 466L466 110Q461 92 461 80T475 68Q482 68 492 76T512 97T533 126T551 158L580 138Q565 108 547 81T507 33T458 0T396 -12Q351 -12 335 18T336 109L357 181H353Q336 149 314 115T263 53T200 6T123 -12Q96 -12 78 -2T50 24T35 62T30 106Q30 137 38 176T65 256T109 336T172 405T255 454T357 473Q376 473 394 469T424 457L427 466H560ZM411 417Q401 423 389 425T364 428Q339 428 316 412T272 368T234 307T205 237T187 169T180 111Q180 88 185 78T204 68Q225 68 251 97T304 167T351 254T384 333Q392 356 399 379T411 417ZM341 535L420 660Q440 692 454 705T487 717Q497 715 507 709T525 695T537 677T541 658Q539 640 525 626T487 595L365 508L341 535Z"  />
<glyph unicode="&#xE2;" horiz-adv-x="585" d="M560 466L466 110Q461 92 461 80T475 68Q482 68 492 76T512 97T533 126T551 158L580 138Q565 108 547 81T507 33T458 0T396 -12Q351 -12 335 18T336 109L357 181H353Q336 149 314 115T263 53T200 6T123 -12Q96 -12 78 -2T50 24T35 62T30 106Q30 137 38 176T65 256T109 336T172 405T255 454T357 473Q376 473 394 469T424 457L427 466H560ZM411 417Q401 423 389 425T364 428Q339 428 316 412T272 368T234 307T205 237T187 169T180 111Q180 88 185 78T204 68Q225 68 251 97T304 167T351 254T384 333Q392 356 399 379T411 417ZM468 507L398 612Q385 623 375 611L272 507L244 529L383 724H426L501 531L468 507Z"  />
<glyph unicode="&#xE3;" horiz-adv-x="585" d="M560 466L466 110Q461 92 461 80T475 68Q482 68 492 76T512 97T533 126T551 158L580 138Q565 108 547 81T507 33T458 0T396 -12Q351 -12 335 18T336 109L357 181H353Q336 149 314 115T263 53T200 6T123 -12Q96 -12 78 -2T50 24T35 62T30 106Q30 137 38 176T65 256T109 336T172 405T255 454T357 473Q376 473 394 469T424 457L427 466H560ZM411 417Q401 423 389 425T364 428Q339 428 316 412T272 368T234 307T205 237T187 169T180 111Q180 88 185 78T204 68Q225 68 251 97T304 167T351 254T384 333Q392 356 399 379T411 417ZM556 641Q551 626 542 608T518 572T485 544T442 532Q428 532 411 538T374 552Q356 559 340 565T305 571Q289 571 272 561T242 523L209 541Q214 556 224 574T248 610T281 638T322 650Q339 650 356 644T393 631Q413 623 430 617T464 611Q484 611 498 623T524 658L556 641Z"  />
<glyph unicode="&#xE4;" horiz-adv-x="585" d="M560 466L466 110Q461 92 461 80T475 68Q482 68 492 76T512 97T533 126T551 158L580 138Q565 108 547 81T507 33T458 0T396 -12Q351 -12 335 18T336 109L357 181H353Q336 149 314 115T263 53T200 6T123 -12Q96 -12 78 -2T50 24T35 62T30 106Q30 137 38 176T65 256T109 336T172 405T255 454T357 473Q376 473 394 469T424 457L427 466H560ZM411 417Q401 423 389 425T364 428Q339 428 316 412T272 368T234 307T205 237T187 169T180 111Q180 88 185 78T204 68Q225 68 251 97T304 167T351 254T384 333Q392 356 399 379T411 417ZM281 675Q311 675 333 659T355 609Q355 569 333 548T275 526Q243 526 222 544T200 593Q200 608 204 622T219 648T244 667T281 675ZM499 675Q529 675 551 659T573 609Q573 569 551 548T493 526Q460 526 439 544T417 593Q417 608 422 622T437 648T462 667T499 675Z"  />
<glyph unicode="&#xE5;" horiz-adv-x="585" d="M560 466L466 110Q461 92 461 80T475 68Q482 68 492 76T512 97T533 126T551 158L580 138Q565 108 547 81T507 33T458 0T396 -12Q351 -12 335 18T336 109L357 181H353Q336 149 314 115T263 53T200 6T123 -12Q96 -12 78 -2T50 24T35 62T30 106Q30 137 38 176T65 256T109 336T172 405T255 454T357 473Q376 473 394 469T424 457L427 466H560ZM411 417Q401 423 389 425T364 428Q339 428 316 412T272 368T234 307T205 237T187 169T180 111Q180 88 185 78T204 68Q225 68 251 97T304 167T351 254T384 333Q392 356 399 379T411 417ZM400 684Q380 684 364 667T345 618Q342 586 355 569T388 552Q408 552 424 569T444 618Q447 650 434 667T400 684ZM407 723Q427 723 446 718T480 700T502 667T507 618Q504 588 493 568T464 535T425 518T383 512Q362 512 343 517T309 535T286 567T281 618Q284 647 296 667T325 699T364 717T407 723Z"  />
<glyph unicode="&#xE6;" horiz-adv-x="753" d="M505 480L488 419L490 417Q521 446 561 459T634 473Q696 473 729 445T762 365Q762 331 748 306T711 262T659 231T598 212T536 200T480 195Q478 188 478 178T478 159Q478 140 481 121T494 87T517 62T552 52Q594 52 635 85T715 175L743 152Q717 104 686 73T622 23T555 -4T491 -12Q463 -12 438 -6T392 17T360 63T348 140Q348 144 348 149T349 160L346 161Q328 130 306 99T257 44T197 4T124 -12Q98 -12 81 -3T52 23T36 59T31 102Q31 133 39 173T66 254T110 334T173 405T256 455T358 474Q395 474 428 459L454 480H505ZM411 418Q393 430 367 430Q342 430 319 413T274 369T236 308T207 237T188 167T181 108Q181 90 186 80T205 69Q222 69 251 96T313 178Q331 206 346 237T373 300T395 362T411 418ZM485 238Q532 241 563 255T612 289T637 334T644 385Q644 404 636 416T611 428Q591 428 571 412T534 370T504 310T485 238Z"  />
<glyph unicode="&#xE7;" horiz-adv-x="460" d="M193 -12H190Q158 -12 131 -4T83 23T52 72T40 146Q40 198 58 256T113 362T202 441T327 473Q391 473 428 450T466 390Q466 377 459 365T441 344T415 329T387 323Q367 323 360 335T349 369Q341 428 313 428Q288 428 266 403T226 339T199 251T189 155Q189 111 205 83T264 54Q287 54 310 65T353 93T392 133T423 177L451 156Q430 113 405 83T353 34T296 5T238 -9L192 -55Q206 -57 221 -63T248 -79T268 -103T276 -137Q276 -187 243 -210T158 -234Q129 -234 111 -230T83 -221L91 -187Q99 -189 109 -190T130 -191Q150 -191 166 -180T182 -142Q182 -129 176 -121T162 -107T144 -99T127 -95L124 -87L193 -12Z"  />
<glyph unicode="&#xE8;" horiz-adv-x="454" d="M443 146Q417 98 388 68T326 20T260 -5T191 -12Q164 -12 136 -5T86 21T50 71T36 152Q36 206 53 261T109 366Q147 414 201 443T328 473Q394 473 428 444T462 363Q462 331 447 307T406 264T350 233T288 212T229 200T182 193Q181 185 181 172T181 151Q181 133 185 116T198 84T221 62T256 53Q335 53 414 168L443 146ZM186 231Q267 248 307 293T348 388Q348 407 340 418T315 430Q295 430 275 414T236 371T205 307T186 231ZM251 611Q233 636 223 652T213 683Q213 692 219 701T236 718T258 729T281 734Q300 734 308 721T325 670L353 528L325 512L251 611Z"  />
<glyph unicode="&#xE9;" horiz-adv-x="454" d="M443 146Q417 98 388 68T326 20T260 -5T191 -12Q164 -12 136 -5T86 21T50 71T36 152Q36 206 53 261T109 366Q147 414 201 443T328 473Q394 473 428 444T462 363Q462 331 447 307T406 264T350 233T288 212T229 200T182 193Q181 185 181 172T181 151Q181 133 185 116T198 84T221 62T256 53Q335 53 414 168L443 146ZM186 231Q267 248 307 293T348 388Q348 407 340 418T315 430Q295 430 275 414T236 371T205 307T186 231ZM275 534L354 659Q374 691 388 704T421 716Q431 714 441 708T460 694T472 676T476 657Q474 639 460 625T421 593L300 507L275 534Z"  />
<glyph unicode="&#xEA;" horiz-adv-x="454" d="M443 146Q417 98 388 68T326 20T260 -5T191 -12Q164 -12 136 -5T86 21T50 71T36 152Q36 206 53 261T109 366Q147 414 201 443T328 473Q394 473 428 444T462 363Q462 331 447 307T406 264T350 233T288 212T229 200T182 193Q181 185 181 172T181 151Q181 133 185 116T198 84T221 62T256 53Q335 53 414 168L443 146ZM186 231Q267 248 307 293T348 388Q348 407 340 418T315 430Q295 430 275 414T236 371T205 307T186 231ZM402 507L332 611Q320 623 309 611L206 507L178 529L317 724H360L435 530L402 507Z"  />
<glyph unicode="&#xEB;" horiz-adv-x="454" d="M443 146Q417 98 388 68T326 20T260 -5T191 -12Q164 -12 136 -5T86 21T50 71T36 152Q36 206 53 261T109 366Q147 414 201 443T328 473Q394 473 428 444T462 363Q462 331 447 307T406 264T350 233T288 212T229 200T182 193Q181 185 181 172T181 151Q181 133 185 116T198 84T221 62T256 53Q335 53 414 168L443 146ZM186 231Q267 248 307 293T348 388Q348 407 340 418T315 430Q295 430 275 414T236 371T205 307T186 231ZM215 675Q245 675 267 659T289 609Q289 569 267 548T209 526Q177 526 156 544T134 593Q134 608 138 622T153 648T178 667T215 675ZM433 675Q463 675 485 659T507 609Q507 569 485 548T427 526Q394 526 373 544T351 593Q351 608 356 622T371 648T396 667T433 675Z"  />
<glyph unicode="&#xEC;" horiz-adv-x="320" d="M322 140Q307 110 289 83T247 34T196 1T132 -12Q83 -12 66 17T63 104L135 367Q144 405 119 406L65 412L72 444L293 472L299 466L203 111Q198 94 199 82T214 69Q221 69 231 77T252 98T274 127T294 160L322 140ZM159 601Q141 625 131 641T121 673Q121 682 127 691T144 707T166 719T189 724Q208 724 216 711T233 659L262 518L234 501L159 601Z"  />
<glyph unicode="&#xED;" horiz-adv-x="320" d="M322 140Q307 110 289 83T247 34T196 1T132 -12Q83 -12 66 17T63 104L135 367Q144 405 119 406L65 412L72 444L293 472L299 466L203 111Q198 94 199 82T214 69Q221 69 231 77T252 98T274 127T294 160L322 140ZM201 528L280 653Q300 685 314 698T347 710Q357 708 367 702T385 688T397 670T401 651Q399 633 385 619T347 588L225 501L201 528Z"  />
<glyph unicode="&#xEE;" horiz-adv-x="320" d="M322 140Q307 110 289 83T247 34T196 1T132 -12Q83 -12 66 17T63 104L135 367Q144 405 119 406L65 412L72 444L293 472L299 466L203 111Q198 94 199 82T214 69Q221 69 231 77T252 98T274 127T294 160L322 140ZM326 507L256 611Q244 623 233 611L130 507L102 529L241 724H284L359 530L326 507Z"  />
<glyph unicode="&#xEF;" horiz-adv-x="320" d="M322 140Q307 110 289 83T247 34T196 1T132 -12Q83 -12 66 17T63 104L135 367Q144 405 119 406L65 412L72 444L293 472L299 466L203 111Q198 94 199 82T214 69Q221 69 231 77T252 98T274 127T294 160L322 140ZM128 675Q158 675 180 659T202 609Q202 569 180 548T122 526Q90 526 69 544T47 593Q47 608 51 622T66 648T91 667T128 675ZM346 675Q376 675 398 659T420 609Q420 569 398 548T340 526Q307 526 286 544T264 593Q264 608 269 622T284 648T309 667T346 675Z"  />
<glyph unicode="&#xF0;" horiz-adv-x="539" d="M397 595Q424 568 447 538T488 472T516 397T527 311Q527 226 500 154T416 39Q399 26 381 17T342 1T296 -9T238 -12Q133 -12 87 36T41 162Q41 230 61 287T117 385T206 450T324 473Q336 473 349 472T368 468V471Q361 491 349 515T320 561L195 509L177 544L296 591Q279 610 257 630T208 671L209 682L247 695Q259 690 274 683T306 666T337 645T364 624L480 671L496 636L397 595ZM337 428Q312 428 291 410T252 362T222 296T200 223T187 154T182 101Q182 67 196 50T233 32Q257 32 277 51T315 101T345 169T367 243T381 311T386 359Q386 368 386 374T385 388Q380 405 370 416T337 428Z"  />
<glyph unicode="&#xF1;" horiz-adv-x="602" d="M34 -11L130 367Q141 405 116 406L60 412L68 444L292 472L297 468L233 268H238Q260 308 287 345T344 410T409 456T480 473Q510 473 528 462T553 432T560 388T550 335L480 111Q475 94 475 82T488 70Q497 70 507 78T529 99T550 128T570 161L600 139Q585 109 567 82T525 34T472 1T406 -12Q362 -12 343 17T340 104L410 338Q416 358 416 375T397 392Q382 392 361 372T317 323T274 260T243 201Q234 181 226 161T209 117T191 65T172 0L34 -11ZM557 641Q552 626 543 608T519 572T486 544T443 532Q429 532 412 538T375 552Q357 559 341 565T306 571Q290 571 273 561T243 523L210 541Q215 556 225 574T249 610T282 638T323 650Q340 650 357 644T394 631Q414 623 431 617T465 611Q485 611 499 623T525 658L557 641Z"  />
<glyph unicode="&#xF2;" horiz-adv-x="543" d="M328 473Q365 473 400 465T464 437T509 381T527 290Q527 276 526 256T519 211T504 161T478 107Q444 53 386 21T237 -12Q185 -12 148 1T86 38T51 94T39 164Q39 231 60 287T120 385T212 449T328 473ZM334 428Q308 428 287 409T249 360T220 293T199 219T186 152T181 101Q181 68 194 50T234 32Q258 32 278 51T315 100T345 167T367 240T380 306T385 354Q385 382 376 405T334 428ZM281 607Q263 631 253 647T243 679Q243 688 249 697T266 713T288 725T311 730Q330 730 338 717T355 665L384 524L356 507L281 607Z"  />
<glyph unicode="&#xF3;" horiz-adv-x="543" d="M328 473Q365 473 400 465T464 437T509 381T527 290Q527 276 526 256T519 211T504 161T478 107Q444 53 386 21T237 -12Q185 -12 148 1T86 38T51 94T39 164Q39 231 60 287T120 385T212 449T328 473ZM334 428Q308 428 287 409T249 360T220 293T199 219T186 152T181 101Q181 68 194 50T234 32Q258 32 278 51T315 100T345 167T367 240T380 306T385 354Q385 382 376 405T334 428ZM313 535L392 660Q412 692 426 705T459 717Q469 715 479 709T497 695T509 677T513 658Q511 640 497 626T459 595L337 508L313 535Z"  />
<glyph unicode="&#xF4;" horiz-adv-x="543" d="M328 473Q365 473 400 465T464 437T509 381T527 290Q527 276 526 256T519 211T504 161T478 107Q444 53 386 21T237 -12Q185 -12 148 1T86 38T51 94T39 164Q39 231 60 287T120 385T212 449T328 473ZM334 428Q308 428 287 409T249 360T220 293T199 219T186 152T181 101Q181 68 194 50T234 32Q258 32 278 51T315 100T345 167T367 240T380 306T385 354Q385 382 376 405T334 428ZM442 507L372 611Q367 617 361 617T350 611L247 507L218 529L358 724H400L476 530L442 507Z"  />
<glyph unicode="&#xF5;" horiz-adv-x="543" d="M328 473Q365 473 400 465T464 437T509 381T527 290Q527 276 526 256T519 211T504 161T478 107Q444 53 386 21T237 -12Q185 -12 148 1T86 38T51 94T39 164Q39 231 60 287T120 385T212 449T328 473ZM334 428Q308 428 287 409T249 360T220 293T199 219T186 152T181 101Q181 68 194 50T234 32Q258 32 278 51T315 100T345 167T367 240T380 306T385 354Q385 382 376 405T334 428ZM528 641Q523 626 514 608T490 572T457 544T414 532Q400 532 383 538T346 552Q328 559 312 565T277 571Q261 571 244 561T214 523L181 541Q186 556 196 574T220 610T253 638T294 650Q311 650 328 644T365 631Q385 623 402 617T436 611Q456 611 470 623T496 658L528 641Z"  />
<glyph unicode="&#xF6;" horiz-adv-x="543" d="M328 473Q365 473 400 465T464 437T509 381T527 290Q527 276 526 256T519 211T504 161T478 107Q444 53 386 21T237 -12Q185 -12 148 1T86 38T51 94T39 164Q39 231 60 287T120 385T212 449T328 473ZM334 428Q308 428 287 409T249 360T220 293T199 219T186 152T181 101Q181 68 194 50T234 32Q258 32 278 51T315 100T345 167T367 240T380 306T385 354Q385 382 376 405T334 428ZM255 675Q285 675 307 659T329 609Q329 569 307 548T249 526Q217 526 196 544T174 593Q174 608 178 622T193 648T218 667T255 675ZM473 675Q503 675 525 659T547 609Q547 569 525 548T467 526Q434 526 413 544T391 593Q391 608 396 622T411 648T436 667T473 675Z"  />
<glyph unicode="&#xF7;" horiz-adv-x="664" d="M338 398Q310 398 291 418T272 468Q272 497 291 517T339 537Q368 537 389 519T410 468Q410 439 390 419T338 398ZM73 309H606V240H73V309ZM338 13Q310 13 291 33T272 82Q272 111 291 131T339 152Q370 152 390 132T411 84Q411 74 410 62T401 39T378 21T338 13Z"  />
<glyph unicode="&#xF8;" horiz-adv-x="532" d="M375 408Q369 417 360 422T335 428Q305 428 281 407T239 352T208 279T188 202T179 134T178 91L375 408ZM194 49Q206 32 230 32Q259 32 282 51T322 100T353 168T374 242T385 308T389 357L194 49ZM445 447Q481 429 502 392T524 291Q524 275 522 254T513 208T497 158T470 106Q437 52 381 20T234 -12Q213 -12 195 -10T159 -2L116 -69L86 -43L122 12Q77 33 59 73T40 167Q40 227 59 282T114 379T204 447T326 473Q348 473 368 471T408 462L444 519L477 496L445 447Z"  />
<glyph unicode="&#xF9;" horiz-adv-x="602" d="M580 472L486 112Q481 94 482 82T495 69Q503 69 513 77T534 98T557 127T578 160L606 140Q591 110 574 83T533 34T481 1T414 -12Q374 -12 357 14T354 95L377 181H373Q350 140 326 105T272 44T209 3T134 -12Q106 -12 90 -1T68 29T62 73T71 126L134 367Q145 407 120 410L65 416L73 448L295 472L299 467L211 122Q206 98 208 85T226 71Q240 71 260 89T301 136T343 200T379 270Q387 287 402 332T441 461L580 472ZM303 608Q285 632 275 648T265 680Q265 689 271 698T288 714T310 726T333 731Q352 731 360 718T377 666L406 525L378 508L303 608Z"  />
<glyph unicode="&#xFA;" horiz-adv-x="602" d="M580 472L486 112Q481 94 482 82T495 69Q503 69 513 77T534 98T557 127T578 160L606 140Q591 110 574 83T533 34T481 1T414 -12Q374 -12 357 14T354 95L377 181H373Q350 140 326 105T272 44T209 3T134 -12Q106 -12 90 -1T68 29T62 73T71 126L134 367Q145 407 120 410L65 416L73 448L295 472L299 467L211 122Q206 98 208 85T226 71Q240 71 260 89T301 136T343 200T379 270Q387 287 402 332T441 461L580 472ZM336 528L415 653Q435 685 449 698T482 710Q492 708 502 702T520 688T532 670T536 651Q534 633 520 619T482 588L360 501L336 528Z"  />
<glyph unicode="&#xFB;" horiz-adv-x="602" d="M580 472L486 112Q481 94 482 82T495 69Q503 69 513 77T534 98T557 127T578 160L606 140Q591 110 574 83T533 34T481 1T414 -12Q374 -12 357 14T354 95L377 181H373Q350 140 326 105T272 44T209 3T134 -12Q106 -12 90 -1T68 29T62 73T71 126L134 367Q145 407 120 410L65 416L73 448L295 472L299 467L211 122Q206 98 208 85T226 71Q240 71 260 89T301 136T343 200T379 270Q387 287 402 332T441 461L580 472ZM468 507L398 611Q386 623 375 611L272 507L244 529L383 724H426L501 530L468 507Z"  />
<glyph unicode="&#xFC;" horiz-adv-x="602" d="M580 472L486 112Q481 94 482 82T495 69Q503 69 513 77T534 98T557 127T578 160L606 140Q591 110 574 83T533 34T481 1T414 -12Q374 -12 357 14T354 95L377 181H373Q350 140 326 105T272 44T209 3T134 -12Q106 -12 90 -1T68 29T62 73T71 126L134 367Q145 407 120 410L65 416L73 448L295 472L299 467L211 122Q206 98 208 85T226 71Q240 71 260 89T301 136T343 200T379 270Q387 287 402 332T441 461L580 472ZM272 675Q302 675 324 659T346 609Q346 569 324 548T266 526Q234 526 213 544T191 593Q191 608 195 622T210 648T235 667T272 675ZM490 675Q520 675 542 659T564 609Q564 569 542 548T484 526Q451 526 430 544T408 593Q408 608 413 622T428 648T453 667T490 675Z"  />
<glyph unicode="&#xFD;" horiz-adv-x="475" d="M229 472L232 468Q237 450 244 405T257 303T268 184T274 68H276Q318 142 339 207T370 321Q373 336 374 353T377 387T378 420T378 449Q408 462 435 467T479 473Q485 473 492 456T499 422Q499 407 491 384T469 331T437 269T398 202Q377 167 356 130T315 61T282 4T260 -33Q231 -79 207 -115T157 -177T102 -217T36 -231Q-6 -231 -26 -214T-47 -173Q-47 -159 -42 -145T-27 -120T-6 -102T19 -95Q31 -95 36 -97T54 -117Q65 -132 80 -143T107 -155Q119 -155 131 -144T151 -106Q156 -87 157 -59T156 -3Q153 46 147 96T134 191T120 275T108 342Q102 373 92 385T65 398H15L16 427L229 472ZM279 528L358 653Q378 685 392 698T425 710Q435 708 445 702T463 688T475 670T479 651Q477 633 463 619T425 588L303 501L279 528Z"  />
<glyph unicode="&#xFE;" horiz-adv-x="567" d="M103 669L327 696L331 691L225 293H229Q282 387 338 430T458 473Q509 473 535 440T561 346Q561 324 556 290T537 215T503 135T449 62T374 9T273 -12Q236 -12 211 -6T171 9L116 -220L-20 -231L160 582Q165 604 164 616T149 631L94 637L103 669ZM253 33Q279 33 300 52T340 100T371 166T394 237T407 301T411 346Q409 394 380 394Q354 394 320 359T255 266Q242 243 231 215T210 159T193 106T181 63Q194 50 212 42T253 33Z"  />
<glyph unicode="&#xFF;" horiz-adv-x="475" d="M229 472L232 468Q237 450 244 405T257 303T268 184T274 68H276Q318 142 339 207T370 321Q373 336 374 353T377 387T378 420T378 449Q408 462 435 467T479 473Q485 473 492 456T499 422Q499 407 491 384T469 331T437 269T398 202Q377 167 356 130T315 61T282 4T260 -33Q231 -79 207 -115T157 -177T102 -217T36 -231Q-6 -231 -26 -214T-47 -173Q-47 -159 -42 -145T-27 -120T-6 -102T19 -95Q31 -95 36 -97T54 -117Q65 -132 80 -143T107 -155Q119 -155 131 -144T151 -106Q156 -87 157 -59T156 -3Q153 46 147 96T134 191T120 275T108 342Q102 373 92 385T65 398H15L16 427L229 472ZM196 675Q225 675 247 659T269 609Q270 569 248 548T190 526Q157 526 136 544T115 593Q115 608 119 622T134 648T159 667T196 675ZM414 675Q443 675 465 659T487 609Q488 569 466 548T408 526Q375 526 354 544T332 593Q332 608 336 622T351 648T377 667T414 675Z"  />
<glyph unicode="&#x152;" horiz-adv-x="974" d="M502 664Q565 664 603 659T668 653H1010L973 476H934Q929 522 925 548T911 588T880 605T823 608H781Q755 608 746 603T732 576L684 366H764Q785 366 799 369T825 383T845 410T867 453H906L858 234H819Q821 278 809 299T753 320H674L624 97Q619 78 623 68T641 52T675 45T725 44Q762 44 785 48T828 69T869 116T922 200H961L900 0H544Q532 0 509 -1T462 -4T415 -7T384 -8Q300 -8 240 12T142 68T86 155T68 270Q68 299 72 339T90 423T133 510T209 587T328 643T502 664ZM572 566Q574 577 573 586T565 603T544 615T506 619Q430 619 379 581T296 484T252 360T238 237Q238 130 274 83T376 36Q400 36 416 39T441 50T456 69T465 94L572 566Z"  />
<glyph unicode="&#x153;" horiz-adv-x="768" d="M763 147Q738 100 709 70T648 21T583 -4T517 -12Q477 -12 444 3T394 59Q379 42 359 29T315 7T269 -7T226 -12Q176 -12 141 1T84 38T52 94T41 164Q41 231 62 287T121 385T211 449T327 473Q376 473 416 453T475 400Q510 433 554 453T645 473Q707 473 741 449T776 372Q776 324 747 292T674 239T584 208T499 192Q499 183 498 176T497 151Q497 133 501 115T514 83T537 61T573 52Q612 52 653 82T734 169L763 147ZM334 428Q309 428 288 409T249 361T220 294T199 221T186 154T181 104Q181 66 194 49T231 32Q255 32 276 51T314 100T345 167T367 239T380 305T385 354Q385 382 376 405T334 428ZM502 232Q547 241 578 255T627 289T654 333T662 383Q662 401 654 414T628 428Q608 428 588 413T551 371T520 308T502 232Z"  />
<glyph unicode="&#x160;" horiz-adv-x="522" d="M465 455Q461 539 428 581T343 624Q318 624 300 616T271 595T255 564T249 527Q249 482 277 453T359 390Q399 365 426 344T471 302T495 256T503 200Q503 155 488 116T441 47T363 2T252 -16Q224 -16 193 -12T133 1T77 26T31 64L52 236H90Q94 185 110 146T150 81T200 42T255 28Q305 28 331 56T357 133Q357 156 349 175T329 209T299 238T264 263Q225 288 196 311T147 357T118 408T108 468Q108 498 118 533T154 599T227 650T348 670Q369 670 394 667T443 656T491 637T535 610L504 455H465ZM250 884L361 807Q377 794 392 809L519 884L541 852L389 705H337L220 852L250 884Z"  />
<glyph unicode="&#x161;" horiz-adv-x="397" d="M268 473Q308 473 335 464T378 442T401 413T408 386Q408 373 402 363T387 344T366 332T344 327Q331 327 323 333T306 354Q285 393 270 410T234 428Q217 428 207 418T196 385Q196 367 215 344T279 284Q297 269 312 255T340 224T359 188T366 145Q366 113 353 85T315 35T253 1T169 -12Q124 -12 93 -3T44 20T17 52T8 85Q8 99 14 111T29 132T49 146T71 152Q88 152 97 146T112 129Q141 74 163 54T206 33Q226 33 236 45T247 77Q247 103 224 130T169 183Q155 195 140 208T113 238T92 274T84 318Q84 351 96 379T132 428T190 461T268 473ZM213 724L282 619Q293 608 306 620L407 724L436 701L297 507H254L178 700L213 724Z"  />
<glyph unicode="&#x178;" horiz-adv-x="607" d="M401 653L393 616L340 610Q326 608 324 602T325 583Q329 565 338 532T359 462T382 388T401 327H403Q412 339 424 358T451 401T481 449T510 497T536 542T556 578Q572 608 544 611L494 616L501 653H732L725 616Q703 614 690 613T668 607T649 594T626 568Q609 547 586 515T538 446T486 371T439 301Q425 281 420 264T411 227L382 95Q377 69 378 57T400 42L458 37L449 0H118L127 37L181 41Q202 42 210 55T223 95L253 232Q258 251 258 265T255 294Q244 333 232 373T207 451T183 520T164 574Q158 591 152 599T137 612T118 616T91 618L99 653H401ZM332 873Q371 873 389 849T404 792Q401 758 377 734T315 709Q276 709 258 733T242 792Q246 824 268 848T332 873ZM559 873Q598 873 617 849T632 792Q628 758 604 734T542 709Q503 709 485 733T469 792Q473 824 496 848T559 873Z"  />
<glyph unicode="&#x17D;" horiz-adv-x="625" d="M661 653L669 634Q645 603 609 556T530 454T441 340T353 225T274 122T213 44H386Q421 44 443 49T485 70T524 118T577 200H614L556 0H3L-4 20Q24 53 61 99T140 198T226 307T312 418T391 522T457 608H328Q284 608 257 604T211 586T176 544T137 467H100L145 653H661ZM291 871L402 794Q410 788 417 788T433 795L560 871L582 839L430 692H378L261 838L291 871Z"  />
<glyph unicode="&#x17E;" horiz-adv-x="454" d="M132 470Q141 467 153 466T178 463T200 462T215 461H372Q396 461 413 461T441 463T460 466T475 471L488 446Q443 408 396 366T304 283T219 202T149 131V125Q156 125 172 121T217 109Q240 104 265 101T308 97Q327 97 342 100T372 114T401 142T431 191L459 175Q447 138 431 104T396 42T353 -1T303 -17Q272 -17 242 -12T170 8Q138 19 116 26T77 34Q57 34 45 25T22 -1Q17 -9 11 -9Q6 -9 2 -3T-2 11Q-2 23 4 37T35 78Q107 156 179 225T324 360V362H181Q141 362 117 341T70 281L45 294Q51 319 62 346T86 397T111 441T132 470ZM229 724L298 619Q309 608 322 620L423 724L452 701L313 507H270L194 700L229 724Z"  />
<glyph unicode="&#x192;" horiz-adv-x="530" d="M362 324Q361 323 359 311T353 279T345 238T337 196T330 161T326 140Q317 95 300 48T254 -37T187 -100T94 -125Q62 -125 39 -119T2 -102T-19 -79T-26 -54Q-26 -31 -9 -12T37 8Q60 8 70 -18Q83 -47 92 -62T112 -78Q116 -78 119 -77T126 -69T132 -52T139 -23Q141 -16 146 8T157 64T171 135T185 209T197 275T206 324H112L122 368H215Q216 373 218 381T222 399T226 417T230 432Q240 475 259 517T308 591T378 644T469 664Q507 664 530 655T565 634T581 607T585 584Q585 573 579 563T564 546T544 534T521 529Q505 529 499 535T485 557Q477 575 473 587T464 606T455 617T442 620Q431 620 422 593T402 525Q395 493 386 449T370 368H486L477 324H362Z"  />
<glyph unicode="&#x2C6;" horiz-adv-x="376" d="M363 507L293 611Q281 623 270 611L167 507L139 529L278 724H321L396 530L363 507Z"  />
<glyph unicode="&#x2DC;" horiz-adv-x="376" d="M451 641Q446 626 437 608T413 572T380 544T337 532Q323 532 306 538T269 552Q251 559 235 565T200 571Q184 571 167 561T137 523L104 541Q109 556 119 574T143 610T176 638T217 650Q234 650 251 644T288 631Q308 623 325 617T359 611Q379 611 393 623T419 658L451 641Z"  />
<glyph unicode="&#x2013;" horiz-adv-x="470" d="M453 276L435 195H39L56 276H453Z"  />
<glyph unicode="&#x2014;" horiz-adv-x="940" d="M924 276L906 195H38L56 276H924Z"  />
<glyph unicode="&#x2018;" horiz-adv-x="264" d="M345 703Q324 679 306 656T274 610T253 561T245 506Q245 492 247 476T254 442Q247 436 231 430T196 417T159 408T130 406Q122 416 117 437T112 475Q112 529 164 595T321 730L345 703H345Z"  />
<glyph unicode="&#x2019;" horiz-adv-x="264" d="M73 428Q94 452 112 475T145 521T167 570T175 625Q175 639 173 656T165 688Q171 694 187 701T222 715T259 724T288 726Q296 716 301 695T306 656Q306 603 254 537T98 402L73 428H73Z"  />
<glyph unicode="&#x201A;" horiz-adv-x="265" d="M-34 -115Q-19 -97 -2 -71T30 -17T54 41T64 94Q64 111 61 129T53 160Q59 166 76 173T112 188T151 199T181 202Q189 192 194 177T200 145Q200 106 177 64T122 -18T55 -90T-6 -142L-34 -115H-34Z"  />
<glyph unicode="&#x201C;" horiz-adv-x="453" d="M342 703Q321 679 303 656T270 610T247 561T239 506Q239 492 241 476T249 442Q242 436 227 429T194 416T159 407T132 406Q124 416 119 437T114 475Q114 528 164 595T318 730L342 703ZM536 703Q515 679 496 656T463 610T440 561T432 506Q432 492 434 476T442 442Q435 436 420 429T387 416T352 407T325 406Q317 416 312 437T307 475Q307 528 357 594T511 730L536 703Z"  />
<glyph unicode="&#x201D;" horiz-adv-x="453" d="M272 428Q293 452 312 475T345 521T367 570T376 625Q376 639 374 656T366 689Q373 695 388 702T421 715T456 724T483 726Q491 716 496 695T501 656Q501 603 451 537T297 402L272 428ZM78 428Q99 452 118 475T152 521T174 570T183 625Q183 639 181 656T173 689Q180 695 195 702T227 715T262 724T289 726Q297 716 302 695T308 656Q308 603 258 537T104 402L78 428Z"  />
<glyph unicode="&#x201E;" horiz-adv-x="464" d="M-34 -115Q-19 -97 -2 -71T30 -17T54 41T64 94Q64 111 61 129T53 160Q59 166 75 173T109 188T146 199T175 202Q183 192 188 177T194 145Q194 106 172 64T119 -18T54 -90T-6 -142L-34 -115ZM169 -115Q184 -97 201 -71T233 -17T257 41T267 94Q267 111 264 129T256 160Q262 166 278 173T313 188T349 199T378 202Q386 192 392 177T398 145Q398 106 376 64T323 -18T257 -90T197 -142L169 -115Z"  />
<glyph unicode="&#x2020;" horiz-adv-x="492" d="M221 264Q222 267 226 276T236 297T249 320T262 342Q235 337 207 333T154 325T111 318T87 314Q81 313 82 329T86 364T96 400T107 415Q113 415 130 412T172 404T222 394T272 385Q273 407 274 440T276 505T277 563T278 595Q278 601 297 604T338 607T379 604T394 593Q391 584 382 559T362 504T338 441T317 385Q344 389 372 394T424 403T467 410T491 414Q497 415 497 399T493 364T483 328T472 312Q466 313 449 316T407 323T357 333T307 342Q308 331 310 319T313 296T316 277T317 266Q316 260 307 227T285 145T257 42T229 -61T206 -143T196 -183H152Q154 -174 159 -139T172 -55T188 46T203 147T215 226T221 264Z"  />
<glyph unicode="&#x2021;" horiz-adv-x="497" d="M326 289Q324 284 318 274T304 252T290 233T282 224Q309 228 337 233T389 241T431 248T455 252Q461 253 461 237T456 202T446 166T435 151Q429 151 412 154T372 162T322 171T272 180Q275 163 277 144T278 113Q277 110 271 88T257 34T238 -34T219 -103T204 -157T198 -183H151Q152 -178 155 -155T163 -99T173 -31T183 37T191 89T195 114Q195 119 204 139T227 180Q201 175 173 171T119 163T76 156T51 152Q45 151 45 167T50 202T60 238T71 254Q77 253 95 250T137 242T187 233T237 224Q235 252 229 266T224 290Q226 298 240 317T266 360Q240 355 212 351T160 342T117 334T93 329Q87 328 88 344T92 379T101 415T112 431Q118 431 136 428T177 420T227 410T278 400Q279 422 279 451T279 509T279 559T279 587Q279 593 298 597T339 601T379 599T394 587Q391 578 383 557T364 509T342 453T321 400Q347 405 375 410T429 419T472 426T496 430Q502 431 502 415T498 379T489 343T478 328Q472 328 454 332T413 341T363 351T313 360Q315 337 321 319T326 289Z"  />
<glyph unicode="&#x2022;" horiz-adv-x="448" d="M238 422Q276 422 309 408T366 368T404 308T418 232Q418 189 405 154T367 94T309 56T237 42Q198 42 165 56T107 95T68 155T54 232Q54 273 68 307T107 367T165 407T238 422Z"  />
<glyph unicode="&#x2026;" horiz-adv-x="876" d="M110 -11Q78 -11 59 8T40 58Q40 101 65 131T135 161Q171 161 189 139T208 88Q208 45 183 17T110 -11ZM401 -11Q370 -11 351 8T331 58Q331 101 356 131T427 161Q463 161 481 139T500 88Q500 45 475 17T401 -11ZM698 -11Q666 -11 647 8T628 58Q628 101 653 131T723 161Q760 161 778 139T796 88Q796 45 771 17T698 -11Z"  />
<glyph unicode="&#x2030;" horiz-adv-x="1157" d="M717 635L193 -28L159 1L598 554H436Q436 548 437 536T438 515Q438 470 425 430T387 358T323 308T234 289Q165 289 136 321T106 412Q106 457 118 498T156 570T220 620T309 639Q343 639 367 630T410 605Q418 599 426 597T449 595H568Q589 595 602 596T624 602T641 613T656 631L684 665L717 635ZM300 601Q276 601 259 576T231 516T214 445T208 388Q208 355 216 341T242 327Q266 327 284 353T313 416T329 489T335 547Q335 575 326 588T300 601ZM635 339Q763 339 763 221Q763 177 751 136T713 62T651 9T562 -11Q433 -11 432 104Q432 150 444 192T482 267T546 319T635 339ZM627 301Q603 301 586 276T557 215T541 144T535 85Q534 54 543 41T570 27Q594 27 611 54T640 118T657 193T663 252Q662 280 652 290T627 301ZM990 339Q1052 339 1085 309T1118 221Q1118 177 1106 136T1068 62T1005 9T916 -11Q787 -11 787 104Q787 150 799 192T837 267T900 319T990 339ZM982 301Q958 301 940 276T911 215T895 144T889 85Q889 54 897 41T924 27Q948 27 965 54T994 118T1010 193T1016 252Q1016 280 1007 290T982 301Z"  />
<glyph unicode="&#x2039;" horiz-adv-x="344" d="M326 420L203 254Q191 237 196 219L248 55L216 35L80 218Q66 237 88 256L302 440L326 420Z"  />
<glyph unicode="&#x203A;" horiz-adv-x="344" d="M35 54L158 221Q170 236 166 255L113 420L145 440L281 256Q296 238 273 218L59 35L35 54Z"  />
<glyph unicode="&#x20AC;" horiz-adv-x="530" d="M495 388L480 344H269Q266 330 264 313T260 279H446L431 235H256Q254 203 256 171T267 111T295 67T349 50Q391 50 424 73T493 158L527 134Q515 110 501 85T461 38T395 3T292 -11Q227 -11 189 11T130 69T103 149T99 235H35L48 279H104Q106 298 108 316T113 344H72L88 388H121Q143 455 173 503T242 581T329 625T437 639Q467 639 494 632T542 612T575 578T588 533Q588 504 570 489T532 473Q512 473 506 480T497 504Q488 552 468 573T422 595Q402 595 382 586T343 553T308 490T278 388H495Z"  />
<glyph unicode="&#x2122;" horiz-adv-x="495" d="M171 628H162Q149 628 147 622T140 596H121V650H289V596H270Q266 615 264 621T248 628H239V527Q239 516 246 515L265 512V492H147V512L162 515Q171 516 171 527V628ZM533 526Q533 520 534 517T542 514L558 512V492H451V512L462 514Q467 515 468 517T469 526V623H467L423 496H391L351 623H348V552Q348 529 349 522T358 514L373 512V492H301V512L315 514Q322 515 323 522T325 552V616Q325 625 314 629L301 630V650H403L428 580H430Q429 580 432 590T441 615Q446 630 454 650H558V630L543 627Q533 625 533 616V526Z"  />


</font>
</defs>
<text x="40" y="40" font-family="Utopia W01 Bd It" font-size="30" fill="#933" >ABCDEFGHIJKLMNOPQRSTUVWXYZ abcdefghijklmnopqrstuvwxyz AÁÀÂÄÅÃÆ CÇ DÐ EÉÈÊË I Í Ì Î Ï NÑ</text>
<text x="40" y="80" font-family="Utopia W01 Bd It" font-size="30" fill="#933" >OÓÒÔÖÕØŒ SŠ UÚÙÛÜ YÝŸ ZŽ Þ aáàâäåãæ cç dð eéèêë i ı í ì î ï nñ oóòôöõøœ sšß uúùûü yýÿ zž</text>
<text x="40" y="120" font-family="Utopia W01 Bd It" font-size="30" fill="#933" >þ 1234567890 ½ ¼ ¾ % ‰ $¢£¥ƒ€¤ † ‡ § ¶ # ^~µ +×± &lt; = &gt; ÷¬ !¡?¿ &quot; &amp; &apos; * ° . , : ; () [ \ ] {} / |</text>
<text x="40" y="160" font-family="Utopia W01 Bd It" font-size="30" fill="#933" >¦ _ ‚ „ … ‹› «» ‘ ’ “ ” • ­ - – — @ © ® ™ ªº ¹²³ ´ ` ˆ ˜ ¨ ¯ · ¸</text>
</svg>
