<?xml  version="1.0" encoding="UTF-8"?>
<!DOCTYPE svg PUBLIC "-//W3C//DTD SVG 1.0//EN" "http://www.w3.org/TR/2001/REC-SVG-20010904/DTD/svg10.dtd" >
<svg xmlns="http://www.w3.org/2000/svg" >
<metadata>
<version>1.0</version>
<id><![CDATA[Canaro W00 Medium]]></id>
<vendor>Monotype Imaging Inc.</vendor>
<credits>
<name>Fonts.com WebFonts</name>
<URL>http://webfonts.fonts.com</URL>
<role>Home of the Web fonts</role>
</credits>
<license>
<URL>http://webfonts.fonts.com/Legal</URL>
</license>
<copyright><![CDATA[Copyright © 2013 by Ren Bieder. All rights reserved.]]></copyright>
<trademark></trademark>
<licensee>
<name></name>
</licensee>
</metadata>
<defs >
<font horiz-adv-x="611" id="d8a657db-9136-4dc5-8a7b-d137e5cf9f32">
<font-face font-family="Canaro W00 Medium" panose-1="1 0 0 0 0 0 0 0 0 0" ascent="940" descent="-272" units-per-em="1000" alphabetic="0">
</font-face>
<missing-glyph horiz-adv-x="870" d="M770 0H100V680H770V0ZM219 610L700 129V610H219ZM647 70L170 547V70H647Z"  />

<glyph unicode="&#xA;" />
<glyph unicode="&#xD;" />
<glyph unicode=" " horiz-adv-x="237" />
<glyph unicode="!" horiz-adv-x="250" d="M181 193H67L60 680H188L181 193ZM126 -17Q94 -17 72 4T49 58Q49 90 71 111T126 132Q158 132 181 111T204 58Q204 26 181 5T126 -17Z"  />
<glyph unicode="&quot;" horiz-adv-x="399" d="M169 517H64V767H191L169 517ZM332 517H227L228 767H355L332 517Z"  />
<glyph unicode="#" horiz-adv-x="761" d="M674 276V172H526L472 0H353L407 172H251L197 0H78L132 172H33V276H164L199 388H88V492H232L291 681H410L351 492H507L566 681H685L626 492H729V388H594L559 276H674ZM284 276H439L474 388H319L284 276Z"  />
<glyph unicode="$" horiz-adv-x="679" d="M615 197Q615 150 599 114T555 51T486 9T397 -12V-120H293V-13Q239 -9 179 4T59 42L88 154Q163 124 230 111T349 98Q415 98 454 118T494 185Q494 215 477 233T432 262T367 281T294 296Q238 308 197 323T130 361T92 414T79 487Q79 572 137 624T293 688V803H397V687Q455 682 508 670T596 644L565 538Q503 558 441 569T333 581Q274 581 240 559T206 492Q206 470 217 455T250 430T304 411T377 395Q433 384 477 369T552 332T599 277T615 197Z"  />
<glyph unicode="%" horiz-adv-x="1085" d="M278 695Q319 695 354 681T416 642T457 581T472 502Q472 458 457 422T416 360T355 320T278 306Q236 306 201 320T139 359T98 421T83 502Q83 545 98 581T139 642T200 681T278 695ZM273 0L735 680H799L337 0H273ZM278 389Q300 389 319 397T353 420T376 455T385 502Q385 552 354 582T278 612Q232 612 201 582T170 502Q170 451 201 420T278 389ZM807 374Q849 374 884 360T946 321T987 259T1002 180Q1002 136 987 100T946 39T885 -1T807 -15Q766 -15 731 -1T669 38T628 100T613 180Q613 223 628 259T669 320T730 360T807 374ZM807 68Q852 68 883 98T915 180Q915 205 907 225T884 260T849 283T807 291Q762 291 731 261T700 180Q700 129 731 99T807 68Z"  />
<glyph unicode="&amp;" horiz-adv-x="646" d="M551 205Q551 155 533 115T481 46T399 1T292 -15Q233 -15 186 0T105 43T53 109T34 196Q34 252 63 292T150 353Q70 393 70 493Q70 538 87 575T137 638T214 678T314 693Q348 693 383 689T453 673L431 574Q363 591 310 591Q252 591 217 566T182 498Q182 475 187 457T204 427T238 408T292 401H623V302H551V205ZM292 302Q217 302 182 274T146 200Q146 149 185 118T292 87Q360 87 399 119T439 205V302H292Z"  />
<glyph unicode="&apos;" horiz-adv-x="236" d="M169 517H64L65 767H192L169 517Z"  />
<glyph unicode="(" horiz-adv-x="351" d="M317 719Q285 671 256 622T204 519T169 401T156 262Q156 186 169 123T204 5T255 -98T317 -195L233 -249Q144 -140 95 -10T46 262Q46 404 95 534T233 772L317 719Z"  />
<glyph unicode=")" horiz-adv-x="348" d="M115 772Q204 665 253 535T302 262Q302 120 253 -10T115 -249L31 -195Q63 -147 92 -99T144 5T179 123T192 262Q192 338 179 401T144 518T93 622T31 719L115 772Z"  />
<glyph unicode="*" horiz-adv-x="392" d="M325 410L229 468V367H163V468L68 410L35 467L133 526L35 585L68 643L163 585V685H229V585L325 643L357 585L259 526L357 467L325 410Z"  />
<glyph unicode="+" horiz-adv-x="685" d="M398 92H288V277H104V383H288V569H398V383H581V277H398V92Z"  />
<glyph unicode="&#x2c;" horiz-adv-x="303" d="M118 -4Q92 7 80 25T67 66Q67 100 91 123T151 147Q187 147 212 124T237 66Q237 53 235 43T223 13T195 -41T145 -133H61L118 -4Z"  />
<glyph unicode="-" horiz-adv-x="523" d="M418 205H104V320H418V205Z"  />
<glyph unicode="." horiz-adv-x="302" d="M150 -17Q115 -17 91 6T66 65Q66 100 90 123T150 147Q186 147 211 124T236 65Q236 30 211 7T150 -17Z"  />
<glyph unicode="/" horiz-adv-x="507" d="M4 -272L389 768H491L107 -272H4Z"  />
<glyph unicode="0" horiz-adv-x="750" d="M375 695Q447 695 506 670T606 598T671 486T694 340Q694 260 671 195T607 83T506 11T375 -15Q303 -15 245 10T144 82T79 194T56 340Q56 420 79 485T144 597T244 669T375 695ZM375 98Q419 98 455 115T516 164T556 241T570 340Q570 394 556 439T517 515T455 564T375 582Q331 582 295 565T234 516T194 439T180 340Q180 286 194 241T233 165T295 116T375 98Z"  />
<glyph unicode="1" horiz-adv-x="426" d="M210 0V546L39 501L12 597L295 680H329V0H210Z"  />
<glyph unicode="2" horiz-adv-x="584" d="M60 0V79L298 310Q318 329 337 347T370 385T393 424T402 468Q402 527 363 555T262 584Q231 584 187 576T84 544L57 647Q104 667 164 681T283 695Q344 695 390 678T466 631T511 564T526 484Q526 446 513 412T476 344T421 279T355 214L231 108H536V0H60Z"  />
<glyph unicode="3" horiz-adv-x="595" d="M332 390H340Q437 382 492 332T548 204Q548 105 481 45T281 -15Q222 -15 161 -2T42 41L84 135Q134 112 185 100T285 87Q348 87 387 118T427 200Q427 243 390 267T286 292H165V348L358 572H68V680H521V607L332 390Z"  />
<glyph unicode="4" horiz-adv-x="667" d="M633 220V118H552V0H434V118H41V200L434 680H552V220H633ZM434 220V524L194 220H434Z"  />
<glyph unicode="5" horiz-adv-x="614" d="M311 419Q367 416 413 401T491 360T541 296T559 212Q559 162 541 121T489 49T408 2T304 -15Q229 -15 170 -2T52 42L91 145Q142 122 192 108T299 94Q360 94 398 125T437 208Q437 253 399 281T294 312L99 321L129 680H534V568H232L219 424L311 419Z"  />
<glyph unicode="6" horiz-adv-x="631" d="M315 480Q375 480 425 463T511 415T567 339T587 238Q587 181 567 135T511 55T425 4T315 -15Q255 -15 205 3T120 55T64 134T44 238Q44 282 61 320T107 400L309 680H451L306 480H315ZM315 86Q349 86 378 97T428 127T460 175T472 238Q472 271 461 298T428 345T378 375T315 386Q243 386 201 345T158 238Q158 203 169 175T202 128T252 97T315 86Z"  />
<glyph unicode="7" horiz-adv-x="561" d="M262 0H132L391 568H39V680H531V608L262 0Z"  />
<glyph unicode="8" horiz-adv-x="629" d="M459 353Q524 328 555 286T587 187Q587 143 568 106T512 42T426 0T315 -15Q254 -15 204 0T119 42T64 106T44 187Q44 244 75 286T171 353Q120 376 96 414T72 506Q72 549 90 583T140 643T216 681T315 695Q369 695 413 682T490 643T539 584T557 506Q557 452 534 414T459 353ZM195 500Q195 454 228 426T315 398Q369 398 402 426T435 500Q435 543 402 570T315 598Q261 598 228 571T195 500ZM315 86Q348 86 374 94T420 118T449 152T460 193Q460 241 421 270T315 300Q249 300 209 271T169 193Q169 172 179 153T209 118T255 95T315 86Z"  />
<glyph unicode="9" horiz-adv-x="635" d="M313 695Q373 695 423 677T509 625T565 546T585 442Q585 398 570 362T533 294L328 0H191L331 200H313Q253 200 203 217T117 265T61 341T41 442Q41 499 61 545T117 625T203 676T313 695ZM157 442Q157 409 168 382T201 335T250 305T313 294Q385 294 427 335T470 442Q470 476 459 504T426 552T376 583T313 594Q279 594 251 583T201 553T169 505T157 442Z"  />
<glyph unicode=":" horiz-adv-x="302" d="M150 324Q115 324 91 347T66 406Q66 441 90 464T150 488Q186 488 211 465T236 406Q236 371 211 348T150 324ZM151 -17Q116 -17 91 6T66 65Q66 82 72 97T90 123T117 140T151 147Q169 147 184 141T211 123T229 97T236 65Q236 30 211 7T151 -17Z"  />
<glyph unicode=";" horiz-adv-x="310" d="M159 324Q124 324 99 347T74 406Q74 424 81 439T99 465T126 482T159 488Q194 488 219 465T245 406Q245 389 238 374T220 348T193 331T159 324ZM118 -4Q66 17 66 66Q66 100 91 123T151 147Q169 147 184 141T211 123T230 98T237 66Q237 53 235 43T223 13T195 -41T145 -133H61L118 -4Z"  />
<glyph unicode="&lt;" horiz-adv-x="545" d="M473 440L179 305L473 170V54L51 247V362L473 555V440Z"  />
<glyph unicode="=" horiz-adv-x="691" d="M104 369V476H586V369H104ZM104 171V277H586V171H104Z"  />
<glyph unicode="&gt;" horiz-adv-x="545" d="M71 54V170L365 305L71 440V555L493 362V247L71 54Z"  />
<glyph unicode="?" horiz-adv-x="501" d="M235 695Q289 695 333 680T408 637T457 571T475 484Q475 438 459 399T414 332T346 287T258 271H245L248 193H141L123 367H234Q293 367 328 400T363 488Q363 536 329 564T239 593Q196 593 154 589T65 576L48 672Q94 683 139 689T235 695ZM196 132Q228 132 251 111T274 58Q274 26 251 5T196 -17Q164 -17 142 4T119 58Q119 90 141 111T196 132Z"  />
<glyph unicode="@" horiz-adv-x="1024" d="M512 690Q615 690 699 658T843 568T936 428T969 246Q969 182 953 136T907 59T839 15T755 0Q707 0 676 14T629 62Q593 33 554 16T465 -1Q415 -1 375 16T305 66T260 144T244 244Q245 296 260 339T304 414T375 463T472 480Q524 480 562 478T630 472T681 464T721 458V159Q721 116 731 97T773 77Q798 77 822 84T866 110T897 162T909 246Q909 333 881 404T800 526T674 604T512 632Q428 632 355 603T229 522T146 399T115 246Q115 163 142 93T219 -30T338 -111T492 -142Q557 -142 619 -132T757 -105L768 -159Q695 -178 630 -189T492 -200Q394 -200 314 -166T176 -73T87 68T55 246Q55 341 89 422T185 563T330 656T512 690ZM489 387Q452 387 426 376T384 345T360 298T352 240Q352 208 361 181T386 134T426 103T479 92Q512 92 545 103T613 142Q612 151 612 160T611 179V379Q583 384 554 385T489 387Z"  />
<glyph unicode="A" horiz-adv-x="780" d="M160 0H24L334 684H446L755 0H621L559 139H220L160 0ZM267 247H513L390 528L267 247Z"  />
<glyph unicode="B" horiz-adv-x="680" d="M473 347Q547 333 589 290T632 187Q632 91 564 41T374 -9Q342 -9 303 -8T223 -6T147 -4T85 0V680Q109 681 142 681T213 683T288 684T361 685Q476 685 537 639T599 506Q599 447 566 405T473 347ZM347 580Q313 580 277 579T205 578V390H360Q418 390 452 416T486 488Q486 537 452 558T347 580ZM360 97Q434 97 474 121T514 197Q514 242 478 265T381 288H205V101Q247 99 287 98T360 97Z"  />
<glyph unicode="C" horiz-adv-x="729" d="M647 551Q587 565 539 572T449 579Q384 579 334 561T251 512T200 437T183 342Q183 287 201 242T252 165T333 116T437 98Q477 98 532 106T650 128L672 23Q613 6 551 -4T431 -15Q347 -15 278 10T159 82T83 195T56 341Q56 420 83 485T159 597T278 669T433 695Q495 695 553 687T669 664L647 551Z"  />
<glyph unicode="D" horiz-adv-x="741" d="M324 689Q403 689 469 665T584 595T658 485T685 343Q685 263 659 199T586 88T478 17T342 -8Q307 -8 270 -8T198 -6T134 -3T85 0V680Q104 681 131 682T191 685T258 688T324 689ZM342 102Q387 102 426 119T495 167T542 243T559 343Q559 397 542 440T493 514T419 561T324 578Q296 578 266 577T205 574V106Q239 104 274 103T342 102Z"  />
<glyph unicode="E" horiz-adv-x="634" d="M536 395V285H205V111H578V0H85V680H578V569H205V395H536Z"  />
<glyph unicode="F" horiz-adv-x="598" d="M522 368V257H205V0H85V680H565V569H205V368H522Z"  />
<glyph unicode="G" horiz-adv-x="800" d="M733 59Q651 24 573 5T419 -15Q337 -15 270 10T156 83T82 196T56 343Q56 422 83 487T160 598T280 669T436 695Q486 695 546 688T670 665L646 553Q504 579 445 579Q386 579 338 562T255 514T201 440T182 343Q182 289 199 245T247 169T322 120T419 102Q464 102 517 110T619 132V280H374V391H733V59Z"  />
<glyph unicode="H" horiz-adv-x="759" d="M555 0V278H205V0H85V680H205V389H555V680H674V0H555Z"  />
<glyph unicode="I" horiz-adv-x="290" d="M205 0H85V680H205V0Z"  />
<glyph unicode="J" horiz-adv-x="564" d="M489 262Q489 197 472 146T422 59T346 4T246 -15Q215 -15 189 -13T135 -6T79 6T15 25L37 132Q73 123 101 117T153 108T200 103T246 101Q299 101 333 142T368 261V680H489V262Z"  />
<glyph unicode="K" horiz-adv-x="703" d="M205 0H85V680H205V370H259L519 680H668L398 359L681 0H533L327 253H205V0Z"  />
<glyph unicode="L" horiz-adv-x="596" d="M85 0V680H205V108H563V0H85Z"  />
<glyph unicode="M" horiz-adv-x="934" d="M520 0H414L219 412L192 0H75L114 680H227L467 144L706 680H820L859 0H742L715 412L520 0Z"  />
<glyph unicode="N" horiz-adv-x="779" d="M694 0H580L205 476V0H85V680H196L575 199V680H694V0Z"  />
<glyph unicode="O" horiz-adv-x="837" d="M419 695Q498 695 564 670T679 598T754 486T781 340Q781 260 754 195T679 83T565 11T419 -15Q339 -15 273 10T158 82T83 194T56 340Q56 420 83 485T158 597T272 669T419 695ZM419 98Q470 98 513 115T588 164T637 241T655 340Q655 394 638 439T589 515T514 564T419 582Q367 582 324 565T249 516T200 439T182 340Q182 286 199 241T248 165T323 116T419 98Z"  />
<glyph unicode="P" horiz-adv-x="644" d="M328 689Q390 689 441 673T530 626T587 551T608 452Q608 398 588 354T530 279T442 230T328 212H205V0H85V680Q134 683 197 686T328 689ZM341 321Q373 321 400 330T448 356T479 397T491 451Q491 482 480 505T448 545T401 569T341 578Q306 578 273 577T205 574V321H341Z"  />
<glyph unicode="Q" horiz-adv-x="837" d="M781 340Q781 226 729 143T585 19L745 -165H594L460 -13Q449 -14 439 -14T418 -15Q338 -15 272 10T157 82T83 194T56 340Q56 420 82 485T157 597T271 669T418 695Q497 695 564 670T679 598T754 486T781 340ZM182 340Q182 286 199 241T248 165T323 116T419 98Q470 98 513 115T588 164T637 241T655 340Q655 394 638 439T589 515T514 564T419 582Q367 582 324 565T249 516T200 439T182 340Z"  />
<glyph unicode="R" horiz-adv-x="671" d="M350 221Q338 220 326 220T301 220H205V0H85V680Q105 681 134 682T197 684T266 685T334 686Q395 686 445 671T532 627T587 555T607 456Q607 385 570 332T469 250L650 0H504L350 221ZM347 327Q378 327 404 336T449 363T479 403T490 456Q490 519 449 548T339 578Q307 578 274 578T205 576V327H347Z"  />
<glyph unicode="S" horiz-adv-x="679" d="M564 538Q502 558 440 569T332 581Q274 581 240 559T205 492Q205 470 216 455T250 430T304 411T377 395Q433 384 477 369T552 332T599 277T615 197Q615 143 595 104T539 38T453 -2T344 -15Q284 -15 209 -2T59 42L87 154Q162 124 229 111T349 98Q414 98 454 118T494 185Q494 215 477 233T432 262T367 281T293 296Q237 308 197 323T130 361T92 414T79 487Q79 533 97 571T149 635T230 675T336 690Q372 690 408 686T479 676T542 661T595 644L564 538Z"  />
<glyph unicode="T" horiz-adv-x="676" d="M398 0H278V569H30V680H646V569H398V0Z"  />
<glyph unicode="U" horiz-adv-x="760" d="M685 290Q685 219 663 163T601 67T505 6T380 -15Q311 -15 255 6T159 67T97 163T75 290V680H195V290Q195 199 245 148T380 97Q422 97 456 110T514 148T551 209T565 290V680H685V290Z"  />
<glyph unicode="V" horiz-adv-x="761" d="M324 0L29 680H167L380 162L596 680H732L438 0H324Z"  />
<glyph unicode="W" horiz-adv-x="1060" d="M696 0L530 476L364 0H250L24 680H151L310 185L479 680H581L750 185L909 680H1036L810 0H696Z"  />
<glyph unicode="X" horiz-adv-x="739" d="M715 0H573L370 245L167 0H24L286 336L31 680H179L370 434L559 680H708L452 336L715 0Z"  />
<glyph unicode="Y" horiz-adv-x="728" d="M21 680H157L363 355L571 680H706L425 229V0H304V229L21 680Z"  />
<glyph unicode="Z" horiz-adv-x="670" d="M230 111H614V0H54V74L441 569H69V680H609V606L230 111Z"  />
<glyph unicode="[" horiz-adv-x="353" d="M318 -125V-236H58V757H318V646H174V-125H318Z"  />
<glyph unicode="\" horiz-adv-x="507" d="M485 -272H366L41 768H161L485 -272Z"  />
<glyph unicode="]" horiz-adv-x="353" d="M34 757H294V-236H34V-125H179V646H34V757Z"  />
<glyph unicode="^" horiz-adv-x="429" d="M131 454H17L166 680H262L412 454H298L214 578L131 454Z"  />
<glyph unicode="_" horiz-adv-x="634" d="M601 -100V-201H33V-100H601Z"  />
<glyph unicode="`" horiz-adv-x="600" d="M287 563L170 714H324L400 563H287Z"  />
<glyph unicode="a" horiz-adv-x="614" d="M281 488Q319 488 350 487T410 482T471 475T541 465V0H426V36Q392 12 355 -1T273 -15Q222 -15 180 3T107 54T61 135T44 239Q44 295 60 341T106 419T180 470T281 488ZM298 391Q260 391 233 380T189 347T165 298T157 236Q157 167 192 125T289 82Q323 82 356 93T426 133V383Q397 387 366 389T298 391Z"  />
<glyph unicode="b" horiz-adv-x="617" d="M192 475Q221 481 258 484T327 488Q389 488 435 470T512 420T558 342T573 241Q573 180 556 133T509 54T436 5T345 -12Q318 -12 293 -12T238 -10T169 -4T77 7V710H192V475ZM312 391Q287 391 255 388T192 378V92Q241 86 271 84T319 82Q391 82 426 125T461 241Q461 273 453 300T428 348T382 379T312 391Z"  />
<glyph unicode="c" horiz-adv-x="520" d="M462 375Q420 384 386 389T325 395Q247 395 203 352T158 239Q158 168 202 127T316 86Q342 86 382 91T464 108L480 15Q440 1 395 -7T309 -15Q251 -15 203 3T119 54T64 135T44 240Q44 298 63 344T118 424T204 474T314 492Q349 492 394 486T478 467L462 375Z"  />
<glyph unicode="d" horiz-adv-x="617" d="M540 7Q487 0 449 -4T380 -9T324 -11T272 -12Q222 -12 181 4T109 53T61 133T44 241Q44 296 59 342T105 420T182 470T290 488Q322 488 359 485T425 475V710H540V7ZM305 391Q264 391 236 380T190 348T164 301T156 241Q156 169 191 126T298 82Q315 82 345 84T425 92V378Q395 385 363 388T305 391Z"  />
<glyph unicode="e" horiz-adv-x="568" d="M293 489Q343 489 385 474T457 432T505 366T524 280Q524 265 524 255T523 235T521 216T517 193H167Q180 145 218 117T317 88Q349 88 389 94T487 114L503 20Q447 3 402 -6T314 -15Q247 -15 197 4T112 58T61 138T44 237Q44 295 63 341T115 421T194 471T293 489ZM295 398Q241 398 206 367T163 281H420Q418 335 384 366T295 398Z"  />
<glyph unicode="f" horiz-adv-x="414" d="M239 370V0H124V370H9V473H124V550Q124 598 138 635T177 698T238 737T317 751Q357 751 395 740L378 643Q364 645 351 646T322 647Q285 647 262 622T239 546V473H408V370H239Z"  />
<glyph unicode="g" horiz-adv-x="609" d="M281 488Q335 488 375 485T445 479T499 471T541 465V10Q541 -47 524 -95T473 -179T389 -233T271 -253Q230 -253 185 -244T101 -223L120 -128Q161 -136 198 -143T267 -150Q341 -150 382 -110T426 3Q402 0 382 -1T344 -4T309 -5T273 -5Q222 -5 180 13T107 63T61 140T44 239Q44 295 60 341T106 419T180 470T281 488ZM298 391Q260 391 233 380T189 347T165 298T157 236Q157 206 166 180T192 134T234 103T289 92Q317 92 347 93T426 102V383Q397 387 366 389T298 391Z"  />
<glyph unicode="h" horiz-adv-x="618" d="M350 488Q395 488 431 475T494 438T535 380T549 304V0H434V271Q434 322 404 352T325 383Q263 383 194 368V0H79V710H194V473Q234 481 274 484T350 488Z"  />
<glyph unicode="i" horiz-adv-x="262" d="M131 554Q99 554 77 575T54 629Q54 663 76 684T131 706Q163 706 185 685T208 629Q208 597 186 576T131 554ZM189 0H74V473H189V0Z"  />
<glyph unicode="j" horiz-adv-x="255" d="M118 706Q150 706 173 685T196 629Q196 597 173 576T118 554Q86 554 63 575T40 629Q40 663 63 684T118 706ZM176 -14Q176 -70 167 -112T135 -184T70 -230T-38 -247L-48 -146Q-14 -147 7 -140T40 -119T56 -81T61 -28V473H176V-14Z"  />
<glyph unicode="k" horiz-adv-x="580" d="M232 294L400 473H541L353 272L557 0H422L277 186H192V0H77V710H192V294H232Z"  />
<glyph unicode="l" horiz-adv-x="275" d="M195 0H80V710H195V0Z"  />
<glyph unicode="m" horiz-adv-x="926" d="M657 488Q702 488 739 478T802 446T842 388T857 304V0H742V271Q742 383 632 383Q603 383 575 380T517 368Q525 339 525 305V0H409V273Q409 331 382 357T299 383Q273 383 247 382T192 376V0H77V463Q91 466 118 470T180 479T251 485T324 488Q364 488 397 481T456 457Q474 464 498 469T549 479T603 485T657 488Z"  />
<glyph unicode="n" horiz-adv-x="617" d="M349 488Q440 488 493 439T547 304V0H432V271Q432 322 403 352T324 383Q292 383 260 381T192 375V0H77V465Q96 469 128 473T197 480T274 486T349 488Z"  />
<glyph unicode="o" horiz-adv-x="616" d="M309 494Q368 494 416 476T500 424T554 344T573 240Q573 182 554 135T500 53T417 1T309 -18Q250 -18 201 0T117 53T63 134T44 240Q44 297 63 344T117 424T201 475T309 494ZM309 87Q375 87 415 129T456 240Q456 308 416 348T309 389Q242 389 201 349T160 240Q160 171 201 129T309 87Z"  />
<glyph unicode="p" horiz-adv-x="623" d="M336 488Q393 488 437 470T511 420T557 341T574 239Q574 185 558 141T511 64T439 13T345 -5Q326 -5 309 -5T274 -4T236 -2T192 3V-231H77V465Q99 469 128 473T191 480T261 486T336 488ZM329 92Q359 92 383 103T425 133T451 179T461 236Q461 269 454 297T429 347T385 379T320 391Q283 391 252 389T192 383V102Q216 98 235 96T271 93T301 92T329 92Z"  />
<glyph unicode="q" horiz-adv-x="623" d="M287 488Q324 488 361 486T432 481T495 473T546 465V-231H431V3Q383 -3 349 -4T278 -5Q227 -5 185 13T112 63T66 140T49 239Q50 295 66 341T112 419T186 470T287 488ZM294 92Q308 92 322 92T352 93T387 96T431 102V383Q402 387 371 389T303 391Q265 391 238 380T194 347T170 298T162 236Q162 206 171 180T198 134T239 103T294 92Z"  />
<glyph unicode="r" horiz-adv-x="401" d="M368 375Q322 375 279 374T192 368V0H77V459Q108 465 144 470T219 479T296 485T368 488V375Z"  />
<glyph unicode="s" horiz-adv-x="526" d="M76 122Q135 99 184 90T270 80Q312 80 339 91T367 129Q367 146 355 156T323 173T278 185T226 195Q145 211 105 242T65 334Q65 406 119 446T266 486Q319 486 372 476T460 451L432 362Q385 376 340 385T260 394Q221 394 200 381T178 342Q178 327 187 318T212 302T252 292T303 281Q345 272 376 262T429 236T462 197T473 141Q473 100 458 71T414 23T348 -6T264 -15Q222 -15 166 -6T53 27L76 122Z"  />
<glyph unicode="t" horiz-adv-x="455" d="M425 0Q409 -4 396 -6T369 -11T339 -14T300 -15Q215 -15 170 32T124 172V370H21V473H124V651H239V473H395V370H239V184Q239 136 258 112T322 88Q344 88 365 89T413 96L425 0Z"  />
<glyph unicode="u" horiz-adv-x="619" d="M546 10Q526 6 494 2T425 -6T348 -12T274 -15Q230 -15 193 -5T130 27T90 84T75 169V473H191V196Q191 84 299 84Q362 84 430 93V473H546V10Z"  />
<glyph unicode="v" horiz-adv-x="599" d="M238 0L29 473H155L300 137L444 473H571L361 0H238Z"  />
<glyph unicode="w" horiz-adv-x="818" d="M520 0L409 307L298 0H187L30 473H147L248 156L365 473H454L570 155L671 473H788L632 0H520Z"  />
<glyph unicode="x" horiz-adv-x="570" d="M542 0H407L286 159L163 0H28L209 238L29 474H167L285 321L403 474H542L360 238L542 0Z"  />
<glyph unicode="y" horiz-adv-x="641" d="M272 -230H142L270 33L36 473H168L332 161L483 473H613L272 -230Z"  />
<glyph unicode="z" horiz-adv-x="503" d="M210 100H467V0H44V56L291 374H49V474H450V410L210 100Z"  />
<glyph unicode="{" horiz-adv-x="367" d="M246 372Q246 348 243 330T232 297T210 272T172 255Q195 248 209 238T232 214T243 182T246 139V-70Q246 -117 266 -132T332 -147V-251Q229 -251 180 -204T131 -65V135Q131 159 127 172T112 193T85 202T45 204V307Q68 307 84 309T111 318T126 338T131 375V576Q131 667 180 714T332 762V658Q286 658 266 643T246 581V372Z"  />
<glyph unicode="|" horiz-adv-x="319" d="M213 -159H106V759H213V-159Z"  />
<glyph unicode="}" horiz-adv-x="367" d="M120 581Q120 628 101 643T34 658V762Q138 762 187 715T236 576V375Q236 352 240 339T255 318T282 309T322 307V204Q299 204 283 202T256 193T241 173T236 135V-65Q236 -156 187 -203T34 -251V-147Q81 -147 100 -132T120 -70V139Q120 163 123 181T134 214T157 238T195 255Q172 262 157 272T134 296T123 329T120 372V581Z"  />
<glyph unicode="~" horiz-adv-x="445" d="M420 404Q420 354 401 323T355 277T295 264T237 281L181 315Q167 324 157 324T140 319T130 305T126 285H25Q25 335 44 366T90 412T150 425T208 409L263 374Q277 366 287 366T304 370T314 385T318 404H420Z"  />
<glyph unicode="&#xA1;" horiz-adv-x="276" d="M134 492Q166 492 189 471T212 417Q212 385 189 364T134 343Q102 343 80 364T57 417Q57 449 79 470T134 492ZM190 282L196 -205H68L75 282H190Z"  />
<glyph unicode="&#xA2;" horiz-adv-x="517" d="M480 25Q451 15 420 8T357 -2V-119H253V0Q206 7 167 28T100 81T57 155T42 248Q42 298 57 340T100 414T167 467T253 496V616H357V497Q387 495 418 488T477 472L461 377Q420 386 381 392T316 398Q281 398 253 387T204 357T172 310T160 248Q160 214 171 187T203 140T252 109T315 98Q341 98 381 104T463 119L480 25Z"  />
<glyph unicode="&#xA3;" horiz-adv-x="604" d="M34 0V101H97V276H34V377H97V484Q97 532 114 570T162 637T238 680T337 695Q388 695 433 689T524 672L507 576Q459 584 418 588T333 593Q277 593 245 564T212 485V377H417V276H212V101H565V0H34Z"  />
<glyph unicode="&#xA5;" horiz-adv-x="725" d="M630 212H424V156H630V72H424V0H302V72H95V156H302V212H95V297H260L20 680H156L362 355L569 680H705L465 297H630V212Z"  />
<glyph unicode="&#xA6;" horiz-adv-x="319" d="M106 350V758H213V350H106ZM106 -160V248H213V-160H106Z"  />
<glyph unicode="&#xA7;" horiz-adv-x="551" d="M285 695Q337 695 390 684T481 653L447 566Q402 584 363 593T288 603Q240 603 212 586T183 534Q183 515 192 503T218 481T261 465T318 447Q363 433 398 418T459 382T497 333T511 266Q511 236 504 213T485 172T459 141T430 117Q453 97 465 72T477 12Q477 -63 422 -107T266 -152Q215 -152 162 -141T70 -110L104 -23Q149 -41 188 -50T263 -60Q311 -60 340 -43T369 9Q369 28 360 40T333 61T291 78T234 96Q189 110 153 125T93 161T55 210T41 277Q41 307 48 330T66 371T92 402T122 426Q99 446 87 471T74 531Q74 606 129 650T285 695ZM192 385Q171 366 156 344T141 293Q141 271 151 256T181 228T227 206T286 185Q324 172 359 158Q380 177 395 199T410 250Q410 272 400 287T370 315T325 337T266 358Q223 372 192 385Z"  />
<glyph unicode="&#xA8;" horiz-adv-x="600" d="M194 697Q224 697 245 677T266 627Q266 598 245 578T194 557Q163 557 142 577T121 627Q121 657 142 677T194 697ZM407 697Q438 697 459 677T480 627Q480 598 459 578T407 557Q377 557 356 577T335 627Q335 657 356 677T407 697Z"  />
<glyph unicode="&#xA9;" horiz-adv-x="822" d="M411 695Q489 695 556 668T671 594T748 481T776 340Q776 264 748 199T672 87T556 12T411 -15Q333 -15 266 12T151 86T74 199T46 340Q46 416 74 481T150 593T266 668T411 695ZM411 642Q345 642 289 619T191 556T126 460T102 340Q102 276 125 221T190 125T288 61T411 38Q477 38 533 61T631 124T696 220T720 340Q720 404 697 459T632 555T534 619T411 642ZM537 439Q505 447 477 451T425 456Q365 456 335 426T305 341Q305 287 335 257T424 226Q447 226 477 230T537 242L549 170Q520 160 487 154T422 147Q370 147 332 161T267 202T228 263T215 341Q215 382 228 417T267 479T331 520T422 535Q453 535 486 529T550 512L537 439Z"  />
<glyph unicode="&#xAA;" horiz-adv-x="463" d="M244 695Q399 695 399 567V354Q351 347 319 344T264 339T224 337T190 336Q124 336 89 366T53 450Q53 501 92 526T214 556L316 562V566Q314 592 299 604T245 616Q210 616 170 612T98 603L89 679Q133 687 167 691T244 695ZM202 489Q167 487 152 478T137 449Q137 409 207 409Q224 409 251 410T316 417V495L202 489Z"  />
<glyph unicode="&#xAB;" horiz-adv-x="583" d="M229 41L43 246L229 450L294 399L172 249L293 99L229 41ZM450 41L264 246L450 450L516 399L393 249L514 99L450 41Z"  />
<glyph unicode="&#xAE;" horiz-adv-x="822" d="M411 695Q489 695 556 668T671 594T748 481T776 340Q776 264 748 199T672 87T556 12T411 -15Q333 -15 266 12T151 86T74 199T46 340Q46 416 74 481T150 593T266 668T411 695ZM411 642Q345 642 289 619T191 556T126 460T102 340Q102 276 125 221T190 125T288 61T411 38Q477 38 533 61T631 124T696 220T720 340Q720 404 697 459T632 555T534 619T411 642ZM414 539Q485 539 528 505T572 405Q572 367 553 338T500 291L599 155H497L418 270H409H348V155H264V536Q274 536 291 536T330 537T373 538T414 539ZM417 465Q400 465 383 465T348 464V343H423Q451 343 470 361T490 406Q490 437 470 451T417 465Z"  />
<glyph unicode="&#xAF;" horiz-adv-x="600" d="M439 585H161V679H439V585Z"  />
<glyph unicode="&#xB0;" horiz-adv-x="471" d="M236 695Q273 695 304 682T359 647T396 594T409 527Q409 490 396 459T360 406T305 371T236 358Q198 358 167 370T112 405T76 459T63 527Q63 563 76 593T112 646T166 682T236 695ZM236 444Q271 444 295 468T320 527Q320 561 296 585T236 609Q218 609 203 603T176 585T158 559T151 527Q151 510 157 495T175 469T202 451T236 444Z"  />
<glyph unicode="&#xB1;" horiz-adv-x="685" d="M398 322V185H288V322H104V429H288V567H398V429H581V322H398ZM581 35H104V142H581V35Z"  />
<glyph unicode="&#xB2;" horiz-adv-x="351" d="M27 289V348L169 476Q189 491 201 507T213 549Q213 578 196 590T147 602Q130 602 106 599T43 583L24 661Q52 672 89 678T161 685Q201 685 228 674T273 646T299 607T307 562Q307 515 280 478T211 403L169 365H318V289H27Z"  />
<glyph unicode="&#xB3;" horiz-adv-x="361" d="M207 520L214 519Q267 514 297 485T328 415Q328 354 290 319T164 284Q131 284 94 291T22 317L53 387Q111 361 167 361Q203 361 224 373T245 407Q245 425 231 435T187 446H87V489L188 600H44V680H310V626L207 520Z"  />
<glyph unicode="&#xB4;" horiz-adv-x="600" d="M341 563H228L304 714H458L341 563Z"  />
<glyph unicode="&#xB6;" horiz-adv-x="765" d="M285 689Q307 689 341 689T416 688T500 686T581 684T651 682T698 680V-109H578V572L480 575V-109H361V212H285Q223 212 175 229T93 278T42 354T24 452Q24 563 92 626T285 689ZM272 578Q206 578 174 546T142 451Q142 391 174 356T272 321H361V577L272 578Z"  />
<glyph unicode="&#xB7;" horiz-adv-x="302" d="M150 181Q133 181 118 187T91 205T73 231T66 264Q66 299 90 322T150 346Q186 346 211 323T236 264Q236 229 211 205T150 181Z"  />
<glyph unicode="&#xB8;" horiz-adv-x="600" d="M205 -209L250 -50H360L301 -209H205Z"  />
<glyph unicode="&#xB9;" horiz-adv-x="306" d="M276 292H22V370H106V572L28 550L8 629L170 680H195V370H276V292Z"  />
<glyph unicode="&#xBA;" horiz-adv-x="461" d="M231 695Q272 695 306 682T366 646T406 589T420 516Q420 475 406 442T367 384T307 347T231 334Q190 334 156 347T96 384T56 441T41 516Q41 556 55 589T95 645T155 682T231 695ZM231 416Q273 416 301 443T329 516Q329 561 301 587T231 614Q189 614 161 588T132 516Q132 470 160 443T231 416Z"  />
<glyph unicode="&#xBB;" horiz-adv-x="583" d="M128 450L314 246L128 41L64 99L185 249L63 399L128 450ZM350 450L535 246L350 41L286 99L407 249L284 399L350 450Z"  />
<glyph unicode="&#xBC;" horiz-adv-x="901" d="M70 370H154V572L76 550L56 629L218 680H243V370H324V292H70V370ZM264 0H200L662 680H726L264 0ZM847 82H789V0H702V82H476V145L696 388H789V158H847V82ZM587 158H702V289L587 158Z"  />
<glyph unicode="&#xBD;" horiz-adv-x="899" d="M70 370H154V572L76 550L56 629L218 680H243V370H324V292H70V370ZM253 0H188L650 680H715L253 0ZM856 0H564V59L707 187Q727 202 739 218T751 260Q751 289 734 301T684 313Q668 313 644 310T581 294L562 372Q590 383 627 389T699 396Q739 396 766 385T811 357T837 318T845 273Q845 226 818 189T749 114L706 76H856V0Z"  />
<glyph unicode="&#xBE;" horiz-adv-x="921" d="M234 520L241 519Q294 514 324 485T355 415Q355 354 317 319T191 284Q158 284 121 291T49 317L80 387Q138 361 194 361Q230 361 251 373T272 407Q272 425 258 435T214 446H114V489L215 600H71V680H337V626L234 520ZM211 0L673 680H737L275 0H211ZM868 158V82H811V0H723V82H497V145L717 388H811V158H868ZM723 158V289L608 158H723Z"  />
<glyph unicode="&#xBF;" horiz-adv-x="515" d="M328 367Q296 367 273 388T250 441Q250 473 273 495T328 517Q360 517 382 495T405 441Q405 409 383 388T328 367ZM289 -196Q235 -196 191 -181T115 -138T66 -71T48 16Q48 62 64 101T109 168T177 213T265 229H279L275 307H383L401 132H289Q230 132 195 99T160 11Q160 -36 194 -64T284 -93Q327 -93 369 -89T458 -77L475 -173Q430 -184 385 -190T289 -196Z"  />
<glyph unicode="&#xC0;" horiz-adv-x="780" d="M335 749L218 891H372L448 749H335ZM159 0H24L334 684H446L755 0H620L559 139H220L159 0ZM267 247H513L390 528L267 247Z"  />
<glyph unicode="&#xC1;" horiz-adv-x="780" d="M459 749H338L422 891H576L459 749ZM159 0H24L334 684H446L755 0H620L559 139H220L159 0ZM267 247H513L390 528L267 247Z"  />
<glyph unicode="&#xC2;" horiz-adv-x="780" d="M332 749H219L339 891H441L562 749H448L390 821L332 749ZM159 0H24L334 684H446L755 0H620L559 139H220L159 0ZM267 247H513L390 528L267 247Z"  />
<glyph unicode="&#xC3;" horiz-adv-x="780" d="M568 872Q568 827 551 799T509 758T455 746T403 761L354 792Q328 807 317 795T305 765H212Q212 810 229 838T271 879T325 891T377 877L427 846Q453 831 464 842T476 872H568ZM159 0H24L334 684H446L755 0H620L559 139H220L159 0ZM267 247H513L390 528L267 247Z"  />
<glyph unicode="&#xC4;" horiz-adv-x="780" d="M283 747Q252 747 231 767T210 817Q210 847 231 867T283 888Q313 888 334 868T355 817Q355 788 334 768T283 747ZM496 747Q466 747 445 767T424 817Q424 847 445 867T496 888Q527 888 548 868T569 817Q569 788 548 768T496 747ZM159 0H24L334 684H446L755 0H620L559 139H220L159 0ZM267 247H513L390 528L267 247Z"  />
<glyph unicode="&#xC5;" horiz-adv-x="780" d="M389 940Q440 940 470 912T501 836Q501 788 471 760T389 731Q339 731 309 759T278 836Q278 884 308 912T389 940ZM389 790Q410 790 422 802T435 836Q435 856 423 868T389 881Q369 881 356 869T343 836Q343 815 356 803T389 790ZM159 0H24L334 684H446L755 0H620L559 139H220L159 0ZM267 247H513L390 528L267 247Z"  />
<glyph unicode="&#xC6;" horiz-adv-x="1092" d="M994 395V285H663V111H1036V0H543V136H266L171 0H24L511 680H1036V569H663V395H994ZM343 247H543V532L343 247Z"  />
<glyph unicode="&#xC7;" horiz-adv-x="729" d="M647 551Q587 565 539 572T449 579Q383 579 334 561T251 512T200 437T183 342Q183 287 201 242T252 165T333 116T437 98Q477 98 532 106T650 128L672 23Q612 6 550 -4T431 -15Q347 -15 278 10T159 82T83 195T56 341Q56 420 83 485T159 597T278 669T432 695Q495 695 553 687T669 664L647 551ZM287 -209L332 -50H442L383 -209H287Z"  />
<glyph unicode="&#xC8;" horiz-adv-x="634" d="M273 749L156 891H310L386 749H273ZM536 395V285H205V111H578V0H85V680H578V569H205V395H536Z"  />
<glyph unicode="&#xC9;" horiz-adv-x="634" d="M397 749H276L360 891H514L397 749ZM536 395V285H205V111H578V0H85V680H578V569H205V395H536Z"  />
<glyph unicode="&#xCA;" horiz-adv-x="634" d="M270 749H157L277 891H379L500 749H386L328 821L270 749ZM536 395V285H205V111H578V0H85V680H578V569H205V395H536Z"  />
<glyph unicode="&#xCB;" horiz-adv-x="634" d="M221 747Q190 747 169 767T148 817Q148 847 169 867T221 888Q251 888 272 868T293 817Q293 788 272 768T221 747ZM434 747Q404 747 383 767T362 817Q362 847 383 867T434 888Q465 888 486 868T507 817Q507 788 486 768T434 747ZM536 395V285H205V111H578V0H85V680H578V569H205V395H536Z"  />
<glyph unicode="&#xCC;" horiz-adv-x="290" d="M90 749L-27 891H127L203 749H90ZM205 0H85V680H205V0Z"  />
<glyph unicode="&#xCD;" horiz-adv-x="290" d="M214 749H93L177 891H331L214 749ZM205 0H85V680H205V0Z"  />
<glyph unicode="&#xCE;" horiz-adv-x="290" d="M87 749H-26L94 891H196L317 749H203L145 821L87 749ZM205 0H85V680H205V0Z"  />
<glyph unicode="&#xCF;" horiz-adv-x="290" d="M38 747Q7 747 -14 767T-35 817Q-35 847 -14 867T38 888Q68 888 89 868T110 817Q110 788 89 768T38 747ZM251 747Q221 747 200 767T179 817Q179 847 200 867T251 888Q282 888 303 868T324 817Q324 788 303 768T251 747ZM205 0H85V680H205V0Z"  />
<glyph unicode="&#xD0;" horiz-adv-x="741" d="M324 689Q403 689 469 665T584 595T658 485T685 343Q685 263 659 199T586 88T478 17T342 -8Q307 -8 270 -8T198 -6T134 -3T85 0V278H29V389H85V680Q104 681 131 682T191 685T258 688T324 689ZM343 102Q388 102 427 119T496 167T543 243T560 343Q560 397 543 440T494 514T420 561T325 578Q296 578 266 577T205 574V389H349V278H205V106Q239 104 274 103T343 102Z"  />
<glyph unicode="&#xD1;" horiz-adv-x="779" d="M560 872Q560 827 543 799T501 758T447 746T395 761L346 792Q320 807 309 795T297 765H204Q204 810 221 838T263 879T317 891T369 877L419 846Q445 831 456 842T468 872H560ZM694 0H580L205 476V0H85V680H196L575 199V680H694V0Z"  />
<glyph unicode="&#xD2;" horiz-adv-x="837" d="M364 749L247 891H401L477 749H364ZM418 695Q497 695 564 670T679 598T754 486T781 340Q781 260 754 195T679 83T564 11T418 -15Q338 -15 272 10T157 82T83 194T56 340Q56 420 82 485T157 597T271 669T418 695ZM419 98Q470 98 513 115T588 164T637 241T655 340Q655 394 638 439T589 515T514 564T419 582Q367 582 324 565T249 516T200 439T182 340Q182 286 199 241T248 165T323 116T419 98Z"  />
<glyph unicode="&#xD3;" horiz-adv-x="837" d="M488 749H367L451 891H605L488 749ZM418 695Q497 695 564 670T679 598T754 486T781 340Q781 260 754 195T679 83T564 11T418 -15Q338 -15 272 10T157 82T83 194T56 340Q56 420 82 485T157 597T271 669T418 695ZM419 98Q470 98 513 115T588 164T637 241T655 340Q655 394 638 439T589 515T514 564T419 582Q367 582 324 565T249 516T200 439T182 340Q182 286 199 241T248 165T323 116T419 98Z"  />
<glyph unicode="&#xD4;" horiz-adv-x="837" d="M361 749H248L368 891H470L591 749H477L419 821L361 749ZM418 695Q497 695 564 670T679 598T754 486T781 340Q781 260 754 195T679 83T564 11T418 -15Q338 -15 272 10T157 82T83 194T56 340Q56 420 82 485T157 597T271 669T418 695ZM419 98Q470 98 513 115T588 164T637 241T655 340Q655 394 638 439T589 515T514 564T419 582Q367 582 324 565T249 516T200 439T182 340Q182 286 199 241T248 165T323 116T419 98Z"  />
<glyph unicode="&#xD5;" horiz-adv-x="837" d="M597 872Q597 827 580 799T538 758T484 746T432 761L383 792Q357 807 346 795T334 765H241Q241 810 258 838T300 879T354 891T406 877L456 846Q482 831 493 842T505 872H597ZM418 695Q497 695 564 670T679 598T754 486T781 340Q781 260 754 195T679 83T564 11T418 -15Q338 -15 272 10T157 82T83 194T56 340Q56 420 82 485T157 597T271 669T418 695ZM419 98Q470 98 513 115T588 164T637 241T655 340Q655 394 638 439T589 515T514 564T419 582Q367 582 324 565T249 516T200 439T182 340Q182 286 199 241T248 165T323 116T419 98Z"  />
<glyph unicode="&#xD6;" horiz-adv-x="837" d="M312 747Q281 747 260 767T239 817Q239 847 260 867T312 888Q342 888 363 868T384 817Q384 788 363 768T312 747ZM525 747Q495 747 474 767T453 817Q453 847 474 867T525 888Q556 888 577 868T598 817Q598 788 577 768T525 747ZM418 695Q497 695 564 670T679 598T754 486T781 340Q781 260 754 195T679 83T564 11T418 -15Q338 -15 272 10T157 82T83 194T56 340Q56 420 82 485T157 597T271 669T418 695ZM419 98Q470 98 513 115T588 164T637 241T655 340Q655 394 638 439T589 515T514 564T419 582Q367 582 324 565T249 516T200 439T182 340Q182 286 199 241T248 165T323 116T419 98Z"  />
<glyph unicode="&#xD7;" horiz-adv-x="677" d="M484 100L339 246L193 100L117 176L263 322L117 467L193 543L339 398L484 543L560 467L415 322L560 176L484 100Z"  />
<glyph unicode="&#xD8;" horiz-adv-x="837" d="M692 584Q734 538 757 477T781 340Q781 260 754 195T679 83T564 11T418 -15Q301 -15 212 40L166 -13L88 53L135 107Q97 152 77 211T56 340Q56 420 82 485T157 597T271 669T418 695Q472 695 520 683T610 648L654 698L733 631L692 584ZM182 340Q182 261 219 202L530 557Q480 582 419 582Q367 582 324 565T249 516T200 439T182 340ZM419 98Q470 98 513 115T588 164T637 241T655 340Q655 385 643 423T609 491L292 131Q319 115 351 107T419 98Z"  />
<glyph unicode="&#xD9;" horiz-adv-x="760" d="M326 749L209 891H363L439 749H326ZM685 290Q685 219 663 163T601 67T505 6T380 -15Q311 -15 255 6T159 67T97 163T75 290V680H195V290Q195 199 245 148T380 97Q422 97 456 110T514 148T551 209T565 290V680H685V290Z"  />
<glyph unicode="&#xDA;" horiz-adv-x="760" d="M450 749H329L413 891H567L450 749ZM685 290Q685 219 663 163T601 67T505 6T380 -15Q311 -15 255 6T159 67T97 163T75 290V680H195V290Q195 199 245 148T380 97Q422 97 456 110T514 148T551 209T565 290V680H685V290Z"  />
<glyph unicode="&#xDB;" horiz-adv-x="760" d="M322 749H209L329 891H431L552 749H438L380 821L322 749ZM685 290Q685 219 663 163T601 67T505 6T380 -15Q311 -15 255 6T159 67T97 163T75 290V680H195V290Q195 199 245 148T380 97Q422 97 456 110T514 148T551 209T565 290V680H685V290Z"  />
<glyph unicode="&#xDC;" horiz-adv-x="760" d="M273 747Q242 747 221 767T200 817Q200 847 221 867T273 888Q303 888 324 868T345 817Q345 788 324 768T273 747ZM486 747Q456 747 435 767T414 817Q414 847 435 867T486 888Q517 888 538 868T559 817Q559 788 538 768T486 747ZM685 290Q685 219 663 163T601 67T505 6T380 -15Q311 -15 255 6T159 67T97 163T75 290V680H195V290Q195 199 245 148T380 97Q422 97 456 110T514 148T551 209T565 290V680H685V290Z"  />
<glyph unicode="&#xDD;" horiz-adv-x="728" d="M434 749H313L397 891H551L434 749ZM21 680H157L363 355L570 680H706L425 229V0H303V229L21 680Z"  />
<glyph unicode="&#xDE;" horiz-adv-x="644" d="M328 586Q390 586 441 570T530 523T587 449T608 350Q608 296 588 252T530 176T442 127T328 110H205V0H85V680H205V584Q237 585 267 585T328 586ZM341 218Q373 218 400 227T448 253T479 295T491 349Q491 379 480 402T448 442T401 466T341 475Q272 475 205 472V218H341Z"  />
<glyph unicode="&#xDF;" horiz-adv-x="659" d="M280 647Q233 647 214 623T194 552V473H583V401L446 223L458 222Q536 211 581 160T627 24Q627 -26 610 -67T561 -138T485 -184T386 -200Q344 -200 306 -195T226 -180L242 -83Q299 -93 331 -95T386 -98Q444 -98 479 -65T515 22Q515 69 483 96T403 123H299V180L432 367H194V0H78V564Q78 656 127 703T280 751V647Z"  />
<glyph unicode="&#xE0;" horiz-adv-x="614" d="M273 563L156 714H310L386 563H273ZM282 488Q319 488 350 487T410 482T471 475T541 465V0H426V36Q393 12 356 -1T273 -15Q222 -15 180 3T107 54T61 135T44 239Q45 295 61 341T107 419T181 470T282 488ZM298 391Q260 391 234 380T190 347T165 298T157 236Q157 167 193 125T290 82Q324 82 357 93T426 133V383Q397 387 366 389T298 391Z"  />
<glyph unicode="&#xE1;" horiz-adv-x="614" d="M367 563H254L330 714H484L367 563ZM282 488Q319 488 350 487T410 482T471 475T541 465V0H426V36Q393 12 356 -1T273 -15Q222 -15 180 3T107 54T61 135T44 239Q45 295 61 341T107 419T181 470T282 488ZM298 391Q260 391 234 380T190 347T165 298T157 236Q157 167 193 125T290 82Q324 82 357 93T426 133V383Q397 387 366 389T298 391Z"  />
<glyph unicode="&#xE2;" horiz-adv-x="614" d="M257 566H144L264 704H366L487 566H373L316 630L257 566ZM282 488Q319 488 350 487T410 482T471 475T541 465V0H426V36Q393 12 356 -1T273 -15Q222 -15 180 3T107 54T61 135T44 239Q45 295 61 341T107 419T181 470T282 488ZM298 391Q260 391 234 380T190 347T165 298T157 236Q157 167 193 125T290 82Q324 82 357 93T426 133V383Q397 387 366 389T298 391Z"  />
<glyph unicode="&#xE3;" horiz-adv-x="614" d="M494 687Q494 642 477 614T435 573T381 561T329 575L280 606Q254 621 243 610T231 580H138Q138 625 155 653T197 694T251 706T303 691L353 660Q379 645 390 657T402 687H494ZM282 488Q319 488 350 487T410 482T471 475T541 465V0H426V36Q393 12 356 -1T273 -15Q222 -15 180 3T107 54T61 135T44 239Q45 295 61 341T107 419T181 470T282 488ZM298 391Q260 391 234 380T190 347T165 298T157 236Q157 167 193 125T290 82Q324 82 357 93T426 133V383Q397 387 366 389T298 391Z"  />
<glyph unicode="&#xE4;" horiz-adv-x="614" d="M210 697Q240 697 261 677T282 627Q282 598 261 578T210 557Q179 557 158 577T137 627Q137 657 158 677T210 697ZM423 697Q454 697 475 677T496 627Q496 598 475 578T423 557Q393 557 372 577T351 627Q351 657 372 677T423 697ZM282 488Q319 488 350 487T410 482T471 475T541 465V0H426V36Q393 12 356 -1T273 -15Q222 -15 180 3T107 54T61 135T44 239Q45 295 61 341T107 419T181 470T282 488ZM298 391Q260 391 234 380T190 347T165 298T157 236Q157 167 193 125T290 82Q324 82 357 93T426 133V383Q397 387 366 389T298 391Z"  />
<glyph unicode="&#xE5;" horiz-adv-x="614" d="M315 753Q366 753 396 725T427 649Q427 601 397 573T315 544Q265 544 235 572T204 649Q204 697 234 725T315 753ZM315 603Q336 603 348 615T361 649Q361 669 349 681T315 694Q295 694 282 682T269 649Q269 628 282 616T315 603ZM282 488Q319 488 350 487T410 482T471 475T541 465V0H426V36Q393 12 356 -1T273 -15Q222 -15 180 3T107 54T61 135T44 239Q45 295 61 341T107 419T181 470T282 488ZM298 391Q260 391 234 380T190 347T165 298T157 236Q157 167 193 125T290 82Q324 82 357 93T426 133V383Q397 387 366 389T298 391Z"  />
<glyph unicode="&#xE6;" horiz-adv-x="897" d="M849 276Q849 262 849 253T848 234T846 216T842 193H490Q503 145 541 117T642 88Q673 88 713 94T811 114L828 20Q772 3 727 -6T639 -15Q585 -15 542 -3T466 33Q414 15 378 6T313 -8T264 -14T221 -15Q131 -15 84 26T37 145Q37 216 90 247T251 278L368 277V301Q368 346 351 368T282 391Q234 391 188 386T97 373L85 470Q144 480 190 486T291 492Q351 492 389 476T448 428Q481 457 524 473T617 489Q667 489 709 474T782 432T830 366T849 280V276ZM620 398Q566 398 532 367T487 281H745Q743 335 709 366T620 398ZM146 138Q146 106 172 92T249 78Q272 78 309 83T401 105Q390 122 384 142T373 183L243 182Q190 182 168 172T146 138Z"  />
<glyph unicode="&#xE7;" horiz-adv-x="520" d="M462 375Q420 384 386 389T325 395Q247 395 203 352T159 239Q159 204 170 176T203 127T252 97T316 86Q342 86 382 91T464 108L481 15Q440 1 395 -7T309 -15Q251 -15 203 3T119 54T64 135T44 240Q44 298 63 344T118 424T204 474T314 492Q349 492 394 486T478 467L462 375ZM185 -209L230 -50H340L281 -209H185Z"  />
<glyph unicode="&#xE8;" horiz-adv-x="568" d="M259 563L142 714H296L372 563H259ZM293 489Q343 489 385 474T458 432T506 366T525 280Q525 265 525 255T524 235T522 216T518 193H167Q180 145 218 117T318 88Q350 88 389 94T487 114L503 20Q448 3 403 -6T314 -15Q247 -15 197 4T112 58T61 138T44 237Q44 295 63 341T115 421T194 471T293 489ZM296 398Q241 398 207 367T163 281H420Q418 335 384 366T296 398Z"  />
<glyph unicode="&#xE9;" horiz-adv-x="568" d="M352 563H239L315 714H469L352 563ZM293 489Q343 489 385 474T458 432T506 366T525 280Q525 265 525 255T524 235T522 216T518 193H167Q180 145 218 117T318 88Q350 88 389 94T487 114L503 20Q448 3 403 -6T314 -15Q247 -15 197 4T112 58T61 138T44 237Q44 295 63 341T115 421T194 471T293 489ZM296 398Q241 398 207 367T163 281H420Q418 335 384 366T296 398Z"  />
<glyph unicode="&#xEA;" horiz-adv-x="568" d="M242 566H129L249 704H351L471 566H358L301 630L242 566ZM293 489Q343 489 385 474T458 432T506 366T525 280Q525 265 525 255T524 235T522 216T518 193H167Q180 145 218 117T318 88Q350 88 389 94T487 114L503 20Q448 3 403 -6T314 -15Q247 -15 197 4T112 58T61 138T44 237Q44 295 63 341T115 421T194 471T293 489ZM296 398Q241 398 207 367T163 281H420Q418 335 384 366T296 398Z"  />
<glyph unicode="&#xEB;" horiz-adv-x="568" d="M195 697Q225 697 246 677T267 627Q267 598 246 578T195 557Q164 557 143 577T122 627Q122 657 143 677T195 697ZM408 697Q439 697 460 677T481 627Q481 598 460 578T408 557Q378 557 357 577T336 627Q336 657 357 677T408 697ZM293 489Q343 489 385 474T458 432T506 366T525 280Q525 265 525 255T524 235T522 216T518 193H167Q180 145 218 117T318 88Q350 88 389 94T487 114L503 20Q448 3 403 -6T314 -15Q247 -15 197 4T112 58T61 138T44 237Q44 295 63 341T115 421T194 471T293 489ZM296 398Q241 398 207 367T163 281H420Q418 335 384 366T296 398Z"  />
<glyph unicode="&#xEC;" horiz-adv-x="263" d="M69 563L-49 714H106L182 563H69ZM189 0H74V473H189V0Z"  />
<glyph unicode="&#xED;" horiz-adv-x="263" d="M186 563H73L149 714H303L186 563ZM189 0H74V473H189V0Z"  />
<glyph unicode="&#xEE;" horiz-adv-x="263" d="M73 566H-40L80 704H182L303 566H189L132 630L73 566ZM189 0H74V473H189V0Z"  />
<glyph unicode="&#xEF;" horiz-adv-x="263" d="M26 697Q56 697 77 677T98 627Q98 598 77 578T26 557Q-5 557 -26 577T-47 627Q-47 657 -26 677T26 697ZM239 697Q270 697 291 677T312 627Q312 598 291 578T239 557Q209 557 188 577T167 627Q167 657 188 677T239 697ZM189 0H74V473H189V0Z"  />
<glyph unicode="&#xF0;" horiz-adv-x="616" d="M250 716Q279 705 306 691T358 659L453 694L481 625L424 604Q493 542 533 452T573 258Q573 193 554 142T499 56T416 1T309 -18Q252 -18 203 0T119 53T64 134T44 240Q44 297 63 344T117 424T195 475T291 494Q331 494 357 485T410 458Q386 491 361 518T311 563L170 512L142 581L237 615Q214 629 188 642T133 667L250 716ZM309 389Q277 389 250 379T203 349T172 302T160 240Q160 205 171 177T203 129T250 98T309 87Q373 87 414 128T456 241Q456 275 445 302T414 348T367 378T309 389Z"  />
<glyph unicode="&#xF1;" horiz-adv-x="617" d="M487 687Q487 642 470 614T428 573T374 561T322 575L273 606Q247 621 236 610T224 580H131Q131 625 148 653T190 694T244 706T296 691L346 660Q372 645 383 657T395 687H487ZM349 488Q440 488 493 439T547 304V0H432V271Q432 322 403 352T324 383Q292 383 260 381T192 375V0H77V465Q96 469 128 473T197 480T274 486T349 488Z"  />
<glyph unicode="&#xF2;" horiz-adv-x="616" d="M266 563L149 714H303L379 563H266ZM309 494Q368 494 417 476T500 424T554 344T573 240Q573 182 554 135T501 53T417 1T309 -18Q250 -18 201 0T117 53T63 134T44 240Q44 297 63 344T117 424T201 475T309 494ZM309 87Q375 87 415 129T456 240Q456 308 416 348T309 389Q242 389 201 349T160 240Q160 171 201 129T309 87Z"  />
<glyph unicode="&#xF3;" horiz-adv-x="616" d="M360 563H247L323 714H477L360 563ZM309 494Q368 494 417 476T500 424T554 344T573 240Q573 182 554 135T501 53T417 1T309 -18Q250 -18 201 0T117 53T63 134T44 240Q44 297 63 344T117 424T201 475T309 494ZM309 87Q375 87 415 129T456 240Q456 308 416 348T309 389Q242 389 201 349T160 240Q160 171 201 129T309 87Z"  />
<glyph unicode="&#xF4;" horiz-adv-x="616" d="M250 566H137L257 704H359L480 566H366L309 630L250 566ZM309 494Q368 494 417 476T500 424T554 344T573 240Q573 182 554 135T501 53T417 1T309 -18Q250 -18 201 0T117 53T63 134T44 240Q44 297 63 344T117 424T201 475T309 494ZM309 87Q375 87 415 129T456 240Q456 308 416 348T309 389Q242 389 201 349T160 240Q160 171 201 129T309 87Z"  />
<glyph unicode="&#xF5;" horiz-adv-x="616" d="M487 687Q487 642 470 614T428 573T374 561T322 575L273 606Q247 621 236 610T224 580H131Q131 625 148 653T190 694T244 706T296 691L346 660Q372 645 383 657T395 687H487ZM309 494Q368 494 417 476T500 424T554 344T573 240Q573 182 554 135T501 53T417 1T309 -18Q250 -18 201 0T117 53T63 134T44 240Q44 297 63 344T117 424T201 475T309 494ZM309 87Q375 87 415 129T456 240Q456 308 416 348T309 389Q242 389 201 349T160 240Q160 171 201 129T309 87Z"  />
<glyph unicode="&#xF6;" horiz-adv-x="616" d="M203 697Q233 697 254 677T275 627Q275 598 254 578T203 557Q172 557 151 577T130 627Q130 657 151 677T203 697ZM416 697Q447 697 468 677T489 627Q489 598 468 578T416 557Q386 557 365 577T344 627Q344 657 365 677T416 697ZM309 494Q368 494 417 476T500 424T554 344T573 240Q573 182 554 135T501 53T417 1T309 -18Q250 -18 201 0T117 53T63 134T44 240Q44 297 63 344T117 424T201 475T309 494ZM309 87Q375 87 415 129T456 240Q456 308 416 348T309 389Q242 389 201 349T160 240Q160 171 201 129T309 87Z"  />
<glyph unicode="&#xF7;" horiz-adv-x="685" d="M342 456Q314 456 294 475T274 522Q274 551 294 569T342 588Q371 588 391 570T412 522Q412 494 392 475T342 456ZM581 383V277H104V383H581ZM342 77Q314 77 294 96T274 143Q274 171 294 190T342 209Q371 209 391 190T412 143Q412 115 392 96T342 77Z"  />
<glyph unicode="&#xF8;" horiz-adv-x="616" d="M507 417Q539 384 556 339T573 240Q573 182 554 135T501 53T417 1T309 -18Q269 -18 234 -10T170 15L118 -47L55 7L105 66Q76 99 60 143T44 240Q44 297 63 344T117 424T201 475T309 494Q382 494 440 466L492 527L555 474L507 417ZM160 240Q160 192 181 156L368 379Q342 389 309 389Q242 389 201 349T160 240ZM309 87Q375 87 415 129T456 240Q456 292 432 328L242 101Q273 87 309 87Z"  />
<glyph unicode="&#xF9;" horiz-adv-x="619" d="M267 563L150 714H304L380 563H267ZM545 10Q526 6 494 2T425 -6T348 -12T274 -15Q229 -15 193 -5T130 27T90 84T75 169V473H190V196Q190 84 298 84Q361 84 430 93V473H545V10Z"  />
<glyph unicode="&#xFA;" horiz-adv-x="619" d="M361 563H248L324 714H478L361 563ZM545 10Q526 6 494 2T425 -6T348 -12T274 -15Q229 -15 193 -5T130 27T90 84T75 169V473H190V196Q190 84 298 84Q361 84 430 93V473H545V10Z"  />
<glyph unicode="&#xFB;" horiz-adv-x="619" d="M251 566H138L258 704H360L481 566H367L310 630L251 566ZM545 10Q526 6 494 2T425 -6T348 -12T274 -15Q229 -15 193 -5T130 27T90 84T75 169V473H190V196Q190 84 298 84Q361 84 430 93V473H545V10Z"  />
<glyph unicode="&#xFC;" horiz-adv-x="619" d="M204 697Q234 697 255 677T276 627Q276 598 255 578T204 557Q173 557 152 577T131 627Q131 657 152 677T204 697ZM417 697Q448 697 469 677T490 627Q490 598 469 578T417 557Q387 557 366 577T345 627Q345 657 366 677T417 697ZM545 10Q526 6 494 2T425 -6T348 -12T274 -15Q229 -15 193 -5T130 27T90 84T75 169V473H190V196Q190 84 298 84Q361 84 430 93V473H545V10Z"  />
<glyph unicode="&#xFD;" horiz-adv-x="641" d="M259 564L335 715H489L372 564H259ZM272 -230H142L270 33L36 473H168L332 161L483 473H613L272 -230Z"  />
<glyph unicode="&#xFE;" horiz-adv-x="625" d="M338 488Q395 488 438 470T512 420T558 341T576 239Q576 182 560 135T513 55T441 3T347 -15Q328 -15 311 -15T276 -14T238 -12T194 -7V-231H79V710H194V480Q225 485 259 486T338 488ZM330 82Q391 82 427 124T463 236Q463 269 456 297T431 347T387 379T322 391Q285 391 254 389T194 383V92Q243 84 272 83T330 82Z"  />
<glyph unicode="&#xFF;" horiz-adv-x="641" d="M215 558Q184 558 163 578T142 628Q142 658 163 678T215 698Q245 698 266 678T287 628Q287 599 266 579T215 558ZM428 558Q398 558 377 578T356 628Q356 658 377 678T428 698Q459 698 480 678T501 628Q501 599 480 579T428 558ZM272 -230H142L270 33L36 473H168L332 161L483 473H613L272 -230Z"  />
<glyph unicode="&#x100;" horiz-adv-x="780" d="M546 772H234V865H546V772ZM159 0H24L334 684H446L755 0H620L559 139H220L159 0ZM267 247H513L390 528L267 247Z"  />
<glyph unicode="&#x101;" horiz-adv-x="614" d="M455 585H177V679H455V585ZM282 488Q319 488 350 487T410 482T471 475T541 465V0H426V36Q393 12 356 -1T273 -15Q222 -15 180 3T107 54T61 135T44 239Q45 295 61 341T107 419T181 470T282 488ZM298 391Q260 391 234 380T190 347T165 298T157 236Q157 167 193 125T290 82Q324 82 357 93T426 133V383Q397 387 366 389T298 391Z"  />
<glyph unicode="&#x102;" horiz-adv-x="780" d="M546 899Q546 827 504 788T390 748Q318 748 276 787T234 899H332Q332 866 348 852T390 838Q415 838 431 852T447 899H546ZM159 0H24L334 684H446L755 0H620L559 139H220L159 0ZM267 247H513L390 528L267 247Z"  />
<glyph unicode="&#x103;" horiz-adv-x="614" d="M472 708Q472 636 430 596T316 556Q244 556 202 596T160 708H258Q258 675 274 661T316 647Q341 647 357 661T373 708H472ZM282 488Q319 488 350 487T410 482T471 475T541 465V0H426V36Q393 12 356 -1T273 -15Q222 -15 180 3T107 54T61 135T44 239Q45 295 61 341T107 419T181 470T282 488ZM298 391Q260 391 234 380T190 347T165 298T157 236Q157 167 193 125T290 82Q324 82 357 93T426 133V383Q397 387 366 389T298 391Z"  />
<glyph unicode="&#x104;" horiz-adv-x="780" d="M701 -95Q712 -95 721 -94T742 -90L753 -175Q744 -179 725 -182T686 -186Q622 -186 583 -155T544 -73Q544 -44 562 -21T612 18L559 139H220L159 0H24L334 684H446L755 0H677Q657 -12 649 -24T640 -52Q640 -95 701 -95ZM390 528L267 247H513L390 528Z"  />
<glyph unicode="&#x105;" horiz-adv-x="614" d="M566 -190Q557 -194 538 -197T499 -201Q435 -201 396 -170T357 -88Q357 -59 375 -36T426 3V36Q393 12 356 -1T273 -15Q222 -15 180 3T107 54T61 135T44 239Q45 295 61 341T107 419T181 470T282 488Q319 488 350 487T410 482T471 475T541 465V0H522Q483 -16 468 -31T453 -67Q453 -110 514 -110Q525 -110 534 -109T555 -105L566 -190ZM290 82Q324 82 357 93T426 133V383Q397 387 366 389T298 391Q260 391 234 380T190 347T165 298T157 236Q157 167 193 125T290 82Z"  />
<glyph unicode="&#x106;" horiz-adv-x="729" d="M495 749H374L458 891H612L495 749ZM647 551Q587 565 539 572T449 579Q383 579 334 561T251 512T200 437T183 342Q183 287 201 242T252 165T333 116T437 98Q477 98 532 106T650 128L672 23Q612 6 550 -4T431 -15Q347 -15 278 10T159 82T83 195T56 341Q56 420 83 485T159 597T278 669T432 695Q495 695 553 687T669 664L647 551Z"  />
<glyph unicode="&#x107;" horiz-adv-x="520" d="M345 562H232L308 713H462L345 562ZM462 375Q420 384 386 389T325 395Q247 395 203 352T159 239Q159 204 170 176T203 127T252 97T316 86Q342 86 382 91T464 108L481 15Q440 1 395 -7T309 -15Q251 -15 203 3T119 54T64 135T44 240Q44 298 63 344T118 424T204 474T314 492Q349 492 394 486T478 467L462 375Z"  />
<glyph unicode="&#x10A;" horiz-adv-x="729" d="M426 747Q396 747 375 767T353 817Q353 847 374 867T426 888Q456 888 477 868T499 817Q499 788 478 768T426 747ZM647 551Q587 565 539 572T449 579Q383 579 334 561T251 512T200 437T183 342Q183 287 201 242T252 165T333 116T437 98Q477 98 532 106T650 128L672 23Q612 6 550 -4T431 -15Q347 -15 278 10T159 82T83 195T56 341Q56 420 83 485T159 597T278 669T432 695Q495 695 553 687T669 664L647 551Z"  />
<glyph unicode="&#x10B;" horiz-adv-x="520" d="M294 556Q264 556 243 576T221 626Q221 656 242 676T294 696Q324 696 345 676T367 626Q367 597 346 577T294 556ZM462 375Q420 384 386 389T325 395Q247 395 203 352T159 239Q159 204 170 176T203 127T252 97T316 86Q342 86 382 91T464 108L481 15Q440 1 395 -7T309 -15Q251 -15 203 3T119 54T64 135T44 240Q44 298 63 344T118 424T204 474T314 492Q349 492 394 486T478 467L462 375Z"  />
<glyph unicode="&#x10C;" horiz-adv-x="729" d="M375 737L255 889H369L426 816L484 889H598L477 737H375ZM647 551Q587 565 539 572T449 579Q383 579 334 561T251 512T200 437T183 342Q183 287 201 242T252 165T333 116T437 98Q477 98 532 106T650 128L672 23Q612 6 550 -4T431 -15Q347 -15 278 10T159 82T83 195T56 341Q56 420 83 485T159 597T278 669T432 695Q495 695 553 687T669 664L647 551Z"  />
<glyph unicode="&#x10D;" horiz-adv-x="520" d="M242 560L122 712H236L293 639L351 712H465L344 560H242ZM462 375Q420 384 386 389T325 395Q247 395 203 352T159 239Q159 204 170 176T203 127T252 97T316 86Q342 86 382 91T464 108L481 15Q440 1 395 -7T309 -15Q251 -15 203 3T119 54T64 135T44 240Q44 298 63 344T118 424T204 474T314 492Q349 492 394 486T478 467L462 375Z"  />
<glyph unicode="&#x10E;" horiz-adv-x="741" d="M285 737L165 889H279L336 816L394 889H508L387 737H285ZM324 689Q403 689 469 665T584 595T658 485T685 343Q685 263 659 199T586 88T478 17T342 -8Q307 -8 270 -8T198 -6T134 -3T85 0V680Q104 681 131 682T191 685T258 688T324 689ZM343 102Q388 102 427 119T496 167T543 243T560 343Q560 397 543 440T494 514T420 561T325 578Q296 578 266 577T205 574V106Q239 104 274 103T343 102Z"  />
<glyph unicode="&#x10F;" horiz-adv-x="617" d="M540 7Q487 0 449 -4T380 -9T324 -11T272 -12Q222 -12 181 4T109 53T61 133T44 241Q44 296 59 342T105 420T182 470T290 488Q322 488 359 485T425 475V710H540V7ZM664 508H577L583 710H700L664 508ZM305 391Q264 391 236 380T190 348T164 301T156 241Q156 169 191 126T298 82Q315 82 345 84T425 92V378Q395 385 363 388T305 391Z"  />
<glyph unicode="&#x110;" horiz-adv-x="741" d="M324 689Q403 689 469 665T584 595T658 485T685 343Q685 263 659 199T586 88T478 17T342 -8Q307 -8 270 -8T198 -6T134 -3T85 0V278H29V389H85V680Q104 681 131 682T191 685T258 688T324 689ZM343 102Q388 102 427 119T496 167T543 243T560 343Q560 397 543 440T494 514T420 561T325 578Q296 578 266 577T205 574V389H349V278H205V106Q239 104 274 103T343 102Z"  />
<glyph unicode="&#x111;" horiz-adv-x="617" d="M540 552V7Q487 0 449 -4T380 -9T324 -11T272 -12Q222 -12 181 4T109 53T61 133T44 241Q44 296 59 342T105 420T182 470T290 488Q322 488 359 485T425 475V552H261V647H425V710H540V647H577V552H540ZM425 378Q395 385 363 388T305 391Q264 391 236 380T190 348T164 301T156 241Q156 169 191 126T298 82Q315 82 345 84T425 92V378Z"  />
<glyph unicode="&#x112;" horiz-adv-x="634" d="M484 772H172V865H484V772ZM536 395V285H205V111H578V0H85V680H578V569H205V395H536Z"  />
<glyph unicode="&#x113;" horiz-adv-x="568" d="M440 585H162V679H440V585ZM293 489Q343 489 385 474T458 432T506 366T525 280Q525 265 525 255T524 235T522 216T518 193H167Q180 145 218 117T318 88Q350 88 389 94T487 114L503 20Q448 3 403 -6T314 -15Q247 -15 197 4T112 58T61 138T44 237Q44 295 63 341T115 421T194 471T293 489ZM296 398Q241 398 207 367T163 281H420Q418 335 384 366T296 398Z"  />
<glyph unicode="&#x116;" horiz-adv-x="634" d="M328 747Q298 747 277 767T255 817Q255 847 276 867T328 888Q358 888 379 868T401 817Q401 788 380 768T328 747ZM536 395V285H205V111H578V0H85V680H578V569H205V395H536Z"  />
<glyph unicode="&#x117;" horiz-adv-x="568" d="M301 557Q271 557 250 577T228 627Q228 657 249 677T301 697Q331 697 352 677T374 627Q374 598 353 578T301 557ZM293 489Q343 489 385 474T458 432T506 366T525 280Q525 265 525 255T524 235T522 216T518 193H167Q180 145 218 117T318 88Q350 88 389 94T487 114L503 20Q448 3 403 -6T314 -15Q247 -15 197 4T112 58T61 138T44 237Q44 295 63 341T115 421T194 471T293 489ZM296 398Q241 398 207 367T163 281H420Q418 335 384 366T296 398Z"  />
<glyph unicode="&#x118;" horiz-adv-x="634" d="M205 395H536V285H205V111H578V0H514Q483 -14 471 -28T459 -61Q459 -104 520 -104Q531 -104 540 -103T561 -99L572 -184Q563 -188 544 -191T505 -195Q441 -195 402 -164T363 -82Q363 -57 376 -37T415 0H85V680H578V569H205V395Z"  />
<glyph unicode="&#x119;" horiz-adv-x="568" d="M525 280Q525 265 525 255T524 235T522 216T518 193H167Q180 145 218 117T318 88Q350 88 389 94T487 114L503 20Q490 16 478 13T455 6Q416 -10 401 -25T386 -61Q386 -104 447 -104Q458 -104 467 -103T488 -99L499 -184Q490 -188 471 -191T432 -195Q368 -195 329 -164T290 -82Q290 -44 322 -15H314Q247 -15 197 4T112 58T61 138T44 237Q44 295 63 341T115 421T194 471T293 489Q343 489 385 474T458 432T506 366T525 280ZM420 281Q418 335 384 366T296 398Q241 398 207 367T163 281H420Z"  />
<glyph unicode="&#x11A;" horiz-adv-x="634" d="M277 737L157 889H271L328 816L386 889H500L379 737H277ZM536 395V285H205V111H578V0H85V680H578V569H205V395H536Z"  />
<glyph unicode="&#x11B;" horiz-adv-x="568" d="M249 561L129 713H243L300 640L358 713H471L351 561H249ZM293 489Q343 489 385 474T458 432T506 366T525 280Q525 265 525 255T524 235T522 216T518 193H167Q180 145 218 117T318 88Q350 88 389 94T487 114L503 20Q448 3 403 -6T314 -15Q247 -15 197 4T112 58T61 138T44 237Q44 295 63 341T115 421T194 471T293 489ZM296 398Q241 398 207 367T163 281H420Q418 335 384 366T296 398Z"  />
<glyph unicode="&#x11E;" horiz-adv-x="800" d="M577 899Q577 827 535 788T421 748Q349 748 307 787T265 899H363Q363 866 379 852T421 838Q446 838 462 852T478 899H577ZM733 59Q651 24 573 5T419 -15Q337 -15 270 10T156 83T82 196T56 343Q56 422 83 487T160 598T280 669T436 695Q486 695 546 688T670 665L646 553Q575 566 525 572T445 579Q386 579 338 562T255 514T201 440T182 343Q182 289 199 245T247 169T322 120T419 102Q464 102 517 110T619 132V280H374V391H733V59Z"  />
<glyph unicode="&#x11F;" horiz-adv-x="609" d="M472 708Q472 636 430 596T316 556Q244 556 202 596T160 708H258Q258 675 274 661T316 647Q341 647 357 661T373 708H472ZM282 488Q336 488 376 485T446 479T499 471T541 465V10Q541 -47 524 -95T473 -179T389 -233T271 -253Q231 -253 186 -244T101 -223L120 -128Q162 -136 199 -143T268 -150Q341 -150 382 -110T426 3Q378 -3 344 -4T273 -5Q222 -5 180 13T107 63T61 140T44 239Q44 295 60 341T106 419T180 470T282 488ZM298 391Q260 391 233 380T189 347T165 298T157 236Q157 206 166 180T193 134T235 103T290 92Q318 92 347 93T426 102V383Q397 387 366 389T298 391Z"  />
<glyph unicode="&#x120;" horiz-adv-x="800" d="M421 747Q391 747 370 767T348 817Q348 847 369 867T421 888Q451 888 472 868T494 817Q494 788 473 768T421 747ZM733 59Q651 24 573 5T419 -15Q337 -15 270 10T156 83T82 196T56 343Q56 422 83 487T160 598T280 669T436 695Q486 695 546 688T670 665L646 553Q575 566 525 572T445 579Q386 579 338 562T255 514T201 440T182 343Q182 289 199 245T247 169T322 120T419 102Q464 102 517 110T619 132V280H374V391H733V59Z"  />
<glyph unicode="&#x121;" horiz-adv-x="609" d="M316 557Q286 557 265 577T243 627Q243 657 264 677T316 697Q346 697 367 677T389 627Q389 598 368 578T316 557ZM282 488Q336 488 376 485T446 479T499 471T541 465V10Q541 -47 524 -95T473 -179T389 -233T271 -253Q231 -253 186 -244T101 -223L120 -128Q162 -136 199 -143T268 -150Q341 -150 382 -110T426 3Q378 -3 344 -4T273 -5Q222 -5 180 13T107 63T61 140T44 239Q44 295 60 341T106 419T180 470T282 488ZM298 391Q260 391 233 380T189 347T165 298T157 236Q157 206 166 180T193 134T235 103T290 92Q318 92 347 93T426 102V383Q397 387 366 389T298 391Z"  />
<glyph unicode="&#x122;" horiz-adv-x="800" d="M733 59Q651 24 573 5T419 -15Q337 -15 270 10T156 83T82 196T56 343Q56 422 83 487T160 598T280 669T436 695Q486 695 546 688T670 665L646 553Q575 566 525 572T445 579Q386 579 338 562T255 514T201 440T182 343Q182 289 199 245T247 169T322 120T419 102Q464 102 517 110T619 132V280H374V391H733V59ZM386 -168Q346 -153 346 -113Q346 -87 366 -69T413 -50Q441 -50 460 -68T480 -113Q480 -123 478 -131T470 -152T450 -187T414 -247H350L386 -168Z"  />
<glyph unicode="&#x123;" horiz-adv-x="609" d="M344 689Q384 674 384 634Q384 608 364 590T317 571Q289 571 270 589T250 634Q250 644 252 652T260 673T280 708T316 768H380L344 689ZM282 488Q336 488 376 485T446 479T499 471T541 465V10Q541 -47 524 -95T473 -179T389 -233T271 -253Q231 -253 186 -244T101 -223L120 -128Q162 -136 199 -143T268 -150Q341 -150 382 -110T426 3Q378 -3 344 -4T273 -5Q222 -5 180 13T107 63T61 140T44 239Q44 295 60 341T106 419T180 470T282 488ZM298 391Q260 391 233 380T189 347T165 298T157 236Q157 206 166 180T193 134T235 103T290 92Q318 92 347 93T426 102V383Q397 387 366 389T298 391Z"  />
<glyph unicode="&#x126;" horiz-adv-x="759" d="M674 484V0H555V278H205V0H85V484H42V583H85V680H205V583H555V680H674V583H717V484H674ZM205 484V389H555V484H205Z"  />
<glyph unicode="&#x127;" horiz-adv-x="618" d="M351 488Q442 488 495 439T549 304V0H434V271Q434 322 405 352T326 383Q263 383 194 368V0H79V579H29V661H79V710H194V661H327V579H194V473Q234 481 274 484T351 488Z"  />
<glyph unicode="&#x12A;" horiz-adv-x="290" d="M301 772H-11V865H301V772ZM205 0H85V680H205V0Z"  />
<glyph unicode="&#x12B;" horiz-adv-x="263" d="M271 585H-7V679H271V585ZM189 0H74V473H189V0Z"  />
<glyph unicode="&#x12E;" horiz-adv-x="290" d="M223 -177Q214 -181 195 -184T156 -188Q92 -188 53 -157T14 -75Q14 -46 32 -23T85 17V680H205V0H151Q128 -13 119 -25T110 -54Q110 -97 171 -97Q182 -97 191 -96T212 -92L223 -177Z"  />
<glyph unicode="&#x12F;" horiz-adv-x="263" d="M132 557Q102 557 81 577T59 627Q59 657 80 677T132 697Q162 697 183 677T205 627Q205 598 184 578T132 557ZM149 -104Q160 -104 169 -103T190 -99L201 -184Q192 -188 173 -191T134 -195Q70 -195 31 -164T-8 -82Q-8 -51 13 -26T74 15V473H189V0H143Q112 -14 100 -28T88 -61Q88 -104 149 -104Z"  />
<glyph unicode="&#x130;" horiz-adv-x="290" d="M145 754Q112 754 89 776T65 831Q65 864 88 886T145 908Q178 908 201 886T225 831Q225 799 202 777T145 754ZM205 0H85V680H205V0Z"  />
<glyph unicode="&#x131;" horiz-adv-x="263" d="M189 0H74V473H189V0Z"  />
<glyph unicode="&#x132;" horiz-adv-x="854" d="M205 0H85V680H205V0ZM779 262Q779 197 762 146T712 59T636 4T536 -15Q505 -15 479 -13T425 -6T369 6T305 25L327 132Q363 123 391 117T443 108T490 103T536 101Q589 101 623 142T658 261V680H779V262Z"  />
<glyph unicode="&#x133;" horiz-adv-x="543" d="M131 554Q99 554 77 575T54 629Q54 663 76 684T131 706Q163 706 185 685T208 629Q208 597 186 576T131 554ZM406 706Q438 706 461 685T484 629Q484 597 461 576T406 554Q374 554 351 575T328 629Q328 663 351 684T406 706ZM189 0H74V473H189V0ZM464 -14Q464 -70 455 -112T423 -184T358 -230T250 -247L240 -146Q274 -147 295 -140T328 -119T344 -81T349 -28V473H464V-14Z"  />
<glyph unicode="&#x136;" horiz-adv-x="703" d="M205 0H85V680H205V370H259L519 680H668L398 359L681 0H533L327 253H205V0ZM308 -168Q268 -153 268 -113Q268 -87 288 -69T335 -50Q363 -50 382 -68T402 -113Q402 -123 400 -131T392 -152T372 -187T336 -247H272L308 -168Z"  />
<glyph unicode="&#x137;" horiz-adv-x="580" d="M232 294L401 473H541L353 272L557 0H422L277 186H192V0H77V710H192V294H232ZM258 -168Q218 -153 218 -113Q218 -87 238 -69T285 -50Q313 -50 332 -68T352 -113Q352 -123 350 -131T342 -152T322 -187T286 -247H222L258 -168Z"  />
<glyph unicode="&#x139;" horiz-adv-x="596" d="M217 749H96L180 891H334L217 749ZM85 0V680H205V108H563V0H85Z"  />
<glyph unicode="&#x13A;" horiz-adv-x="275" d="M192 759H79L155 910H310L192 759ZM195 0H80V710H195V0Z"  />
<glyph unicode="&#x13B;" horiz-adv-x="596" d="M85 0V680H205V108H563V0H85ZM292 -168Q252 -153 252 -113Q252 -87 272 -69T319 -50Q347 -50 366 -68T386 -113Q386 -123 384 -131T376 -152T356 -187T320 -247H256L292 -168Z"  />
<glyph unicode="&#x13C;" horiz-adv-x="275" d="M195 0H80V710H195V0ZM107 -168Q67 -153 67 -113Q67 -87 87 -69T134 -50Q162 -50 181 -68T201 -113Q201 -123 199 -131T191 -152T171 -187T135 -247H71L107 -168Z"  />
<glyph unicode="&#x13D;" horiz-adv-x="596" d="M85 0V680H205V108H563V0H85ZM379 478H292L298 680H415L379 478Z"  />
<glyph unicode="&#x13E;" horiz-adv-x="275" d="M195 0H80V710H195V0ZM317 508H230L236 710H353L317 508Z"  />
<glyph unicode="&#x13F;" horiz-adv-x="596" d="M85 0V680H205V108H563V0H85ZM394 246Q363 246 342 266T321 317Q321 346 342 366T394 387Q424 387 445 367T466 317Q466 287 445 267T394 246Z"  />
<glyph unicode="&#x140;" horiz-adv-x="374" d="M195 0H80V710H195V0ZM318 261Q287 261 266 281T245 331Q245 360 266 380T318 401Q348 401 369 381T391 331Q391 301 370 281T318 261Z"  />
<glyph unicode="&#x141;" horiz-adv-x="596" d="M563 0H85V228L13 198V299L85 329V680H205V378L357 441V341L205 278V108H563V0Z"  />
<glyph unicode="&#x142;" horiz-adv-x="275" d="M195 316V0H80V267L16 239V339L80 367V710H195V416L262 445V345L195 316Z"  />
<glyph unicode="&#x143;" horiz-adv-x="779" d="M451 749H330L414 891H568L451 749ZM694 0H580L205 476V0H85V680H196L575 199V680H694V0Z"  />
<glyph unicode="&#x144;" horiz-adv-x="617" d="M360 563H247L323 714H477L360 563ZM349 488Q440 488 493 439T547 304V0H432V271Q432 322 403 352T324 383Q292 383 260 381T192 375V0H77V465Q96 469 128 473T197 480T274 486T349 488Z"  />
<glyph unicode="&#x145;" horiz-adv-x="779" d="M694 0H580L205 476V0H85V680H196L575 199V680H694V0ZM355 -176Q315 -161 315 -121Q315 -95 335 -77T382 -58Q410 -58 429 -76T449 -121Q449 -131 447 -139T439 -160T419 -195T383 -255H319L355 -176Z"  />
<glyph unicode="&#x146;" horiz-adv-x="617" d="M349 488Q440 488 493 439T547 304V0H432V271Q432 322 403 352T324 383Q292 383 260 381T192 375V0H77V465Q96 469 128 473T197 480T274 486T349 488ZM277 -168Q237 -153 237 -113Q237 -87 257 -69T304 -50Q332 -50 351 -68T371 -113Q371 -123 369 -131T361 -152T341 -187T305 -247H241L277 -168Z"  />
<glyph unicode="&#x147;" horiz-adv-x="779" d="M331 737L211 889H325L382 816L440 889H554L433 737H331ZM694 0H580L205 476V0H85V680H196L575 199V680H694V0Z"  />
<glyph unicode="&#x148;" horiz-adv-x="617" d="M257 561L137 713H251L308 640L366 713H480L359 561H257ZM349 488Q440 488 493 439T547 304V0H432V271Q432 322 403 352T324 383Q292 383 260 381T192 375V0H77V465Q96 469 128 473T197 480T274 486T349 488Z"  />
<glyph unicode="&#x14C;" horiz-adv-x="837" d="M575 772H263V865H575V772ZM418 695Q497 695 564 670T679 598T754 486T781 340Q781 260 754 195T679 83T564 11T418 -15Q338 -15 272 10T157 82T83 194T56 340Q56 420 82 485T157 597T271 669T418 695ZM419 98Q470 98 513 115T588 164T637 241T655 340Q655 394 638 439T589 515T514 564T419 582Q367 582 324 565T249 516T200 439T182 340Q182 286 199 241T248 165T323 116T419 98Z"  />
<glyph unicode="&#x14D;" horiz-adv-x="616" d="M448 585H170V679H448V585ZM309 494Q368 494 417 476T500 424T554 344T573 240Q573 182 554 135T501 53T417 1T309 -18Q250 -18 201 0T117 53T63 134T44 240Q44 297 63 344T117 424T201 475T309 494ZM309 87Q375 87 415 129T456 240Q456 308 416 348T309 389Q242 389 201 349T160 240Q160 171 201 129T309 87Z"  />
<glyph unicode="&#x150;" horiz-adv-x="837" d="M399 749H295L343 891H457L399 749ZM553 749H450L497 891H611L553 749ZM418 695Q497 695 564 670T679 598T754 486T781 340Q781 260 754 195T679 83T564 11T418 -15Q338 -15 272 10T157 82T83 194T56 340Q56 420 82 485T157 597T271 669T418 695ZM419 98Q470 98 513 115T588 164T637 241T655 340Q655 394 638 439T589 515T514 564T419 582Q367 582 324 565T249 516T200 439T182 340Q182 286 199 241T248 165T323 116T419 98Z"  />
<glyph unicode="&#x151;" horiz-adv-x="616" d="M286 561H183L230 704H344L286 561ZM440 561H337L384 704H498L440 561ZM309 494Q368 494 417 476T500 424T554 344T573 240Q573 182 554 135T501 53T417 1T309 -18Q250 -18 201 0T117 53T63 134T44 240Q44 297 63 344T117 424T201 475T309 494ZM309 87Q375 87 415 129T456 240Q456 308 416 348T309 389Q242 389 201 349T160 240Q160 171 201 129T309 87Z"  />
<glyph unicode="&#x152;" horiz-adv-x="998" d="M900 395V285H569V111H942V0H449Q364 0 292 23T168 91T86 197T56 340Q56 419 85 482T167 589T292 656T449 680H942V569H569V395H900ZM182 340Q182 231 251 173T449 113V567Q321 566 252 508T182 340Z"  />
<glyph unicode="&#x153;" horiz-adv-x="981" d="M938 280Q938 265 938 255T937 235T935 216T931 193H580Q593 145 631 117T731 88Q763 88 803 94T900 114L916 20Q861 3 816 -6T727 -15Q655 -15 602 7T515 69Q480 27 428 5T309 -18Q250 -18 201 0T117 53T63 134T44 240Q44 297 63 344T117 424T201 475T309 494Q375 494 428 472T516 407Q550 446 599 467T706 489Q756 489 798 474T871 432T919 366T938 280ZM834 281Q832 335 798 366T709 398Q654 398 620 367T576 281H834ZM309 87Q375 87 415 129T456 240Q456 308 416 348T309 389Q242 389 201 349T160 240Q160 171 201 129T309 87Z"  />
<glyph unicode="&#x154;" horiz-adv-x="671" d="M375 749H254L338 891H492L375 749ZM350 221Q338 220 326 220T301 220H205V0H85V680Q105 681 134 682T197 684T266 685T334 686Q395 686 445 671T532 627T587 555T607 456Q607 385 570 332T469 250L650 0H504L350 221ZM348 327Q378 327 404 336T449 363T479 403T490 456Q490 519 449 548T339 578Q307 578 274 578T205 576V327H348Z"  />
<glyph unicode="&#x155;" horiz-adv-x="401" d="M274 563H161L237 714H391L274 563ZM368 375Q322 375 280 374T192 368V0H77V459Q108 465 144 470T219 479T296 485T368 488V375Z"  />
<glyph unicode="&#x156;" horiz-adv-x="671" d="M350 221Q338 220 326 220T301 220H205V0H85V680Q105 681 134 682T197 684T266 685T334 686Q395 686 445 671T532 627T587 555T607 456Q607 385 570 332T469 250L650 0H504L350 221ZM348 327Q378 327 404 336T449 363T479 403T490 456Q490 519 449 548T339 578Q307 578 274 578T205 576V327H348ZM311 -168Q271 -153 271 -113Q271 -87 291 -69T338 -50Q366 -50 385 -68T405 -113Q405 -123 403 -131T395 -152T375 -187T339 -247H275L311 -168Z"  />
<glyph unicode="&#x157;" horiz-adv-x="401" d="M368 375Q322 375 280 374T192 368V0H77V459Q108 465 144 470T219 479T296 485T368 488V375ZM105 -168Q65 -153 65 -113Q65 -87 85 -69T132 -50Q160 -50 179 -68T199 -113Q199 -123 197 -131T189 -152T169 -187T133 -247H69L105 -168Z"  />
<glyph unicode="&#x158;" horiz-adv-x="671" d="M255 737L135 889H249L306 816L364 889H478L357 737H255ZM350 221Q338 220 326 220T301 220H205V0H85V680Q105 681 134 682T197 684T266 685T334 686Q395 686 445 671T532 627T587 555T607 456Q607 385 570 332T469 250L650 0H504L350 221ZM348 327Q378 327 404 336T449 363T479 403T490 456Q490 519 449 548T339 578Q307 578 274 578T205 576V327H348Z"  />
<glyph unicode="&#x159;" horiz-adv-x="401" d="M171 561L51 713H165L222 640L280 713H394L273 561H171ZM368 375Q322 375 280 374T192 368V0H77V459Q108 465 144 470T219 479T296 485T368 488V375Z"  />
<glyph unicode="&#x15A;" horiz-adv-x="679" d="M408 749H287L371 891H525L408 749ZM565 538Q503 558 441 569T333 581Q274 581 240 559T206 492Q206 470 217 455T250 430T304 411T377 395Q433 384 477 369T552 332T599 277T615 197Q615 143 595 104T539 38T453 -2T344 -15Q284 -15 209 -2T59 42L88 154Q163 124 230 111T349 98Q415 98 454 118T494 185Q494 215 477 233T432 262T367 281T294 296Q238 308 197 323T130 361T92 414T79 487Q79 533 97 571T149 635T230 675T336 690Q372 690 409 686T480 676T543 661T596 644L565 538Z"  />
<glyph unicode="&#x15B;" horiz-adv-x="526" d="M316 561H203L279 712H433L316 561ZM76 122Q135 99 184 90T270 80Q312 80 339 91T367 129Q367 146 355 156T323 173T278 185T227 195Q146 211 106 242T65 334Q65 406 119 446T266 486Q319 486 372 476T460 451L433 362Q385 376 340 385T260 394Q221 394 200 381T178 342Q178 327 187 318T212 302T252 292T303 281Q345 272 376 262T430 236T463 197T474 141Q474 100 459 71T415 23T349 -6T264 -15Q222 -15 166 -6T53 27L76 122Z"  />
<glyph unicode="&#x15E;" horiz-adv-x="679" d="M565 538Q503 558 441 569T333 581Q274 581 240 559T206 492Q206 470 217 455T250 430T304 411T377 395Q433 384 477 369T552 332T599 277T615 197Q615 143 595 104T539 38T453 -2T344 -15Q284 -15 209 -2T59 42L88 154Q163 124 230 111T349 98Q415 98 454 118T494 185Q494 215 477 233T432 262T367 281T294 296Q238 308 197 323T130 361T92 414T79 487Q79 533 97 571T149 635T230 675T336 690Q372 690 409 686T480 676T543 661T596 644L565 538ZM239 -209L284 -50H394L335 -209H239Z"  />
<glyph unicode="&#x15F;" horiz-adv-x="526" d="M76 122Q135 99 184 90T270 80Q312 80 339 91T367 129Q367 146 355 156T323 173T278 185T227 195Q146 211 106 242T65 334Q65 406 119 446T266 486Q319 486 372 476T460 451L433 362Q385 376 340 385T260 394Q221 394 200 381T178 342Q178 327 187 318T212 302T252 292T303 281Q345 272 376 262T430 236T463 197T474 141Q474 100 459 71T415 23T349 -6T264 -15Q222 -15 166 -6T53 27L76 122ZM168 -209L213 -50H323L264 -209H168Z"  />
<glyph unicode="&#x160;" horiz-adv-x="679" d="M288 737L168 889H282L339 816L397 889H511L390 737H288ZM565 538Q503 558 441 569T333 581Q274 581 240 559T206 492Q206 470 217 455T250 430T304 411T377 395Q433 384 477 369T552 332T599 277T615 197Q615 143 595 104T539 38T453 -2T344 -15Q284 -15 209 -2T59 42L88 154Q163 124 230 111T349 98Q415 98 454 118T494 185Q494 215 477 233T432 262T367 281T294 296Q238 308 197 323T130 361T92 414T79 487Q79 533 97 571T149 635T230 675T336 690Q372 690 409 686T480 676T543 661T596 644L565 538Z"  />
<glyph unicode="&#x161;" horiz-adv-x="526" d="M213 559L93 711H207L264 638L322 711H436L315 559H213ZM76 122Q135 99 184 90T270 80Q312 80 339 91T367 129Q367 146 355 156T323 173T278 185T227 195Q146 211 106 242T65 334Q65 406 119 446T266 486Q319 486 372 476T460 451L433 362Q385 376 340 385T260 394Q221 394 200 381T178 342Q178 327 187 318T212 302T252 292T303 281Q345 272 376 262T430 236T463 197T474 141Q474 100 459 71T415 23T349 -6T264 -15Q222 -15 166 -6T53 27L76 122Z"  />
<glyph unicode="&#x164;" horiz-adv-x="676" d="M287 737L167 889H281L338 816L396 889H510L389 737H287ZM398 0H278V569H30V680H646V569H398V0Z"  />
<glyph unicode="&#x165;" horiz-adv-x="455" d="M367 529H280L286 731H403L367 529ZM424 0Q408 -4 395 -6T368 -11T338 -14T300 -15Q214 -15 169 32T123 172V370H21V473H123V651H239V473H395V370H239V184Q239 136 258 112T322 88Q344 88 365 89T413 96L424 0Z"  />
<glyph unicode="&#x16A;" horiz-adv-x="760" d="M537 772H225V865H537V772ZM685 290Q685 219 663 163T601 67T505 6T380 -15Q311 -15 255 6T159 67T97 163T75 290V680H195V290Q195 199 245 148T380 97Q422 97 456 110T514 148T551 209T565 290V680H685V290Z"  />
<glyph unicode="&#x16B;" horiz-adv-x="619" d="M449 585H171V679H449V585ZM545 10Q526 6 494 2T425 -6T348 -12T274 -15Q229 -15 193 -5T130 27T90 84T75 169V473H190V196Q190 84 298 84Q361 84 430 93V473H545V10Z"  />
<glyph unicode="&#x16E;" horiz-adv-x="760" d="M380 940Q431 940 461 912T492 836Q492 788 462 760T380 731Q330 731 300 759T269 836Q269 884 299 912T380 940ZM380 790Q401 790 413 802T426 836Q426 856 414 868T380 881Q360 881 347 869T334 836Q334 815 347 803T380 790ZM685 290Q685 219 663 163T601 67T505 6T380 -15Q311 -15 255 6T159 67T97 163T75 290V680H195V290Q195 199 245 148T380 97Q422 97 456 110T514 148T551 209T565 290V680H685V290Z"  />
<glyph unicode="&#x16F;" horiz-adv-x="619" d="M309 753Q360 753 390 725T421 649Q421 601 391 573T309 544Q259 544 229 572T198 649Q198 697 228 725T309 753ZM309 603Q330 603 342 615T355 649Q355 669 343 681T309 694Q289 694 276 682T263 649Q263 628 276 616T309 603ZM545 10Q526 6 494 2T425 -6T348 -12T274 -15Q229 -15 193 -5T130 27T90 84T75 169V473H190V196Q190 84 298 84Q361 84 430 93V473H545V10Z"  />
<glyph unicode="&#x170;" horiz-adv-x="760" d="M361 749H257L305 891H419L361 749ZM515 749H412L459 891H573L515 749ZM685 290Q685 219 663 163T601 67T505 6T380 -15Q311 -15 255 6T159 67T97 163T75 290V680H195V290Q195 199 245 148T380 97Q422 97 456 110T514 148T551 209T565 290V680H685V290Z"  />
<glyph unicode="&#x171;" horiz-adv-x="619" d="M287 561H184L231 704H345L287 561ZM441 561H338L385 704H499L441 561ZM545 10Q526 6 494 2T425 -6T348 -12T274 -15Q229 -15 193 -5T130 27T90 84T75 169V473H190V196Q190 84 298 84Q361 84 430 93V473H545V10Z"  />
<glyph unicode="&#x172;" horiz-adv-x="760" d="M685 290Q685 177 631 102T482 -1Q447 -16 434 -31T421 -65Q421 -108 482 -108Q493 -108 502 -107T523 -103L534 -188Q525 -192 506 -195T467 -199Q403 -199 364 -168T325 -86Q325 -44 362 -15Q297 -12 244 10T154 72T96 167T75 290V680H195V290Q195 199 245 148T380 97Q422 97 456 110T514 148T551 209T565 290V680H685V290Z"  />
<glyph unicode="&#x173;" horiz-adv-x="619" d="M589 -180Q580 -184 561 -187T522 -191Q458 -191 419 -160T380 -78Q380 -38 416 -7Q380 -11 343 -13T274 -15Q229 -15 193 -5T130 27T90 84T75 169V473H190V196Q190 84 298 84Q361 84 430 93V473H545V10Q506 -6 491 -21T476 -57Q476 -100 537 -100Q548 -100 557 -99T578 -95L589 -180Z"  />
<glyph unicode="&#x174;" horiz-adv-x="1060" d="M472 749H359L479 891H581L702 749H588L530 821L472 749ZM696 0L530 476L364 0H250L24 680H151L310 185L479 680H581L749 185L909 680H1035L809 0H696Z"  />
<glyph unicode="&#x175;" horiz-adv-x="818" d="M351 566H238L358 704H460L581 566H467L410 630L351 566ZM520 0L409 307L298 0H187L30 473H147L248 156L365 473H454L570 155L671 473H788L632 0H520Z"  />
<glyph unicode="&#x176;" horiz-adv-x="728" d="M306 749H193L313 891H415L536 749H422L364 821L306 749ZM21 680H157L363 355L570 680H706L425 229V0H303V229L21 680Z"  />
<glyph unicode="&#x177;" horiz-adv-x="641" d="M149 567L269 705H371L492 567H378L321 631L262 567H149ZM272 -230H142L270 33L36 473H168L332 161L483 473H613L272 -230Z"  />
<glyph unicode="&#x178;" horiz-adv-x="728" d="M257 747Q226 747 205 767T184 817Q184 847 205 867T257 888Q287 888 308 868T329 817Q329 788 308 768T257 747ZM470 747Q440 747 419 767T398 817Q398 847 419 867T470 888Q501 888 522 868T543 817Q543 788 522 768T470 747ZM21 680H157L363 355L570 680H706L425 229V0H303V229L21 680Z"  />
<glyph unicode="&#x179;" horiz-adv-x="670" d="M405 749H284L368 891H522L405 749ZM230 111H613V0H54V74L440 569H68V680H609V606L230 111Z"  />
<glyph unicode="&#x17A;" horiz-adv-x="503" d="M298 563H185L261 714H415L298 563ZM210 100H467V0H44V56L291 374H49V474H450V410L210 100Z"  />
<glyph unicode="&#x17B;" horiz-adv-x="670" d="M336 747Q306 747 285 767T263 817Q263 847 284 867T336 888Q366 888 387 868T409 817Q409 788 388 768T336 747ZM230 111H613V0H54V74L440 569H68V680H609V606L230 111Z"  />
<glyph unicode="&#x17C;" horiz-adv-x="503" d="M247 557Q217 557 196 577T174 627Q174 657 195 677T247 697Q277 697 298 677T320 627Q320 598 299 578T247 557ZM210 100H467V0H44V56L291 374H49V474H450V410L210 100Z"  />
<glyph unicode="&#x17D;" horiz-adv-x="670" d="M285 737L165 889H279L336 816L394 889H508L387 737H285ZM230 111H613V0H54V74L440 569H68V680H609V606L230 111Z"  />
<glyph unicode="&#x17E;" horiz-adv-x="503" d="M195 561L75 713H189L246 640L304 713H418L297 561H195ZM210 100H467V0H44V56L291 374H49V474H450V410L210 100Z"  />
<glyph unicode="&#x192;" horiz-adv-x="554" d="M413 695Q442 695 465 691T511 679L494 584Q473 588 456 589T418 591Q380 591 362 567T335 488L325 417H495V314H311L294 189Q280 89 235 37T100 -15Q72 -15 49 -11T2 1L20 96Q40 92 57 91T96 89Q134 89 152 113T178 192L195 314H76V417H210L220 491Q234 591 279 643T413 695Z"  />
<glyph unicode="&#x1CD;" horiz-adv-x="780" d="M339 737L219 889H333L390 816L448 889H562L441 737H339ZM159 0H24L334 684H446L755 0H620L559 139H220L159 0ZM267 247H513L390 528L267 247Z"  />
<glyph unicode="&#x1CE;" horiz-adv-x="614" d="M264 561L144 713H258L315 640L373 713H487L366 561H264ZM282 488Q319 488 350 487T410 482T471 475T541 465V0H426V36Q393 12 356 -1T273 -15Q222 -15 180 3T107 54T61 135T44 239Q45 295 61 341T107 419T181 470T282 488ZM298 391Q260 391 234 380T190 347T165 298T157 236Q157 167 193 125T290 82Q324 82 357 93T426 133V383Q397 387 366 389T298 391Z"  />
<glyph unicode="&#x218;" horiz-adv-x="679" d="M565 538Q503 558 441 569T333 581Q274 581 240 559T206 492Q206 470 217 455T250 430T304 411T377 395Q433 384 477 369T552 332T599 277T615 197Q615 143 595 104T539 38T453 -2T344 -15Q284 -15 209 -2T59 42L88 154Q163 124 230 111T349 98Q415 98 454 118T494 185Q494 215 477 233T432 262T367 281T294 296Q238 308 197 323T130 361T92 414T79 487Q79 533 97 571T149 635T230 675T336 690Q372 690 409 686T480 676T543 661T596 644L565 538ZM295 -168Q255 -153 255 -113Q255 -87 275 -69T322 -50Q350 -50 369 -68T389 -113Q389 -123 387 -131T379 -152T359 -187T323 -247H259L295 -168Z"  />
<glyph unicode="&#x219;" horiz-adv-x="526" d="M76 122Q135 99 184 90T270 80Q312 80 339 91T367 129Q367 146 355 156T323 173T278 185T227 195Q146 211 106 242T65 334Q65 406 119 446T266 486Q319 486 372 476T460 451L433 362Q385 376 340 385T260 394Q221 394 200 381T178 342Q178 327 187 318T212 302T252 292T303 281Q345 272 376 262T430 236T463 197T474 141Q474 100 459 71T415 23T349 -6T264 -15Q222 -15 166 -6T53 27L76 122ZM237 -168Q197 -153 197 -113Q197 -87 217 -69T264 -50Q292 -50 311 -68T331 -113Q331 -123 329 -131T321 -152T301 -187T265 -247H201L237 -168Z"  />
<glyph unicode="&#x21A;" horiz-adv-x="676" d="M398 0H278V569H30V680H646V569H398V0ZM311 -168Q271 -153 271 -113Q271 -87 291 -69T338 -50Q366 -50 385 -68T405 -113Q405 -123 403 -131T395 -152T375 -187T339 -247H275L311 -168Z"  />
<glyph unicode="&#x21B;" horiz-adv-x="455" d="M424 0Q408 -4 395 -6T368 -11T338 -14T300 -15Q214 -15 169 32T123 172V370H21V473H123V651H239V473H395V370H239V184Q239 136 258 112T322 88Q344 88 365 89T413 96L424 0ZM234 -168Q194 -153 194 -113Q194 -87 214 -69T261 -50Q289 -50 308 -68T328 -113Q328 -123 326 -131T318 -152T298 -187T262 -247H198L234 -168Z"  />
<glyph unicode="&#x2C6;" horiz-adv-x="600" d="M242 566H129L249 704H351L472 566H358L301 630L242 566Z"  />
<glyph unicode="&#x2C7;" horiz-adv-x="600" d="M249 561L129 713H243L300 640L358 713H472L351 561H249Z"  />
<glyph unicode="&#x2D8;" horiz-adv-x="600" d="M456 708Q456 636 414 596T300 556Q228 556 186 596T144 708H242Q242 675 258 661T300 647Q325 647 341 661T357 708H456Z"  />
<glyph unicode="&#x2D9;" horiz-adv-x="600" d="M300 557Q270 557 249 577T227 627Q227 657 248 677T300 697Q330 697 351 677T373 627Q373 598 352 578T300 557Z"  />
<glyph unicode="&#x2DA;" horiz-adv-x="600" d="M297 753Q348 753 378 725T409 649Q409 601 379 573T297 544Q247 544 217 572T186 649Q186 697 216 725T297 753ZM297 603Q318 603 330 615T343 649Q343 669 331 681T297 694Q277 694 264 682T251 649Q251 628 264 616T297 603Z"  />
<glyph unicode="&#x2DB;" horiz-adv-x="600" d="M369 29Q330 13 315 -2T300 -38Q300 -81 361 -81Q372 -81 381 -80T402 -76L413 -161Q404 -165 385 -168T346 -172Q282 -172 243 -141T204 -59Q204 -15 245 16T359 55L369 29Z"  />
<glyph unicode="&#x2DC;" horiz-adv-x="600" d="M479 687Q479 642 462 614T420 573T366 561T314 575L265 606Q239 621 228 610T216 580H123Q123 625 140 653T182 694T236 706T288 691L338 660Q364 645 375 657T387 687H479Z"  />
<glyph unicode="&#x2DD;" horiz-adv-x="600" d="M277 561H174L221 704H335L277 561ZM431 561H328L375 704H489L431 561Z"  />
<glyph unicode="&#x326;" horiz-adv-x="0" d="M272 -172Q232 -157 232 -117Q232 -91 252 -73T299 -54Q327 -54 346 -72T366 -117Q366 -127 364 -135T356 -156T336 -191T300 -251H236L272 -172Z"  />
<glyph unicode="&#x1E80;" horiz-adv-x="1060" d="M476 749L359 891H513L589 749H476ZM696 0L530 476L364 0H250L24 680H151L310 185L479 680H581L749 185L909 680H1035L809 0H696Z"  />
<glyph unicode="&#x1E81;" horiz-adv-x="818" d="M346 563L228 714H383L458 563H346ZM520 0L409 307L298 0H187L30 473H147L248 156L365 473H454L570 155L671 473H788L632 0H520Z"  />
<glyph unicode="&#x1E82;" horiz-adv-x="1060" d="M600 749H479L563 891H717L600 749ZM696 0L530 476L364 0H250L24 680H151L310 185L479 680H581L749 185L909 680H1035L809 0H696Z"  />
<glyph unicode="&#x1E83;" horiz-adv-x="818" d="M474 563H361L437 714H591L474 563ZM520 0L409 307L298 0H187L30 473H147L248 156L365 473H454L570 155L671 473H788L632 0H520Z"  />
<glyph unicode="&#x1E84;" horiz-adv-x="1060" d="M423 747Q392 747 371 767T350 817Q350 847 371 867T423 888Q453 888 474 868T495 817Q495 788 474 768T423 747ZM636 747Q606 747 585 767T564 817Q564 847 585 867T636 888Q667 888 688 868T709 817Q709 788 688 768T636 747ZM696 0L530 476L364 0H250L24 680H151L310 185L479 680H581L749 185L909 680H1035L809 0H696Z"  />
<glyph unicode="&#x1E85;" horiz-adv-x="818" d="M304 697Q334 697 355 677T376 627Q376 598 355 578T304 557Q273 557 252 577T231 627Q231 657 252 677T304 697ZM517 697Q548 697 569 677T590 627Q590 598 569 578T517 557Q487 557 466 577T445 627Q445 657 466 677T517 697ZM520 0L409 307L298 0H187L30 473H147L248 156L365 473H454L570 155L671 473H788L632 0H520Z"  />
<glyph unicode="&#x1EF2;" horiz-adv-x="728" d="M310 749L193 891H347L423 749H310ZM21 680H157L363 355L570 680H706L425 229V0H303V229L21 680Z"  />
<glyph unicode="&#x1EF3;" horiz-adv-x="641" d="M161 715H315L391 564H278L161 715ZM272 -230H142L270 33L36 473H168L332 161L483 473H613L272 -230Z"  />
<glyph unicode="&#x2009;" horiz-adv-x="154" />
<glyph unicode="&#x2013;" horiz-adv-x="657" d="M577 206H80V321H577V206Z"  />
<glyph unicode="&#x2014;" horiz-adv-x="992" d="M912 206H80V321H912V206Z"  />
<glyph unicode="&#x2018;" horiz-adv-x="302" d="M182 640Q234 619 234 570Q234 536 209 513T149 489Q131 489 116 495T89 513T70 538T63 570Q63 583 65 593T77 623T105 676T155 769H239L182 640Z"  />
<glyph unicode="&#x2019;" horiz-adv-x="303" d="M118 622Q92 633 80 651T67 692Q67 726 91 749T151 773Q187 773 212 750T237 692Q237 680 235 669T223 639T195 586T145 494H61L118 622Z"  />
<glyph unicode="&#x201A;" horiz-adv-x="303" d="M118 -4Q66 17 66 66Q66 100 91 123T151 147Q169 147 184 141T211 123T230 98T237 66Q237 53 235 43T223 13T195 -41T145 -133H61L118 -4Z"  />
<glyph unicode="&#x201C;" horiz-adv-x="506" d="M181 640Q233 619 233 570Q233 553 227 539T209 513T182 496T148 489Q130 489 115 495T88 513T70 538T63 570Q63 582 65 593T77 623T104 676T154 768H238L181 640ZM385 640Q411 629 423 611T436 570Q436 536 412 513T352 489Q316 489 291 512T266 570Q266 582 268 593T280 623T308 676T358 768H442L385 640Z"  />
<glyph unicode="&#x201D;" horiz-adv-x="506" d="M153 776Q171 776 186 770T213 752T231 727T238 695Q238 683 236 672T224 642T197 589T147 497H63L119 625Q93 636 81 654T68 695Q68 712 74 726T92 752T119 769T153 776ZM356 776Q392 776 417 753T442 695Q442 683 440 672T428 642T400 589T350 497H266L323 625Q297 636 285 654T272 695Q272 729 296 752T356 776Z"  />
<glyph unicode="&#x201E;" horiz-adv-x="507" d="M118 -4Q66 17 66 66Q66 100 91 123T151 147Q169 147 184 141T211 123T230 98T237 66Q237 53 235 43T223 13T195 -41T145 -133H61L118 -4ZM322 -4Q296 7 284 25T271 66Q271 83 277 97T295 123T322 140T356 147Q374 147 389 141T416 123T434 98T441 66Q441 53 439 43T427 13T400 -41T349 -133H265L322 -4Z"  />
<glyph unicode="&#x2020;" horiz-adv-x="407" d="M242 309H165V525H47V602H165V720H242V602H360V525H242V309Z"  />
<glyph unicode="&#x2021;" horiz-adv-x="407" d="M360 487V410H242V309H165V410H47V487H165V547H47V624H165V720H242V624H360V547H242V487H360Z"  />
<glyph unicode="&#x2022;" horiz-adv-x="336" d="M168 167Q140 167 116 177T75 204T47 245T37 297Q37 325 47 349T74 390T116 417T168 427Q196 427 220 417T262 390T290 349T300 297Q300 269 290 245T262 204T220 177T168 167Z"  />
<glyph unicode="&#x2026;" horiz-adv-x="777" d="M151 -17Q116 -17 91 6T66 65Q66 82 72 97T90 123T117 140T151 147Q169 147 184 141T211 123T229 97T236 65Q236 30 211 7T151 -17ZM386 -17Q351 -17 326 6T301 65Q301 82 307 97T325 123T352 140T386 147Q404 147 419 141T446 123T464 97T471 65Q471 30 446 7T386 -17ZM626 -17Q609 -17 594 -11T567 6T548 32T541 65Q541 100 566 123T626 147Q644 147 659 141T686 123T705 97T712 65Q712 30 687 7T626 -17Z"  />
<glyph unicode="&#x2030;" horiz-adv-x="1514" d="M277 695Q319 695 354 681T416 642T457 581T472 502Q472 458 457 422T416 360T355 320T277 306Q236 306 201 320T139 359T98 421T83 502Q83 545 98 581T139 642T200 681T277 695ZM273 0L735 680H799L337 0H273ZM277 612Q232 612 201 582T170 502Q170 451 201 420T277 389Q323 389 354 420T385 502Q385 552 354 582T277 612ZM799 374Q840 374 875 360T937 321T978 259T993 180Q993 136 978 100T937 39T876 -1T799 -15Q758 -15 723 -1T661 38T620 100T605 180Q605 223 620 259T661 320T722 360T799 374ZM1237 374Q1278 374 1313 360T1375 321T1416 259T1431 180Q1431 136 1416 100T1375 39T1314 -1T1237 -15Q1195 -15 1160 -1T1098 38T1057 100T1042 180Q1042 223 1057 259T1098 320T1159 360T1237 374ZM799 291Q754 291 723 261T692 180Q692 129 723 99T799 68Q844 68 875 98T906 180Q906 230 875 260T799 291ZM1237 291Q1191 291 1160 261T1129 180Q1129 129 1160 99T1237 68Q1259 68 1278 76T1312 98T1335 133T1344 180Q1344 230 1313 260T1237 291Z"  />
<glyph unicode="&#x2039;" horiz-adv-x="361" d="M229 41L43 246L229 450L294 399L171 249L292 99L229 41Z"  />
<glyph unicode="&#x203A;" horiz-adv-x="361" d="M132 450L318 246L132 41L69 99L190 249L67 399L132 450Z"  />
<glyph unicode="&#x2044;" horiz-adv-x="492" d="M-21 0L441 680H505L43 0H-21Z"  />
<glyph unicode="&#x2070;" horiz-adv-x="467" d="M234 686Q279 686 316 672T379 631T419 567T434 484Q434 438 420 401T379 337T316 296T234 281Q189 281 153 295T90 336T49 400T34 484Q34 529 48 566T89 630T152 671T234 686ZM234 362Q283 362 313 395T344 484Q344 538 314 571T234 605Q186 605 155 572T124 484Q124 429 155 396T234 362Z"  />
<glyph unicode="&#x2074;" horiz-adv-x="399" d="M390 450V374H332V292H245V374H19V437L239 680H332V450H390ZM245 450V581L130 450H245Z"  />
<glyph unicode="&#x2075;" horiz-adv-x="381" d="M205 538Q274 536 310 504T347 417Q347 388 336 364T305 322T256 294T191 284Q143 284 108 291T37 317L66 392Q97 378 124 370T185 362Q220 362 242 376T264 414Q264 434 245 444T196 457L70 463L87 680H332V600H162L157 540L205 538Z"  />
<glyph unicode="&#x2076;" horiz-adv-x="398" d="M209 580Q278 577 321 539T365 433Q365 398 353 370T318 321T266 290T199 278Q162 278 132 289T80 321T46 369T34 433Q34 459 42 481T64 524L173 680H278L209 580ZM199 355Q234 355 256 376T279 433Q279 467 257 486T199 506Q163 506 142 486T120 433Q120 398 142 377T199 355Z"  />
<glyph unicode="&#x2077;" horiz-adv-x="327" d="M163 292H64L204 596H16V680H311V626L163 292Z"  />
<glyph unicode="&#x2078;" horiz-adv-x="363" d="M271 488Q310 474 326 451T343 396Q343 371 332 350T299 314T248 290T182 281Q108 281 64 313T20 396Q20 428 36 451T92 488Q60 502 47 523T34 573Q34 625 75 655T182 686Q247 686 288 656T329 573Q329 544 316 523T271 488ZM126 566Q126 542 141 529T182 516Q208 516 223 529T238 566Q238 586 223 601T182 616Q156 616 141 601T126 566ZM182 351Q212 351 230 366T247 406Q248 431 230 445T182 460Q151 460 133 446T115 406Q114 382 132 367T182 351Z"  />
<glyph unicode="&#x2079;" horiz-adv-x="390" d="M338 458L330 447L329 446L221 291H116L185 390Q116 393 73 432T29 538Q29 572 41 601T76 650T128 681T195 693Q232 693 262 682T314 650T348 601T360 538Q360 515 355 496T339 460L338 458ZM115 538Q115 504 137 484T195 464Q231 464 252 485T274 538Q274 573 252 594T195 615Q160 615 138 594T115 538Z"  />
<glyph unicode="&#x2080;" horiz-adv-x="467" d="M235 217Q280 217 317 203T380 162T420 98T435 15Q435 -31 421 -68T380 -132T317 -173T235 -188Q190 -188 154 -174T91 -133T50 -69T35 15Q35 60 49 97T90 161T153 202T235 217ZM235 -107Q284 -107 314 -74T345 15Q345 69 315 102T235 136Q187 136 156 103T125 15Q125 -40 156 -73T235 -107Z"  />
<glyph unicode="&#x2081;" horiz-adv-x="306" d="M276 -180H22V-102H106V100L28 78L8 157L170 208H195V-102H276V-180Z"  />
<glyph unicode="&#x2082;" horiz-adv-x="351" d="M27 -180V-121L169 7Q189 22 201 38T213 80Q213 109 196 121T147 133Q130 133 106 130T43 114L24 192Q52 203 89 209T161 216Q201 216 228 205T273 177T299 138T307 93Q307 46 280 9T211 -66L169 -104H318V-180H27Z"  />
<glyph unicode="&#x2083;" horiz-adv-x="361" d="M207 48L214 47Q267 42 297 13T328 -57Q328 -118 290 -153T164 -188Q131 -188 94 -181T22 -155L53 -85Q111 -111 167 -111Q203 -111 224 -99T245 -65Q245 -47 231 -37T187 -26H87V17L188 128H44V208H310V154L207 48Z"  />
<glyph unicode="&#x2084;" horiz-adv-x="399" d="M390 -22V-98H332V-180H245V-98H19V-35L239 208H332V-22H390ZM245 -22V109L130 -22H245Z"  />
<glyph unicode="&#x2085;" horiz-adv-x="381" d="M205 66Q274 64 310 32T347 -55Q347 -84 336 -108T305 -150T256 -178T191 -188Q143 -188 108 -181T37 -155L66 -80Q97 -94 124 -102T185 -110Q220 -110 242 -96T264 -58Q264 -38 245 -28T196 -15L70 -9L87 208H332V128H162L157 68L205 66Z"  />
<glyph unicode="&#x2086;" horiz-adv-x="398" d="M209 108Q278 105 321 67T365 -39Q365 -74 353 -102T318 -151T266 -182T199 -194Q162 -194 132 -183T80 -151T46 -103T34 -39Q34 -13 42 9T64 52L173 208H278L209 108ZM199 -117Q234 -117 256 -96T279 -39Q279 -5 257 14T199 34Q163 34 142 14T120 -39Q120 -74 142 -95T199 -117Z"  />
<glyph unicode="&#x2087;" horiz-adv-x="327" d="M163 -180H64L204 124H16V208H311V154L163 -180Z"  />
<glyph unicode="&#x2088;" horiz-adv-x="363" d="M271 19Q310 5 326 -18T343 -73Q343 -98 332 -119T299 -155T248 -179T182 -188Q108 -188 64 -156T20 -73Q20 -41 36 -18T92 19Q60 33 47 54T34 104Q34 156 75 186T182 217Q247 217 288 187T329 104Q329 75 316 54T271 19ZM126 97Q126 73 141 60T182 47Q208 47 223 60T238 97Q238 117 223 132T182 147Q156 147 141 132T126 97ZM182 -118Q212 -118 230 -103T247 -63Q248 -38 230 -24T182 -9Q151 -9 133 -23T115 -63Q114 -87 132 -102T182 -118Z"  />
<glyph unicode="&#x2089;" horiz-adv-x="390" d="M338 -12L330 -23L329 -24L221 -179H116L185 -80Q116 -77 73 -38T29 68Q29 102 41 131T76 180T128 211T195 223Q232 223 262 212T314 180T348 131T360 68Q360 45 355 26T339 -10L338 -12ZM115 68Q115 34 137 14T195 -6Q231 -6 252 15T274 68Q274 103 252 124T195 145Q160 145 138 124T115 68Z"  />
<glyph unicode="&#x20AC;" horiz-adv-x="760" d="M468 695Q521 695 584 684T703 655L681 547Q624 561 571 568T484 576Q406 576 351 541T270 446H530L508 364H249Q248 357 248 350T248 336Q248 328 249 318T252 296H492L472 214H279Q305 160 355 131T473 101Q508 101 564 109T684 132L706 27Q646 7 582 -4T467 -15Q405 -15 352 1T257 46T184 118T137 214H56V296H121Q118 318 118 335V364H56V446H131Q145 503 175 549T248 628T347 677T468 695Z"  />
<glyph unicode="&#x2116;" horiz-adv-x="1410" d="M1065 683Q1124 683 1173 665T1256 613T1310 533T1329 429Q1329 371 1310 324T1257 242T1173 190T1065 171Q1006 171 957 189T873 242T819 323T800 429Q800 486 819 533T873 613T957 664T1065 683ZM694 0H580L205 476V0H85V680H196L575 199V680H694V0ZM1065 276Q1132 276 1172 318T1213 429Q1213 497 1173 537T1065 578Q999 578 958 538T917 429Q917 360 958 318T1065 276ZM1302 102V0H824V102H1302Z"  />
<glyph unicode="&#x2117;" horiz-adv-x="842" d="M421 695Q499 695 566 668T681 594T758 481T786 340Q786 264 758 199T682 87T566 12T421 -15Q343 -15 276 12T161 86T84 199T56 340Q56 416 84 481T160 593T276 668T421 695ZM421 642Q355 642 299 619T201 556T136 460T112 340Q112 276 135 221T200 125T298 61T421 38Q487 38 543 61T641 124T706 220T730 340Q730 404 707 459T642 555T544 619T421 642ZM431 539Q514 539 557 505T600 406Q600 370 587 344T552 302T502 278T443 270H376V155H293V536Q300 536 319 536T359 537T401 538T431 539ZM442 465Q427 465 411 465T376 464V343H448Q479 343 499 361T519 408Q519 437 498 451T442 465Z"  />
<glyph unicode="&#x2122;" horiz-adv-x="739" d="M192 611V371H119V611H14V680H296V611H192ZM546 371H483L413 533L404 371H335L348 680H418L516 463L609 680H677L696 371H624L616 533L546 371Z"  />
<glyph unicode="&#x215B;" horiz-adv-x="953" d="M73 370H157V572L79 550L59 629L221 680H246V370H327V292H73V370ZM264 0H200L662 680H726L264 0ZM810 199Q849 185 865 162T882 107Q882 82 871 61T838 25T787 1T721 -8Q647 -8 603 24T559 107Q559 139 575 162T631 199Q599 213 586 234T573 284Q573 336 614 366T721 397Q786 397 827 367T868 284Q868 255 855 234T810 199ZM721 327Q695 327 680 312T665 277Q665 253 680 240T721 227Q747 227 762 240T777 277Q777 297 762 312T721 327ZM721 62Q751 62 769 77T786 117Q787 142 769 156T721 171Q690 171 672 157T654 117Q653 93 671 78T721 62Z"  />
<glyph unicode="&#x215C;" horiz-adv-x="954" d="M231 520L238 519Q291 514 321 485T352 415Q352 354 314 319T188 284Q155 284 118 291T46 317L77 387Q135 361 191 361Q227 361 248 373T269 407Q269 425 255 435T211 446H111V489L212 600H68V680H334V626L231 520ZM198 0L660 680H725L263 0H198ZM807 199Q846 185 862 162T879 107Q879 82 868 61T835 25T784 1T718 -8Q644 -8 600 24T556 107Q556 139 572 162T628 199Q596 213 583 234T570 284Q570 336 611 366T718 397Q783 397 824 367T865 284Q865 255 852 234T807 199ZM662 277Q662 253 677 240T718 227Q744 227 759 240T774 277Q774 297 759 312T718 327Q692 327 677 312T662 277ZM718 62Q748 62 766 77T783 117Q784 142 766 156T718 171Q687 171 669 157T651 117Q650 93 668 78T718 62Z"  />
<glyph unicode="&#x215D;" horiz-adv-x="966" d="M208 538Q277 536 313 504T350 417Q350 388 339 364T308 322T259 294T194 284Q146 284 111 291T40 317L69 392Q100 378 127 370T188 362Q223 362 245 376T267 414Q267 434 248 444T199 457L73 463L90 680H335V600H165L160 540L208 538ZM201 0L663 680H727L265 0H201ZM820 199Q859 185 875 162T892 107Q892 82 881 61T848 25T797 1T731 -8Q657 -8 613 24T569 107Q569 139 585 162T641 199Q609 213 596 234T583 284Q583 336 624 366T731 397Q796 397 837 367T878 284Q878 255 865 234T820 199ZM675 277Q675 253 690 240T731 227Q757 227 772 240T787 277Q787 297 772 312T731 327Q705 327 690 312T675 277ZM731 62Q761 62 779 77T797 117Q797 142 779 156T731 171Q700 171 682 157T664 117Q663 93 681 78T731 62Z"  />
<glyph unicode="&#x215E;" horiz-adv-x="909" d="M219 292H120L260 596H72V680H367V626L219 292ZM146 0L608 680H673L211 0H146ZM763 199Q802 185 818 162T835 107Q835 82 824 61T791 25T740 1T674 -8Q600 -8 557 24T513 107Q513 139 529 162T585 199Q552 213 540 234T527 284Q527 336 568 366T674 397Q740 397 780 367T821 284Q821 255 809 234T763 199ZM619 277Q619 253 634 240T674 227Q700 227 715 240T731 277Q731 297 716 312T674 327Q649 327 634 312T619 277ZM674 62Q704 62 722 77T740 117Q741 142 723 156T674 171Q644 171 625 157T607 117Q606 93 625 78T674 62Z"  />
<glyph unicode="&#x2190;" horiz-adv-x="752" d="M436 61L357 -9L31 342L350 686L430 615L223 397H715V288H222L436 61Z"  />
<glyph unicode="&#x2191;" horiz-adv-x="769" d="M326 492L108 285L37 365L381 684L732 358L662 278L435 493V0H326V492Z"  />
<glyph unicode="&#x2192;" horiz-adv-x="752" d="M529 397L323 615L402 686L722 342L395 -9L316 61L530 288H37V397H529Z"  />
<glyph unicode="&#x2193;" horiz-adv-x="769" d="M662 401L732 323L381 -5L37 315L108 394L325 188V680H437V187L662 401Z"  />
<glyph unicode="&#x2196;" horiz-adv-x="795" d="M179 498V211H72V680H555V574H253L753 69L683 -2L179 498Z"  />
<glyph unicode="&#x2197;" horiz-adv-x="795" d="M240 574V680H723V211H616V498L112 -2L41 69L542 574H240Z"  />
<glyph unicode="&#x2198;" horiz-adv-x="795" d="M616 182V469H723V0H240V106H542L41 611L112 682L616 182Z"  />
<glyph unicode="&#x2199;" horiz-adv-x="795" d="M555 106V0H72V469H179V182L683 682L753 611L253 106H555Z"  />
<glyph unicode="&#x2212;" horiz-adv-x="685" d="M581 383V277H104V383H581Z"  />
<glyph unicode="&#x25B2;" horiz-adv-x="973" d="M903 0H70L485 691L903 0Z"  />
<glyph unicode="&#x25B4;" horiz-adv-x="484" d="M425 187H58L241 491L425 187Z"  />
<glyph unicode="&#x25B8;" horiz-adv-x="433" d="M85 150V518L388 334L85 150Z"  />
<glyph unicode="&#x25BC;" horiz-adv-x="973" d="M485 -11L70 680H903L485 -11Z"  />
<glyph unicode="&#x25BE;" horiz-adv-x="484" d="M242 167L58 471H426L242 167Z"  />
<glyph unicode="&#x25C2;" horiz-adv-x="433" d="M45 334L348 518V150L45 334Z"  />
<glyph unicode="&#xFB01;" horiz-adv-x="644" d="M590 0H475V370H236V0H121V370H9V473H121V526Q121 580 139 622T188 692T264 736T360 751Q391 751 417 746T466 732T512 710T561 680L505 598Q470 623 437 635T367 647Q303 647 270 615T236 522V473H590V0Z"  />
<glyph unicode="&#xFB02;" horiz-adv-x="676" d="M481 0V620Q465 627 452 632T424 640T394 645T359 647Q295 647 266 615T236 524V473H407V370H236V0H121V370H9V473H121V527Q121 635 179 693T354 751Q393 751 425 742T487 721L596 714V0H481Z"  />


</font>
</defs>
<text x="40" y="40" font-family="Canaro W00 Medium" font-size="30" fill="#933" >ABCDEFGHIJKLMNOPQRSTUVWXYZ abcdefghijklmnopqrstuvwxyz AÁÀÂÄÅÃÆ CÇ DÐ EÉÈÊË I Í Ì Î Ï NÑ</text>
<text x="40" y="80" font-family="Canaro W00 Medium" font-size="30" fill="#933" >OÓÒÔÖÕØŒ SŠ UÚÙÛÜ YÝŸ ZŽ Þ aáàâäåãæ cç dð eéèêë i ı í ì î ï nñ oóòôöõøœ sšß uúùûü yýÿ zž</text>
<text x="40" y="120" font-family="Canaro W00 Medium" font-size="30" fill="#933" >þ 1234567890 ½ ¼ ¾ % ‰ $¢£¥ƒ€¤ † ‡ § ¶ # ^~µ +×± &lt; = &gt; ÷¬ !¡?¿ &quot; &amp; &apos; * ° . , : ; () [ \ ] {} / |</text>
<text x="40" y="160" font-family="Canaro W00 Medium" font-size="30" fill="#933" >¦ _ ‚ „ … ‹› «» ‘ ’ “ ” • ­ - – — @ © ® ™ ªº ¹²³ ´ ` ˆ ˜ ¨ ¯ · ¸</text>
</svg>
