<?xml  version="1.0" encoding="UTF-8"?>
<!DOCTYPE svg PUBLIC "-//W3C//DTD SVG 1.0//EN" "http://www.w3.org/TR/2001/REC-SVG-20010904/DTD/svg10.dtd" >
<svg xmlns="http://www.w3.org/2000/svg" >
<metadata>
<version>1.0</version>
<id><![CDATA[Serifa W01 Thin]]></id>
<vendor>Monotype Imaging Inc.</vendor>
<credits>
<name>Fonts.com WebFonts</name>
<URL>http://webfonts.fonts.com</URL>
<role>Home of the Web fonts</role>
</credits>
<license>
<URL>http://webfonts.fonts.com/Legal</URL>
</license>
<copyright><![CDATA[Copyright 1990-2003 Bitstream Inc. All rights reserved.]]></copyright>
<trademark></trademark>
<licensee>
<name></name>
</licensee>
</metadata>
<defs >
<font horiz-adv-x="1081" id="e525116a-38f4-439a-94e5-069ae2efa33e">
<font-face font-family="Serifa W01 Thin" panose-1="2 6 3 3 3 5 5 2 2 4" ascent="1837" descent="-483" units-per-em="2048" alphabetic="0">
</font-face>
<missing-glyph horiz-adv-x="0" />

<glyph unicode="&#xA;" />
<glyph unicode="&#xD;" horiz-adv-x="0" />
<glyph unicode=" " horiz-adv-x="492" />
<glyph unicode="!" horiz-adv-x="522" d="M301 0H219V115H301V0ZM276 264H244L231 1313H291L276 264Z"  />
<glyph unicode="&quot;" horiz-adv-x="530" d="M102 1434H172V881H102V1434ZM358 1434H428V881H358V1434Z"  />
<glyph unicode="#" horiz-adv-x="1575" d="M819 1452H915L735 944H1010L1190 1452H1284L1106 944H1432L1409 870H1077L975 580H1331L1309 506H950L772 2H676L856 506H580L399 2H305L483 506H143L166 580H508L614 870H242L264 944H639L819 1452ZM709 870L608 580H881L981 870H709Z"  />
<glyph unicode="$" horiz-adv-x="983" d="M526 647V47Q683 47 775 129T868 350Q868 458 785 531T526 647ZM139 449Q161 260 246 161T485 47V664Q276 714 188 790T100 997Q100 1137 206 1225T485 1313V1501H526V1313Q646 1298 723 1245T856 1090V1292H893V883H856Q851 1049 766 1150T526 1272V705Q733 654 827 568T922 346Q922 191 815 97T527 0L526 -170H485V2Q363 10 278 68T135 242V31H98V449H139ZM485 717V1274Q337 1272 248 1197T158 1001Q158 889 226 828T485 717Z"  />
<glyph unicode="%" horiz-adv-x="1460" d="M399 -31H354L1067 1341H1110L399 -31ZM195 993Q195 840 242 763T383 686Q476 686 522 763T569 993Q569 1146 523 1223T383 1300Q289 1300 242 1223T195 993ZM383 643Q270 643 213 730T156 991Q156 1165 213 1253T383 1341Q495 1341 551 1254T608 991Q608 818 552 731T383 643ZM895 324Q895 170 942 93T1083 16Q1176 16 1223 93T1270 324Q1270 476 1223 553T1083 631Q989 631 942 554T895 324ZM1081 -29Q969 -29 912 59T854 322Q854 495 911 583T1081 672Q1194 672 1250 584T1307 322Q1307 148 1250 60T1081 -29Z"  />
<glyph unicode="&amp;" horiz-adv-x="1329" d="M451 764Q596 823 667 900T739 1075Q739 1175 670 1234T483 1294Q378 1294 313 1241T248 1100Q248 1027 291 953T451 764ZM436 705Q278 647 202 558T125 342Q125 193 225 104T494 14Q620 14 714 62T893 221L436 705ZM924 266Q984 358 1015 471T1047 713V737H897V778H1278V737H1098V725Q1098 578 1063 455T956 227L1122 47H1352V0H1098L926 186Q839 73 736 20T498 -33Q303 -33 187 72T70 348Q70 482 149 578T395 741Q282 862 239 939T195 1090Q195 1204 275 1271T489 1339Q627 1339 711 1268T795 1079Q795 966 716 876T483 725L924 266Z"  />
<glyph unicode="&apos;" horiz-adv-x="274" d="M102 1434H172V881H102V1434Z"  />
<glyph unicode="(" horiz-adv-x="561" d="M471 1341Q327 1123 260 920T193 500Q193 269 260 65T471 -350H424Q278 -145 210 55T141 477Q141 709 210 919T424 1341H471Z"  />
<glyph unicode=")" horiz-adv-x="561" d="M111 1341H158Q306 1132 373 933T440 514Q440 283 372 73T158 -350H111Q254 -132 321 72T389 494Q389 724 323 927T111 1341Z"  />
<glyph unicode="*" horiz-adv-x="1024" d="M489 1313H537L530 1044L784 1133L801 1087L543 1008L705 793L666 764L512 985L358 766L319 793L481 1008L225 1087L240 1133L494 1044L489 1313Z"  />
<glyph unicode="+" horiz-adv-x="1706" d="M823 1221H885V641H1452V580H885V0H823V580H254V641H823V1221Z"  />
<glyph unicode="&#x2c;" horiz-adv-x="492" d="M242 0H199V109H289V-10L203 -242H158L242 0Z"  />
<glyph unicode="-" horiz-adv-x="674" d="M94 436V483H578V436H94Z"  />
<glyph unicode="." horiz-adv-x="492" d="M289 0H203V113H289V0Z"  />
<glyph unicode="/" horiz-adv-x="674" d="M57 -190H14L616 1337H659L57 -190Z"  />
<glyph unicode="0" horiz-adv-x="983" d="M492 -29Q295 -29 193 146T90 657Q90 993 192 1167T492 1341Q688 1341 790 1167T893 657Q893 322 791 147T492 -29ZM143 659Q143 340 230 179T492 18Q665 18 752 179T840 659Q840 979 753 1138T492 1298Q318 1298 231 1139T143 659Z"  />
<glyph unicode="1" horiz-adv-x="983" d="M786 0H311V47H524V1251Q455 1179 375 1114T203 987V1049Q282 1100 361 1165T524 1313H571V47H786V0Z"  />
<glyph unicode="2" horiz-adv-x="983" d="M84 0V68L662 717Q734 799 767 872T801 1024Q801 1146 722 1221T514 1296Q360 1296 273 1202T182 940H129Q135 1131 234 1234T510 1337Q668 1337 762 1249T856 1014Q856 933 821 855T711 694L131 47H846V260H885V0H84Z"  />
<glyph unicode="3" horiz-adv-x="983" d="M115 370H164Q172 202 256 110T487 18Q635 18 726 108T817 342Q817 491 724 567T436 651V700H451Q627 700 715 774T803 995Q803 1131 717 1214T489 1298Q345 1298 264 1214T174 971H127Q130 1144 228 1242T498 1341Q657 1341 756 1246T856 997Q856 872 794 791T606 672Q737 641 805 556T874 338Q874 182 764 76T485 -31Q316 -31 218 76T115 370Z"  />
<glyph unicode="4" horiz-adv-x="983" d="M715 47V420H53V487L698 1313H762V465H971V420H762V47H948V0H502V47H715ZM715 465V1257L96 465H715Z"  />
<glyph unicode="5" horiz-adv-x="983" d="M195 674Q255 762 334 805T514 848Q691 848 795 734T899 426Q899 220 786 96T485 -29Q314 -29 217 73T119 354H168Q171 197 255 109T485 20Q647 20 746 130T846 418Q846 598 756 700T510 803Q398 803 316 741T193 563H147L178 1313H848V1270H219L195 674Z"  />
<glyph unicode="6" horiz-adv-x="983" d="M164 629Q213 734 299 789T504 844Q692 844 793 731T895 406Q895 201 792 86T506 -29Q301 -29 205 105T109 524Q109 928 221 1134T555 1341Q707 1341 789 1256T874 1010H825Q818 1148 751 1223T565 1298Q376 1298 280 1138T164 629ZM508 18Q667 18 755 121T844 410Q844 593 755 697T510 801Q350 801 260 698T170 410Q170 225 259 122T508 18Z"  />
<glyph unicode="7" horiz-adv-x="983" d="M352 0H291Q443 372 851 1208L881 1270H154V1034H113V1313H926V1233Q789 969 649 668T352 0Z"  />
<glyph unicode="8" horiz-adv-x="983" d="M643 676Q762 639 824 553T887 338Q887 173 782 72T500 -29Q330 -29 223 76T115 348Q115 472 179 557T365 678Q247 721 189 803T131 1010Q131 1160 230 1251T494 1343Q666 1343 768 1253T870 1010Q870 881 812 796T643 676ZM502 700Q651 700 735 780T819 1001Q819 1142 735 1221T502 1300Q352 1300 267 1221T182 1001Q182 860 266 780T502 700ZM500 20Q658 20 747 105T836 340Q836 490 747 573T500 657Q343 657 255 573T166 340Q166 190 254 105T500 20Z"  />
<glyph unicode="9" horiz-adv-x="983" d="M840 684Q791 578 704 523T500 467Q311 467 209 581T106 907Q106 1111 209 1226T496 1341Q700 1341 796 1208T893 788Q893 383 780 176T446 -31Q295 -31 214 54T129 301H176Q184 163 251 89T436 14Q626 14 723 175T840 684ZM496 1292Q336 1292 247 1190T158 903Q158 720 247 615T494 510Q653 510 743 614T834 903Q834 1087 745 1189T496 1292Z"  />
<glyph unicode=":" horiz-adv-x="492" d="M289 0H203V113H289V0ZM289 807H203V920H289V807Z"  />
<glyph unicode=";" horiz-adv-x="492" d="M244 0H203V109H291V-10L205 -242H162L244 0ZM291 807H207V920H291V807Z"  />
<glyph unicode="&lt;" horiz-adv-x="1706" d="M1442 1112V1042L373 610L1442 178V109L264 590V631L1442 1112Z"  />
<glyph unicode="=" horiz-adv-x="1706" d="M254 819H1452V756H254V819ZM254 465H1452V401H254V465Z"  />
<glyph unicode="&gt;" horiz-adv-x="1706" d="M264 1112L1442 631V590L264 109V178L1331 610L264 1042V1112Z"  />
<glyph unicode="?" horiz-adv-x="895" d="M434 0H354V115H434V0ZM424 260H375V307Q375 433 405 507T515 654Q531 669 567 699Q752 854 752 1014Q752 1140 667 1218T444 1296Q311 1296 234 1213T150 977H96Q110 1157 197 1247T446 1337Q606 1337 703 1246T801 1004Q801 828 605 668Q568 638 550 622Q480 559 451 489T422 311Q422 303 423 287T424 260Z"  />
<glyph unicode="@" horiz-adv-x="2048" d="M1292 723Q1269 825 1207 878T1049 932Q893 932 788 793T682 446Q682 326 741 260T905 193Q1020 193 1107 266T1227 465L1292 723ZM1194 317Q1147 230 1070 180T905 129Q751 129 671 211T590 453Q590 679 725 837T1051 995Q1149 995 1213 951T1309 819L1370 954H1436L1298 408Q1282 344 1278 322T1274 287Q1274 242 1306 218T1399 193Q1469 193 1540 226T1667 317Q1748 403 1793 525T1839 778Q1839 1048 1636 1216T1106 1384Q940 1384 797 1337T539 1196Q381 1069 299 894T217 508Q217 181 439 -17T1032 -215Q1196 -215 1360 -165T1663 -23L1686 -57Q1542 -164 1381 -218T1042 -272Q852 -272 698 -227T426 -92Q275 23 201 176T127 524Q127 685 176 828T324 1090Q466 1263 667 1353T1114 1444Q1272 1444 1416 1400T1663 1278Q1790 1180 1855 1053T1921 776Q1921 610 1859 472T1681 242Q1612 188 1535 160T1378 131Q1284 131 1237 166T1190 272Q1190 279 1190 288T1194 317Z"  />
<glyph unicode="A" horiz-adv-x="1317" d="M14 0V47H113L616 1313H702L1206 47H1305V0H946V47H1147L965 508H354L172 47H362V0H14ZM371 553H948L659 1282L371 553Z"  />
<glyph unicode="B" horiz-adv-x="1198" d="M270 47V1270H88V1313H641Q850 1313 948 1235T1047 991Q1047 865 983 789T797 690Q936 667 1006 586T1077 367Q1077 184 981 92T690 0H88V47H270ZM705 664H324V47H672Q854 47 937 121T1020 358Q1020 504 938 584T705 664ZM324 707H672Q822 707 905 781T989 991Q989 1134 906 1202T649 1270H324V707Z"  />
<glyph unicode="C" horiz-adv-x="1243" d="M1094 436H1143Q1132 215 1005 93T655 -29Q391 -29 245 152T98 664Q98 975 250 1156T659 1337Q809 1337 917 1273T1087 1085V1313H1137V858H1092Q1086 1057 966 1176T653 1296Q428 1296 291 1126T154 670Q154 356 284 186T653 16Q848 16 965 128T1094 436Z"  />
<glyph unicode="D" horiz-adv-x="1384" d="M633 1270H324V47H627Q915 47 1072 209T1229 670Q1229 959 1075 1114T633 1270ZM270 47V1270H88V1313H678Q962 1313 1124 1141T1286 666Q1286 348 1114 174T627 0H88V47H270Z"  />
<glyph unicode="E" horiz-adv-x="1237" d="M268 47V1270H86V1313H1038V926H1001V1270H322V698H725V928H764V406H725V655H322V47H1001V414H1038V0H86V47H268Z"  />
<glyph unicode="F" horiz-adv-x="1098" d="M270 47V1270H88V1313H967V926H928V1270H324V678H727V907H766V385H727V635H324V47H524V0H88V47H270Z"  />
<glyph unicode="G" horiz-adv-x="1382" d="M1149 859Q1140 1062 1017 1179T688 1296Q446 1296 300 1124T154 657Q154 351 297 184T702 16Q816 16 913 59T1073 180Q1114 231 1131 291T1149 469V612H901V653H1356V612H1196V0H1149V217Q1099 101 976 35T686 -31Q409 -31 254 153T98 666Q98 978 258 1157T694 1337Q851 1337 965 1275T1149 1090V1313H1196V858L1149 859Z"  />
<glyph unicode="H" horiz-adv-x="1446" d="M88 0V47H270V1270H88V1313H522V1270H324V696H1122V1270H924V1313H1356V1270H1174V47H1356V0H924V47H1122V647H324V47H522V0H88Z"  />
<glyph unicode="I" horiz-adv-x="602" d="M274 47V1270H92V1313H510V1270H328V47H510V0H92V47H274Z"  />
<glyph unicode="J" horiz-adv-x="989" d="M666 1270H451V1313H893V1270H719V309Q719 143 636 57T393 -29Q238 -29 155 59T72 313V408H127V309Q127 163 196 89T399 14Q530 14 598 89T666 309V1270Z"  />
<glyph unicode="K" horiz-adv-x="1137" d="M270 47V1270H88V1313H506V1270H324V709L961 1270H807V1313H1128V1270H1030L385 698L1047 47H1137V0H819V47H977L324 682V47H506V0H88V47H270Z"  />
<glyph unicode="L" horiz-adv-x="1120" d="M270 47V1270H88V1313H575V1270H324V47H965V412H1008V0H88V47H270Z"  />
<glyph unicode="M" horiz-adv-x="1729" d="M270 47V1270H72V1313H365L862 59L1362 1313H1657V1270H1456V47H1638V0H1223V47H1405V1280L885 0H834L324 1280V47H506V0H88V47H270Z"  />
<glyph unicode="N" horiz-adv-x="1475" d="M270 47V1270H88V1313H358L1149 76V1270H967V1313H1384V1270H1202V0H1137L324 1270V47H506V0H88V47H270Z"  />
<glyph unicode="O" horiz-adv-x="1364" d="M98 657Q98 979 253 1160T682 1341Q956 1341 1110 1160T1264 657Q1264 336 1109 154T680 -29Q406 -29 252 152T98 657ZM156 659Q156 354 293 186T680 18Q930 18 1069 186T1208 659Q1208 964 1071 1131T682 1298Q431 1298 294 1131T156 659Z"  />
<glyph unicode="P" horiz-adv-x="1055" d="M229 47V1270H39V1313H575Q777 1313 878 1225T979 961Q979 772 879 679T578 586H281V47H494V0H47V47H229ZM281 633H618Q763 633 842 715T922 948Q922 1113 835 1191T561 1270H281V633Z"  />
<glyph unicode="Q" horiz-adv-x="1364" d="M1335 45V0H895Q823 -14 767 -21T680 -29Q406 -29 252 152T98 657Q98 979 253 1160T682 1341Q954 1341 1110 1160T1266 664Q1266 435 1188 280T954 41Q978 43 1001 44T1053 45H1335ZM156 659Q156 354 293 186T680 18Q930 18 1069 186T1208 659Q1208 964 1071 1131T682 1298Q431 1298 294 1131T156 659Z"  />
<glyph unicode="R" horiz-adv-x="1223" d="M270 47V1270H76V1313H655Q855 1313 957 1225T1059 967Q1059 836 985 749T780 639Q843 619 884 579T946 479L1092 47H1225V0H1053L897 467Q873 542 806 582T637 623H324V47H526V0H72V47H270ZM639 1270H324V666H680Q837 666 920 742T1004 961Q1004 1116 913 1193T639 1270Z"  />
<glyph unicode="S" horiz-adv-x="1024" d="M160 436Q178 236 278 127T543 18Q690 18 786 106T883 330Q883 449 806 520T510 659Q272 732 197 804T121 1001Q121 1153 226 1247T500 1341Q628 1341 722 1287T874 1126V1317H913V891H875Q873 1072 769 1184T500 1296Q361 1296 270 1213T178 1004Q178 822 540 709Q578 697 598 690Q780 632 860 548T940 334Q940 177 830 74T549 -29Q412 -29 315 30T154 213V4H119V436H160Z"  />
<glyph unicode="T" horiz-adv-x="1192" d="M571 47V1270H121V918H76V1313H1118V918H1073V1270H623V47H864V0H330V47H571Z"  />
<glyph unicode="U" horiz-adv-x="1466" d="M324 424Q324 231 431 125T733 18Q927 18 1035 124T1143 424V1270H961V1313H1378V1270H1196V424Q1196 207 1075 89T733 -29Q514 -29 392 90T270 424V1270H88V1313H506V1270H324V424Z"  />
<glyph unicode="V" horiz-adv-x="1315" d="M684 0H616L141 1270H14V1313H416V1270H205L651 43L1114 1270H899V1313H1300V1270H1169L684 0Z"  />
<glyph unicode="W" horiz-adv-x="1761" d="M152 1272H25V1315H426V1272H203L492 70L842 1315H922L1264 70L1559 1272H1337V1315H1739V1272H1610L1294 0H1229L877 1266L520 0H455L152 1272Z"  />
<glyph unicode="X" horiz-adv-x="1311" d="M-25 0V45H113L618 678L152 1268H25V1311H416V1268H211L651 717L1092 1268H895V1311H1286V1268H1153L682 676L1188 45H1325V0H907V45H1122L651 639L174 45H389V0H-25Z"  />
<glyph unicode="Y" horiz-adv-x="1176" d="M555 47V549L133 1270H14V1313H397V1270H199L586 604L987 1270H786V1313H1161V1270H1042L606 549V47H852V0H309V47H555Z"  />
<glyph unicode="Z" horiz-adv-x="1237" d="M123 0V88L1018 1270H193V928H145V1313H1061V1239L166 47H1049V416H1087V0H123Z"  />
<glyph unicode="[" horiz-adv-x="561" d="M281 -268H424V-317H229V1313H424V1270H281V-268Z"  />
<glyph unicode="\" horiz-adv-x="674" d="M14 1337H57L659 -190H616L14 1337Z"  />
<glyph unicode="]" horiz-adv-x="561" d="M297 -268V1270H154V1313H348V-317H154V-268H297Z"  />
<glyph unicode="^" horiz-adv-x="2048" d="M973 1456H1071L1620 903H1511L1024 1386L535 903H426L973 1456Z"  />
<glyph unicode="_" horiz-adv-x="1024" d="M0 -422H1024V-483H0V-422Z"  />
<glyph unicode="`" horiz-adv-x="1024" d="M618 1055H571L315 1382H410L618 1055Z"  />
<glyph unicode="a" horiz-adv-x="1049" d="M786 0V188Q743 84 652 29T432 -27Q280 -27 190 45T100 240Q100 390 209 467T530 545H786V674Q786 781 712 841T504 901Q370 901 293 843T190 664H145Q173 809 258 874T504 940Q657 940 746 867T836 668V43H989V0H786ZM786 504H541Q343 504 248 442T152 250Q152 142 228 79T434 16Q604 16 695 112T786 387V504Z"  />
<glyph unicode="b" horiz-adv-x="1124" d="M262 455Q262 248 357 132T623 16Q794 16 887 130T981 455Q981 668 888 783T623 899Q452 899 357 783T262 455ZM215 43V1276H53V1313H262V715Q311 825 406 884T627 944Q815 944 922 816T1030 459Q1030 228 921 102T612 -25Q492 -25 403 31T262 193V0H59V43H215Z"  />
<glyph unicode="c" horiz-adv-x="936" d="M848 252Q829 117 740 45T502 -27Q305 -27 194 100T82 453Q82 685 193 812T506 940Q616 940 696 898T823 774V924H860V575H817V590Q817 736 731 817T492 899Q321 899 227 784T133 461Q133 248 231 133T510 18Q633 18 708 79T803 252H848Z"  />
<glyph unicode="d" horiz-adv-x="1092" d="M141 467Q141 254 234 139T500 23Q671 23 765 139T860 467Q860 673 765 789T500 905Q330 905 236 790T141 467ZM860 199Q806 86 718 31T504 -25Q309 -25 201 102T92 459Q92 687 199 815T496 944Q631 944 720 890T860 721V1272H694V1313H907V43H1063V0H860V199Z"  />
<glyph unicode="e" horiz-adv-x="989" d="M140 512H858V518Q858 699 767 799T510 899Q344 899 247 798T140 512ZM907 469H139V446Q139 244 237 131T510 18Q644 18 726 79T829 254H883Q866 120 768 46T510 -29Q308 -29 195 98T82 453Q82 678 196 809T506 940Q696 940 801 825T907 502V469Z"  />
<glyph unicode="f" horiz-adv-x="565" d="M295 920H524V881H295V43H483V0H82V43H248V881H72V920H248V1038Q248 1189 305 1262T481 1335Q511 1335 544 1329T618 1309V1264Q576 1278 542 1285T481 1292Q381 1292 338 1232T295 1024V920Z"  />
<glyph unicode="g" horiz-adv-x="1112" d="M897 74Q897 -155 804 -255T502 -356Q343 -356 254 -288T147 -84H197Q218 -199 292 -254T500 -309Q684 -309 767 -220T850 74V193Q794 83 706 29T494 -25Q294 -25 188 100T82 461Q82 694 188 818T496 942Q624 942 714 888T850 727V920H1061V883H897V74ZM492 16Q666 16 759 130T852 461Q852 674 759 789T492 905Q318 905 225 792T131 465Q131 246 223 131T492 16Z"  />
<glyph unicode="h" horiz-adv-x="1153" d="M84 0V43H240V1276H84V1313H287V739Q336 840 423 892T629 944Q783 944 861 856T940 594V43H1096V0H719V43H891V594Q891 753 825 829T618 905Q476 905 382 817T287 594V43H461V0H84Z"  />
<glyph unicode="i" horiz-adv-x="520" d="M248 43V883H86V920H295V43H451V0H94V43H248ZM295 1128H219V1237H295V1128Z"  />
<glyph unicode="j" horiz-adv-x="500" d="M287 1128H211V1237H287V1128ZM70 883V920H287V-147Q287 -259 245 -307T106 -356Q71 -356 48 -355T0 -350V-300Q39 -305 63 -307T104 -309Q174 -309 206 -271T238 -147V883H70Z"  />
<glyph unicode="k" horiz-adv-x="1055" d="M240 43V1276H76V1313H287V397L803 879H655V920H969V879H858L528 569L883 43H991V0H686V43H823L494 535L287 344V43H442V0H70V43H240Z"  />
<glyph unicode="l" horiz-adv-x="494" d="M225 43V1276H63V1313H272V43H428V0H70V43H225Z"  />
<glyph unicode="m" horiz-adv-x="1706" d="M459 43V0H82V43H240V883H82V920H287V739Q333 839 414 891T604 944Q711 944 783 889T874 735Q917 833 1006 888T1206 944Q1348 944 1420 856T1493 594V43H1649V0H1274V43H1446V594Q1446 751 1384 829T1198 907Q1067 907 978 818T889 594V43H1063V0H672V43H844V594Q844 752 782 828T594 905Q465 905 376 815T287 594V43H459Z"  />
<glyph unicode="n" horiz-adv-x="1153" d="M84 0V43H240V883H84V920H287V739Q336 840 423 892T629 944Q783 944 861 856T940 594V43H1096V0H719V43H891V594Q891 753 825 829T618 905Q476 905 382 817T287 594V43H461V0H84Z"  />
<glyph unicode="o" horiz-adv-x="1004" d="M502 -25Q307 -25 196 104T84 459Q84 684 196 813T502 942Q696 942 808 813T920 459Q920 234 808 105T502 -25ZM502 18Q675 18 771 135T868 461Q868 670 772 786T502 903Q328 903 232 787T135 461Q135 252 232 135T502 18Z"  />
<glyph unicode="p" horiz-adv-x="1124" d="M70 877V920H272V721Q335 838 423 892T639 946Q824 946 932 816T1040 461Q1040 229 932 102T627 -25Q510 -25 426 28T272 199V-291H440V-332H57V-291H225V877H70ZM989 461Q989 668 895 782T631 897Q462 897 366 782T270 461Q270 255 366 139T631 23Q800 23 894 138T989 461Z"  />
<glyph unicode="q" horiz-adv-x="1098" d="M133 461Q133 253 227 138T492 23Q660 23 756 139T852 461Q852 666 757 781T492 897Q321 897 227 783T133 461ZM1053 877H899V-291H1065V-332H682V-291H852V199Q783 82 699 29T498 -25Q299 -25 191 102T82 461Q82 686 190 816T483 946Q611 946 700 892T852 721V920H1053V877Z"  />
<glyph unicode="r" horiz-adv-x="715" d="M240 43V883H76V920H287V778Q333 863 398 903T555 944Q569 944 592 943T649 938V891Q620 895 595 897T551 899Q424 899 356 816T287 578V43H442V0H84V43H240Z"  />
<glyph unicode="s" horiz-adv-x="834" d="M115 324Q127 175 209 97T436 18Q561 18 645 83T729 244Q729 329 670 371T399 449Q230 475 159 529T88 684Q88 798 179 872T412 946Q505 946 578 915T713 817V920H750V627H713V635Q713 758 633 830T418 903Q299 903 220 842T141 688Q141 605 198 563T494 481Q651 454 715 399T780 240Q780 125 684 50T434 -25Q325 -25 249 14T111 141V0H72V324H115Z"  />
<glyph unicode="t" horiz-adv-x="698" d="M287 158Q287 94 319 59T410 23Q483 23 524 77T565 229V236H606V221Q606 103 556 39T412 -25Q317 -25 279 33T240 283V879H57V920H240V1141L287 1157V920H592V879H287V158Z"  />
<glyph unicode="u" horiz-adv-x="1157" d="M942 920V39H1116V0H895V180Q846 80 758 28T551 -25Q398 -25 320 63T242 326V877H86V920H289V326Q289 167 356 91T563 14Q706 14 800 102T895 326V877H721V920H942Z"  />
<glyph unicode="v" horiz-adv-x="1026" d="M475 0L119 879H14V920H326V879H170L506 43L856 879H700V920H1012V879H907L541 0H475Z"  />
<glyph unicode="w" horiz-adv-x="1630" d="M430 0L145 879H25V920H365V879H199L467 45L786 920H846L1153 45L1438 879H1272V920H1606V879H1485L1188 0H1124L813 870L496 0H430Z"  />
<glyph unicode="x" horiz-adv-x="1010" d="M297 0H-18V43H98L473 477L141 879H25V920H332V879H188L498 506L821 879H684V920H987V879H868L520 479L881 43H997V0H678V43H829L496 449L145 43H297V0Z"  />
<glyph unicode="y" horiz-adv-x="1047" d="M143 -340V-295Q181 -308 209 -313T258 -319Q313 -319 344 -298T401 -217L496 2L121 879H14V920H332V879H166L518 47L883 879H715V920H1032V879H926L418 -270Q399 -313 359 -335T262 -358Q236 -358 207 -354T143 -340Z"  />
<glyph unicode="z" horiz-adv-x="872" d="M96 0V63L741 879H152V692H115V920H784V858L139 43H752V246H793V0H96Z"  />
<glyph unicode="{" horiz-adv-x="1024" d="M844 1477V1407H807Q668 1407 619 1354T569 1133V891Q569 713 527 639T377 530Q485 497 527 423T569 170V-72Q569 -239 618 -292T807 -346H844V-414H811Q624 -414 556 -338T487 -33V205Q487 366 429 431T225 496Q218 496 204 495T180 494L181 567Q190 566 200 566T231 565Q371 565 429 630T487 856V1094Q487 1324 555 1400T811 1477H844Z"  />
<glyph unicode="|" horiz-adv-x="1024" d="M475 1565H549V-483H475V1565Z"  />
<glyph unicode="}" horiz-adv-x="1024" d="M182 1477H215Q401 1477 469 1401T537 1094V856Q537 696 595 631T795 565Q815 565 825 565T846 567V494Q837 494 823 495T801 496Q655 496 596 431T537 205V-33Q537 -262 469 -338T215 -414H182V-344H221Q359 -344 407 -292T455 -72V170Q455 346 498 421T649 530Q541 564 498 639T455 891V1133Q455 1302 407 1354T219 1407H182V1477Z"  />
<glyph unicode="~" horiz-adv-x="1706" d="M1530 729V657Q1425 584 1329 547T1143 510Q1083 510 1022 523T855 575Q842 580 817 589Q651 651 565 651Q484 651 394 614T178 489V563Q280 637 376 674T565 711Q609 711 657 702T758 674Q788 664 845 642Q1042 569 1143 569Q1225 569 1316 607T1530 729Z"  />
<glyph unicode="&#xA0;" horiz-adv-x="983" />
<glyph unicode="&#xA1;" horiz-adv-x="522" d="M219 1313H301V1200H219V1313ZM244 1049H276L289 0H229L244 1049Z"  />
<glyph unicode="&#xA2;" horiz-adv-x="983" d="M473 922Q317 911 231 797T145 485Q145 287 229 174T473 45V922ZM868 326Q850 166 764 86T523 0L522 -190H473V0Q294 12 194 137T94 475Q94 694 194 822T473 961V1143H522V961Q634 956 711 915T836 793V948H872V598H829V604Q829 750 752 829T522 922V45Q664 57 733 123T817 326H868Z"  />
<glyph unicode="&#xA3;" horiz-adv-x="983" d="M242 47V737H74V780H242V997Q242 1161 326 1251T563 1341Q710 1341 796 1258T884 1030H836Q832 1158 760 1228T561 1298Q431 1298 360 1223T289 1010V780H541V737H289V47H836V248H874V0H78V47H242Z"  />
<glyph unicode="&#xA4;" horiz-adv-x="983" d="M922 356Q907 170 811 71T551 -29Q377 -29 277 107T152 514H-4L6 551H149Q147 595 146 620T145 666Q145 687 146 711T149 776H-4L6 813H154Q179 1062 288 1201T565 1341Q669 1341 753 1286T877 1137V1317H922V940H881Q881 1087 789 1192T561 1298Q425 1298 327 1165T209 813H805L795 776H205Q203 743 202 716T201 666Q201 627 204 564Q205 555 205 551H737L727 514H207Q228 272 316 143T549 14Q691 14 775 102T872 356H922Z"  />
<glyph unicode="&#xA5;" horiz-adv-x="940" d="M188 0V47H434V549L408 594H6V631H387L254 856H6V893H233L12 1270H-106V1313H272V1270H68L461 598L866 1270H662V1313H1036V1270H918L688 893H915V856H668L530 631H915V594H510L481 549V47H727V0H188Z"  />
<glyph unicode="&#xA6;" horiz-adv-x="1024" d="M475 1432H549V674H475V1432ZM475 408H549V-350H475V408Z"  />
<glyph unicode="&#xA7;" horiz-adv-x="1024" d="M686 301Q751 267 785 212T819 84Q819 -32 731 -105T500 -178Q349 -178 261 -95T172 131V150L227 149Q226 142 226 136T225 115Q225 4 300 -62T498 -129Q618 -129 691 -71T764 84Q764 232 506 343L494 348L324 422Q240 457 200 509T160 633Q160 709 202 762T332 850Q272 899 243 953T213 1067Q213 1188 296 1264T512 1341Q654 1341 741 1262T831 1049H774Q774 1159 701 1228T514 1298Q402 1298 336 1237T270 1071Q270 986 318 931T477 838L690 762Q773 733 817 673T862 530Q862 452 820 396T686 301ZM600 748L391 817Q303 791 259 746T215 637Q215 574 255 529T395 440L641 332Q725 365 766 414T807 532Q807 608 758 659T600 748Z"  />
<glyph unicode="&#xA8;" horiz-adv-x="1024" d="M289 1141V1253H377V1141H289ZM647 1141V1253H735V1141H647Z"  />
<glyph unicode="&#xA9;" horiz-adv-x="1706" d="M852 1446Q1002 1446 1133 1392T1370 1233Q1473 1130 1527 998T1581 719Q1581 569 1528 439T1372 207Q1266 102 1131 46T852 -10Q708 -10 576 45T340 205Q236 309 181 441T125 719Q125 863 180 996T340 1235Q442 1339 572 1392T852 1446ZM852 1382Q716 1382 598 1334T387 1190Q291 1093 240 971T188 719Q188 588 239 468T385 252Q481 156 601 105T852 53Q982 53 1104 105T1325 254Q1419 345 1468 464T1518 719Q1518 854 1469 974T1325 1188Q1229 1283 1109 1332T852 1382ZM1182 922H1102Q1080 1009 1015 1058T854 1108Q718 1108 641 1005T563 717Q563 541 642 437T854 332Q955 332 1027 389T1116 541H1190Q1179 420 1082 342T846 264Q677 264 576 387T475 717Q475 927 579 1050T860 1174Q988 1174 1078 1104T1182 922Z"  />
<glyph unicode="&#xAA;" horiz-adv-x="786" d="M590 670V801Q558 728 489 690T324 651Q210 651 143 701T76 838Q76 943 157 997T397 1051H590V1141Q590 1217 535 1258T379 1300Q279 1300 221 1259T143 1135H109Q130 1236 194 1281T379 1327Q494 1327 560 1276T627 1137V700H741V670H590ZM590 1022H406Q257 1022 186 979T115 844Q115 769 171 726T326 682Q453 682 521 748T590 940V1022Z"  />
<glyph unicode="&#xAB;" horiz-adv-x="786" d="M373 45H332L166 455L332 864H373L209 455L373 45ZM627 45H586L420 455L586 864H627L463 455L627 45Z"  />
<glyph unicode="&#xAC;" horiz-adv-x="1706" d="M254 854H1452V352H1393V791H254V854Z"  />
<glyph unicode="&#xAD;" horiz-adv-x="674" d="M94 436V483H578V436H94Z"  />
<glyph unicode="&#xAE;" horiz-adv-x="1706" d="M852 1446Q1001 1446 1133 1392T1370 1235Q1473 1132 1527 1000T1581 719Q1581 569 1528 440T1372 209Q1265 103 1131 47T852 -10Q708 -10 576 45T340 205Q236 309 181 441T125 719Q125 863 180 996T340 1235Q442 1339 572 1392T852 1446ZM852 1382Q716 1382 597 1333T385 1190Q290 1093 239 972T188 719Q188 589 239 469T387 252Q483 156 603 105T852 53Q983 53 1106 105T1327 254Q1421 346 1469 464T1518 719Q1518 852 1468 972T1323 1188Q1226 1284 1107 1333T852 1382ZM573 1155H877Q1057 1155 1140 1099T1223 920Q1223 832 1166 773T1016 702L1208 305H1104L922 688H662V305H573V1155ZM662 1083V760H852Q1007 760 1063 796T1120 926Q1120 1007 1056 1045T854 1083H662Z"  />
<glyph unicode="&#xAF;" horiz-adv-x="1024" d="M289 1171V1223H735V1171H289Z"  />
<glyph unicode="&#xB0;" horiz-adv-x="674" d="M338 1448Q448 1448 527 1369T606 1178Q606 1067 527 988T336 909Q223 909 146 987T68 1178Q68 1290 147 1369T338 1448ZM338 1397Q247 1397 183 1333T119 1178Q119 1086 183 1022T338 958Q429 958 492 1022T555 1178Q555 1269 492 1333T338 1397Z"  />
<glyph unicode="&#xB1;" horiz-adv-x="1706" d="M823 1151H885V795H1452V731H885V375H823V731H254V795H823V1151ZM254 133H1452V70H254V133Z"  />
<glyph unicode="&#xB2;" horiz-adv-x="649" d="M55 524V565L436 954Q485 1005 506 1048T528 1139Q528 1211 476 1257T340 1303Q238 1303 181 1247T121 1088H86Q89 1202 154 1264T336 1327Q440 1327 502 1275T565 1133Q565 1085 542 1038T469 940L86 553H559V680H584V524H55Z"  />
<glyph unicode="&#xB3;" horiz-adv-x="649" d="M76 747H109Q113 647 169 591T322 535Q418 535 478 589T539 729Q539 819 477 865T289 916V944H297Q414 944 472 988T530 1122Q530 1203 473 1253T324 1303Q227 1303 174 1253T114 1106H84Q86 1211 151 1270T328 1329Q433 1329 499 1272T565 1122Q565 1047 524 998T399 928Q486 909 532 858T578 727Q578 633 505 570T319 506Q208 506 144 570T76 747Z"  />
<glyph unicode="&#xB4;" horiz-adv-x="1024" d="M403 1055L614 1382H709L453 1055H403Z"  />
<glyph unicode="&#xB5;" horiz-adv-x="1040" d="M201 1057H268L145 473Q134 419 129 379T123 307Q123 176 190 105T379 33Q512 33 618 157T770 496L889 1057H958L766 170Q763 155 762 140T760 111Q760 73 779 56T840 39Q854 39 861 39T876 41L864 -20Q854 -23 844 -24T813 -25Q753 -25 723 3T692 88Q692 100 694 118T702 165Q640 65 553 14T356 -37Q249 -37 176 17T80 168L-45 -426H-115L201 1057Z"  />
<glyph unicode="&#xB6;" horiz-adv-x="1024" d="M494 1479H926V1421H793V0H735V1421H539V0H479V782Q304 790 201 884T98 1130Q98 1287 206 1383T494 1479Z"  />
<glyph unicode="&#xB7;" horiz-adv-x="492" d="M188 666Q188 690 204 706T246 723Q269 723 286 707T303 668Q303 643 286 626T244 608Q222 608 205 625T188 666Z"  />
<glyph unicode="&#xB8;" horiz-adv-x="1024" d="M309 -414V-362Q364 -379 421 -387T537 -395Q603 -395 641 -365T680 -283Q680 -222 641 -193T518 -164Q498 -164 487 -164T467 -165V0H508V-121H532Q633 -121 683 -159T733 -274Q733 -355 680 -399T528 -444Q481 -444 428 -437T309 -414Z"  />
<glyph unicode="&#xB9;" horiz-adv-x="649" d="M518 524H205V553H346V1276Q300 1232 248 1193T133 1116V1153Q186 1184 237 1223T346 1313H377V553H518V524Z"  />
<glyph unicode="&#xBA;" horiz-adv-x="754" d="M377 653Q230 653 147 743T63 991Q63 1148 147 1238T377 1329Q522 1329 606 1239T690 991Q690 834 606 744T377 653ZM377 682Q506 682 578 764T651 993Q651 1139 579 1221T377 1303Q248 1303 175 1221T102 993Q102 846 175 764T377 682Z"  />
<glyph unicode="&#xBB;" horiz-adv-x="786" d="M426 864H469L633 455L469 45H426L592 455L426 864ZM172 864H215L379 455L215 45H172L338 455L172 864Z"  />
<glyph unicode="&#xBC;" horiz-adv-x="1581" d="M496 578H197V604H330V1278Q285 1236 235 1200T127 1130V1165Q179 1195 229 1231T330 1313H360V604H496V578ZM319 -29H276L1257 1432H1300L319 -29ZM1411 27V236H993V272L1401 735H1440V260H1573V236H1440V27H1559V0H1276V27H1411ZM1411 260V705L1022 260H1411Z"  />
<glyph unicode="&#xBD;" horiz-adv-x="1581" d="M496 578H197V604H330V1278Q285 1236 235 1200T127 1130V1165Q179 1195 229 1231T330 1313H360V604H496V578ZM319 -29H276L1257 1432H1300L319 -29ZM1014 0V37L1376 401Q1423 448 1443 488T1464 573Q1464 641 1415 683T1284 725Q1187 725 1132 673T1075 527L1043 526Q1046 634 1108 692T1282 750Q1381 750 1440 701T1499 567Q1499 523 1477 479T1409 389L1042 27H1493V145H1518V0H1014Z"  />
<glyph unicode="&#xBE;" horiz-adv-x="1581" d="M72 784H102Q108 690 161 639T307 588Q399 588 456 638T514 770Q514 853 456 895T275 942L274 971H285Q396 971 451 1011T506 1135Q506 1211 452 1258T309 1305Q217 1305 166 1257T110 1120L80 1121Q82 1219 143 1274T313 1329Q414 1329 476 1276T539 1137Q539 1065 500 1020T381 954Q465 936 508 888T551 766Q551 679 481 620T305 561Q199 561 137 620T72 784ZM319 -29H276L1257 1432H1300L319 -29ZM1411 27V236H993V272L1401 735H1440V260H1573V236H1440V27H1559V0H1276V27H1411ZM1411 260V705L1022 260H1411Z"  />
<glyph unicode="&#xBF;" horiz-adv-x="895" d="M479 1309H561V1194H479V1309ZM492 1049H541V1001Q541 876 511 802T401 655Q385 640 348 609Q164 455 164 295Q164 169 248 91T471 12Q605 12 681 95T766 332H819Q805 152 718 62T469 -29Q309 -29 212 63T115 305Q115 481 311 641Q348 671 364 686Q435 749 464 819T494 997Q494 1005 493 1022T492 1049Z"  />
<glyph unicode="&#xC0;" horiz-adv-x="1317" d="M14 0V47H113L616 1313H702L1206 47H1305V0H946V47H1147L965 508H354L172 47H362V0H14ZM371 553H948L659 1282L371 553ZM765 1426H718L462 1753H557L765 1426Z"  />
<glyph unicode="&#xC1;" horiz-adv-x="1317" d="M14 0V47H113L616 1313H702L1206 47H1305V0H946V47H1147L965 508H354L172 47H362V0H14ZM371 553H948L659 1282L371 553ZM550 1426L761 1753H856L600 1426H550Z"  />
<glyph unicode="&#xC2;" horiz-adv-x="1317" d="M14 0V47H113L616 1313H702L1206 47H1305V0H946V47H1147L965 508H354L172 47H362V0H14ZM371 553H948L659 1282L371 553ZM405 1426L626 1751H692L911 1426H864L659 1698L454 1426H405Z"  />
<glyph unicode="&#xC3;" horiz-adv-x="1317" d="M14 0V47H113L616 1313H702L1206 47H1305V0H946V47H1147L965 508H354L172 47H362V0H14ZM371 553H948L659 1282L371 553ZM444 1493H397Q425 1563 462 1594T553 1626Q565 1626 579 1625T608 1620L722 1592Q744 1586 758 1584T782 1581Q813 1581 835 1598T874 1653H919Q888 1578 854 1548T765 1518Q750 1518 735 1520T700 1528L585 1555Q573 1558 560 1559T534 1561Q506 1561 486 1546T444 1493Z"  />
<glyph unicode="&#xC4;" horiz-adv-x="1317" d="M14 0V47H113L616 1313H702L1206 47H1305V0H946V47H1147L965 508H354L172 47H362V0H14ZM371 553H948L659 1282L371 553ZM436 1512V1624H524V1512H436ZM794 1512V1624H882V1512H794Z"  />
<glyph unicode="&#xC5;" horiz-adv-x="1317" d="M14 0V47H113L616 1313H702L1206 47H1305V0H946V47H1147L965 508H354L172 47H362V0H14ZM371 553H948L659 1282L371 553ZM430 1608Q430 1703 497 1770T659 1837Q754 1837 820 1770T887 1608Q887 1512 821 1446T659 1380Q564 1380 497 1446T430 1608ZM477 1610Q477 1534 530 1481T659 1427Q736 1427 788 1480T840 1610Q840 1688 789 1739T659 1790Q582 1790 530 1738T477 1610Z"  />
<glyph unicode="&#xC6;" horiz-adv-x="1853" d="M66 47L793 1270H645V1313H1663V926H1624V1270H944V698H1350V928H1389V406H1350V655H944V47H1624V414H1663V0H711V47H893V469H365L117 47H315V0H-14V47H66ZM893 512V1270H842L391 512H893Z"  />
<glyph unicode="&#xC7;" horiz-adv-x="1243" d="M1094 436H1143Q1132 215 1005 93T655 -29Q391 -29 245 152T98 664Q98 975 250 1156T659 1337Q809 1337 917 1273T1087 1085V1313H1137V858H1092Q1086 1057 966 1176T653 1296Q428 1296 291 1126T154 670Q154 356 284 186T653 16Q848 16 965 128T1094 436ZM428 -414V-362Q483 -379 540 -387T656 -395Q722 -395 760 -365T799 -283Q799 -222 760 -193T637 -164Q617 -164 606 -164T586 -165V0H627V-121H651Q752 -121 802 -159T852 -274Q852 -355 799 -399T647 -444Q600 -444 547 -437T428 -414Z"  />
<glyph unicode="&#xC8;" horiz-adv-x="1237" d="M268 47V1270H86V1313H1038V926H1001V1270H322V698H725V928H764V406H725V655H322V47H1001V414H1038V0H86V47H268ZM710 1426H663L407 1753H502L710 1426Z"  />
<glyph unicode="&#xC9;" horiz-adv-x="1237" d="M268 47V1270H86V1313H1038V926H1001V1270H322V698H725V928H764V406H725V655H322V47H1001V414H1038V0H86V47H268ZM495 1426L706 1753H801L545 1426H495Z"  />
<glyph unicode="&#xCA;" horiz-adv-x="1237" d="M268 47V1270H86V1313H1038V926H1001V1270H322V698H725V928H764V406H725V655H322V47H1001V414H1038V0H86V47H268ZM350 1426L571 1751H637L856 1426H809L604 1698L399 1426H350Z"  />
<glyph unicode="&#xCB;" horiz-adv-x="1237" d="M268 47V1270H86V1313H1038V926H1001V1270H322V698H725V928H764V406H725V655H322V47H1001V414H1038V0H86V47H268ZM381 1512V1624H469V1512H381ZM739 1512V1624H827V1512H739Z"  />
<glyph unicode="&#xCC;" horiz-adv-x="602" d="M274 47V1270H92V1313H510V1270H328V47H510V0H92V47H274ZM408 1426H361L105 1753H200L408 1426Z"  />
<glyph unicode="&#xCD;" horiz-adv-x="602" d="M274 47V1270H92V1313H510V1270H328V47H510V0H92V47H274ZM193 1426L404 1753H499L243 1426H193Z"  />
<glyph unicode="&#xCE;" horiz-adv-x="602" d="M274 47V1270H92V1313H510V1270H328V47H510V0H92V47H274ZM48 1426L269 1751H335L554 1426H507L302 1698L97 1426H48Z"  />
<glyph unicode="&#xCF;" horiz-adv-x="602" d="M274 47V1270H92V1313H510V1270H328V47H510V0H92V47H274ZM79 1512V1624H167V1512H79ZM437 1512V1624H525V1512H437Z"  />
<glyph unicode="&#xD0;" horiz-adv-x="1384" d="M633 1270H324V698H705V653H324V47H627Q915 47 1072 209T1229 670Q1229 959 1075 1114T633 1270ZM270 47V653H0V698H270V1270H88V1313H678Q962 1313 1124 1141T1286 666Q1286 348 1114 174T627 0H88V47H270Z"  />
<glyph unicode="&#xD1;" horiz-adv-x="1475" d="M270 47V1270H88V1313H358L1149 76V1270H967V1313H1384V1270H1202V0H1137L324 1270V47H506V0H88V47H270ZM510 1493H463Q491 1563 528 1594T619 1626Q631 1626 645 1625T674 1620L788 1592Q810 1586 824 1584T848 1581Q879 1581 901 1598T940 1653H985Q954 1578 920 1548T831 1518Q816 1518 801 1520T766 1528L651 1555Q639 1558 626 1559T600 1561Q572 1561 552 1546T510 1493Z"  />
<glyph unicode="&#xD2;" horiz-adv-x="1364" d="M98 657Q98 979 253 1160T682 1341Q956 1341 1110 1160T1264 657Q1264 336 1109 154T680 -29Q406 -29 252 152T98 657ZM156 659Q156 354 293 186T680 18Q930 18 1069 186T1208 659Q1208 964 1071 1131T682 1298Q431 1298 294 1131T156 659ZM788 1426H741L485 1753H580L788 1426Z"  />
<glyph unicode="&#xD3;" horiz-adv-x="1364" d="M98 657Q98 979 253 1160T682 1341Q956 1341 1110 1160T1264 657Q1264 336 1109 154T680 -29Q406 -29 252 152T98 657ZM156 659Q156 354 293 186T680 18Q930 18 1069 186T1208 659Q1208 964 1071 1131T682 1298Q431 1298 294 1131T156 659ZM573 1426L784 1753H879L623 1426H573Z"  />
<glyph unicode="&#xD4;" horiz-adv-x="1364" d="M98 657Q98 979 253 1160T682 1341Q956 1341 1110 1160T1264 657Q1264 336 1109 154T680 -29Q406 -29 252 152T98 657ZM156 659Q156 354 293 186T680 18Q930 18 1069 186T1208 659Q1208 964 1071 1131T682 1298Q431 1298 294 1131T156 659ZM428 1426L649 1751H715L934 1426H887L682 1698L477 1426H428Z"  />
<glyph unicode="&#xD5;" horiz-adv-x="1364" d="M98 657Q98 979 253 1160T682 1341Q956 1341 1110 1160T1264 657Q1264 336 1109 154T680 -29Q406 -29 252 152T98 657ZM156 659Q156 354 293 186T680 18Q930 18 1069 186T1208 659Q1208 964 1071 1131T682 1298Q431 1298 294 1131T156 659ZM467 1493H420Q448 1563 485 1594T576 1626Q588 1626 602 1625T631 1620L745 1592Q767 1586 781 1584T805 1581Q836 1581 858 1598T897 1653H942Q911 1578 877 1548T788 1518Q773 1518 758 1520T723 1528L608 1555Q596 1558 583 1559T557 1561Q529 1561 509 1546T467 1493Z"  />
<glyph unicode="&#xD6;" horiz-adv-x="1364" d="M98 657Q98 979 253 1160T682 1341Q956 1341 1110 1160T1264 657Q1264 336 1109 154T680 -29Q406 -29 252 152T98 657ZM156 659Q156 354 293 186T680 18Q930 18 1069 186T1208 659Q1208 964 1071 1131T682 1298Q431 1298 294 1131T156 659ZM459 1512V1624H547V1512H459ZM817 1512V1624H905V1512H817Z"  />
<glyph unicode="&#xD7;" horiz-adv-x="1706" d="M360 1147L852 655L1343 1147L1389 1102L897 610L1389 119L1343 74L852 565L360 74L315 119L807 610L315 1102L360 1147Z"  />
<glyph unicode="&#xD8;" horiz-adv-x="1364" d="M276 207L1053 1147Q986 1223 894 1260T682 1298Q431 1298 294 1131T156 659Q156 518 185 409T276 207ZM1083 1114L305 174Q372 96 466 57T680 18Q930 18 1069 186T1208 659Q1208 798 1177 911T1083 1114ZM102 -72L70 -45L242 166Q170 260 134 384T98 657Q98 979 253 1160T682 1341Q805 1341 905 1303T1085 1186L1241 1368L1274 1339L1118 1153Q1191 1057 1227 933T1264 657Q1264 336 1109 154T680 -29Q555 -29 456 9T270 129L102 -72Z"  />
<glyph unicode="&#xD9;" horiz-adv-x="1466" d="M324 424Q324 231 431 125T733 18Q927 18 1035 124T1143 424V1270H961V1313H1378V1270H1196V424Q1196 207 1075 89T733 -29Q514 -29 392 90T270 424V1270H88V1313H506V1270H324V424ZM839 1426H792L536 1753H631L839 1426Z"  />
<glyph unicode="&#xDA;" horiz-adv-x="1466" d="M324 424Q324 231 431 125T733 18Q927 18 1035 124T1143 424V1270H961V1313H1378V1270H1196V424Q1196 207 1075 89T733 -29Q514 -29 392 90T270 424V1270H88V1313H506V1270H324V424ZM624 1426L835 1753H930L674 1426H624Z"  />
<glyph unicode="&#xDB;" horiz-adv-x="1466" d="M324 424Q324 231 431 125T733 18Q927 18 1035 124T1143 424V1270H961V1313H1378V1270H1196V424Q1196 207 1075 89T733 -29Q514 -29 392 90T270 424V1270H88V1313H506V1270H324V424ZM479 1426L700 1751H766L985 1426H938L733 1698L528 1426H479Z"  />
<glyph unicode="&#xDC;" horiz-adv-x="1466" d="M324 424Q324 231 431 125T733 18Q927 18 1035 124T1143 424V1270H961V1313H1378V1270H1196V424Q1196 207 1075 89T733 -29Q514 -29 392 90T270 424V1270H88V1313H506V1270H324V424ZM510 1512V1624H598V1512H510ZM868 1512V1624H956V1512H868Z"  />
<glyph unicode="&#xDD;" horiz-adv-x="1176" d="M555 47V549L133 1270H14V1313H397V1270H199L586 604L987 1270H786V1313H1161V1270H1042L606 549V47H852V0H309V47H555ZM479 1426L690 1753H785L529 1426H479Z"  />
<glyph unicode="&#xDE;" horiz-adv-x="1055" d="M229 1270H39V1313H471V1270H281V1069H575Q777 1069 878 980T979 715Q979 527 880 435T578 342H281V47H494V0H47V47H229V1270ZM281 1026V389H618Q766 389 844 471T922 711Q922 871 833 948T561 1026H281Z"  />
<glyph unicode="&#xDF;" horiz-adv-x="1049" d="M240 43V934Q240 1131 330 1235T590 1339Q745 1339 834 1255T924 1024Q924 904 866 827T690 713Q831 684 900 595T969 352Q969 176 880 87T614 -2Q592 -2 580 -2T557 1V45Q566 44 576 44T606 43Q760 43 839 123T918 360Q918 518 831 600T574 686V741Q715 746 793 820T872 1024Q872 1147 796 1222T596 1298Q441 1298 364 1208T287 936V43H406V0H84V43H240Z"  />
<glyph unicode="&#xE0;" horiz-adv-x="1049" d="M786 0V188Q743 84 652 29T432 -27Q280 -27 190 45T100 240Q100 390 209 467T530 545H786V674Q786 781 712 841T504 901Q370 901 293 843T190 664H145Q173 809 258 874T504 940Q657 940 746 867T836 668V43H989V0H786ZM786 504H541Q343 504 248 442T152 250Q152 142 228 79T434 16Q604 16 695 112T786 387V504ZM618 1055H571L315 1382H410L618 1055Z"  />
<glyph unicode="&#xE1;" horiz-adv-x="1049" d="M786 0V188Q743 84 652 29T432 -27Q280 -27 190 45T100 240Q100 390 209 467T530 545H786V674Q786 781 712 841T504 901Q370 901 293 843T190 664H145Q173 809 258 874T504 940Q657 940 746 867T836 668V43H989V0H786ZM786 504H541Q343 504 248 442T152 250Q152 142 228 79T434 16Q604 16 695 112T786 387V504ZM403 1055L614 1382H709L453 1055H403Z"  />
<glyph unicode="&#xE2;" horiz-adv-x="1049" d="M786 0V188Q743 84 652 29T432 -27Q280 -27 190 45T100 240Q100 390 209 467T530 545H786V674Q786 781 712 841T504 901Q370 901 293 843T190 664H145Q173 809 258 874T504 940Q657 940 746 867T836 668V43H989V0H786ZM786 504H541Q343 504 248 442T152 250Q152 142 228 79T434 16Q604 16 695 112T786 387V504ZM258 1055L479 1380H545L764 1055H717L512 1327L307 1055H258Z"  />
<glyph unicode="&#xE3;" horiz-adv-x="1049" d="M786 0V188Q743 84 652 29T432 -27Q280 -27 190 45T100 240Q100 390 209 467T530 545H786V674Q786 781 712 841T504 901Q370 901 293 843T190 664H145Q173 809 258 874T504 940Q657 940 746 867T836 668V43H989V0H786ZM786 504H541Q343 504 248 442T152 250Q152 142 228 79T434 16Q604 16 695 112T786 387V504ZM297 1122H250Q278 1192 315 1223T406 1255Q418 1255 432 1254T461 1249L575 1221Q597 1215 611 1213T635 1210Q666 1210 688 1227T727 1282H772Q741 1207 707 1177T618 1147Q603 1147 588 1149T553 1157L438 1184Q426 1187 413 1188T387 1190Q359 1190 339 1175T297 1122Z"  />
<glyph unicode="&#xE4;" horiz-adv-x="1049" d="M786 0V188Q743 84 652 29T432 -27Q280 -27 190 45T100 240Q100 390 209 467T530 545H786V674Q786 781 712 841T504 901Q370 901 293 843T190 664H145Q173 809 258 874T504 940Q657 940 746 867T836 668V43H989V0H786ZM786 504H541Q343 504 248 442T152 250Q152 142 228 79T434 16Q604 16 695 112T786 387V504ZM289 1141V1253H377V1141H289ZM647 1141V1253H735V1141H647Z"  />
<glyph unicode="&#xE5;" horiz-adv-x="1049" d="M786 0V188Q743 84 652 29T432 -27Q280 -27 190 45T100 240Q100 390 209 467T530 545H786V674Q786 781 712 841T504 901Q370 901 293 843T190 664H145Q173 809 258 874T504 940Q657 940 746 867T836 668V43H989V0H786ZM786 504H541Q343 504 248 442T152 250Q152 142 228 79T434 16Q604 16 695 112T786 387V504ZM276 1235Q276 1330 343 1397T506 1464Q601 1464 667 1398T733 1235Q733 1140 667 1074T506 1008Q410 1008 343 1074T276 1235ZM324 1237Q324 1162 377 1109T506 1055Q582 1055 634 1107T686 1237Q686 1315 635 1366T506 1417Q430 1417 377 1365T324 1237Z"  />
<glyph unicode="&#xE6;" horiz-adv-x="1481" d="M713 471H494Q319 471 233 413T147 233Q147 138 214 81T391 23Q549 23 631 132T713 455V471ZM752 512H1346V526Q1346 702 1270 801T1061 901Q924 901 845 802T752 512ZM750 471V430Q750 232 831 128T1067 23Q1182 23 1252 91T1335 287H1382Q1366 136 1284 56T1065 -25Q936 -25 853 38T727 231Q695 108 607 42T385 -25Q256 -25 179 47T102 240Q102 373 199 442T485 512H713V674Q713 780 646 840T461 901Q341 901 273 843T182 664H141Q164 803 240 871T451 940Q577 940 654 889T754 737Q809 841 884 890T1061 940Q1220 940 1309 826T1399 508V471H750Z"  />
<glyph unicode="&#xE7;" horiz-adv-x="936" d="M848 252Q829 117 740 45T502 -27Q305 -27 194 100T82 453Q82 685 193 812T506 940Q616 940 696 898T823 774V924H860V575H817V590Q817 736 731 817T492 899Q321 899 227 784T133 461Q133 248 231 133T510 18Q633 18 708 79T803 252H848ZM296 -414V-362Q351 -379 408 -387T524 -395Q590 -395 628 -365T667 -283Q667 -222 628 -193T505 -164Q485 -164 474 -164T454 -165V0H495V-121H519Q620 -121 670 -159T720 -274Q720 -355 667 -399T515 -444Q468 -444 415 -437T296 -414Z"  />
<glyph unicode="&#xE8;" horiz-adv-x="989" d="M140 512H858V518Q858 699 767 799T510 899Q344 899 247 798T140 512ZM907 469H139V446Q139 244 237 131T510 18Q644 18 726 79T829 254H883Q866 120 768 46T510 -29Q308 -29 195 98T82 453Q82 678 196 809T506 940Q696 940 801 825T907 502V469ZM603 1055H556L300 1382H395L603 1055Z"  />
<glyph unicode="&#xE9;" horiz-adv-x="989" d="M140 512H858V518Q858 699 767 799T510 899Q344 899 247 798T140 512ZM907 469H139V446Q139 244 237 131T510 18Q644 18 726 79T829 254H883Q866 120 768 46T510 -29Q308 -29 195 98T82 453Q82 678 196 809T506 940Q696 940 801 825T907 502V469ZM388 1055L599 1382H694L438 1055H388Z"  />
<glyph unicode="&#xEA;" horiz-adv-x="989" d="M140 512H858V518Q858 699 767 799T510 899Q344 899 247 798T140 512ZM907 469H139V446Q139 244 237 131T510 18Q644 18 726 79T829 254H883Q866 120 768 46T510 -29Q308 -29 195 98T82 453Q82 678 196 809T506 940Q696 940 801 825T907 502V469ZM243 1055L464 1380H530L749 1055H702L497 1327L292 1055H243Z"  />
<glyph unicode="&#xEB;" horiz-adv-x="989" d="M140 512H858V518Q858 699 767 799T510 899Q344 899 247 798T140 512ZM907 469H139V446Q139 244 237 131T510 18Q644 18 726 79T829 254H883Q866 120 768 46T510 -29Q308 -29 195 98T82 453Q82 678 196 809T506 940Q696 940 801 825T907 502V469ZM274 1141V1253H362V1141H274ZM632 1141V1253H720V1141H632Z"  />
<glyph unicode="&#xEC;" horiz-adv-x="520" d="M248 43V883H86V920H295V43H451V0H94V43H248ZM367 1055H320L64 1382H159L367 1055Z"  />
<glyph unicode="&#xED;" horiz-adv-x="520" d="M248 43V883H86V920H295V43H451V0H94V43H248ZM152 1055L363 1382H458L202 1055H152Z"  />
<glyph unicode="&#xEE;" horiz-adv-x="520" d="M248 43V883H86V920H295V43H451V0H94V43H248ZM7 1055L228 1380H294L513 1055H466L261 1327L56 1055H7Z"  />
<glyph unicode="&#xEF;" horiz-adv-x="520" d="M248 43V883H86V920H295V43H451V0H94V43H248ZM38 1141V1253H126V1141H38ZM396 1141V1253H484V1141H396Z"  />
<glyph unicode="&#xF0;" horiz-adv-x="1004" d="M135 461Q135 251 231 135T502 18Q675 18 771 135T868 461Q868 670 772 786T502 903Q329 903 232 787T135 461ZM827 780Q794 896 735 981T580 1133L328 999L309 1036L537 1161Q473 1205 391 1237T209 1290L221 1331Q333 1305 423 1270T590 1186L840 1321L860 1284L629 1161Q776 1051 849 880T922 471Q922 239 810 107T502 -25Q307 -25 196 104T84 459Q84 684 196 813T502 942Q610 942 691 902T827 780Z"  />
<glyph unicode="&#xF1;" horiz-adv-x="1153" d="M84 0V43H240V883H84V920H287V739Q336 840 423 892T629 944Q783 944 861 856T940 594V43H1096V0H719V43H891V594Q891 753 825 829T618 905Q476 905 382 817T287 594V43H461V0H84ZM363 1122H316Q344 1192 381 1223T472 1255Q484 1255 498 1254T527 1249L641 1221Q663 1215 677 1213T701 1210Q732 1210 754 1227T793 1282H838Q807 1207 773 1177T684 1147Q669 1147 654 1149T619 1157L504 1184Q492 1187 479 1188T453 1190Q425 1190 405 1175T363 1122Z"  />
<glyph unicode="&#xF2;" horiz-adv-x="1004" d="M502 -25Q307 -25 196 104T84 459Q84 684 196 813T502 942Q696 942 808 813T920 459Q920 234 808 105T502 -25ZM502 18Q675 18 771 135T868 461Q868 670 772 786T502 903Q328 903 232 787T135 461Q135 252 232 135T502 18ZM609 1055H562L306 1382H401L609 1055Z"  />
<glyph unicode="&#xF3;" horiz-adv-x="1004" d="M502 -25Q307 -25 196 104T84 459Q84 684 196 813T502 942Q696 942 808 813T920 459Q920 234 808 105T502 -25ZM502 18Q675 18 771 135T868 461Q868 670 772 786T502 903Q328 903 232 787T135 461Q135 252 232 135T502 18ZM394 1055L605 1382H700L444 1055H394Z"  />
<glyph unicode="&#xF4;" horiz-adv-x="1004" d="M502 -25Q307 -25 196 104T84 459Q84 684 196 813T502 942Q696 942 808 813T920 459Q920 234 808 105T502 -25ZM502 18Q675 18 771 135T868 461Q868 670 772 786T502 903Q328 903 232 787T135 461Q135 252 232 135T502 18ZM249 1055L470 1380H536L755 1055H708L503 1327L298 1055H249Z"  />
<glyph unicode="&#xF5;" horiz-adv-x="1004" d="M502 -25Q307 -25 196 104T84 459Q84 684 196 813T502 942Q696 942 808 813T920 459Q920 234 808 105T502 -25ZM502 18Q675 18 771 135T868 461Q868 670 772 786T502 903Q328 903 232 787T135 461Q135 252 232 135T502 18ZM288 1122H241Q269 1192 306 1223T397 1255Q409 1255 423 1254T452 1249L566 1221Q588 1215 602 1213T626 1210Q657 1210 679 1227T718 1282H763Q732 1207 698 1177T609 1147Q594 1147 579 1149T544 1157L429 1184Q417 1187 404 1188T378 1190Q350 1190 330 1175T288 1122Z"  />
<glyph unicode="&#xF6;" horiz-adv-x="1004" d="M502 -25Q307 -25 196 104T84 459Q84 684 196 813T502 942Q696 942 808 813T920 459Q920 234 808 105T502 -25ZM502 18Q675 18 771 135T868 461Q868 670 772 786T502 903Q328 903 232 787T135 461Q135 252 232 135T502 18ZM280 1141V1253H368V1141H280ZM638 1141V1253H726V1141H638Z"  />
<glyph unicode="&#xF7;" horiz-adv-x="1706" d="M854 1040Q891 1040 917 1013T944 948Q944 910 918 884T854 858Q815 858 789 884T762 948Q762 985 789 1012T854 1040ZM254 641H1452V580H254V641ZM854 362Q892 362 918 337T944 272Q944 235 918 208T854 180Q816 180 789 206T762 270Q762 308 789 335T854 362Z"  />
<glyph unicode="&#xF8;" horiz-adv-x="1004" d="M221 145L778 776Q733 838 663 870T502 903Q328 903 232 787T135 461Q135 371 157 289T221 145ZM799 748L246 119Q297 70 363 44T502 18Q674 18 773 136T872 461Q872 540 855 609T799 748ZM190 109Q136 181 110 266T84 459Q84 684 195 813T502 942Q600 942 675 910T809 813L932 950L956 928L829 784Q875 718 897 638T920 459Q920 234 808 105T502 -25Q419 -25 351 1T217 84L76 -74L51 -51L190 109Z"  />
<glyph unicode="&#xF9;" horiz-adv-x="1157" d="M942 920V39H1116V0H895V180Q846 80 758 28T551 -25Q398 -25 320 63T242 326V877H86V920H289V326Q289 167 356 91T563 14Q706 14 800 102T895 326V877H721V920H942ZM675 1055H628L372 1382H467L675 1055Z"  />
<glyph unicode="&#xFA;" horiz-adv-x="1157" d="M942 920V39H1116V0H895V180Q846 80 758 28T551 -25Q398 -25 320 63T242 326V877H86V920H289V326Q289 167 356 91T563 14Q706 14 800 102T895 326V877H721V920H942ZM460 1055L671 1382H766L510 1055H460Z"  />
<glyph unicode="&#xFB;" horiz-adv-x="1157" d="M942 920V39H1116V0H895V180Q846 80 758 28T551 -25Q398 -25 320 63T242 326V877H86V920H289V326Q289 167 356 91T563 14Q706 14 800 102T895 326V877H721V920H942ZM315 1055L536 1380H602L821 1055H774L569 1327L364 1055H315Z"  />
<glyph unicode="&#xFC;" horiz-adv-x="1157" d="M942 920V39H1116V0H895V180Q846 80 758 28T551 -25Q398 -25 320 63T242 326V877H86V920H289V326Q289 167 356 91T563 14Q706 14 800 102T895 326V877H721V920H942ZM346 1141V1253H434V1141H346ZM704 1141V1253H792V1141H704Z"  />
<glyph unicode="&#xFD;" horiz-adv-x="1047" d="M143 -340V-295Q181 -308 209 -313T258 -319Q313 -319 344 -298T401 -217L496 2L121 879H14V920H332V879H166L518 47L883 879H715V920H1032V879H926L418 -270Q399 -313 359 -335T262 -358Q236 -358 207 -354T143 -340ZM415 1055L626 1382H721L465 1055H415Z"  />
<glyph unicode="&#xFE;" horiz-adv-x="1124" d="M631 23Q800 23 894 138T989 461Q989 668 895 782T631 897Q462 897 366 782T270 461Q270 254 365 139T631 23ZM225 1276H63V1313H272V721Q335 838 423 892T639 946Q824 946 932 816T1040 461Q1040 229 932 102T627 -25Q509 -25 425 28T272 199V-291H440V-332H57V-291H225V1276Z"  />
<glyph unicode="&#xFF;" horiz-adv-x="1047" d="M143 -340V-295Q181 -308 209 -313T258 -319Q313 -319 344 -298T401 -217L496 2L121 879H14V920H332V879H166L518 47L883 879H715V920H1032V879H926L418 -270Q399 -313 359 -335T262 -358Q236 -358 207 -354T143 -340ZM301 1141V1253H389V1141H301ZM659 1141V1253H747V1141H659Z"  />
<glyph unicode="&#x131;" horiz-adv-x="520" d="M248 43V883H86V920H295V43H451V0H94V43H248Z"  />
<glyph unicode="&#x152;" horiz-adv-x="1901" d="M952 0Q840 -6 791 -8T713 -10Q399 -10 236 158T72 649Q72 979 237 1149T723 1319Q746 1319 795 1318T923 1313H1716V926H1679V1270H999V698H1403V928H1442V406H1403V655H999V47H1679V414H1716V0H952ZM944 45V1268Q878 1272 822 1274T727 1276Q439 1276 284 1117T129 662Q129 345 284 189T754 33Q798 33 845 36T944 45Z"  />
<glyph unicode="&#x153;" horiz-adv-x="1595" d="M815 258Q772 118 684 47T467 -25Q288 -25 185 104T82 459Q82 683 185 811T467 940Q599 940 686 872T823 662Q875 798 963 869T1169 940Q1333 940 1423 826T1513 504V471H852V432Q852 237 936 129T1171 20Q1295 20 1365 87T1450 287H1499Q1482 137 1400 56T1180 -25Q1039 -25 953 42T815 258ZM467 18Q623 18 712 135T801 461Q801 668 714 780T467 893Q309 893 222 780T135 461Q135 252 223 135T467 18ZM852 512H1470Q1470 692 1392 792T1174 893Q1035 893 953 796T852 512Z"  />
<glyph unicode="&#x160;" horiz-adv-x="1024" d="M160 436Q178 236 278 127T543 18Q690 18 786 106T883 330Q883 449 806 520T510 659Q272 732 197 804T121 1001Q121 1153 226 1247T500 1341Q628 1341 722 1287T874 1126V1317H913V891H875Q873 1072 769 1184T500 1296Q361 1296 270 1213T178 1004Q178 822 540 709Q578 697 598 690Q780 632 860 548T940 334Q940 177 830 74T549 -29Q412 -29 315 30T154 213V4H119V436H160ZM258 1751H307L512 1475L717 1751H764L545 1426H479L258 1751Z"  />
<glyph unicode="&#x161;" horiz-adv-x="834" d="M115 324Q127 175 209 97T436 18Q561 18 645 83T729 244Q729 329 670 371T399 449Q230 475 159 529T88 684Q88 798 179 872T412 946Q505 946 578 915T713 817V920H750V627H713V635Q713 758 633 830T418 903Q299 903 220 842T141 688Q141 605 198 563T494 481Q651 454 715 399T780 240Q780 125 684 50T434 -25Q325 -25 249 14T111 141V0H72V324H115ZM165 1380H214L419 1104L624 1380H671L452 1055H386L165 1380Z"  />
<glyph unicode="&#x178;" horiz-adv-x="1176" d="M555 47V549L133 1270H14V1313H397V1270H199L586 604L987 1270H786V1313H1161V1270H1042L606 549V47H852V0H309V47H555ZM365 1512V1624H453V1512H365ZM723 1512V1624H811V1512H723Z"  />
<glyph unicode="&#x17D;" horiz-adv-x="1237" d="M123 0V88L1018 1270H193V928H145V1313H1061V1239L166 47H1049V416H1087V0H123ZM364 1751H413L618 1475L823 1751H870L651 1426H585L364 1751Z"  />
<glyph unicode="&#x17E;" horiz-adv-x="872" d="M96 0V63L741 879H152V692H115V920H784V858L139 43H752V246H793V0H96ZM183 1380H232L437 1104L642 1380H689L470 1055H404L183 1380Z"  />
<glyph unicode="&#x192;" horiz-adv-x="983" d="M360 -31Q337 -155 270 -209T76 -264H53L63 -211H80Q188 -211 239 -166T315 0L477 850H289L297 895H483L526 1102Q553 1230 619 1282T817 1335H834L823 1284H815Q701 1284 650 1241T571 1073L535 895H750L741 850H526L360 -31Z"  />
<glyph unicode="&#x2C6;" horiz-adv-x="1024" d="M258 1055L479 1380H545L764 1055H717L512 1327L307 1055H258Z"  />
<glyph unicode="&#x2C7;" horiz-adv-x="1024" d="M258 1380H307L512 1104L717 1380H764L545 1055H479L258 1380Z"  />
<glyph unicode="&#x2DC;" horiz-adv-x="1024" d="M297 1122H250Q278 1192 315 1223T406 1255Q418 1255 432 1254T461 1249L575 1221Q597 1215 611 1213T635 1210Q666 1210 688 1227T727 1282H772Q741 1207 707 1177T618 1147Q603 1147 588 1149T553 1157L438 1184Q426 1187 413 1188T387 1190Q359 1190 339 1175T297 1122Z"  />
<glyph unicode="&#x2013;" horiz-adv-x="1024" d="M0 436V483H1024V436H0Z"  />
<glyph unicode="&#x2014;" horiz-adv-x="2048" d="M0 483H2048V436H0V483Z"  />
<glyph unicode="&#x2018;" horiz-adv-x="492" d="M246 1071H289V963H201V1081L287 1313H330L246 1071Z"  />
<glyph unicode="&#x2019;" horiz-adv-x="492" d="M244 1204H201V1313H289V1194L205 963H160L244 1204Z"  />
<glyph unicode="&#x201A;" horiz-adv-x="492" d="M244 0H201V109H291V-10L205 -242H160L244 0Z"  />
<glyph unicode="&#x201C;" horiz-adv-x="786" d="M545 1071H592V963H502V1081L588 1313H633L545 1071ZM246 1071H291V963H201V1081L287 1313H332L246 1071Z"  />
<glyph unicode="&#x201D;" horiz-adv-x="786" d="M240 1204H197V1313H287V1194L201 963H156L240 1204ZM541 1204H498V1313H588V1194L502 963H457L541 1204Z"  />
<glyph unicode="&#x201E;" horiz-adv-x="786" d="M240 0H197V109H287V-10L201 -242H156L240 0ZM541 0H498V109H588V-10L502 -242H457L541 0Z"  />
<glyph unicode="&#x2020;" horiz-adv-x="1024" d="M492 -176V868H150V911H492V1313H532V911H874V868H532V-176H492Z"  />
<glyph unicode="&#x2021;" horiz-adv-x="1024" d="M532 -176H492V215H150V258H492V905H150V948H492V1313H532V948H874V905H532V258H874V215H532V-176Z"  />
<glyph unicode="&#x2022;" horiz-adv-x="1208" d="M307 762Q307 885 394 971T604 1057Q726 1057 812 971T899 762Q899 640 812 553T602 465Q479 465 393 552T307 762Z"  />
<glyph unicode="&#x2026;" horiz-adv-x="2048" d="M385 0H299V113H385V0ZM1067 0H981V113H1067V0ZM1751 0H1665V113H1751V0Z"  />
<glyph unicode="&#x2030;" horiz-adv-x="2011" d="M399 -31H354L1067 1341H1110L399 -31ZM195 993Q195 840 242 763T383 686Q476 686 522 763T569 993Q569 1146 523 1223T383 1300Q289 1300 242 1223T195 993ZM383 643Q270 643 213 730T156 991Q156 1165 213 1253T383 1341Q495 1341 551 1254T608 991Q608 818 552 731T383 643ZM895 324Q895 170 942 93T1083 16Q1176 16 1223 93T1270 324Q1270 476 1223 553T1083 631Q989 631 942 554T895 324ZM1081 -29Q969 -29 912 59T854 322Q854 495 911 583T1081 672Q1194 672 1250 584T1307 322Q1307 148 1250 60T1081 -29ZM1448 324Q1448 169 1494 93T1634 16Q1728 16 1775 94T1823 324Q1823 475 1776 553T1634 631Q1541 631 1495 555T1448 324ZM1632 -29Q1520 -29 1463 59T1405 322Q1405 495 1462 583T1632 672Q1745 672 1802 584T1860 322Q1860 148 1803 60T1632 -29Z"  />
<glyph unicode="&#x2039;" horiz-adv-x="561" d="M385 45H342L176 455L342 864H385L219 455L385 45Z"  />
<glyph unicode="&#x203A;" horiz-adv-x="561" d="M174 864H217L381 455L217 45H174L340 455L174 864Z"  />
<glyph unicode="&#x20AC;" horiz-adv-x="657" d="M31 452H97Q108 515 132 566T193 653T274 709T374 729Q425 729 466 714T538 671T588 606T614 523H520Q508 581 472 614T373 647Q298 647 255 595T197 452H400V395H191Q190 385 190 375T190 355Q190 344 190 334T191 314H400V257H198Q214 163 261 115T381 67Q450 67 488 112T534 226H624Q622 176 605 132T556 56T480 4T382 -15Q328 -15 281 3T197 56T134 141T97 257H31V314H90Q89 324 89 334T89 355Q89 365 89 375T90 395H31V452Z"  />
<glyph unicode="&#x2122;" horiz-adv-x="1706" d="M285 1452H694V1411H520V926H463V1411H285V1452ZM827 1452H915L1096 997L1264 1452H1350V926H1303V1415L1118 926H1073L877 1415V926H827V1452Z"  />

<hkern u1="-" u2="A" k="36" />
<hkern u1="-" u2="C" k="-38" />
<hkern u1="-" u2="G" k="-75" />
<hkern u1="-" u2="J" k="-114" />
<hkern u1="-" u2="O" k="-75" />
<hkern u1="-" u2="T" k="188" />
<hkern u1="-" u2="V" k="120" />
<hkern u1="-" u2="W" k="112" />
<hkern u1="-" u2="X" k="73" />
<hkern u1="-" u2="Y" k="159" />
<hkern u1="-" u2="o" k="-38" />
<hkern u1="-" u2="&#xc5;" k="36" />
<hkern u1="-" u2="&#xc6;" k="-57" />
<hkern u1="-" u2="&#xd8;" k="-75" />
<hkern u1="-" u2="&#xf8;" k="-38" />
<hkern u1="-" u2="&#x152;" k="-75" />
<hkern u1="-" u2="&#x153;" k="-38" />
<hkern u1="A" u2="-" k="45" />
<hkern u1="A" u2=":" k="-38" />
<hkern u1="A" u2=";" k="-38" />
<hkern u1="A" u2="T" k="112" />
<hkern u1="A" u2="V" k="73" />
<hkern u1="A" u2="W" k="36" />
<hkern u1="A" u2="X" k="36" />
<hkern u1="A" u2="Y" k="36" />
<hkern u1="A" u2="u" k="36" />
<hkern u1="A" u2="v" k="36" />
<hkern u1="A" u2="&#x201c;" k="264" />
<hkern u1="A" u2="&#x201d;" k="167" />
<hkern u1="A" u2="&#x2018;" k="264" />
<hkern u1="A" u2="&#x2019;" k="167" />
<hkern u1="A" u2="&#x201a;" k="-38" />
<hkern u1="A" u2="&#x201e;" k="-38" />
<hkern u1="B" u2="-" k="-57" />
<hkern u1="B" u2="C" k="-38" />
<hkern u1="B" u2="V" k="36" />
<hkern u1="B" u2="W" k="36" />
<hkern u1="B" u2="Y" k="36" />
<hkern u1="B" u2="&#x201d;" k="36" />
<hkern u1="B" u2="&#x2019;" k="36" />
<hkern u1="B" u2="&#x201a;" k="36" />
<hkern u1="B" u2="&#x201e;" k="36" />
<hkern u1="C" u2="-" k="-47" />
<hkern u1="C" u2="&#x201d;" k="-57" />
<hkern u1="C" u2="&#x2019;" k="-57" />
<hkern u1="D" u2="-" k="-65" />
<hkern u1="D" u2="A" k="36" />
<hkern u1="D" u2="V" k="36" />
<hkern u1="D" u2="W" k="36" />
<hkern u1="D" u2="&#xc5;" k="36" />
<hkern u1="D" u2="&#x201c;" k="36" />
<hkern u1="D" u2="&#x201d;" k="36" />
<hkern u1="D" u2="&#x2018;" k="36" />
<hkern u1="D" u2="&#x2019;" k="36" />
<hkern u1="D" u2="&#x201a;" k="188" />
<hkern u1="D" u2="&#x201e;" k="188" />
<hkern u1="F" u2="&#x2c;" k="405" />
<hkern u1="F" u2="-" k="102" />
<hkern u1="F" u2="." k="405" />
<hkern u1="F" u2=":" k="83" />
<hkern u1="F" u2=";" k="83" />
<hkern u1="F" u2="A" k="73" />
<hkern u1="F" u2="a" k="188" />
<hkern u1="F" u2="e" k="149" />
<hkern u1="F" u2="i" k="112" />
<hkern u1="F" u2="o" k="112" />
<hkern u1="F" u2="r" k="167" />
<hkern u1="F" u2="u" k="167" />
<hkern u1="F" u2="y" k="112" />
<hkern u1="F" u2="&#xc5;" k="73" />
<hkern u1="F" u2="&#xe6;" k="188" />
<hkern u1="F" u2="&#xf8;" k="112" />
<hkern u1="F" u2="&#xab;" k="73" />
<hkern u1="F" u2="&#x153;" k="112" />
<hkern u1="F" u2="&#x201d;" k="-38" />
<hkern u1="F" u2="&#x2019;" k="-38" />
<hkern u1="F" u2="&#x2039;" k="73" />
<hkern u1="F" u2="&#x201a;" k="415" />
<hkern u1="F" u2="&#x201e;" k="415" />
<hkern u1="G" u2="-" k="-47" />
<hkern u1="J" u2="&#x201a;" k="112" />
<hkern u1="J" u2="&#x201e;" k="112" />
<hkern u1="K" u2="-" k="63" />
<hkern u1="K" u2="C" k="36" />
<hkern u1="K" u2="O" k="36" />
<hkern u1="K" u2="U" k="73" />
<hkern u1="K" u2="W" k="73" />
<hkern u1="K" u2="Y" k="73" />
<hkern u1="K" u2="a" k="36" />
<hkern u1="K" u2="e" k="36" />
<hkern u1="K" u2="o" k="36" />
<hkern u1="K" u2="u" k="112" />
<hkern u1="K" u2="y" k="112" />
<hkern u1="K" u2="&#xd8;" k="36" />
<hkern u1="K" u2="&#xe6;" k="36" />
<hkern u1="K" u2="&#xf8;" k="36" />
<hkern u1="K" u2="&#x152;" k="36" />
<hkern u1="K" u2="&#x153;" k="36" />
<hkern u1="K" u2="&#x201c;" k="36" />
<hkern u1="K" u2="&#x201d;" k="36" />
<hkern u1="K" u2="&#x2018;" k="36" />
<hkern u1="K" u2="&#x2019;" k="36" />
<hkern u1="K" u2="&#x201a;" k="-65" />
<hkern u1="K" u2="&#x201e;" k="-65" />
<hkern u1="L" u2="T" k="188" />
<hkern u1="L" u2="U" k="73" />
<hkern u1="L" u2="V" k="188" />
<hkern u1="L" u2="W" k="149" />
<hkern u1="L" u2="Y" k="188" />
<hkern u1="L" u2="a" k="36" />
<hkern u1="L" u2="u" k="73" />
<hkern u1="L" u2="y" k="73" />
<hkern u1="L" u2="&#xe6;" k="36" />
<hkern u1="L" u2="&#x201c;" k="376" />
<hkern u1="L" u2="&#x201d;" k="376" />
<hkern u1="L" u2="&#x2018;" k="376" />
<hkern u1="L" u2="&#x2019;" k="376" />
<hkern u1="O" u2="&#x2c;" k="83" />
<hkern u1="O" u2="-" k="-57" />
<hkern u1="O" u2="." k="83" />
<hkern u1="O" u2=":" k="-38" />
<hkern u1="O" u2=";" k="-38" />
<hkern u1="O" u2="X" k="73" />
<hkern u1="O" u2="Y" k="36" />
<hkern u1="O" u2="&#x201a;" k="112" />
<hkern u1="O" u2="&#x201e;" k="112" />
<hkern u1="P" u2="&#x2c;" k="491" />
<hkern u1="P" u2="-" k="159" />
<hkern u1="P" u2="." k="491" />
<hkern u1="P" u2=":" k="92" />
<hkern u1="P" u2=";" k="92" />
<hkern u1="P" u2="A" k="112" />
<hkern u1="P" u2="a" k="149" />
<hkern u1="P" u2="e" k="112" />
<hkern u1="P" u2="i" k="36" />
<hkern u1="P" u2="o" k="73" />
<hkern u1="P" u2="r" k="36" />
<hkern u1="P" u2="s" k="73" />
<hkern u1="P" u2="u" k="73" />
<hkern u1="P" u2="&#xc5;" k="112" />
<hkern u1="P" u2="&#xe6;" k="149" />
<hkern u1="P" u2="&#xf8;" k="73" />
<hkern u1="P" u2="&#xab;" k="112" />
<hkern u1="P" u2="&#x153;" k="73" />
<hkern u1="P" u2="&#x201c;" k="-38" />
<hkern u1="P" u2="&#x201d;" k="-47" />
<hkern u1="P" u2="&#x2018;" k="-38" />
<hkern u1="P" u2="&#x2019;" k="-47" />
<hkern u1="P" u2="&#x2039;" k="112" />
<hkern u1="P" u2="&#x201a;" k="491" />
<hkern u1="P" u2="&#x201e;" k="491" />
<hkern u1="R" u2="-" k="55" />
<hkern u1="R" u2="V" k="36" />
<hkern u1="R" u2="W" k="36" />
<hkern u1="R" u2="Y" k="36" />
<hkern u1="R" u2="a" k="36" />
<hkern u1="R" u2="u" k="36" />
<hkern u1="R" u2="y" k="36" />
<hkern u1="R" u2="&#xe6;" k="36" />
<hkern u1="S" u2="C" k="-38" />
<hkern u1="T" u2="&#x2c;" k="264" />
<hkern u1="T" u2="-" k="188" />
<hkern u1="T" u2="." k="264" />
<hkern u1="T" u2=":" k="131" />
<hkern u1="T" u2=";" k="131" />
<hkern u1="T" u2="A" k="112" />
<hkern u1="T" u2="a" k="264" />
<hkern u1="T" u2="c" k="225" />
<hkern u1="T" u2="e" k="188" />
<hkern u1="T" u2="i" k="112" />
<hkern u1="T" u2="o" k="188" />
<hkern u1="T" u2="r" k="188" />
<hkern u1="T" u2="s" k="225" />
<hkern u1="T" u2="u" k="206" />
<hkern u1="T" u2="w" k="264" />
<hkern u1="T" u2="y" k="188" />
<hkern u1="T" u2="&#xc5;" k="112" />
<hkern u1="T" u2="&#xe6;" k="264" />
<hkern u1="T" u2="&#xf8;" k="188" />
<hkern u1="T" u2="&#xab;" k="188" />
<hkern u1="T" u2="&#xbb;" k="112" />
<hkern u1="T" u2="&#x153;" k="188" />
<hkern u1="T" u2="&#x2039;" k="188" />
<hkern u1="T" u2="&#x203a;" k="112" />
<hkern u1="T" u2="&#x201a;" k="225" />
<hkern u1="T" u2="&#x201e;" k="225" />
<hkern u1="U" u2="A" k="36" />
<hkern u1="U" u2="Z" k="36" />
<hkern u1="U" u2="&#xc5;" k="36" />
<hkern u1="V" u2="&#x2c;" k="339" />
<hkern u1="V" u2="-" k="167" />
<hkern u1="V" u2="." k="339" />
<hkern u1="V" u2=":" k="139" />
<hkern u1="V" u2=";" k="139" />
<hkern u1="V" u2="A" k="112" />
<hkern u1="V" u2="a" k="225" />
<hkern u1="V" u2="e" k="167" />
<hkern u1="V" u2="i" k="73" />
<hkern u1="V" u2="o" k="167" />
<hkern u1="V" u2="u" k="112" />
<hkern u1="V" u2="y" k="112" />
<hkern u1="V" u2="&#xc5;" k="112" />
<hkern u1="V" u2="&#xe6;" k="225" />
<hkern u1="V" u2="&#xf8;" k="167" />
<hkern u1="V" u2="&#xab;" k="188" />
<hkern u1="V" u2="&#xbb;" k="112" />
<hkern u1="V" u2="&#x153;" k="167" />
<hkern u1="V" u2="&#x201d;" k="-57" />
<hkern u1="V" u2="&#x2019;" k="-57" />
<hkern u1="V" u2="&#x2039;" k="188" />
<hkern u1="V" u2="&#x203a;" k="112" />
<hkern u1="V" u2="&#x201a;" k="339" />
<hkern u1="V" u2="&#x201e;" k="339" />
<hkern u1="W" u2="&#x2c;" k="253" />
<hkern u1="W" u2="-" k="120" />
<hkern u1="W" u2="." k="253" />
<hkern u1="W" u2=":" k="120" />
<hkern u1="W" u2=";" k="120" />
<hkern u1="W" u2="A" k="73" />
<hkern u1="W" u2="a" k="188" />
<hkern u1="W" u2="e" k="149" />
<hkern u1="W" u2="i" k="73" />
<hkern u1="W" u2="o" k="112" />
<hkern u1="W" u2="r" k="92" />
<hkern u1="W" u2="u" k="92" />
<hkern u1="W" u2="y" k="112" />
<hkern u1="W" u2="&#xc5;" k="73" />
<hkern u1="W" u2="&#xe6;" k="188" />
<hkern u1="W" u2="&#xf8;" k="112" />
<hkern u1="W" u2="&#xab;" k="149" />
<hkern u1="W" u2="&#xbb;" k="112" />
<hkern u1="W" u2="&#x153;" k="112" />
<hkern u1="W" u2="&#x201d;" k="-38" />
<hkern u1="W" u2="&#x2019;" k="-38" />
<hkern u1="W" u2="&#x2039;" k="149" />
<hkern u1="W" u2="&#x203a;" k="112" />
<hkern u1="W" u2="&#x201a;" k="339" />
<hkern u1="W" u2="&#x201e;" k="339" />
<hkern u1="X" u2="-" k="102" />
<hkern u1="X" u2="A" k="36" />
<hkern u1="X" u2="C" k="36" />
<hkern u1="X" u2="O" k="73" />
<hkern u1="X" u2="e" k="36" />
<hkern u1="X" u2="&#xc5;" k="36" />
<hkern u1="X" u2="&#xd8;" k="73" />
<hkern u1="X" u2="&#xab;" k="36" />
<hkern u1="X" u2="&#x152;" k="73" />
<hkern u1="X" u2="&#x201c;" k="73" />
<hkern u1="X" u2="&#x2018;" k="73" />
<hkern u1="X" u2="&#x2039;" k="36" />
<hkern u1="X" u2="&#x201a;" k="-114" />
<hkern u1="X" u2="&#x201e;" k="-114" />
<hkern u1="Y" u2="&#x2c;" k="235" />
<hkern u1="Y" u2="-" k="243" />
<hkern u1="Y" u2="." k="235" />
<hkern u1="Y" u2=":" k="178" />
<hkern u1="Y" u2=";" k="178" />
<hkern u1="Y" u2="A" k="112" />
<hkern u1="Y" u2="C" k="36" />
<hkern u1="Y" u2="O" k="36" />
<hkern u1="Y" u2="a" k="225" />
<hkern u1="Y" u2="e" k="225" />
<hkern u1="Y" u2="i" k="112" />
<hkern u1="Y" u2="o" k="188" />
<hkern u1="Y" u2="u" k="188" />
<hkern u1="Y" u2="&#xc5;" k="112" />
<hkern u1="Y" u2="&#xd8;" k="36" />
<hkern u1="Y" u2="&#xe6;" k="225" />
<hkern u1="Y" u2="&#xf8;" k="188" />
<hkern u1="Y" u2="&#xab;" k="149" />
<hkern u1="Y" u2="&#xbb;" k="149" />
<hkern u1="Y" u2="&#x152;" k="36" />
<hkern u1="Y" u2="&#x153;" k="188" />
<hkern u1="Y" u2="&#x2039;" k="149" />
<hkern u1="Y" u2="&#x203a;" k="149" />
<hkern u1="Y" u2="&#x201a;" k="264" />
<hkern u1="Y" u2="&#x201e;" k="264" />
<hkern u1="Z" u2="-" k="36" />
<hkern u1="Z" u2="&#x201c;" k="36" />
<hkern u1="Z" u2="&#x2018;" k="36" />
<hkern u1="f" u2="&#x2c;" k="36" />
<hkern u1="f" u2="." k="36" />
<hkern u1="f" u2="&#x201c;" k="-38" />
<hkern u1="f" u2="&#x201d;" k="-141" />
<hkern u1="f" u2="&#x2018;" k="-38" />
<hkern u1="f" u2="&#x2019;" k="-141" />
<hkern u1="k" u2="a" k="36" />
<hkern u1="k" u2="u" k="36" />
<hkern u1="k" u2="&#xe6;" k="36" />
<hkern u1="n" u2="&#x201c;" k="112" />
<hkern u1="n" u2="&#x201d;" k="112" />
<hkern u1="n" u2="&#x2018;" k="112" />
<hkern u1="n" u2="&#x2019;" k="112" />
<hkern u1="o" u2="-" k="-38" />
<hkern u1="o" u2="&#x201c;" k="73" />
<hkern u1="o" u2="&#x2018;" k="73" />
<hkern u1="r" u2="&#x2c;" k="167" />
<hkern u1="r" u2="-" k="36" />
<hkern u1="r" u2="." k="167" />
<hkern u1="r" u2="g" k="36" />
<hkern u1="r" u2="h" k="36" />
<hkern u1="r" u2="o" k="36" />
<hkern u1="r" u2="q" k="36" />
<hkern u1="r" u2="u" k="36" />
<hkern u1="r" u2="&#xf8;" k="36" />
<hkern u1="r" u2="&#x153;" k="36" />
<hkern u1="r" u2="&#x201d;" k="-86" />
<hkern u1="r" u2="&#x2019;" k="-86" />
<hkern u1="r" u2="&#x201a;" k="83" />
<hkern u1="r" u2="&#x201e;" k="83" />
<hkern u1="v" u2="&#x2c;" k="159" />
<hkern u1="v" u2="." k="159" />
<hkern u1="w" u2="&#x2c;" k="149" />
<hkern u1="w" u2="-" k="-38" />
<hkern u1="w" u2="." k="149" />
<hkern u1="w" u2="&#x201c;" k="-57" />
<hkern u1="w" u2="&#x201d;" k="-114" />
<hkern u1="w" u2="&#x2018;" k="-57" />
<hkern u1="w" u2="&#x2019;" k="-114" />
<hkern u1="w" u2="&#x201a;" k="120" />
<hkern u1="w" u2="&#x201e;" k="120" />
<hkern u1="y" u2="&#x2c;" k="178" />
<hkern u1="y" u2="-" k="36" />
<hkern u1="y" u2="." k="178" />
<hkern u1="y" u2="&#x201c;" k="-114" />
<hkern u1="y" u2="&#x201d;" k="-114" />
<hkern u1="y" u2="&#x2018;" k="-114" />
<hkern u1="y" u2="&#x2019;" k="-114" />
<hkern u1="y" u2="&#x201a;" k="149" />
<hkern u1="y" u2="&#x201e;" k="149" />
<hkern u1="&#xc5;" u2="-" k="45" />
<hkern u1="&#xc5;" u2=":" k="-38" />
<hkern u1="&#xc5;" u2=";" k="-38" />
<hkern u1="&#xc5;" u2="T" k="112" />
<hkern u1="&#xc5;" u2="V" k="73" />
<hkern u1="&#xc5;" u2="W" k="36" />
<hkern u1="&#xc5;" u2="X" k="36" />
<hkern u1="&#xc5;" u2="Y" k="36" />
<hkern u1="&#xc5;" u2="u" k="36" />
<hkern u1="&#xc5;" u2="v" k="36" />
<hkern u1="&#xc5;" u2="&#x201c;" k="264" />
<hkern u1="&#xc5;" u2="&#x201d;" k="167" />
<hkern u1="&#xc5;" u2="&#x2018;" k="264" />
<hkern u1="&#xc5;" u2="&#x2019;" k="167" />
<hkern u1="&#xc5;" u2="&#x201a;" k="-38" />
<hkern u1="&#xc5;" u2="&#x201e;" k="-38" />
<hkern u1="&#xdf;" u2="-" k="-75" />
<hkern u1="&#xdf;" u2="&#x201c;" k="36" />
<hkern u1="&#xdf;" u2="&#x2018;" k="36" />
<hkern u1="&#xc6;" u2="-" k="-38" />
<hkern u1="&#xd8;" u2="&#x2c;" k="83" />
<hkern u1="&#xd8;" u2="-" k="-57" />
<hkern u1="&#xd8;" u2="." k="83" />
<hkern u1="&#xd8;" u2=":" k="-38" />
<hkern u1="&#xd8;" u2=";" k="-38" />
<hkern u1="&#xd8;" u2="X" k="73" />
<hkern u1="&#xd8;" u2="Y" k="36" />
<hkern u1="&#xd8;" u2="&#x201a;" k="112" />
<hkern u1="&#xd8;" u2="&#x201e;" k="112" />
<hkern u1="&#xf8;" u2="-" k="-38" />
<hkern u1="&#xf8;" u2="&#x201c;" k="73" />
<hkern u1="&#xf8;" u2="&#x2018;" k="73" />
<hkern u1="&#xab;" u2="J" k="-38" />
<hkern u1="&#xab;" u2="T" k="112" />
<hkern u1="&#xab;" u2="V" k="112" />
<hkern u1="&#xab;" u2="W" k="112" />
<hkern u1="&#xab;" u2="Y" k="149" />
<hkern u1="&#xab;" u2="&#xc6;" k="-151" />
<hkern u1="&#xbb;" u2="J" k="-75" />
<hkern u1="&#xbb;" u2="T" k="188" />
<hkern u1="&#xbb;" u2="V" k="188" />
<hkern u1="&#xbb;" u2="W" k="149" />
<hkern u1="&#xbb;" u2="X" k="36" />
<hkern u1="&#xbb;" u2="Y" k="149" />
<hkern u1="&#x201c;" u2="A" k="196" />
<hkern u1="&#x201c;" u2="J" k="-38" />
<hkern u1="&#x201c;" u2="O" k="45" />
<hkern u1="&#x201c;" u2="T" k="-38" />
<hkern u1="&#x201c;" u2="V" k="-57" />
<hkern u1="&#x201c;" u2="W" k="-47" />
<hkern u1="&#x201c;" u2="X" k="-65" />
<hkern u1="&#x201c;" u2="Y" k="-65" />
<hkern u1="&#x201c;" u2="r" k="112" />
<hkern u1="&#x201c;" u2="&#xc5;" k="196" />
<hkern u1="&#x201c;" u2="&#xc6;" k="395" />
<hkern u1="&#x201c;" u2="&#xd8;" k="45" />
<hkern u1="&#x201c;" u2="&#x152;" k="45" />
<hkern u1="&#x2018;" u2="A" k="196" />
<hkern u1="&#x2018;" u2="J" k="-38" />
<hkern u1="&#x2018;" u2="O" k="45" />
<hkern u1="&#x2018;" u2="T" k="-38" />
<hkern u1="&#x2018;" u2="V" k="-57" />
<hkern u1="&#x2018;" u2="W" k="-47" />
<hkern u1="&#x2018;" u2="X" k="-65" />
<hkern u1="&#x2018;" u2="Y" k="-65" />
<hkern u1="&#x2018;" u2="r" k="112" />
<hkern u1="&#x2018;" u2="&#xc5;" k="196" />
<hkern u1="&#x2018;" u2="&#xc6;" k="395" />
<hkern u1="&#x2018;" u2="&#xd8;" k="45" />
<hkern u1="&#x2018;" u2="&#x152;" k="45" />
<hkern u1="&#x2039;" u2="J" k="-38" />
<hkern u1="&#x2039;" u2="T" k="112" />
<hkern u1="&#x2039;" u2="V" k="112" />
<hkern u1="&#x2039;" u2="W" k="112" />
<hkern u1="&#x2039;" u2="Y" k="149" />
<hkern u1="&#x2039;" u2="&#xc6;" k="-151" />
<hkern u1="&#x203a;" u2="J" k="-75" />
<hkern u1="&#x203a;" u2="T" k="188" />
<hkern u1="&#x203a;" u2="V" k="188" />
<hkern u1="&#x203a;" u2="W" k="149" />
<hkern u1="&#x203a;" u2="X" k="36" />
<hkern u1="&#x203a;" u2="Y" k="149" />
<hkern u1="&#x201a;" u2="A" k="-75" />
<hkern u1="&#x201a;" u2="C" k="112" />
<hkern u1="&#x201a;" u2="G" k="73" />
<hkern u1="&#x201a;" u2="O" k="73" />
<hkern u1="&#x201a;" u2="T" k="206" />
<hkern u1="&#x201a;" u2="V" k="339" />
<hkern u1="&#x201a;" u2="W" k="292" />
<hkern u1="&#x201a;" u2="X" k="-86" />
<hkern u1="&#x201a;" u2="Y" k="225" />
<hkern u1="&#x201a;" u2="f" k="-38" />
<hkern u1="&#x201a;" u2="w" k="83" />
<hkern u1="&#x201a;" u2="&#xc5;" k="-75" />
<hkern u1="&#x201a;" u2="&#xdf;" k="-38" />
<hkern u1="&#x201a;" u2="&#xc6;" k="-227" />
<hkern u1="&#x201a;" u2="&#xd8;" k="73" />
<hkern u1="&#x201a;" u2="&#x152;" k="73" />
<hkern u1="&#x201e;" u2="A" k="-75" />
<hkern u1="&#x201e;" u2="C" k="112" />
<hkern u1="&#x201e;" u2="G" k="73" />
<hkern u1="&#x201e;" u2="O" k="73" />
<hkern u1="&#x201e;" u2="T" k="206" />
<hkern u1="&#x201e;" u2="V" k="339" />
<hkern u1="&#x201e;" u2="W" k="292" />
<hkern u1="&#x201e;" u2="X" k="-86" />
<hkern u1="&#x201e;" u2="Y" k="225" />
<hkern u1="&#x201e;" u2="f" k="-38" />
<hkern u1="&#x201e;" u2="w" k="83" />
<hkern u1="&#x201e;" u2="&#xc5;" k="-75" />
<hkern u1="&#x201e;" u2="&#xdf;" k="-38" />
<hkern u1="&#x201e;" u2="&#xc6;" k="-227" />
<hkern u1="&#x201e;" u2="&#xd8;" k="73" />
<hkern u1="&#x201e;" u2="&#x152;" k="73" />
<hkern u1="&#xd0;" u2="-" k="-65" />
<hkern u1="&#xd0;" u2="A" k="36" />
<hkern u1="&#xd0;" u2="V" k="36" />
<hkern u1="&#xd0;" u2="W" k="36" />
<hkern u1="&#xd0;" u2="&#xc5;" k="36" />
<hkern u1="&#xd0;" u2="&#x201c;" k="36" />
<hkern u1="&#xd0;" u2="&#x201d;" k="36" />
<hkern u1="&#xd0;" u2="&#x2018;" k="36" />
<hkern u1="&#xd0;" u2="&#x2019;" k="36" />
<hkern u1="&#xd0;" u2="&#x201a;" k="188" />
<hkern u1="&#xd0;" u2="&#x201e;" k="188" />

</font>
</defs>
<text x="40" y="40" font-family="Serifa W01 Thin" font-size="30" fill="#933" >ABCDEFGHIJKLMNOPQRSTUVWXYZ abcdefghijklmnopqrstuvwxyz AÁÀÂÄÅÃÆ CÇ DÐ EÉÈÊË I Í Ì Î Ï NÑ</text>
<text x="40" y="80" font-family="Serifa W01 Thin" font-size="30" fill="#933" >OÓÒÔÖÕØŒ SŠ UÚÙÛÜ YÝŸ ZŽ Þ aáàâäåãæ cç dð eéèêë i ı í ì î ï nñ oóòôöõøœ sšß uúùûü yýÿ zž</text>
<text x="40" y="120" font-family="Serifa W01 Thin" font-size="30" fill="#933" >þ 1234567890 ½ ¼ ¾ % ‰ $¢£¥ƒ€¤ † ‡ § ¶ # ^~µ +×± &lt; = &gt; ÷¬ !¡?¿ &quot; &amp; &apos; * ° . , : ; () [ \ ] {} / |</text>
<text x="40" y="160" font-family="Serifa W01 Thin" font-size="30" fill="#933" >¦ _ ‚ „ … ‹› «» ‘ ’ “ ” • ­ - – — @ © ® ™ ªº ¹²³ ´ ` ˆ ˜ ¨ ¯ · ¸</text>
</svg>
