<?xml  version="1.0" encoding="UTF-8"?>
<!DOCTYPE svg PUBLIC "-//W3C//DTD SVG 1.0//EN" "http://www.w3.org/TR/2001/REC-SVG-20010904/DTD/svg10.dtd" >
<svg xmlns="http://www.w3.org/2000/svg" >
<metadata>
<version>1.0</version>
<id><![CDATA[Basic Commercial W01 Blk]]></id>
<vendor>Monotype Imaging Inc.</vendor>
<credits>
<name>Fonts.com WebFonts</name>
<URL>http://webfonts.fonts.com</URL>
<role>Home of the Web fonts</role>
</credits>
<license>
<URL>http://webfonts.fonts.com/Legal</URL>
</license>
<copyright><![CDATA[Copyright © 2003 - 2007 Linotype GmbH, www.linotype.com. All rights reserved. This font software may not be reproduced, modified, disclosed or transferred without the express written approval of Linotype GmbH. Basic Commercial is a trademark of Linotype GmbH registered in the U.S. Patent and Trademark Office and may be registered in certain other jurisdictions. This typeface is original artwork of Linotype Design Studio. The design may be protected in certain jurisdictions.]]></copyright>
<trademark><![CDATA[Basic Commercial is a trademark of Linotype GmbH registered in the U.S. Patent and Trademark Office and may be registered in certain other jurisdictions.]]></trademark>
<licensee>
<name></name>
</licensee>
</metadata>
<defs >
<font horiz-adv-x="559" id="c77bdcc5-4854-4e35-aee2-1895f7d93168">
<font-face font-family="Basic Commercial W01 Blk" panose-1="2 11 10 3 4 5 3 2 2 4" ascent="956" descent="-234" units-per-em="1000" alphabetic="0">
</font-face>
<missing-glyph horiz-adv-x="0" />

<glyph unicode="&#xA;" />
<glyph unicode="&#xD;" horiz-adv-x="0" />
<glyph unicode=" " horiz-adv-x="278" />
<glyph unicode="!" horiz-adv-x="296" d="M67 0V168H229V0H67ZM115 242L67 500V712H229V500L181 242H115Z"  />
<glyph unicode="&quot;" horiz-adv-x="481" d="M89 712H209V368H89V712ZM272 712H392V368H272V712Z"  />
<glyph unicode="#" horiz-adv-x="556" d="M113 185H33V287H127L141 395H61V497H156L181 682H285L260 497H340L365 682H469L443 497H523V395H429L415 287H495V185H400L375 0H271L296 185H217L191 0H87L113 185ZM231 287H311L325 395H245L231 287Z"  />
<glyph unicode="$" horiz-adv-x="556" d="M415 518Q386 538 352 551T281 564Q266 564 250 562T219 552T196 533T187 503Q187 484 206 472T254 451L369 415Q407 403 439 387T493 347T528 288T541 204Q541 158 524 120T477 53T407 7T321 -14V-135H231V-14Q165 -13 104 12T-7 80L101 189Q140 152 181 135T276 118Q293 118 310 121T342 134T364 158T373 196Q373 214 366 226T347 247T320 262T288 273L175 309Q98 334 59 374T19 491Q19 537 35 573T80 636T147 678T231 696V817H321V696Q368 694 417 679T518 624L415 518Z"  />
<glyph unicode="%" horiz-adv-x="889" d="M658 -14Q628 -14 602 -3T557 31T526 89T515 173Q515 222 526 257T556 315T602 349T658 360Q688 360 714 349T759 315T790 257T801 173Q801 124 790 89T760 31T714 -3T658 -14ZM231 322Q201 322 175 333T130 367T99 425T88 509Q88 558 99 593T129 651T175 685T231 696Q261 696 287 685T332 651T363 593T374 509Q374 460 363 425T333 367T287 333T231 322ZM658 76Q682 76 693 97T705 173Q705 227 694 248T658 270Q634 270 623 249T611 173Q611 119 622 98T658 76ZM231 412Q255 412 266 433T278 509Q278 563 267 584T231 606Q207 606 196 585T184 509Q184 455 195 434T231 412ZM603 721L662 696L272 -39L214 -14L603 721Z"  />
<glyph unicode="&amp;" horiz-adv-x="685" d="M383 567Q383 590 368 601T332 612Q315 612 300 601T284 570Q284 550 295 529T316 492Q342 504 362 524T383 567ZM261 333Q245 322 230 310T203 284T184 254T177 218Q177 200 183 182T203 148T234 124T276 114Q307 114 333 122T382 151L261 333ZM471 256Q487 282 495 309T508 365L637 317Q622 270 602 225T556 145Q566 134 576 128T597 118T615 115T630 114Q641 114 649 114T664 116V0H573Q549 0 532 3T502 14T479 29T459 49Q436 33 411 23T359 6T309 -3T266 -6Q201 -6 155 14T79 65T35 132T21 200Q21 249 33 286T68 351T123 400T195 442Q175 470 164 502T152 570Q152 607 167 635T208 682T265 710T331 720Q368 720 401 711T459 682T500 632T515 562Q515 532 504 507T473 461T430 424T380 395L471 256Z"  />
<glyph unicode="&apos;" horiz-adv-x="278" d="M79 712H199V368H79V712Z"  />
<glyph unicode="(" horiz-adv-x="352" d="M289 -168Q226 -119 179 -69T100 36T52 150T36 282Q36 355 54 419T106 538T186 642T287 732L339 679Q297 638 267 596T218 507T189 405T180 282Q180 172 215 74T341 -108L289 -168Z"  />
<glyph unicode=")" horiz-adv-x="352" d="M11 -108Q101 -25 136 73T172 282Q172 349 163 404T135 507T85 596T13 679L65 732Q120 691 166 643T245 539T297 419T316 282Q316 211 300 151T253 36T174 -68T63 -168L11 -108Z"  />
<glyph unicode="*" horiz-adv-x="352" d="M109 527L10 553L32 632L135 605V712H213V605L316 640L342 563L241 532L305 445L239 397L177 483L116 397L50 441L109 527Z"  />
<glyph unicode="+" horiz-adv-x="600" d="M240 506H360V313H553V193H360V0H240V193H47V313H240V506Z"  />
<glyph unicode="&#x2c;" horiz-adv-x="278" d="M61 -103Q79 -98 91 -88T111 -63T121 -32T124 0H58V168H220V0Q220 -38 208 -68T173 -119T123 -155T61 -176V-103Z"  />
<glyph unicode="-" horiz-adv-x="352" d="M52 204V348H300V204H52Z"  />
<glyph unicode="." horiz-adv-x="278" d="M58 0V168H220V0H58Z"  />
<glyph unicode="/" horiz-adv-x="481" d="M335 732H455L146 -20H26L335 732Z"  />
<glyph unicode="0" horiz-adv-x="556" d="M521 341Q521 239 500 171T444 61T366 3T278 -14Q234 -14 191 3T113 61T57 170T35 341Q35 437 55 504T109 614T187 676T278 696Q324 696 368 679T446 621T500 512T521 341ZM371 341Q371 408 365 452T346 522T317 559T278 570Q261 570 244 560T214 523T193 452T185 341Q185 276 191 232T208 162T237 124T278 112Q300 112 317 122T347 159T365 230T371 341Z"  />
<glyph unicode="1" horiz-adv-x="556" d="M377 0H215V498Q183 486 144 482T69 475V583Q145 585 186 609T250 682H377V0Z"  />
<glyph unicode="2" horiz-adv-x="556" d="M501 0H35V120Q132 196 191 247T281 338T323 412T333 490Q333 532 317 554T271 576Q250 576 237 565T217 538T207 504T204 470Q204 460 204 451T207 429L42 444V473Q42 514 57 554T100 625T171 676T268 696Q320 696 362 682T436 642T484 578T501 491Q501 435 488 392T445 309T365 228T243 134V132H501V0Z"  />
<glyph unicode="3" horiz-adv-x="556" d="M233 416H268Q300 416 318 435T336 489Q336 505 334 519T324 545T303 563T269 570Q251 570 238 562T217 539T204 508T198 472L42 485Q45 539 64 578T115 644T189 683T280 696Q328 696 369 685T440 650T487 591T504 507Q504 445 474 411T401 362V360Q458 343 492 304T527 202Q527 139 504 97T443 31T359 -4T268 -14Q203 -14 158 2T84 48T42 125T29 231L189 244Q187 239 186 231T185 209Q185 190 189 173T202 142T227 120T267 112Q305 112 327 134T349 203Q349 255 326 278T264 302H233V416Z"  />
<glyph unicode="4" horiz-adv-x="556" d="M16 277L297 682H449V271H540V157H450V0H287V157H16V277ZM287 508H285L130 271H287V508Z"  />
<glyph unicode="5" horiz-adv-x="556" d="M100 682H492L481 550H222L205 430Q228 450 257 458T315 466Q360 466 397 450T462 403T505 330T521 237Q521 189 506 144T458 64T377 7T259 -14Q198 -14 155 3T83 50T42 123T29 214L185 221V199Q185 177 191 160T209 131T234 113T263 106Q287 106 304 116T332 142T348 180T353 224Q353 250 349 273T334 314T307 342T267 352Q244 352 225 340T192 299L56 322L100 682Z"  />
<glyph unicode="6" horiz-adv-x="556" d="M372 218Q372 258 352 287T290 317Q255 317 232 292T209 218Q209 166 230 139T290 112Q332 112 352 139T372 218ZM354 492Q352 506 349 520T338 545T320 563T291 570Q261 570 242 554T212 509T197 444T191 366H194Q216 400 254 418T337 437Q373 437 407 425T468 387T511 321T528 224Q528 170 510 126T460 51T384 3T287 -14Q240 -14 195 1T114 54T57 155T35 316Q35 383 45 451T85 573T166 662T298 696Q396 696 447 647T514 508L354 492Z"  />
<glyph unicode="7" horiz-adv-x="556" d="M61 682H544V556Q500 511 460 449T387 313T334 159T308 0H120Q149 151 215 291T383 550H61V682Z"  />
<glyph unicode="8" horiz-adv-x="556" d="M359 204Q359 246 342 273T278 301Q232 301 215 274T197 204Q197 161 214 134T278 106Q324 106 341 133T359 204ZM521 196Q521 140 503 100T452 35T375 -2T278 -14Q226 -14 182 -3T105 34T54 100T35 196Q35 255 68 298T159 354V356Q114 375 88 417T62 509Q62 558 78 593T124 652T195 685T286 696Q329 696 367 686T433 652T478 594T494 509Q494 459 468 417T397 356V354Q455 341 488 298T521 196ZM344 493Q344 539 326 557T278 576Q248 576 230 558T212 493Q212 446 230 428T278 409Q308 409 326 427T344 493Z"  />
<glyph unicode="9" horiz-adv-x="556" d="M184 464Q184 424 204 395T266 365Q301 365 324 390T347 464Q347 516 326 543T266 570Q224 570 204 543T184 464ZM202 190Q204 176 207 162T218 137T236 119T265 112Q295 112 314 128T344 173T359 238T365 316H362Q340 282 302 264T219 245Q183 245 149 257T88 295T45 361T28 458Q28 512 46 556T96 631T172 679T269 696Q316 696 361 681T442 628T499 527T521 366Q521 299 511 231T471 109T390 20T258 -14Q160 -14 109 35T42 174L202 190Z"  />
<glyph unicode=":" horiz-adv-x="278" d="M58 0V168H220V0H58ZM58 356V524H220V356H58Z"  />
<glyph unicode=";" horiz-adv-x="278" d="M58 356V524H220V356H58ZM61 -103Q79 -98 91 -88T111 -63T121 -32T124 0H58V168H220V0Q220 -38 208 -68T173 -119T123 -155T61 -176V-103Z"  />
<glyph unicode="&lt;" horiz-adv-x="600" d="M553 -8L47 206V300L553 514V399L202 253L553 107V-8Z"  />
<glyph unicode="=" horiz-adv-x="600" d="M553 81H47V201H553V81ZM553 305H47V425H553V305Z"  />
<glyph unicode="&gt;" horiz-adv-x="600" d="M398 253L47 399V514L553 300V206L47 -8V107L398 253Z"  />
<glyph unicode="?" horiz-adv-x="611" d="M188 0V168H350V0H188ZM206 245V276Q206 307 220 329T255 369T301 404T347 437T383 476T397 525Q397 566 368 585T302 604Q248 604 217 569T183 480L42 527Q61 593 94 631T165 689T240 713T306 718Q379 718 429 702T511 660T555 602T569 536Q569 482 544 448T487 389L359 294Q345 283 340 272T332 245H206Z"  />
<glyph unicode="@" horiz-adv-x="930" d="M543 284Q543 309 529 325T491 342Q471 342 455 331T427 302T409 259T402 209Q402 173 419 159T456 144Q480 144 497 158T524 193T538 238T543 284ZM657 221Q650 189 650 173Q650 160 655 152T671 143Q687 143 705 153T739 186T764 241T774 319Q774 371 757 415T706 492T620 543T501 562Q429 562 370 538T268 469T202 363T178 229Q178 158 201 102T266 8T366 -50T495 -70Q524 -70 557 -65T624 -52T690 -31T749 -3L798 -97Q766 -115 728 -129T648 -153T565 -168T484 -173Q383 -173 300 -146T158 -68T66 58T33 229Q33 322 67 401T162 539T310 631T501 665Q595 665 669 639T793 568T870 459T897 322Q897 257 876 208T820 125T742 74T655 57Q610 57 581 70T532 114Q510 81 479 66T413 51Q347 51 308 92T268 202Q268 252 285 295T329 369T392 419T466 437Q501 437 526 425T560 390H562L570 427H705L657 221Z"  />
<glyph unicode="A" horiz-adv-x="722" d="M449 244L361 538H359L271 244H449ZM266 712H450L719 0H528L492 112H229L193 0H3L266 712Z"  />
<glyph unicode="B" horiz-adv-x="722" d="M239 432H387Q430 432 455 449T480 506Q480 551 456 565T387 580H239V432ZM241 132H386Q421 132 444 138T481 156T500 182T506 215Q506 260 487 280T418 300H241V132ZM69 712H417Q471 712 515 702T591 671T640 614T658 529Q658 460 620 423T509 368V366Q545 363 577 352T633 321T670 272T684 203Q684 148 664 110T607 47T515 11T393 0H69V712Z"  />
<glyph unicode="C" horiz-adv-x="704" d="M540 475Q521 525 480 553T392 582Q355 582 323 569T267 529T230 459T216 356Q216 317 224 277T254 204T310 151T398 130Q416 130 437 136T478 156T516 187T544 230L685 162Q639 78 564 29T398 -20Q313 -20 246 10T133 93T63 213T38 356Q38 431 61 499T128 619T236 701T384 732Q436 732 480 720T560 683T627 625T682 546L540 475Z"  />
<glyph unicode="D" horiz-adv-x="741" d="M242 150H344Q394 150 428 166T484 210T515 275T525 356Q525 399 516 436T485 502T428 546T343 562H242V150ZM64 712H340Q421 712 488 692T603 629T677 519T703 356Q703 261 677 194T603 83T488 20T340 0H64V712Z"  />
<glyph unicode="E" horiz-adv-x="648" d="M69 0V712H593V574H247V444H570V306H247V138H623V0H69Z"  />
<glyph unicode="F" horiz-adv-x="630" d="M69 712H613V574H247V424H586V286H247V0H69V712Z"  />
<glyph unicode="G" horiz-adv-x="759" d="M567 489Q514 582 399 582Q317 582 267 528T216 356Q216 252 262 191T399 130Q423 130 450 137T499 160T538 200T557 259H399V397H707V0H569V64Q534 24 481 2T362 -20Q281 -20 221 8T120 85T59 203T38 353Q38 434 60 503T125 624T234 703T387 732Q493 732 577 687T715 554L567 489Z"  />
<glyph unicode="H" horiz-adv-x="759" d="M69 712H247V456H512V712H690V0H512V300H247V0H69V712Z"  />
<glyph unicode="I" horiz-adv-x="316" d="M69 712H247V0H69V712Z"  />
<glyph unicode="J" horiz-adv-x="407" d="M19 144H93Q115 144 128 149T149 163T158 185T160 216V712H338V158Q338 115 326 85T292 36T238 9T168 0H19V144Z"  />
<glyph unicode="K" horiz-adv-x="741" d="M69 712H247V428L502 712H738L479 442L746 0H548L354 316L247 207V0H69V712Z"  />
<glyph unicode="L" horiz-adv-x="556" d="M69 712H247V150H525V0H69V712Z"  />
<glyph unicode="M" horiz-adv-x="907" d="M65 712H326L452 183H454L584 712H842V0H674V553H672L531 0H374L229 553H227V0H65V712Z"  />
<glyph unicode="N" horiz-adv-x="741" d="M69 712H249L508 257H510V712H672V0H494L233 448H231V0H69V712Z"  />
<glyph unicode="O" horiz-adv-x="796" d="M758 356Q758 281 734 213T663 93T550 11T398 -20Q313 -20 246 10T133 93T63 213T38 356Q38 431 62 499T133 619T246 701T398 732Q483 732 550 702T663 619T733 499T758 356ZM580 356Q580 398 570 438T539 511T482 562T398 582Q359 582 326 569T268 529T230 459T216 356Q216 317 224 277T254 204T310 151T398 130Q447 130 482 150T538 202T570 274T580 356Z"  />
<glyph unicode="P" horiz-adv-x="704" d="M69 712H422Q494 712 544 694T625 644T671 568T685 471Q685 435 673 393T628 315T537 255T388 230H249V0H69V712ZM247 362H397Q427 362 448 371T482 395T501 429T507 470Q507 524 480 552T392 580H247V362Z"  />
<glyph unicode="Q" horiz-adv-x="796" d="M762 -66Q733 -64 705 -54T653 -31T608 -4T575 23Q537 3 493 -8T398 -20Q313 -20 246 10T133 93T63 213T38 356Q38 431 62 499T133 619T246 701T398 732Q483 732 550 702T663 619T733 499T758 356Q758 290 740 230T684 119Q690 110 703 101T734 84T772 70T814 61L762 -66ZM580 356Q580 398 570 438T539 511T482 562T398 582Q359 582 326 569T268 529T230 459T216 356Q216 317 224 277T254 204T310 151T398 130Q447 130 482 150T538 202T570 274T580 356Z"  />
<glyph unicode="R" horiz-adv-x="722" d="M69 712H425Q545 712 614 655T683 478Q683 409 643 358T536 286L699 0H500L360 256H247V0H69V712ZM247 388H410Q453 388 479 411T505 484Q505 534 479 557T410 580H247V388Z"  />
<glyph unicode="S" horiz-adv-x="685" d="M138 213Q185 171 232 148T344 124Q362 124 385 128T428 141T463 167T477 206Q477 233 457 247T397 269L249 293Q149 309 97 359T45 489Q45 553 69 599T133 675T226 718T336 732Q425 732 507 697T650 595L515 498Q480 541 431 564T324 588Q309 588 291 583T258 569T233 547T223 516Q223 487 247 472T322 448L390 437Q443 428 490 415T572 378T628 320T649 234Q649 154 617 104T536 27T430 -10T323 -20Q232 -20 154 12T2 125L138 213Z"  />
<glyph unicode="T" horiz-adv-x="574" d="M12 712H562V574H376V0H198V574H12V712Z"  />
<glyph unicode="U" horiz-adv-x="741" d="M672 248Q672 175 644 124T573 41T475 -5T370 -20Q319 -20 266 -6T169 41T97 124T69 248V712H247V263Q247 233 253 208T274 164T311 135T370 124Q405 124 428 134T466 163T487 207T494 263V712H672V248Z"  />
<glyph unicode="V" horiz-adv-x="685" d="M6 712H195L340 204H342L492 712H679L433 0H244L6 712Z"  />
<glyph unicode="W" horiz-adv-x="1000" d="M6 712H184L291 204H293L418 712H581L711 204H713L819 712H994L810 0H625L498 487H496L370 0H192L6 712Z"  />
<glyph unicode="X" horiz-adv-x="778" d="M280 383L45 712H261L391 495L520 712H733L499 383L772 0H554L390 266L221 0H6L280 383Z"  />
<glyph unicode="Y" horiz-adv-x="722" d="M272 332L2 712H210L361 466L512 712H720L450 332V0H272V332Z"  />
<glyph unicode="Z" horiz-adv-x="685" d="M647 138V0H36V133L432 574H67V712H649V573L258 138H647Z"  />
<glyph unicode="[" horiz-adv-x="352" d="M72 -148V712H338V628H204V-64H338V-148H72Z"  />
<glyph unicode="\" horiz-adv-x="481" d="M26 732H146L455 -20H335L26 732Z"  />
<glyph unicode="]" horiz-adv-x="352" d="M14 -148V-64H148V628H14V712H280V-148H14Z"  />
<glyph unicode="^" horiz-adv-x="600" d="M73 317L247 682H353L527 317H410L300 565L189 317H73Z"  />
<glyph unicode="_" horiz-adv-x="500" d="M0 -125V-75H500V-125H0Z"  />
<glyph unicode="`" horiz-adv-x="278" d="M279 592H159L-1 742H180L279 592Z"  />
<glyph unicode="a" horiz-adv-x="593" d="M519 111Q519 83 521 54T533 0H389Q384 14 382 27T379 55H377Q367 39 349 27T309 5T262 -9T217 -14Q179 -14 147 -4T90 27T53 76T39 144Q39 192 57 225T111 281T197 318T312 341L369 349V393Q369 423 348 436T295 450Q257 450 238 435T213 379H63Q65 436 89 469T147 520T218 541T282 546Q336 546 380 539T455 514T502 467T519 392V111ZM369 259L264 229Q235 221 212 207T189 160Q189 128 211 114T262 100Q308 100 338 130T369 222V259Z"  />
<glyph unicode="b" horiz-adv-x="630" d="M225 266Q225 232 230 202T249 149T283 113T334 100Q364 100 385 113T418 148T436 201T442 266Q441 304 436 335T419 387T386 420T334 432Q304 432 283 419T249 384T231 331T225 266ZM70 712H226V483Q260 521 300 533T372 546Q412 546 452 532T525 486T578 404T598 282Q597 203 579 147T528 55T453 3T359 -14Q313 -14 278 6T222 52H220V0H70V712Z"  />
<glyph unicode="c" horiz-adv-x="556" d="M415 353Q404 375 391 389T364 412T337 423T315 426Q282 426 259 414T221 381T201 330T194 266Q194 232 201 203T223 152T261 118T315 106Q351 106 379 122T426 184L538 127Q502 63 440 25T301 -14Q241 -14 192 4T107 59T52 147T32 266Q32 332 52 384T109 472T193 527T296 546Q372 546 434 516T535 416L415 353Z"  />
<glyph unicode="d" horiz-adv-x="630" d="M404 277Q404 349 380 390T295 432Q239 432 214 388T188 266Q188 233 192 203T209 150T242 114T295 100Q325 100 346 113T380 150T398 206T404 277ZM560 0H410V52H408Q388 27 353 7T265 -14Q217 -14 175 2T102 51T51 137T32 262Q32 341 51 395T103 483T177 531T258 546Q274 546 292 544T330 536T368 519T404 490V712H560V0Z"  />
<glyph unicode="e" horiz-adv-x="593" d="M398 330Q396 359 386 378T360 410T327 427T292 432Q275 432 258 426T225 408T200 376T186 330H398ZM188 234Q188 196 199 170T228 129T265 107T304 100Q326 100 342 105T374 123T403 152T434 194L551 133Q510 58 447 22T293 -14Q231 -14 183 6T101 61T50 145T32 250Q32 392 101 469T293 546Q366 546 415 521T496 452T540 352T554 234H188Z"  />
<glyph unicode="f" horiz-adv-x="352" d="M90 426H8V522H90V574Q90 596 95 622T116 669T162 705T242 720Q255 720 269 719T298 717T324 713T344 708V594H300Q280 594 263 587T246 556V522H342V426H246V0H90V426Z"  />
<glyph unicode="g" horiz-adv-x="611" d="M387 289Q387 329 378 356T355 401T322 425T286 432Q268 432 250 426T219 404T197 360T188 289Q188 265 191 240T205 194T234 160T284 147Q321 147 342 161T373 197T385 243T387 289ZM537 532V-1Q537 -43 524 -72T490 -121T441 -152T385 -168T329 -175T282 -176Q161 -176 100 -133T37 8H199Q200 -36 223 -55T289 -74Q311 -74 329 -71T360 -59T379 -31T386 16V77Q373 65 355 57T317 43T277 35T239 33Q183 33 144 54T80 110T44 191T32 287Q32 336 45 382T84 465T149 524T241 546Q285 546 322 534T393 490V532H537Z"  />
<glyph unicode="h" horiz-adv-x="611" d="M70 712H226V482H228Q239 497 256 509T294 529T335 542T374 546Q459 546 500 501T541 374V0H385V319Q385 350 378 369T359 400T334 415T307 420Q293 420 279 415T253 397T234 359T226 298V0H70V712Z"  />
<glyph unicode="i" horiz-adv-x="296" d="M70 592V712H226V592H70ZM226 532V0H70V532H226Z"  />
<glyph unicode="j" horiz-adv-x="296" d="M70 712H226V592H70V712ZM226 -30Q226 -58 219 -84T197 -130T156 -163T95 -176H2V-50H37Q56 -50 63 -37T70 -2V532H226V-30Z"  />
<glyph unicode="k" horiz-adv-x="593" d="M70 0V712H226V353L388 532H579L397 330L594 0H416L284 215L226 156V0H70Z"  />
<glyph unicode="l" horiz-adv-x="296" d="M70 0V712H226V0H70Z"  />
<glyph unicode="m" horiz-adv-x="926" d="M70 532H226V485Q241 503 260 514T300 533T341 543T380 546Q426 546 460 528T521 475Q559 514 602 530T692 546Q711 546 739 542T793 522T837 480T856 406V0H700V311Q700 368 683 394T620 420Q581 420 561 394T541 327V0H385V333Q385 372 370 396T309 420Q262 420 244 394T226 331V0H70V532Z"  />
<glyph unicode="n" horiz-adv-x="611" d="M70 532H226V485Q241 503 260 514T300 533T341 543T380 546Q427 546 458 534T507 500T533 451T541 393V0H385V333Q385 372 370 396T309 420Q262 420 244 394T226 331V0H70V532Z"  />
<glyph unicode="o" horiz-adv-x="630" d="M315 546Q377 546 429 528T518 473T577 385T598 266Q598 199 577 147T519 59T429 5T315 -14Q253 -14 201 4T112 59T53 147T32 266Q32 333 53 385T111 473T201 527T315 546ZM315 426Q282 426 258 414T219 381T196 330T188 266Q188 232 195 203T218 152T258 118T315 106Q348 106 372 118T411 153T434 205T442 272Q442 304 435 332T412 381T372 414T315 426Z"  />
<glyph unicode="p" horiz-adv-x="611" d="M215 266Q215 232 220 202T239 149T272 113T323 100Q353 100 373 113T407 151T425 208T431 283Q431 310 426 336T408 384T375 419T325 432Q296 432 275 419T241 384T221 331T215 266ZM63 532H207V483H209Q237 519 275 532T351 546Q398 546 439 529T512 479T561 397T579 284Q579 133 520 60T352 -14Q275 -14 221 34H219V-176H63V532Z"  />
<glyph unicode="q" horiz-adv-x="611" d="M396 266Q396 300 390 330T371 383T336 419T286 432Q257 432 237 419T204 385T186 337T180 283Q180 242 185 209T204 151T237 114T288 100Q318 100 338 113T372 148T390 201T396 266ZM548 -176H392V34H390Q336 -14 259 -14Q151 -14 92 59T32 284Q32 348 50 397T99 479T171 529T260 546Q297 546 335 533T402 483H404V532H548V-176Z"  />
<glyph unicode="r" horiz-adv-x="389" d="M70 532H226V478Q252 502 291 516T372 534L373 396L356 394Q286 386 256 369T226 308V0H70V532Z"  />
<glyph unicode="s" horiz-adv-x="556" d="M415 375Q403 389 386 399T348 417T307 428T268 432Q239 432 220 422T201 391Q201 368 224 357T283 339T358 324T434 300T492 255T516 176Q516 123 495 87T440 29T362 -4T276 -14Q232 -14 197 -8T132 11T73 44T16 91L113 175Q149 140 188 120T281 100Q291 100 305 101T333 109T356 125T366 154Q366 175 343 185T284 202T209 217T133 241T75 285T51 360Q51 410 71 445T123 503T195 536T276 546Q338 546 397 526T511 469L415 375Z"  />
<glyph unicode="t" horiz-adv-x="352" d="M333 426H240V165Q240 133 254 123T289 112Q302 112 316 113T336 115V-8Q321 -10 292 -12T236 -14Q186 -14 156 0T110 37T89 88T84 146V426H8V522H84V676H240V522H333V426Z"  />
<glyph unicode="u" horiz-adv-x="611" d="M541 0H385V47Q370 29 351 18T311 -1T270 -11T231 -14Q184 -14 153 -2T104 32T78 81T70 139V532H226V184Q226 149 241 131T302 112Q336 112 360 131T385 195V532H541V0Z"  />
<glyph unicode="v" horiz-adv-x="519" d="M0 532H167L259 156H261L353 532H519L337 0H180L0 532Z"  />
<glyph unicode="w" horiz-adv-x="796" d="M-2 532H160L231 156H233L311 532H480L550 156H552L635 532H798L621 0H468L392 347H390L311 0H157L-2 532Z"  />
<glyph unicode="x" horiz-adv-x="519" d="M192 532L260 382L330 532H509L346 280L521 0H349L258 172L171 0H-2L172 277L13 532H192Z"  />
<glyph unicode="y" horiz-adv-x="500" d="M41 -54Q55 -55 68 -55T94 -56Q129 -56 147 -48T166 -17Q166 -11 164 -1T152 40L-4 532H160L246 126H248L335 532H504L317 -35Q307 -65 295 -91T265 -136T223 -165T164 -176H41V-54Z"  />
<glyph unicode="z" horiz-adv-x="574" d="M77 532H528V406L245 120H526V0H46V126L329 412H77V532Z"  />
<glyph unicode="{" horiz-adv-x="333" d="M331 622H289Q269 622 258 616T240 599T233 576T231 551V380Q231 351 219 333T190 304T155 289T123 283V281Q136 280 154 276T190 261T219 232T231 184V13Q231 1 232 -12T240 -35T257 -51T289 -58H331V-148H244Q217 -148 191 -140T145 -115T112 -71T99 -4V170Q99 191 87 203T60 221T28 229T2 231V333Q11 333 27 335T59 343T87 361T99 394V568Q99 607 111 634T144 679T191 704T244 712H331V622Z"  />
<glyph unicode="|" horiz-adv-x="222" d="M51 786H171V-214H51V786Z"  />
<glyph unicode="}" horiz-adv-x="333" d="M2 -58H44Q64 -58 75 -52T93 -35T100 -12T102 13V184Q102 213 114 231T143 260T178 275T210 281V283Q197 284 179 288T143 303T114 332T102 380V551Q102 563 101 576T93 599T76 615T44 622H2V712H89Q116 712 142 704T188 679T221 635T234 568V394Q234 373 246 361T273 343T305 335T331 333V231Q322 231 306 229T274 221T246 203T234 170V-4Q234 -43 222 -70T189 -115T142 -140T89 -148H2V-58Z"  />
<glyph unicode="~" horiz-adv-x="600" d="M69 259Q77 275 88 290T115 317T149 336T194 344Q220 344 248 335T305 313Q333 301 360 289T407 277Q422 277 434 283T457 300T477 323T495 349L531 247Q520 231 508 216T481 188T448 169T406 161Q378 161 354 170T304 194Q281 207 253 218T189 230Q163 230 143 212T105 157L69 259Z"  />
<glyph unicode="&#xA0;" horiz-adv-x="278" />
<glyph unicode="&#xA1;" horiz-adv-x="296" d="M229 532V364H67V532H229ZM181 290L229 32V-180H67V32L115 290H181Z"  />
<glyph unicode="&#xA2;" horiz-adv-x="556" d="M261 -11Q210 -5 168 15T95 71T49 155T32 266Q32 327 49 376T97 460T170 516T261 543V648H351V543Q409 534 456 504T535 416L415 353Q404 375 391 389T364 412T337 423T315 426Q282 426 259 414T221 381T201 330T194 266Q194 232 201 203T223 152T261 118T315 106Q351 106 379 122T426 184L538 127Q508 73 460 38T351 -9V-132H261V-11Z"  />
<glyph unicode="&#xA3;" horiz-adv-x="556" d="M121 125Q107 125 99 114T91 85Q91 73 99 66T119 58Q137 58 149 68T172 99Q162 110 148 117T121 125ZM52 377H130Q101 406 82 443T62 516Q62 556 79 589T127 646T200 683T292 696Q338 696 380 685T454 649T505 588T524 498V456H376V481Q376 526 356 548T301 570Q266 570 245 552T224 505Q224 488 229 471T241 437T256 405T269 377H394V275H295Q298 263 300 249T302 218Q302 184 277 139Q284 135 295 131T317 122T339 115T357 112Q376 112 390 127T405 179V204H543V167Q543 149 537 119T516 59T472 8T399 -14Q313 -14 241 45Q230 26 215 15T184 -3T153 -12T124 -14Q76 -14 45 13T13 90Q13 112 19 132T39 169T73 194T121 203Q139 203 156 197T188 181Q188 210 184 237T172 273H52V377Z"  />
<glyph unicode="&#xA4;" horiz-adv-x="556" d="M405 341Q405 372 395 398T366 442T325 471T277 481Q252 481 229 471T188 443T160 398T149 341Q149 309 159 284T188 240T229 211T277 201Q302 201 325 211T366 239T394 283T405 341ZM477 83L419 141Q396 118 358 106T277 93Q235 93 197 105T135 139L78 82L17 143L75 201Q53 226 41 262T29 341Q29 382 40 420T74 482L17 539L80 602L137 545Q160 565 198 577T277 589Q319 589 356 577T413 547L471 605L539 537L483 481Q503 460 514 422T525 341Q525 300 514 263T481 199L537 143L477 83Z"  />
<glyph unicode="&#xA5;" horiz-adv-x="556" d="M197 141H48V243H197V316H48V418H136L-23 682H177L278 436L379 682H579L420 418H508V316H359V243H508V141H359V0H197V141Z"  />
<glyph unicode="&#xA6;" horiz-adv-x="222" d="M51 661H171V411H51V661ZM51 161H171V-89H51V161Z"  />
<glyph unicode="&#xA7;" horiz-adv-x="556" d="M355 175Q372 194 388 214T404 260Q404 286 387 302T349 330L204 408Q197 408 188 402T171 385T158 362T152 337Q153 310 167 295T203 266L355 175ZM434 560Q408 578 387 589T347 607T313 616T282 618Q254 618 239 605T223 576Q223 564 226 556T237 540T261 524T300 504L421 447Q472 423 504 385T536 282Q536 223 511 185T435 120Q449 109 465 85T481 18Q481 -22 465 -52T420 -102T353 -133T272 -144Q199 -144 137 -121T32 -60L128 28Q149 7 187 -11T271 -30Q310 -30 323 -15T337 14Q337 34 326 44T297 64L125 156Q76 182 48 224T20 316Q20 374 48 411T127 469Q103 487 91 513T79 572Q79 608 94 637T135 688T199 720T282 732Q348 732 408 711T521 653L434 560Z"  />
<glyph unicode="&#xA8;" horiz-adv-x="278" d="M-42 602V728H108V602H-42ZM170 602V728H320V602H170Z"  />
<glyph unicode="&#xA9;" horiz-adv-x="800" d="M680 356Q680 424 658 478T598 571T509 629T400 650Q342 650 291 630T202 571T142 479T120 356Q120 288 142 234T202 141T291 83T400 62Q458 62 509 82T598 141T658 233T680 356ZM24 356Q24 434 53 502T134 622T253 702T400 732Q478 732 546 703T666 622T746 503T776 356Q776 278 747 210T666 90T547 10T400 -20Q322 -20 254 9T134 90T54 209T24 356ZM484 418Q478 459 453 474T394 489Q302 489 302 359Q302 298 327 262T396 225Q434 225 458 241T484 298H585Q580 259 564 230T524 181T470 151T408 141Q361 141 323 157T257 203T215 271T200 356Q200 402 214 442T255 511T320 556T406 573Q473 573 521 534T582 418H484Z"  />
<glyph unicode="&#xAA;" horiz-adv-x="385" d="M344 435Q344 418 345 401T353 368H258Q253 390 253 405H251Q246 394 235 386T209 372T180 363T153 360Q128 360 106 366T68 383T42 412T32 454Q32 494 54 517T109 552T179 570T248 580V594Q248 617 237 626T199 636Q176 636 163 628T145 598H49Q51 629 64 648T99 678Q120 689 145 692T197 696Q228 696 255 693T301 679T332 650T344 603V435ZM175 508Q155 503 142 495T128 466Q128 441 141 434T174 426Q206 426 227 449T249 508V526H247L175 508Z"  />
<glyph unicode="&#xAB;" horiz-adv-x="389" d="M214 338L358 452V324L298 276L358 228V100L214 214V338ZM31 338L175 452V324L115 276L175 228V100L31 214V338Z"  />
<glyph unicode="&#xAC;" horiz-adv-x="600" d="M47 425H553V108H433V305H47V425Z"  />
<glyph unicode="&#xAD;" horiz-adv-x="352" d="M52 204V348H300V204H52Z"  />
<glyph unicode="&#xAE;" horiz-adv-x="800" d="M24 356Q24 434 53 502T134 622T253 702T400 732Q478 732 546 703T666 622T746 503T776 356Q776 278 747 210T666 90T547 10T400 -20Q322 -20 254 9T134 90T54 209T24 356ZM680 356Q680 424 658 478T598 571T509 629T400 650Q342 650 291 630T202 571T142 479T120 356Q120 288 142 234T202 141T291 83T400 62Q458 62 509 82T598 141T658 233T680 356ZM339 396H417Q443 396 457 405T472 444Q472 461 468 470T456 485T438 491T417 492H339V396ZM338 152H248V564H450Q508 564 541 536T574 447Q574 386 543 360T462 330L567 152H466L373 324H338V152Z"  />
<glyph unicode="&#xAF;" horiz-adv-x="278" d="M-24 628V712H302V628H-24Z"  />
<glyph unicode="&#xB0;" horiz-adv-x="400" d="M115 545Q115 510 140 485T200 460Q235 460 260 485T285 545Q285 580 260 605T200 630Q165 630 140 605T115 545ZM49 545Q49 576 61 603T93 651T141 684T200 696Q231 696 258 684T306 652T339 604T351 545Q351 514 339 487T307 439T259 406T200 394Q169 394 142 406T94 438T61 486T49 545Z"  />
<glyph unicode="&#xB1;" horiz-adv-x="600" d="M47 120H553V0H47V120ZM240 506H360V388H553V268H360V150H240V268H47V388H240V506Z"  />
<glyph unicode="&#xB2;" horiz-adv-x="361" d="M326 281H18V353Q71 393 108 421T168 472T201 519T212 574Q212 593 200 605T176 618Q160 618 147 604T133 564Q133 556 133 548T136 531L25 540V563Q25 586 33 609T59 652T105 684T175 696Q204 696 231 689T279 666T313 628T326 574Q326 544 318 519T291 469T242 420T168 367V365H326V281Z"  />
<glyph unicode="&#xB3;" horiz-adv-x="361" d="M26 572Q34 640 77 668T183 696Q248 696 290 667T332 583Q332 553 312 530T263 497V495Q301 485 324 463T347 404Q347 365 329 340T285 301T230 281T178 275Q100 275 57 311T14 425L122 431V418Q122 380 139 370T178 359Q197 359 212 372T227 408Q227 429 212 442T172 456H149V528H170Q193 528 205 540T218 572Q218 589 210 603T178 618Q165 618 157 614T145 602T138 585T135 568L26 572Z"  />
<glyph unicode="&#xB4;" horiz-adv-x="278" d="M98 742H279L119 592H-1L98 742Z"  />
<glyph unicode="&#xB5;" horiz-adv-x="628" d="M542 165Q542 157 543 147T549 128Q554 118 562 115T581 112Q587 112 599 113T618 115V-8Q593 -10 574 -12T533 -14Q516 -14 498 -13T461 -4T427 16T400 52Q395 41 386 29T368 9Q357 -1 341 -7Q322 -14 306 -14Q289 -14 274 -11T247 0Q241 4 236 8T226 17V-176H70V532H226V199Q226 185 228 168T243 136Q255 121 271 117T302 112Q320 112 333 116Q352 121 363 131Q380 145 383 164T386 199V532H542V165Z"  />
<glyph unicode="&#xB6;" horiz-adv-x="620" d="M253 363Q144 363 87 408T30 534Q30 588 49 622T101 677T179 704T276 712H590V-124H470V622H373V-124H253V363Z"  />
<glyph unicode="&#xB7;" horiz-adv-x="278" d="M46 285Q46 304 53 321T73 350T103 370T139 378Q158 378 175 371T204 351T224 321T232 285Q232 266 225 249T205 220T175 200T139 192Q120 192 103 199T74 219T54 249T46 285Z"  />
<glyph unicode="&#xB8;" horiz-adv-x="278" d="M169 -5L128 -67Q136 -65 144 -64T164 -63Q180 -63 196 -67T226 -81T247 -104T256 -138Q256 -156 249 -173T227 -204T187 -226T128 -234Q99 -234 66 -227T9 -208L30 -163Q44 -171 67 -176T111 -182Q163 -182 163 -143Q163 -125 151 -117T119 -109Q109 -109 98 -110T78 -115L57 -97L113 -5H169Z"  />
<glyph unicode="&#xB9;" horiz-adv-x="361" d="M268 281H154V570Q135 562 110 559T65 555V627Q115 627 141 643T183 690H268V281Z"  />
<glyph unicode="&#xBA;" horiz-adv-x="410" d="M389 528Q389 488 376 457T338 404T279 371T205 360Q164 360 131 371T73 403T35 456T21 528Q21 568 34 599T72 652T130 685T205 696Q245 696 279 685T337 653T375 600T389 528ZM287 528Q287 569 268 596T205 624Q161 624 142 597T123 528Q123 487 142 460T205 432Q249 432 268 459T287 528Z"  />
<glyph unicode="&#xBB;" horiz-adv-x="389" d="M175 214L31 100V228L91 276L31 324V452L175 337V214ZM358 214L214 100V228L274 276L214 324V452L358 337V214Z"  />
<glyph unicode="&#xBC;" horiz-adv-x="834" d="M268 281H154V570Q135 562 110 559T65 555V627Q115 627 141 643T183 690H268V281ZM596 718H684L269 -36H181L596 718ZM479 168L659 409H767V163H823V91H767V0H659V91H479V168ZM659 307H657L551 163H659V307Z"  />
<glyph unicode="&#xBD;" horiz-adv-x="834" d="M801 0H493V72Q546 112 583 140T643 191T676 238T687 293Q687 312 675 324T651 337Q635 337 622 323T608 283Q608 275 608 267T611 250L500 259V282Q500 305 508 328T534 371T580 403T650 415Q679 415 706 408T754 385T788 347T801 293Q801 263 793 238T766 188T717 139T643 86V84H801V0ZM268 281H154V570Q135 562 110 559T65 555V627Q115 627 141 643T183 690H268V281ZM565 718H653L238 -36H150L565 718Z"  />
<glyph unicode="&#xBE;" horiz-adv-x="834" d="M26 572Q34 640 77 668T183 696Q248 696 290 667T332 583Q332 553 312 530T263 497V495Q301 485 324 463T347 404Q347 365 329 340T285 301T230 281T178 275Q100 275 57 311T14 425L122 431V418Q122 380 139 370T178 359Q197 359 212 372T227 408Q227 429 212 442T172 456H149V528H170Q193 528 205 540T218 572Q218 589 210 603T178 618Q165 618 157 614T145 602T138 585T135 568L26 572ZM618 718H706L291 -36H203L618 718ZM479 168L659 409H767V163H823V91H767V0H659V91H479V168ZM659 307H657L551 163H659V307Z"  />
<glyph unicode="&#xBF;" horiz-adv-x="611" d="M423 532V364H261V532H423ZM405 287V256Q405 225 391 203T356 163T310 128T264 95T228 56T214 7Q214 -34 243 -53T309 -72Q363 -72 394 -37T428 52L569 5Q550 -61 517 -99T446 -157T371 -181T305 -186Q232 -186 182 -170T100 -128T56 -70T42 -4Q42 50 67 84T124 143L252 238Q266 249 271 260T279 287H405Z"  />
<glyph unicode="&#xC0;" horiz-adv-x="722" d="M449 244L361 538H359L271 244H449ZM266 712H450L719 0H528L492 112H229L193 0H3L266 712ZM457 763H337L177 913H358L457 763Z"  />
<glyph unicode="&#xC1;" horiz-adv-x="722" d="M449 244L361 538H359L271 244H449ZM266 712H450L719 0H528L492 112H229L193 0H3L266 712ZM366 913H547L387 763H267L366 913Z"  />
<glyph unicode="&#xC2;" horiz-adv-x="722" d="M449 244L361 538H359L271 244H449ZM266 712H450L719 0H528L492 112H229L193 0H3L266 712ZM437 922L552 772H421L360 854L298 772H170L284 922H437Z"  />
<glyph unicode="&#xC3;" horiz-adv-x="722" d="M449 244L361 538H359L271 244H449ZM266 712H450L719 0H528L492 112H229L193 0H3L266 712ZM171 769Q174 792 183 815T208 858Q223 878 244 889T292 901Q312 901 332 895T372 881Q391 873 408 867T436 861Q454 861 464 872T479 901H549Q547 883 541 861T522 819T486 787T430 774Q405 774 385 780T347 792T315 805T286 811Q268 811 257 798T242 769H171Z"  />
<glyph unicode="&#xC4;" horiz-adv-x="722" d="M449 244L361 538H359L271 244H449ZM266 712H450L719 0H528L492 112H229L193 0H3L266 712ZM180 781V907H330V781H180ZM392 781V907H542V781H392Z"  />
<glyph unicode="&#xC5;" horiz-adv-x="722" d="M449 244L361 538H359L271 244H449ZM266 712H450L719 0H528L492 112H229L193 0H3L266 712ZM413 844Q413 865 398 880T361 896Q340 896 325 880T309 844Q309 824 324 808T361 792Q382 792 397 807T413 844ZM473 844Q473 821 464 801T440 765T405 741T361 732Q338 732 318 741T282 765T258 800T249 844Q249 867 258 887T282 923T317 947T361 956Q384 956 404 947T440 923T464 888T473 844Z"  />
<glyph unicode="&#xC6;" horiz-adv-x="1130" d="M526 306V616H524L351 306H526ZM401 712H1070V574H704V444H1046V306H704V138H1105V0H527V174H276L182 0H-17L401 712Z"  />
<glyph unicode="&#xC7;" horiz-adv-x="704" d="M358 -18Q282 -11 223 22T122 105T60 220T38 356Q38 431 61 499T128 619T236 701T384 732Q436 732 480 720T560 683T627 625T682 546L540 475Q521 525 480 553T392 582Q355 582 323 569T267 529T230 459T216 356Q216 317 224 277T254 204T310 151T398 130Q416 130 437 136T478 156T516 187T544 230L685 162Q640 81 569 33T413 -19L381 -67Q389 -65 397 -64T417 -63Q433 -63 449 -67T479 -81T500 -104T509 -138Q509 -156 502 -173T480 -204T440 -226T381 -234Q352 -234 319 -227T262 -208L283 -163Q297 -171 320 -176T364 -182Q416 -182 416 -143Q416 -125 404 -117T372 -109Q362 -109 351 -110T331 -115L310 -97L358 -18Z"  />
<glyph unicode="&#xC8;" horiz-adv-x="648" d="M69 0V712H593V574H247V444H570V306H247V138H623V0H69ZM447 763H327L167 913H348L447 763Z"  />
<glyph unicode="&#xC9;" horiz-adv-x="648" d="M69 0V712H593V574H247V444H570V306H247V138H623V0H69ZM356 913H537L377 763H257L356 913Z"  />
<glyph unicode="&#xCA;" horiz-adv-x="648" d="M69 0V712H593V574H247V444H570V306H247V138H623V0H69ZM400 913L515 763H384L323 845L261 763H133L247 913H400Z"  />
<glyph unicode="&#xCB;" horiz-adv-x="648" d="M69 0V712H593V574H247V444H570V306H247V138H623V0H69ZM143 773V899H293V773H143ZM355 773V899H505V773H355Z"  />
<glyph unicode="&#xCC;" horiz-adv-x="316" d="M69 712H247V0H69V712ZM253 763H133L-27 913H154L253 763Z"  />
<glyph unicode="&#xCD;" horiz-adv-x="316" d="M69 712H247V0H69V712ZM162 913H343L183 763H63L162 913Z"  />
<glyph unicode="&#xCE;" horiz-adv-x="316" d="M69 712H247V0H69V712ZM234 913L349 763H218L157 845L95 763H-33L81 913H234Z"  />
<glyph unicode="&#xCF;" horiz-adv-x="316" d="M69 712H247V0H69V712ZM-23 773V899H127V773H-23ZM189 773V899H339V773H189Z"  />
<glyph unicode="&#xD0;" horiz-adv-x="741" d="M242 150H344Q394 150 428 166T484 210T515 275T525 356Q525 399 516 436T485 502T429 546T344 562H242V432H375V312H242V150ZM64 312H-7V432H64V712H340Q421 712 488 692T603 629T677 519T703 356Q703 261 677 194T603 83T488 20T340 0H64V312Z"  />
<glyph unicode="&#xD1;" horiz-adv-x="741" d="M69 712H249L508 257H510V712H672V0H494L233 448H231V0H69V712ZM182 769Q185 792 194 815T219 858Q234 878 255 889T303 901Q323 901 343 895T383 881Q402 873 419 867T447 861Q465 861 475 872T490 901H560Q558 883 552 861T533 819T497 787T441 774Q416 774 396 780T358 792T326 805T297 811Q279 811 268 798T253 769H182Z"  />
<glyph unicode="&#xD2;" horiz-adv-x="796" d="M758 356Q758 281 734 213T663 93T550 11T398 -20Q313 -20 246 10T133 93T63 213T38 356Q38 431 62 499T133 619T246 701T398 732Q483 732 550 702T663 619T733 499T758 356ZM580 356Q580 398 570 438T539 511T482 562T398 582Q359 582 326 569T268 529T230 459T216 356Q216 317 224 277T254 204T310 151T398 130Q447 130 482 150T538 202T570 274T580 356ZM494 763H374L214 913H395L494 763Z"  />
<glyph unicode="&#xD3;" horiz-adv-x="796" d="M758 356Q758 281 734 213T663 93T550 11T398 -20Q313 -20 246 10T133 93T63 213T38 356Q38 431 62 499T133 619T246 701T398 732Q483 732 550 702T663 619T733 499T758 356ZM580 356Q580 398 570 438T539 511T482 562T398 582Q359 582 326 569T268 529T230 459T216 356Q216 317 224 277T254 204T310 151T398 130Q447 130 482 150T538 202T570 274T580 356ZM402 913H583L423 763H303L402 913Z"  />
<glyph unicode="&#xD4;" horiz-adv-x="796" d="M758 356Q758 281 734 213T663 93T550 11T398 -20Q313 -20 246 10T133 93T63 213T38 356Q38 431 62 499T133 619T246 701T398 732Q483 732 550 702T663 619T733 499T758 356ZM580 356Q580 398 570 438T539 511T482 562T398 582Q359 582 326 569T268 529T230 459T216 356Q216 317 224 277T254 204T310 151T398 130Q447 130 482 150T538 202T570 274T580 356ZM474 913L589 763H458L397 845L335 763H207L321 913H474Z"  />
<glyph unicode="&#xD5;" horiz-adv-x="796" d="M758 356Q758 281 734 213T663 93T550 11T398 -20Q313 -20 246 10T133 93T63 213T38 356Q38 431 62 499T133 619T246 701T398 732Q483 732 550 702T663 619T733 499T758 356ZM580 356Q580 398 570 438T539 511T482 562T398 582Q359 582 326 569T268 529T230 459T216 356Q216 317 224 277T254 204T310 151T398 130Q447 130 482 150T538 202T570 274T580 356ZM209 769Q212 792 221 815T246 858Q261 878 282 889T330 901Q350 901 370 895T410 881Q429 873 446 867T474 861Q492 861 502 872T517 901H587Q585 883 579 861T560 819T524 787T468 774Q443 774 423 780T385 792T353 805T324 811Q306 811 295 798T280 769H209Z"  />
<glyph unicode="&#xD6;" horiz-adv-x="796" d="M758 356Q758 281 734 213T663 93T550 11T398 -20Q313 -20 246 10T133 93T63 213T38 356Q38 431 62 499T133 619T246 701T398 732Q483 732 550 702T663 619T733 499T758 356ZM580 356Q580 398 570 438T539 511T482 562T398 582Q359 582 326 569T268 529T230 459T216 356Q216 317 224 277T254 204T310 151T398 130Q447 130 482 150T538 202T570 274T580 356ZM216 773V899H366V773H216ZM428 773V899H578V773H428Z"  />
<glyph unicode="&#xD7;" horiz-adv-x="600" d="M64 407L146 489L300 335L454 489L536 407L381 253L536 99L454 17L300 172L146 17L64 99L218 253L64 407Z"  />
<glyph unicode="&#xD8;" horiz-adv-x="796" d="M791 655L699 571Q728 526 743 471T758 356Q758 281 734 213T663 93T550 11T398 -20Q320 -20 258 5T151 75L62 -6L5 52L99 138Q69 185 54 240T38 356Q38 431 62 499T133 619T246 701T398 732Q477 732 540 706T648 634L736 714L791 655ZM527 525Q505 551 474 566T398 582Q359 582 326 569T268 529T230 459T216 356Q216 331 219 306T231 257L527 525ZM271 184Q291 159 322 145T398 130Q447 130 482 150T538 202T570 274T580 356Q580 381 577 405T566 451L271 184Z"  />
<glyph unicode="&#xD9;" horiz-adv-x="741" d="M672 248Q672 175 644 124T573 41T475 -5T370 -20Q319 -20 266 -6T169 41T97 124T69 248V712H247V263Q247 233 253 208T274 164T311 135T370 124Q405 124 428 134T466 163T487 207T494 263V712H672V248ZM466 763H346L186 913H367L466 763Z"  />
<glyph unicode="&#xDA;" horiz-adv-x="741" d="M672 248Q672 175 644 124T573 41T475 -5T370 -20Q319 -20 266 -6T169 41T97 124T69 248V712H247V263Q247 233 253 208T274 164T311 135T370 124Q405 124 428 134T466 163T487 207T494 263V712H672V248ZM375 913H556L396 763H276L375 913Z"  />
<glyph unicode="&#xDB;" horiz-adv-x="741" d="M672 248Q672 175 644 124T573 41T475 -5T370 -20Q319 -20 266 -6T169 41T97 124T69 248V712H247V263Q247 233 253 208T274 164T311 135T370 124Q405 124 428 134T466 163T487 207T494 263V712H672V248ZM447 913L562 763H431L370 845L308 763H180L294 913H447Z"  />
<glyph unicode="&#xDC;" horiz-adv-x="741" d="M672 248Q672 175 644 124T573 41T475 -5T370 -20Q319 -20 266 -6T169 41T97 124T69 248V712H247V263Q247 233 253 208T274 164T311 135T370 124Q405 124 428 134T466 163T487 207T494 263V712H672V248ZM190 773V899H340V773H190ZM402 773V899H552V773H402Z"  />
<glyph unicode="&#xDD;" horiz-adv-x="722" d="M272 332L2 712H210L361 466L512 712H720L450 332V0H272V332ZM364 913H545L385 763H265L364 913Z"  />
<glyph unicode="&#xDE;" horiz-adv-x="704" d="M69 712H246V637H422Q494 637 544 619T625 569T671 493T685 396Q685 360 673 318T628 240T537 180T388 155H249V0H69V712ZM247 287H397Q427 287 448 296T482 320T501 354T507 395Q507 449 480 477T392 505H247V287Z"  />
<glyph unicode="&#xDF;" horiz-adv-x="611" d="M70 504Q70 562 87 603T135 670T211 708T312 720Q363 720 404 710T474 677T519 619T535 533Q535 485 511 452T439 408V406Q479 404 505 388T548 347T572 288T579 219Q579 157 564 113T523 40T463 -1T389 -14Q359 -14 333 -8T288 6V122Q320 106 346 106Q355 106 368 110T393 127T414 166T423 233Q423 265 419 289T402 330T367 355T307 364V448Q352 448 371 466T391 524Q391 567 374 589T312 612Q286 612 270 604T244 581T230 549T226 510V0H70V504Z"  />
<glyph unicode="&#xE0;" horiz-adv-x="593" d="M519 111Q519 83 521 54T533 0H389Q384 14 382 27T379 55H377Q367 39 349 27T309 5T262 -9T217 -14Q179 -14 147 -4T90 27T53 76T39 144Q39 192 57 225T111 281T197 318T312 341L369 349V393Q369 423 348 436T295 450Q257 450 238 435T213 379H63Q65 436 89 469T147 520T218 541T282 546Q336 546 380 539T455 514T502 467T519 392V111ZM369 259L264 229Q235 221 212 207T189 160Q189 128 211 114T262 100Q308 100 338 130T369 222V259ZM392 592H272L112 742H293L392 592Z"  />
<glyph unicode="&#xE1;" horiz-adv-x="593" d="M519 111Q519 83 521 54T533 0H389Q384 14 382 27T379 55H377Q367 39 349 27T309 5T262 -9T217 -14Q179 -14 147 -4T90 27T53 76T39 144Q39 192 57 225T111 281T197 318T312 341L369 349V393Q369 423 348 436T295 450Q257 450 238 435T213 379H63Q65 436 89 469T147 520T218 541T282 546Q336 546 380 539T455 514T502 467T519 392V111ZM369 259L264 229Q235 221 212 207T189 160Q189 128 211 114T262 100Q308 100 338 130T369 222V259ZM302 742H483L323 592H203L302 742Z"  />
<glyph unicode="&#xE2;" horiz-adv-x="593" d="M519 111Q519 83 521 54T533 0H389Q384 14 382 27T379 55H377Q367 39 349 27T309 5T262 -9T217 -14Q179 -14 147 -4T90 27T53 76T39 144Q39 192 57 225T111 281T197 318T312 341L369 349V393Q369 423 348 436T295 450Q257 450 238 435T213 379H63Q65 436 89 469T147 520T218 541T282 546Q336 546 380 539T455 514T502 467T519 392V111ZM369 259L264 229Q235 221 212 207T189 160Q189 128 211 114T262 100Q308 100 338 130T369 222V259ZM373 742L488 592H357L296 674L234 592H106L220 742H373Z"  />
<glyph unicode="&#xE3;" horiz-adv-x="593" d="M519 111Q519 83 521 54T533 0H389Q384 14 382 27T379 55H377Q367 39 349 27T309 5T262 -9T217 -14Q179 -14 147 -4T90 27T53 76T39 144Q39 192 57 225T111 281T197 318T312 341L369 349V393Q369 423 348 436T295 450Q257 450 238 435T213 379H63Q65 436 89 469T147 520T218 541T282 546Q336 546 380 539T455 514T502 467T519 392V111ZM369 259L264 229Q235 221 212 207T189 160Q189 128 211 114T262 100Q308 100 338 130T369 222V259ZM108 598Q111 621 120 644T145 687Q160 707 181 718T229 730Q249 730 269 724T309 710Q328 702 345 696T373 690Q391 690 401 701T416 730H486Q484 712 478 690T459 648T423 616T367 603Q342 603 322 609T284 621T252 634T223 640Q205 640 194 627T179 598H108Z"  />
<glyph unicode="&#xE4;" horiz-adv-x="593" d="M519 111Q519 83 521 54T533 0H389Q384 14 382 27T379 55H377Q367 39 349 27T309 5T262 -9T217 -14Q179 -14 147 -4T90 27T53 76T39 144Q39 192 57 225T111 281T197 318T312 341L369 349V393Q369 423 348 436T295 450Q257 450 238 435T213 379H63Q65 436 89 469T147 520T218 541T282 546Q336 546 380 539T455 514T502 467T519 392V111ZM369 259L264 229Q235 221 212 207T189 160Q189 128 211 114T262 100Q308 100 338 130T369 222V259ZM116 602V728H266V602H116ZM328 602V728H478V602H328Z"  />
<glyph unicode="&#xE5;" horiz-adv-x="593" d="M519 111Q519 83 521 54T533 0H389Q384 14 382 27T379 55H377Q367 39 349 27T309 5T262 -9T217 -14Q179 -14 147 -4T90 27T53 76T39 144Q39 192 57 225T111 281T197 318T312 341L369 349V393Q369 423 348 436T295 450Q257 450 238 435T213 379H63Q65 436 89 469T147 520T218 541T282 546Q336 546 380 539T455 514T502 467T519 392V111ZM369 259L264 229Q235 221 212 207T189 160Q189 128 211 114T262 100Q308 100 338 130T369 222V259ZM349 692Q349 713 334 728T297 744Q276 744 261 728T245 692Q245 672 260 656T297 640Q318 640 333 655T349 692ZM409 692Q409 669 400 649T376 613T341 589T297 580Q274 580 254 589T218 613T194 648T185 692Q185 715 194 735T218 771T253 795T297 804Q320 804 340 795T376 771T400 736T409 692Z"  />
<glyph unicode="&#xE6;" horiz-adv-x="907" d="M519 234Q519 207 528 184T553 143T591 116T639 106Q683 106 709 130T756 194L875 130Q857 100 832 74T775 28T707 -3T630 -14Q601 -14 577 -10T530 3T485 28T437 65Q394 26 338 6T224 -14Q187 -14 153 -4T91 26T48 77T32 148Q32 198 50 230T94 282T150 311T207 325L364 351Q369 393 348 412T285 432Q255 432 236 418T215 374H59Q65 463 116 504T268 546Q321 546 364 535T449 489Q489 518 529 532T615 546Q682 546 732 522T814 456T861 362T875 254V234H519ZM713 330Q712 353 704 372T682 404T652 425T618 432Q570 432 546 405T519 330H713ZM363 257Q347 249 318 244T260 229T210 205T188 165Q188 137 206 122T251 106Q281 106 302 117T337 146T357 183T363 222V257Z"  />
<glyph unicode="&#xE7;" horiz-adv-x="556" d="M279 -12Q223 -9 178 11T100 66T50 152T32 266Q32 332 52 384T109 472T193 527T296 546Q372 546 434 516T535 416L415 353Q404 375 391 389T364 412T337 423T315 426Q282 426 259 414T221 381T201 330T194 266Q194 232 201 203T223 152T261 118T315 106Q351 106 379 122T426 184L538 127Q506 70 454 33T335 -12L298 -67Q306 -65 314 -64T334 -63Q350 -63 366 -67T396 -81T417 -104T426 -138Q426 -156 419 -173T397 -204T357 -226T298 -234Q269 -234 236 -227T179 -208L200 -163Q214 -171 237 -176T281 -182Q333 -182 333 -143Q333 -125 321 -117T289 -109Q279 -109 268 -110T248 -115L227 -97L279 -12Z"  />
<glyph unicode="&#xE8;" horiz-adv-x="593" d="M398 330Q396 359 386 378T360 410T327 427T292 432Q275 432 258 426T225 408T200 376T186 330H398ZM188 234Q188 196 199 170T228 129T265 107T304 100Q326 100 342 105T374 123T403 152T434 194L551 133Q510 58 447 22T293 -14Q231 -14 183 6T101 61T50 145T32 250Q32 392 101 469T293 546Q366 546 415 521T496 452T540 352T554 234H188ZM392 592H272L112 742H293L392 592Z"  />
<glyph unicode="&#xE9;" horiz-adv-x="593" d="M398 330Q396 359 386 378T360 410T327 427T292 432Q275 432 258 426T225 408T200 376T186 330H398ZM188 234Q188 196 199 170T228 129T265 107T304 100Q326 100 342 105T374 123T403 152T434 194L551 133Q510 58 447 22T293 -14Q231 -14 183 6T101 61T50 145T32 250Q32 392 101 469T293 546Q366 546 415 521T496 452T540 352T554 234H188ZM301 742H482L322 592H202L301 742Z"  />
<glyph unicode="&#xEA;" horiz-adv-x="593" d="M398 330Q396 359 386 378T360 410T327 427T292 432Q275 432 258 426T225 408T200 376T186 330H398ZM188 234Q188 196 199 170T228 129T265 107T304 100Q326 100 342 105T374 123T403 152T434 194L551 133Q510 58 447 22T293 -14Q231 -14 183 6T101 61T50 145T32 250Q32 392 101 469T293 546Q366 546 415 521T496 452T540 352T554 234H188ZM373 742L488 592H357L296 674L234 592H106L220 742H373Z"  />
<glyph unicode="&#xEB;" horiz-adv-x="593" d="M398 330Q396 359 386 378T360 410T327 427T292 432Q275 432 258 426T225 408T200 376T186 330H398ZM188 234Q188 196 199 170T228 129T265 107T304 100Q326 100 342 105T374 123T403 152T434 194L551 133Q510 58 447 22T293 -14Q231 -14 183 6T101 61T50 145T32 250Q32 392 101 469T293 546Q366 546 415 521T496 452T540 352T554 234H188ZM116 602V728H266V602H116ZM328 602V728H478V602H328Z"  />
<glyph unicode="&#xEC;" horiz-adv-x="296" d="M226 532V0H70V532H226ZM245 592H125L-35 742H146L245 592Z"  />
<glyph unicode="&#xED;" horiz-adv-x="296" d="M226 532V0H70V532H226ZM153 742H334L174 592H54L153 742Z"  />
<glyph unicode="&#xEE;" horiz-adv-x="296" d="M226 532V0H70V532H226ZM224 742L339 592H208L147 674L85 592H-43L71 742H224Z"  />
<glyph unicode="&#xEF;" horiz-adv-x="296" d="M226 532V0H70V532H226ZM-33 602V728H117V602H-33ZM179 602V728H329V602H179Z"  />
<glyph unicode="&#xF0;" horiz-adv-x="630" d="M239 774L330 715L430 774L486 725L389 669Q436 631 474 590T540 500T583 392T598 258Q598 179 572 127T504 44T412 -1T315 -14Q253 -14 201 3T112 53T53 136T32 249Q32 313 53 362T111 445T201 496T315 513Q331 513 348 509T379 496L381 498Q360 524 330 550T268 599L172 543L116 592L205 643L124 695L239 774ZM315 399Q282 399 258 388T219 356T196 309T188 249Q188 217 196 190T220 143T260 112T315 100Q345 100 369 111T409 143T433 190T442 249Q442 281 435 308T412 356T372 387T315 399Z"  />
<glyph unicode="&#xF1;" horiz-adv-x="611" d="M70 532H226V485Q241 503 260 514T300 533T341 543T380 546Q427 546 458 534T507 500T533 451T541 393V0H385V333Q385 372 370 396T309 420Q262 420 244 394T226 331V0H70V532ZM118 598Q121 621 130 644T155 687Q170 707 191 718T239 730Q259 730 279 724T319 710Q338 702 355 696T383 690Q401 690 411 701T426 730H496Q494 712 488 690T469 648T433 616T377 603Q352 603 332 609T294 621T262 634T233 640Q215 640 204 627T189 598H118Z"  />
<glyph unicode="&#xF2;" horiz-adv-x="630" d="M315 546Q377 546 429 528T518 473T577 385T598 266Q598 199 577 147T519 59T429 5T315 -14Q253 -14 201 4T112 59T53 147T32 266Q32 333 53 385T111 473T201 527T315 546ZM315 426Q282 426 258 414T219 381T196 330T188 266Q188 232 195 203T218 152T258 118T315 106Q348 106 372 118T411 153T434 205T442 272Q442 304 435 332T412 381T372 414T315 426ZM411 592H291L131 742H312L411 592Z"  />
<glyph unicode="&#xF3;" horiz-adv-x="630" d="M315 546Q377 546 429 528T518 473T577 385T598 266Q598 199 577 147T519 59T429 5T315 -14Q253 -14 201 4T112 59T53 147T32 266Q32 333 53 385T111 473T201 527T315 546ZM315 426Q282 426 258 414T219 381T196 330T188 266Q188 232 195 203T218 152T258 118T315 106Q348 106 372 118T411 153T434 205T442 272Q442 304 435 332T412 381T372 414T315 426ZM319 742H500L340 592H220L319 742Z"  />
<glyph unicode="&#xF4;" horiz-adv-x="630" d="M315 546Q377 546 429 528T518 473T577 385T598 266Q598 199 577 147T519 59T429 5T315 -14Q253 -14 201 4T112 59T53 147T32 266Q32 333 53 385T111 473T201 527T315 546ZM315 426Q282 426 258 414T219 381T196 330T188 266Q188 232 195 203T218 152T258 118T315 106Q348 106 372 118T411 153T434 205T442 272Q442 304 435 332T412 381T372 414T315 426ZM392 742L507 592H376L315 674L253 592H125L239 742H392Z"  />
<glyph unicode="&#xF5;" horiz-adv-x="630" d="M315 546Q377 546 429 528T518 473T577 385T598 266Q598 199 577 147T519 59T429 5T315 -14Q253 -14 201 4T112 59T53 147T32 266Q32 333 53 385T111 473T201 527T315 546ZM315 426Q282 426 258 414T219 381T196 330T188 266Q188 232 195 203T218 152T258 118T315 106Q348 106 372 118T411 153T434 205T442 272Q442 304 435 332T412 381T372 414T315 426ZM126 598Q129 621 138 644T163 687Q178 707 199 718T247 730Q267 730 287 724T327 710Q346 702 363 696T391 690Q409 690 419 701T434 730H504Q502 712 496 690T477 648T441 616T385 603Q360 603 340 609T302 621T270 634T241 640Q223 640 212 627T197 598H126Z"  />
<glyph unicode="&#xF6;" horiz-adv-x="630" d="M315 546Q377 546 429 528T518 473T577 385T598 266Q598 199 577 147T519 59T429 5T315 -14Q253 -14 201 4T112 59T53 147T32 266Q32 333 53 385T111 473T201 527T315 546ZM315 426Q282 426 258 414T219 381T196 330T188 266Q188 232 195 203T218 152T258 118T315 106Q348 106 372 118T411 153T434 205T442 272Q442 304 435 332T412 381T372 414T315 426ZM134 602V728H284V602H134ZM346 602V728H496V602H346Z"  />
<glyph unicode="&#xF7;" horiz-adv-x="600" d="M393 460Q393 441 386 424T366 395T336 375T300 367Q281 367 264 374T235 394T215 424T207 460Q207 479 214 496T234 525T264 545T300 553Q319 553 336 546T365 526T385 496T393 460ZM393 46Q393 27 386 10T366 -19T336 -39T300 -47Q281 -47 264 -40T235 -20T215 10T207 46Q207 65 214 82T234 111T264 131T300 139Q319 139 336 132T365 112T385 82T393 46ZM47 193V313H553V193H47Z"  />
<glyph unicode="&#xF8;" horiz-adv-x="630" d="M222 148Q255 106 315 106Q348 106 372 118T411 153T434 205T442 272Q442 287 441 301T435 329L222 148ZM632 495L554 430Q575 397 586 356T598 266Q598 199 577 147T519 59T429 5T315 -14Q253 -14 202 4T114 57L40 -6L-2 41L74 105Q54 137 43 177T32 266Q32 333 53 385T111 473T201 527T315 546Q437 546 514 477L590 542L632 495ZM407 387Q392 405 369 415T315 426Q282 426 258 414T219 381T196 330T188 266Q188 234 194 207L407 387Z"  />
<glyph unicode="&#xF9;" horiz-adv-x="611" d="M541 0H385V47Q370 29 351 18T311 -1T270 -11T231 -14Q184 -14 153 -2T104 32T78 81T70 139V532H226V184Q226 149 241 131T302 112Q336 112 360 131T385 195V532H541V0ZM400 592H280L120 742H301L400 592Z"  />
<glyph unicode="&#xFA;" horiz-adv-x="611" d="M541 0H385V47Q370 29 351 18T311 -1T270 -11T231 -14Q184 -14 153 -2T104 32T78 81T70 139V532H226V184Q226 149 241 131T302 112Q336 112 360 131T385 195V532H541V0ZM309 742H490L330 592H210L309 742Z"  />
<glyph unicode="&#xFB;" horiz-adv-x="611" d="M541 0H385V47Q370 29 351 18T311 -1T270 -11T231 -14Q184 -14 153 -2T104 32T78 81T70 139V532H226V184Q226 149 241 131T302 112Q336 112 360 131T385 195V532H541V0ZM382 742L497 592H366L305 674L243 592H115L229 742H382Z"  />
<glyph unicode="&#xFC;" horiz-adv-x="611" d="M541 0H385V47Q370 29 351 18T311 -1T270 -11T231 -14Q184 -14 153 -2T104 32T78 81T70 139V532H226V184Q226 149 241 131T302 112Q336 112 360 131T385 195V532H541V0ZM125 602V728H275V602H125ZM337 602V728H487V602H337Z"  />
<glyph unicode="&#xFD;" horiz-adv-x="500" d="M41 -54Q55 -55 68 -55T94 -56Q129 -56 147 -48T166 -17Q166 -11 164 -1T152 40L-4 532H160L246 126H248L335 532H504L317 -35Q307 -65 295 -91T265 -136T223 -165T164 -176H41V-54ZM209 742H390L230 592H110L209 742Z"  />
<glyph unicode="&#xFE;" horiz-adv-x="611" d="M423 266Q423 304 418 335T401 387T367 420T315 432Q285 432 265 419T231 384T213 331T207 266Q207 232 212 202T231 149T264 113T315 100Q345 100 365 113T399 148T417 201T423 266ZM63 712H219V503Q241 520 273 533T348 546Q400 546 442 529T515 479T562 397T579 284Q579 134 516 60T345 -14Q327 -14 307 -10T270 2T240 17T221 34H219V-176H63V712Z"  />
<glyph unicode="&#xFF;" horiz-adv-x="500" d="M41 -54Q55 -55 68 -55T94 -56Q129 -56 147 -48T166 -17Q166 -11 164 -1T152 40L-4 532H160L246 126H248L335 532H504L317 -35Q307 -65 295 -91T265 -136T223 -165T164 -176H41V-54ZM67 602V728H217V602H67ZM279 602V728H429V602H279Z"  />
<glyph unicode="&#x131;" horiz-adv-x="296" d="M226 532V0H70V532H226Z"  />
<glyph unicode="&#x152;" horiz-adv-x="1111" d="M507 550Q483 567 455 573T407 580Q366 580 332 569T271 531T231 461T216 356Q216 302 229 261T265 191T321 147T393 132Q424 132 451 138T507 159V550ZM1043 574H685V444H1020V306H685V138H1073V0H507V23Q495 16 478 11T441 2T402 -4T370 -6Q296 -6 235 18T131 87T63 197T38 343Q38 432 62 501T129 619T234 692T369 718Q414 718 446 709T507 682V712H1043V574Z"  />
<glyph unicode="&#x153;" horiz-adv-x="944" d="M750 330Q749 353 741 372T719 404T689 425T655 432Q607 432 583 405T556 330H750ZM299 426Q266 426 245 410T211 370T193 316T188 259Q188 186 217 146T301 106Q353 106 379 148T406 273Q406 351 380 388T299 426ZM556 234Q556 207 565 184T590 143T628 116T676 106Q720 106 746 130T793 194L912 130Q894 100 869 74T812 28T744 -3T667 -14Q631 -14 603 -8T553 9T512 33T478 62Q438 20 391 3T295 -14Q252 -14 206 -2T121 41T57 127T32 266Q32 343 54 396T114 483T198 531T295 546Q352 546 393 530T477 480Q511 510 556 528T652 546Q719 546 769 522T851 456T898 362T912 254V234H556Z"  />
<glyph unicode="&#x160;" horiz-adv-x="685" d="M138 213Q185 171 232 148T344 124Q362 124 385 128T428 141T463 167T477 206Q477 233 457 247T397 269L249 293Q149 309 97 359T45 489Q45 553 69 599T133 675T226 718T336 732Q425 732 507 697T650 595L515 498Q480 541 431 564T324 588Q309 588 291 583T258 569T233 547T223 516Q223 487 247 472T322 448L390 437Q443 428 490 415T572 378T628 320T649 234Q649 154 617 104T536 27T430 -10T323 -20Q232 -20 154 12T2 125L138 213ZM265 763L151 913H279L341 831L402 913H533L418 763H265Z"  />
<glyph unicode="&#x161;" horiz-adv-x="556" d="M415 375Q403 389 386 399T348 417T307 428T268 432Q239 432 220 422T201 391Q201 368 224 357T283 339T358 324T434 300T492 255T516 176Q516 123 495 87T440 29T362 -4T276 -14Q232 -14 197 -8T132 11T73 44T16 91L113 175Q149 140 188 120T281 100Q291 100 305 101T333 109T356 125T366 154Q366 175 343 185T284 202T209 217T133 241T75 285T51 360Q51 410 71 445T123 503T195 536T276 546Q338 546 397 526T511 469L415 375ZM201 592L87 742H215L277 660L338 742H469L354 592H201Z"  />
<glyph unicode="&#x178;" horiz-adv-x="722" d="M272 332L2 712H210L361 466L512 712H720L450 332V0H272V332ZM181 773V899H331V773H181ZM393 773V899H543V773H393Z"  />
<glyph unicode="&#x17D;" horiz-adv-x="685" d="M647 138V0H36V133L432 574H67V712H649V573L258 138H647ZM266 763L152 913H280L342 831L403 913H534L419 763H266Z"  />
<glyph unicode="&#x17E;" horiz-adv-x="574" d="M77 532H528V406L245 120H526V0H46V126L329 412H77V532ZM211 592L97 742H225L287 660L348 742H479L364 592H211Z"  />
<glyph unicode="&#x192;" horiz-adv-x="556" d="M488 549Q474 554 463 556T441 558Q416 558 393 539T363 471L351 377H473L461 275H338L309 29Q302 -33 286 -74T245 -140T191 -175T124 -186Q100 -186 76 -183T30 -168L44 -39Q51 -44 64 -46T91 -48Q113 -46 132 -33T157 14L190 275H79L93 377H203L225 548Q231 594 252 622T299 667T351 690T394 696Q453 696 506 678L488 549Z"  />
<glyph unicode="&#x2C6;" horiz-adv-x="278" d="M215 742L330 592H199L138 674L76 592H-52L62 742H215Z"  />
<glyph unicode="&#x2C7;" horiz-adv-x="278" d="M62 592L-52 742H76L138 660L199 742H330L215 592H62Z"  />
<glyph unicode="&#x2DA;" horiz-adv-x="278" d="M191 692Q191 713 176 728T139 744Q118 744 103 728T87 692Q87 672 102 656T139 640Q160 640 175 655T191 692ZM251 692Q251 669 242 649T218 613T183 589T139 580Q116 580 96 589T60 613T36 648T27 692Q27 715 36 735T60 771T95 795T139 804Q162 804 182 795T218 771T242 736T251 692Z"  />
<glyph unicode="&#x2DC;" horiz-adv-x="278" d="M-50 598Q-47 621 -38 644T-13 687Q2 707 23 718T71 730Q91 730 111 724T151 710Q170 702 187 696T215 690Q233 690 243 701T258 730H328Q326 712 320 690T301 648T265 616T209 603Q184 603 164 609T126 621T94 634T65 640Q47 640 36 627T21 598H-50Z"  />
<glyph unicode="&#x2013;" horiz-adv-x="500" d="M0 207V345H500V207H0Z"  />
<glyph unicode="&#x2014;" horiz-adv-x="1000" d="M130 345H870V207H130V345Z"  />
<glyph unicode="&#x2018;" horiz-adv-x="278" d="M217 639Q199 634 187 624T167 599T157 568T154 536H220V368H58V536Q58 574 70 604T105 655T155 691T217 712V639Z"  />
<glyph unicode="&#x2019;" horiz-adv-x="278" d="M61 441Q79 446 91 456T111 481T121 512T124 544H58V712H220V544Q220 506 208 476T173 425T123 389T61 368V441Z"  />
<glyph unicode="&#x201A;" horiz-adv-x="278" d="M61 -103Q79 -98 91 -88T111 -63T121 -32T124 0H58V168H220V0Q220 -38 208 -68T173 -119T123 -155T61 -176V-103Z"  />
<glyph unicode="&#x201C;" horiz-adv-x="481" d="M435 639Q417 634 405 624T385 599T375 568T372 536H438V368H276V536Q276 574 288 604T323 655T373 691T435 712V639ZM202 639Q184 634 172 624T152 599T142 568T139 536H205V368H43V536Q43 574 55 604T90 655T140 691T202 712V639Z"  />
<glyph unicode="&#x201D;" horiz-adv-x="481" d="M279 441Q297 446 309 456T329 481T339 512T342 544H276V712H438V544Q438 506 426 476T391 425T341 389T279 368V441ZM46 441Q64 446 76 456T96 481T106 512T109 544H43V712H205V544Q205 506 193 476T158 425T108 389T46 368V441Z"  />
<glyph unicode="&#x201E;" horiz-adv-x="481" d="M279 -103Q297 -98 309 -88T329 -63T339 -32T342 0H276V168H438V0Q438 -38 426 -68T391 -119T341 -155T279 -176V-103ZM46 -103Q64 -98 76 -88T96 -63T106 -32T109 0H43V168H205V0Q205 -38 193 -68T158 -119T108 -155T46 -176V-103Z"  />
<glyph unicode="&#x2020;" horiz-adv-x="556" d="M209 346H23V478H209V712H347V478H533V346H347V-124H209V346Z"  />
<glyph unicode="&#x2021;" horiz-adv-x="556" d="M209 59H48V185H209V417H48V543H209V712H347V543H508V417H347V185H508V59H347V-124H209V59Z"  />
<glyph unicode="&#x2022;" horiz-adv-x="500" d="M72 356Q72 393 86 425T124 482T180 520T250 534Q287 534 319 520T376 482T414 426T428 356Q428 319 414 287T376 230T320 192T250 178Q213 178 181 192T124 230T86 286T72 356Z"  />
<glyph unicode="&#x2026;" horiz-adv-x="1000" d="M749 168H911V0H749V168ZM419 168H581V0H419V168ZM89 168H251V0H89V168Z"  />
<glyph unicode="&#x2030;" horiz-adv-x="1000" d="M845 70Q871 70 881 94T892 166Q892 208 879 235T845 262Q827 262 813 242T798 166Q798 110 811 90T845 70ZM845 -14Q814 -14 789 -1T746 36T718 93T708 166Q708 217 720 251T753 307T797 337T845 346Q871 346 895 337T939 307T970 252T982 166Q982 115 970 81T938 25T894 -5T845 -14ZM155 336Q124 336 99 349T56 386T28 443T18 516Q18 567 30 601T63 657T107 687T155 696Q181 696 205 687T249 657T280 602T292 516Q292 465 280 431T248 375T204 345T155 336ZM525 -14Q494 -14 469 -1T426 36T398 93T388 166Q388 217 400 251T433 307T477 337T525 346Q551 346 575 337T619 307T650 252T662 166Q662 115 650 81T618 25T574 -5T525 -14ZM155 420Q181 420 191 444T202 516Q202 558 189 585T155 612Q137 612 123 592T108 516Q108 460 121 440T155 420ZM525 70Q551 70 561 94T572 166Q572 208 559 235T525 262Q507 262 493 242T478 166Q478 110 491 90T525 70ZM511 721L570 696L180 -39L122 -14L511 721Z"  />
<glyph unicode="&#x2039;" horiz-adv-x="222" d="M39 338L183 452V324L123 276L183 228V100L39 214V338Z"  />
<glyph unicode="&#x203A;" horiz-adv-x="222" d="M183 214L39 100V228L99 276L39 324V452L183 338V214Z"  />
<glyph unicode="&#x20AC;" horiz-adv-x="556" d="M483 448L449 357H263Q262 353 262 348Q262 343 262 337Q262 327 262 320Q262 313 263 308H434L401 216H284Q290 176 323 149Q355 121 399 121Q455 121 523 169V16Q461 -14 376 -14Q274 -14 201 49Q127 114 103 216H29L62 308H86Q85 312 85 319Q85 326 85 336Q85 352 86 357H28L60 448H98Q127 565 201 630Q276 696 380 696Q465 696 557 643L510 521Q454 561 391 561Q353 561 319 529Q284 496 277 448H483Z"  />
<glyph unicode="&#x2122;" horiz-adv-x="1000" d="M814 568H812L721 300H633L542 568H540V300H432V712H588L677 472L766 712H922V300H814V568ZM130 622H18V712H362V622H250V300H130V622Z"  />
<glyph unicode="&#xE300;" horiz-adv-x="316" d="M253 763H133L-27 913H154L253 763Z"  />
<glyph unicode="&#xE301;" horiz-adv-x="316" d="M162 913H343L183 763H63L162 913Z"  />
<glyph unicode="&#xE302;" horiz-adv-x="316" d="M234 913L349 763H218L157 845L95 763H-33L81 913H234Z"  />
<glyph unicode="&#xE303;" horiz-adv-x="316" d="M82 763L-32 913H96L158 831L219 913H350L235 763H82Z"  />
<glyph unicode="&#xE304;" horiz-adv-x="316" d="M-31 769Q-28 792 -19 815T6 858Q21 878 42 889T90 901Q110 901 130 895T170 881Q189 873 206 867T234 861Q252 861 262 872T277 901H347Q345 883 339 861T320 819T284 787T228 774Q203 774 183 780T145 792T113 805T84 811Q66 811 55 798T40 769H-31Z"  />
<glyph unicode="&#xE305;" horiz-adv-x="316" d="M-23 773V899H127V773H-23ZM189 773V899H339V773H189Z"  />
<glyph unicode="&#xE308;" horiz-adv-x="316" d="M211 844Q211 865 196 880T159 896Q138 896 123 880T107 844Q107 824 122 808T159 792Q180 792 195 807T211 844ZM271 844Q271 821 262 801T238 765T203 741T159 732Q136 732 116 741T80 765T56 800T47 844Q47 867 56 887T80 923T115 947T159 956Q182 956 202 947T238 923T262 888T271 844Z"  />

<hkern u1="A" u2="T" k="74" />
<hkern u1="A" u2="V" k="74" />
<hkern u1="A" u2="W" k="55" />
<hkern u1="A" u2="Y" k="111" />
<hkern u1="A" u2="v" k="37" />
<hkern u1="A" u2="w" k="37" />
<hkern u1="A" u2="y" k="37" />
<hkern u1="A" u2="&#xdd;" k="111" />
<hkern u1="A" u2="&#xfd;" k="37" />
<hkern u1="A" u2="&#xff;" k="37" />
<hkern u1="A" u2="&#x178;" k="111" />
<hkern u1="A" u2="&#x2019;" k="92" />
<hkern u1="F" u2="&#x2c;" k="129" />
<hkern u1="F" u2="." k="129" />
<hkern u1="F" u2="A" k="55" />
<hkern u1="F" u2="&#xc0;" k="55" />
<hkern u1="F" u2="&#xc1;" k="55" />
<hkern u1="F" u2="&#xc2;" k="55" />
<hkern u1="F" u2="&#xc3;" k="55" />
<hkern u1="F" u2="&#xc4;" k="55" />
<hkern u1="F" u2="&#xc5;" k="55" />
<hkern u1="L" u2="T" k="92" />
<hkern u1="L" u2="V" k="92" />
<hkern u1="L" u2="W" k="92" />
<hkern u1="L" u2="Y" k="129" />
<hkern u1="L" u2="y" k="37" />
<hkern u1="L" u2="&#xdd;" k="129" />
<hkern u1="L" u2="&#xfd;" k="37" />
<hkern u1="L" u2="&#xff;" k="37" />
<hkern u1="L" u2="&#x178;" k="129" />
<hkern u1="L" u2="&#x2019;" k="111" />
<hkern u1="P" u2="&#x2c;" k="129" />
<hkern u1="P" u2="." k="129" />
<hkern u1="P" u2="A" k="55" />
<hkern u1="P" u2="&#xc0;" k="55" />
<hkern u1="P" u2="&#xc1;" k="55" />
<hkern u1="P" u2="&#xc2;" k="55" />
<hkern u1="P" u2="&#xc3;" k="55" />
<hkern u1="P" u2="&#xc4;" k="55" />
<hkern u1="P" u2="&#xc5;" k="55" />
<hkern u1="R" u2="T" k="18" />
<hkern u1="R" u2="W" k="18" />
<hkern u1="R" u2="Y" k="37" />
<hkern u1="R" u2="&#xdd;" k="37" />
<hkern u1="R" u2="&#x178;" k="37" />
<hkern u1="T" u2="&#x2c;" k="92" />
<hkern u1="T" u2="-" k="92" />
<hkern u1="T" u2="." k="92" />
<hkern u1="T" u2=":" k="55" />
<hkern u1="T" u2=";" k="55" />
<hkern u1="T" u2="A" k="74" />
<hkern u1="T" u2="a" k="74" />
<hkern u1="T" u2="c" k="74" />
<hkern u1="T" u2="e" k="74" />
<hkern u1="T" u2="i" k="55" />
<hkern u1="T" u2="o" k="74" />
<hkern u1="T" u2="r" k="74" />
<hkern u1="T" u2="s" k="74" />
<hkern u1="T" u2="u" k="74" />
<hkern u1="T" u2="w" k="74" />
<hkern u1="T" u2="y" k="74" />
<hkern u1="T" u2="&#xc0;" k="74" />
<hkern u1="T" u2="&#xc1;" k="74" />
<hkern u1="T" u2="&#xc2;" k="74" />
<hkern u1="T" u2="&#xc3;" k="74" />
<hkern u1="T" u2="&#xc4;" k="74" />
<hkern u1="T" u2="&#xc5;" k="74" />
<hkern u1="T" u2="&#xe0;" k="74" />
<hkern u1="T" u2="&#xe1;" k="74" />
<hkern u1="T" u2="&#xe2;" k="74" />
<hkern u1="T" u2="&#xe3;" k="74" />
<hkern u1="T" u2="&#xe4;" k="74" />
<hkern u1="T" u2="&#xe5;" k="74" />
<hkern u1="T" u2="&#xe7;" k="74" />
<hkern u1="T" u2="&#xe8;" k="74" />
<hkern u1="T" u2="&#xe9;" k="74" />
<hkern u1="T" u2="&#xea;" k="74" />
<hkern u1="T" u2="&#xeb;" k="74" />
<hkern u1="T" u2="&#xf2;" k="74" />
<hkern u1="T" u2="&#xf3;" k="74" />
<hkern u1="T" u2="&#xf4;" k="74" />
<hkern u1="T" u2="&#xf5;" k="74" />
<hkern u1="T" u2="&#xf6;" k="74" />
<hkern u1="T" u2="&#xf9;" k="74" />
<hkern u1="T" u2="&#xfa;" k="74" />
<hkern u1="T" u2="&#xfb;" k="74" />
<hkern u1="T" u2="&#xfc;" k="74" />
<hkern u1="T" u2="&#xfd;" k="74" />
<hkern u1="T" u2="&#xff;" k="74" />
<hkern u1="T" u2="&#x161;" k="74" />
<hkern u1="V" u2="&#x2c;" k="111" />
<hkern u1="V" u2="-" k="74" />
<hkern u1="V" u2="." k="111" />
<hkern u1="V" u2=":" k="55" />
<hkern u1="V" u2=";" k="55" />
<hkern u1="V" u2="A" k="74" />
<hkern u1="V" u2="a" k="74" />
<hkern u1="V" u2="e" k="74" />
<hkern u1="V" u2="i" k="37" />
<hkern u1="V" u2="o" k="74" />
<hkern u1="V" u2="r" k="55" />
<hkern u1="V" u2="u" k="55" />
<hkern u1="V" u2="y" k="37" />
<hkern u1="V" u2="&#xc0;" k="74" />
<hkern u1="V" u2="&#xc1;" k="74" />
<hkern u1="V" u2="&#xc2;" k="74" />
<hkern u1="V" u2="&#xc3;" k="74" />
<hkern u1="V" u2="&#xc4;" k="74" />
<hkern u1="V" u2="&#xc5;" k="74" />
<hkern u1="V" u2="&#xe0;" k="74" />
<hkern u1="V" u2="&#xe1;" k="74" />
<hkern u1="V" u2="&#xe2;" k="74" />
<hkern u1="V" u2="&#xe3;" k="74" />
<hkern u1="V" u2="&#xe4;" k="74" />
<hkern u1="V" u2="&#xe5;" k="74" />
<hkern u1="V" u2="&#xe8;" k="74" />
<hkern u1="V" u2="&#xe9;" k="74" />
<hkern u1="V" u2="&#xea;" k="74" />
<hkern u1="V" u2="&#xeb;" k="74" />
<hkern u1="V" u2="&#xf2;" k="74" />
<hkern u1="V" u2="&#xf3;" k="74" />
<hkern u1="V" u2="&#xf4;" k="74" />
<hkern u1="V" u2="&#xf5;" k="74" />
<hkern u1="V" u2="&#xf6;" k="74" />
<hkern u1="V" u2="&#xf9;" k="55" />
<hkern u1="V" u2="&#xfa;" k="55" />
<hkern u1="V" u2="&#xfb;" k="55" />
<hkern u1="V" u2="&#xfc;" k="55" />
<hkern u1="V" u2="&#xfd;" k="37" />
<hkern u1="V" u2="&#xff;" k="37" />
<hkern u1="W" u2="&#x2c;" k="55" />
<hkern u1="W" u2="-" k="37" />
<hkern u1="W" u2="." k="55" />
<hkern u1="W" u2=":" k="18" />
<hkern u1="W" u2=";" k="18" />
<hkern u1="W" u2="A" k="55" />
<hkern u1="W" u2="a" k="37" />
<hkern u1="W" u2="e" k="37" />
<hkern u1="W" u2="i" k="18" />
<hkern u1="W" u2="o" k="37" />
<hkern u1="W" u2="r" k="37" />
<hkern u1="W" u2="u" k="37" />
<hkern u1="W" u2="y" k="18" />
<hkern u1="W" u2="&#xc0;" k="55" />
<hkern u1="W" u2="&#xc1;" k="55" />
<hkern u1="W" u2="&#xc2;" k="55" />
<hkern u1="W" u2="&#xc3;" k="55" />
<hkern u1="W" u2="&#xc4;" k="55" />
<hkern u1="W" u2="&#xc5;" k="55" />
<hkern u1="W" u2="&#xe0;" k="37" />
<hkern u1="W" u2="&#xe1;" k="37" />
<hkern u1="W" u2="&#xe2;" k="37" />
<hkern u1="W" u2="&#xe3;" k="37" />
<hkern u1="W" u2="&#xe4;" k="37" />
<hkern u1="W" u2="&#xe5;" k="37" />
<hkern u1="W" u2="&#xe8;" k="37" />
<hkern u1="W" u2="&#xe9;" k="37" />
<hkern u1="W" u2="&#xea;" k="37" />
<hkern u1="W" u2="&#xeb;" k="37" />
<hkern u1="W" u2="&#xf2;" k="37" />
<hkern u1="W" u2="&#xf3;" k="37" />
<hkern u1="W" u2="&#xf4;" k="37" />
<hkern u1="W" u2="&#xf5;" k="37" />
<hkern u1="W" u2="&#xf6;" k="37" />
<hkern u1="W" u2="&#xf9;" k="37" />
<hkern u1="W" u2="&#xfa;" k="37" />
<hkern u1="W" u2="&#xfb;" k="37" />
<hkern u1="W" u2="&#xfc;" k="37" />
<hkern u1="W" u2="&#xfd;" k="18" />
<hkern u1="W" u2="&#xff;" k="18" />
<hkern u1="Y" u2="&#x2c;" k="129" />
<hkern u1="Y" u2="-" k="129" />
<hkern u1="Y" u2="." k="129" />
<hkern u1="Y" u2=":" k="92" />
<hkern u1="Y" u2=";" k="92" />
<hkern u1="Y" u2="A" k="111" />
<hkern u1="Y" u2="a" k="111" />
<hkern u1="Y" u2="e" k="111" />
<hkern u1="Y" u2="i" k="55" />
<hkern u1="Y" u2="o" k="111" />
<hkern u1="Y" u2="p" k="92" />
<hkern u1="Y" u2="q" k="111" />
<hkern u1="Y" u2="u" k="92" />
<hkern u1="Y" u2="v" k="74" />
<hkern u1="Y" u2="&#xc0;" k="111" />
<hkern u1="Y" u2="&#xc1;" k="111" />
<hkern u1="Y" u2="&#xc2;" k="111" />
<hkern u1="Y" u2="&#xc3;" k="111" />
<hkern u1="Y" u2="&#xc4;" k="111" />
<hkern u1="Y" u2="&#xc5;" k="111" />
<hkern u1="Y" u2="&#xe0;" k="111" />
<hkern u1="Y" u2="&#xe1;" k="111" />
<hkern u1="Y" u2="&#xe2;" k="111" />
<hkern u1="Y" u2="&#xe3;" k="111" />
<hkern u1="Y" u2="&#xe4;" k="111" />
<hkern u1="Y" u2="&#xe5;" k="111" />
<hkern u1="Y" u2="&#xe8;" k="111" />
<hkern u1="Y" u2="&#xe9;" k="111" />
<hkern u1="Y" u2="&#xea;" k="111" />
<hkern u1="Y" u2="&#xeb;" k="111" />
<hkern u1="Y" u2="&#xf2;" k="111" />
<hkern u1="Y" u2="&#xf3;" k="111" />
<hkern u1="Y" u2="&#xf4;" k="111" />
<hkern u1="Y" u2="&#xf5;" k="111" />
<hkern u1="Y" u2="&#xf6;" k="111" />
<hkern u1="Y" u2="&#xf9;" k="92" />
<hkern u1="Y" u2="&#xfa;" k="92" />
<hkern u1="Y" u2="&#xfb;" k="92" />
<hkern u1="Y" u2="&#xfc;" k="92" />
<hkern u1="r" u2="&#x2c;" k="74" />
<hkern u1="r" u2="-" k="55" />
<hkern u1="r" u2="." k="74" />
<hkern u1="v" u2="&#x2c;" k="55" />
<hkern u1="v" u2="." k="55" />
<hkern u1="w" u2="&#x2c;" k="55" />
<hkern u1="w" u2="." k="55" />
<hkern u1="y" u2="&#x2c;" k="55" />
<hkern u1="y" u2="." k="55" />
<hkern u1="&#xc0;" u2="T" k="74" />
<hkern u1="&#xc0;" u2="V" k="74" />
<hkern u1="&#xc0;" u2="W" k="55" />
<hkern u1="&#xc0;" u2="Y" k="111" />
<hkern u1="&#xc0;" u2="v" k="37" />
<hkern u1="&#xc0;" u2="w" k="37" />
<hkern u1="&#xc0;" u2="y" k="37" />
<hkern u1="&#xc0;" u2="&#xdd;" k="111" />
<hkern u1="&#xc0;" u2="&#xfd;" k="37" />
<hkern u1="&#xc0;" u2="&#xff;" k="37" />
<hkern u1="&#xc0;" u2="&#x178;" k="111" />
<hkern u1="&#xc0;" u2="&#x2019;" k="92" />
<hkern u1="&#xc1;" u2="T" k="74" />
<hkern u1="&#xc1;" u2="V" k="74" />
<hkern u1="&#xc1;" u2="W" k="55" />
<hkern u1="&#xc1;" u2="Y" k="111" />
<hkern u1="&#xc1;" u2="v" k="37" />
<hkern u1="&#xc1;" u2="w" k="37" />
<hkern u1="&#xc1;" u2="y" k="37" />
<hkern u1="&#xc1;" u2="&#xdd;" k="111" />
<hkern u1="&#xc1;" u2="&#xfd;" k="37" />
<hkern u1="&#xc1;" u2="&#xff;" k="37" />
<hkern u1="&#xc1;" u2="&#x178;" k="111" />
<hkern u1="&#xc1;" u2="&#x2019;" k="92" />
<hkern u1="&#xc2;" u2="T" k="74" />
<hkern u1="&#xc2;" u2="V" k="74" />
<hkern u1="&#xc2;" u2="W" k="55" />
<hkern u1="&#xc2;" u2="Y" k="111" />
<hkern u1="&#xc2;" u2="v" k="37" />
<hkern u1="&#xc2;" u2="w" k="37" />
<hkern u1="&#xc2;" u2="y" k="37" />
<hkern u1="&#xc2;" u2="&#xdd;" k="111" />
<hkern u1="&#xc2;" u2="&#xfd;" k="37" />
<hkern u1="&#xc2;" u2="&#xff;" k="37" />
<hkern u1="&#xc2;" u2="&#x178;" k="111" />
<hkern u1="&#xc2;" u2="&#x2019;" k="92" />
<hkern u1="&#xc3;" u2="T" k="74" />
<hkern u1="&#xc3;" u2="V" k="74" />
<hkern u1="&#xc3;" u2="W" k="55" />
<hkern u1="&#xc3;" u2="Y" k="111" />
<hkern u1="&#xc3;" u2="v" k="37" />
<hkern u1="&#xc3;" u2="w" k="37" />
<hkern u1="&#xc3;" u2="y" k="37" />
<hkern u1="&#xc3;" u2="&#xdd;" k="111" />
<hkern u1="&#xc3;" u2="&#xfd;" k="37" />
<hkern u1="&#xc3;" u2="&#xff;" k="37" />
<hkern u1="&#xc3;" u2="&#x178;" k="111" />
<hkern u1="&#xc3;" u2="&#x2019;" k="92" />
<hkern u1="&#xc4;" u2="T" k="74" />
<hkern u1="&#xc4;" u2="V" k="74" />
<hkern u1="&#xc4;" u2="W" k="55" />
<hkern u1="&#xc4;" u2="Y" k="111" />
<hkern u1="&#xc4;" u2="v" k="37" />
<hkern u1="&#xc4;" u2="w" k="37" />
<hkern u1="&#xc4;" u2="y" k="37" />
<hkern u1="&#xc4;" u2="&#xdd;" k="111" />
<hkern u1="&#xc4;" u2="&#xfd;" k="37" />
<hkern u1="&#xc4;" u2="&#xff;" k="37" />
<hkern u1="&#xc4;" u2="&#x178;" k="111" />
<hkern u1="&#xc4;" u2="&#x2019;" k="92" />
<hkern u1="&#xc5;" u2="T" k="74" />
<hkern u1="&#xc5;" u2="V" k="74" />
<hkern u1="&#xc5;" u2="W" k="55" />
<hkern u1="&#xc5;" u2="Y" k="111" />
<hkern u1="&#xc5;" u2="v" k="37" />
<hkern u1="&#xc5;" u2="w" k="37" />
<hkern u1="&#xc5;" u2="y" k="37" />
<hkern u1="&#xc5;" u2="&#xdd;" k="111" />
<hkern u1="&#xc5;" u2="&#xfd;" k="37" />
<hkern u1="&#xc5;" u2="&#xff;" k="37" />
<hkern u1="&#xc5;" u2="&#x178;" k="111" />
<hkern u1="&#xc5;" u2="&#x2019;" k="92" />
<hkern u1="&#xdd;" u2="&#x2c;" k="129" />
<hkern u1="&#xdd;" u2="-" k="129" />
<hkern u1="&#xdd;" u2="." k="129" />
<hkern u1="&#xdd;" u2=":" k="92" />
<hkern u1="&#xdd;" u2=";" k="92" />
<hkern u1="&#xdd;" u2="A" k="111" />
<hkern u1="&#xdd;" u2="a" k="111" />
<hkern u1="&#xdd;" u2="e" k="111" />
<hkern u1="&#xdd;" u2="i" k="55" />
<hkern u1="&#xdd;" u2="o" k="111" />
<hkern u1="&#xdd;" u2="p" k="92" />
<hkern u1="&#xdd;" u2="q" k="111" />
<hkern u1="&#xdd;" u2="u" k="92" />
<hkern u1="&#xdd;" u2="v" k="74" />
<hkern u1="&#xdd;" u2="&#xc0;" k="111" />
<hkern u1="&#xdd;" u2="&#xc1;" k="111" />
<hkern u1="&#xdd;" u2="&#xc2;" k="111" />
<hkern u1="&#xdd;" u2="&#xc3;" k="111" />
<hkern u1="&#xdd;" u2="&#xc4;" k="111" />
<hkern u1="&#xdd;" u2="&#xc5;" k="111" />
<hkern u1="&#xdd;" u2="&#xe0;" k="111" />
<hkern u1="&#xdd;" u2="&#xe1;" k="111" />
<hkern u1="&#xdd;" u2="&#xe2;" k="111" />
<hkern u1="&#xdd;" u2="&#xe3;" k="111" />
<hkern u1="&#xdd;" u2="&#xe4;" k="111" />
<hkern u1="&#xdd;" u2="&#xe5;" k="111" />
<hkern u1="&#xdd;" u2="&#xe8;" k="111" />
<hkern u1="&#xdd;" u2="&#xe9;" k="111" />
<hkern u1="&#xdd;" u2="&#xea;" k="111" />
<hkern u1="&#xdd;" u2="&#xeb;" k="111" />
<hkern u1="&#xdd;" u2="&#xf2;" k="111" />
<hkern u1="&#xdd;" u2="&#xf3;" k="111" />
<hkern u1="&#xdd;" u2="&#xf4;" k="111" />
<hkern u1="&#xdd;" u2="&#xf5;" k="111" />
<hkern u1="&#xdd;" u2="&#xf6;" k="111" />
<hkern u1="&#xdd;" u2="&#xf9;" k="92" />
<hkern u1="&#xdd;" u2="&#xfa;" k="92" />
<hkern u1="&#xdd;" u2="&#xfb;" k="92" />
<hkern u1="&#xdd;" u2="&#xfc;" k="92" />
<hkern u1="&#xfd;" u2="&#x2c;" k="55" />
<hkern u1="&#xfd;" u2="." k="55" />
<hkern u1="&#xff;" u2="&#x2c;" k="55" />
<hkern u1="&#xff;" u2="." k="55" />
<hkern u1="&#x178;" u2="&#x2c;" k="129" />
<hkern u1="&#x178;" u2="-" k="129" />
<hkern u1="&#x178;" u2="." k="129" />
<hkern u1="&#x178;" u2=":" k="92" />
<hkern u1="&#x178;" u2=";" k="92" />
<hkern u1="&#x178;" u2="A" k="111" />
<hkern u1="&#x178;" u2="a" k="111" />
<hkern u1="&#x178;" u2="e" k="111" />
<hkern u1="&#x178;" u2="i" k="55" />
<hkern u1="&#x178;" u2="o" k="111" />
<hkern u1="&#x178;" u2="p" k="92" />
<hkern u1="&#x178;" u2="q" k="111" />
<hkern u1="&#x178;" u2="u" k="92" />
<hkern u1="&#x178;" u2="v" k="74" />
<hkern u1="&#x178;" u2="&#xc0;" k="111" />
<hkern u1="&#x178;" u2="&#xc1;" k="111" />
<hkern u1="&#x178;" u2="&#xc2;" k="111" />
<hkern u1="&#x178;" u2="&#xc3;" k="111" />
<hkern u1="&#x178;" u2="&#xc4;" k="111" />
<hkern u1="&#x178;" u2="&#xc5;" k="111" />
<hkern u1="&#x178;" u2="&#xe0;" k="111" />
<hkern u1="&#x178;" u2="&#xe1;" k="111" />
<hkern u1="&#x178;" u2="&#xe2;" k="111" />
<hkern u1="&#x178;" u2="&#xe3;" k="111" />
<hkern u1="&#x178;" u2="&#xe4;" k="111" />
<hkern u1="&#x178;" u2="&#xe5;" k="111" />
<hkern u1="&#x178;" u2="&#xe8;" k="111" />
<hkern u1="&#x178;" u2="&#xe9;" k="111" />
<hkern u1="&#x178;" u2="&#xea;" k="111" />
<hkern u1="&#x178;" u2="&#xeb;" k="111" />
<hkern u1="&#x178;" u2="&#xf2;" k="111" />
<hkern u1="&#x178;" u2="&#xf3;" k="111" />
<hkern u1="&#x178;" u2="&#xf4;" k="111" />
<hkern u1="&#x178;" u2="&#xf5;" k="111" />
<hkern u1="&#x178;" u2="&#xf6;" k="111" />
<hkern u1="&#x178;" u2="&#xf9;" k="92" />
<hkern u1="&#x178;" u2="&#xfa;" k="92" />
<hkern u1="&#x178;" u2="&#xfb;" k="92" />
<hkern u1="&#x178;" u2="&#xfc;" k="92" />
<hkern u1="&#x2018;" u2="&#x2018;" k="45" />
<hkern u1="&#x2019;" u2="s" k="55" />
<hkern u1="&#x2019;" u2="&#x161;" k="55" />
<hkern u1="&#x2019;" u2="&#x2019;" k="45" />

</font>
</defs>
<text x="40" y="40" font-family="Basic Commercial W01 Blk" font-size="30" fill="#933" >ABCDEFGHIJKLMNOPQRSTUVWXYZ abcdefghijklmnopqrstuvwxyz AÁÀÂÄÅÃÆ CÇ DÐ EÉÈÊË I Í Ì Î Ï NÑ</text>
<text x="40" y="80" font-family="Basic Commercial W01 Blk" font-size="30" fill="#933" >OÓÒÔÖÕØŒ SŠ UÚÙÛÜ YÝŸ ZŽ Þ aáàâäåãæ cç dð eéèêë i ı í ì î ï nñ oóòôöõøœ sšß uúùûü yýÿ zž</text>
<text x="40" y="120" font-family="Basic Commercial W01 Blk" font-size="30" fill="#933" >þ 1234567890 ½ ¼ ¾ % ‰ $¢£¥ƒ€¤ † ‡ § ¶ # ^~µ +×± &lt; = &gt; ÷¬ !¡?¿ &quot; &amp; &apos; * ° . , : ; () [ \ ] {} / |</text>
<text x="40" y="160" font-family="Basic Commercial W01 Blk" font-size="30" fill="#933" >¦ _ ‚ „ … ‹› «» ‘ ’ “ ” • ­ - – — @ © ® ™ ªº ¹²³ ´ ` ˆ ˜ ¨ ¯ · ¸</text>
</svg>
